<svg width="269" height="206" viewBox="0 0 269 206" fill="none" xmlns="http://www.w3.org/2000/svg">
<g clip-path="url(#clip0)">
<path opacity="0.3" d="M208.54 152.795C206.83 156.729 193.877 155.254 179.458 149.353C165.039 143.453 154.53 135.585 156.241 131.405C157.952 127.472 170.905 128.947 185.323 134.847C199.742 140.748 210.007 148.861 208.54 152.795Z" fill="black"/>
<path d="M189.721 142.714C188.255 143.698 188.255 144.927 189.721 145.91L200.23 152.057C201.696 153.04 204.14 153.04 205.606 152.057C207.072 151.074 207.072 149.844 205.606 148.861L195.097 142.714C193.631 141.977 191.187 141.977 189.721 142.714Z" fill="white"/>
<path d="M178.482 21.0134C178.482 22.2427 178.482 25.6848 178.482 25.6848L179.46 27.1599L180.926 27.8975C180.926 27.8975 184.103 25.6848 185.081 23.9638C186.058 22.4886 185.814 20.7676 185.814 20.7676C185.814 20.7676 178.971 20.7676 178.482 21.0134Z" fill="#F0C6B4"/>
<path d="M197.298 125.997C197.298 125.997 196.077 138.536 197.298 141.486C198.765 144.682 205.363 147.633 205.608 149.108C206.096 152.058 202.431 151.812 200.476 150.829C198.52 149.845 196.077 147.633 195.588 147.141C194.855 146.895 191.678 146.895 190.944 145.912C189.478 144.436 190.944 141.978 191.189 140.257C191.433 138.536 189.967 129.685 189.967 127.472C190.944 125.751 192.655 124.768 192.655 124.768L197.298 125.997Z" fill="#F0C6B4"/>
<path d="M184.832 88.6248C188.009 104.114 190.453 111.982 190.209 115.424C189.964 118.128 188.742 120.341 188.742 125.996C188.987 128.946 198.273 128.454 198.273 125.504C198.273 122.308 199.007 119.111 198.762 114.44C198.518 104.606 200.962 92.8044 197.785 81.249C197.785 81.249 185.321 88.6248 184.832 88.6248Z" fill="#D1C699"/>
<path d="M160.153 130.915C158.442 131.406 158.198 132.881 159.664 134.111L168.706 141.978C169.928 143.208 172.372 143.699 174.083 142.962C175.794 142.47 176.038 140.995 174.572 139.766L165.529 131.898C164.063 130.915 161.863 130.423 160.153 130.915Z" fill="white"/>
<path d="M173.106 121.079C173.106 121.079 168.707 127.472 169.196 130.668C169.684 133.864 175.305 139.273 175.061 140.748C174.817 142.715 170.662 143.207 167.974 140.502C165.774 138.044 162.353 132.143 161.864 130.176C161.375 128.209 162.842 127.718 164.064 125.997C165.53 124.767 167.241 117.637 167.241 117.637L172.128 117.392L173.106 121.079Z" fill="#F0C6B4"/>
<path d="M174.572 79.2832C170.173 83.217 172.861 106.82 171.639 111.245C169.196 112.474 167.974 114.195 167.24 115.916C166.507 120.096 172.617 123.292 174.572 121.079C176.038 118.621 177.994 117.883 178.482 116.9C182.148 108.049 185.081 102.64 186.058 91.0845C186.058 91.0845 194.368 88.38 197.545 81.4959C197.3 80.7584 181.659 84.938 174.572 79.2832Z" fill="#E6DAB0"/>
<path d="M219.047 85.6754C219.047 85.6754 219.047 86.9047 221.002 87.3964C222.957 87.8881 225.645 88.3798 225.645 88.3798C225.645 88.3798 226.867 90.1009 228.334 90.1009C229.067 90.1009 231.022 89.855 231.266 89.3633C231.511 88.6257 228.089 84.9378 227.356 84.692C226.623 84.2002 221.735 83.9544 221.735 83.9544L220.758 83.2168L219.047 84.2002V85.6754Z" fill="#F0C6B4"/>
<path d="M222.473 86.9043C222.473 86.9043 224.183 89.8547 224.917 89.3629C225.65 89.1171 224.183 85.9209 224.183 85.9209L222.473 86.9043Z" fill="#F0C6B4"/>
<path d="M207.074 66.7425C207.074 66.7425 208.296 68.4636 209.763 70.6763C211.718 75.5935 215.383 79.2814 219.294 85.6738C219.294 85.4279 220.271 84.1986 221.982 83.9527C219.294 77.8062 217.094 70.4304 215.139 67.9718C213.428 66.005 212.451 64.0381 212.451 64.0381L208.785 64.2839L207.074 66.7425Z" fill="#F0C6B4"/>
<path d="M201.699 51.0086C198.033 53.2213 200.477 58.6302 202.188 60.843C202.188 60.843 204.387 64.5309 205.853 66.7436C207.32 68.9563 213.674 65.2684 211.719 62.564C210.252 60.3513 209.275 57.8927 209.031 57.4009C208.297 55.1882 205.365 48.7958 201.699 51.0086Z" fill="#FF2456"/>
<path d="M198.518 48.7959H188.498V58.8762H198.518V48.7959Z" fill="#C7A496"/>
<path d="M180.926 49.7808C179.215 51.9936 176.771 53.7146 177.016 58.3859C177.016 63.0573 179.215 68.4662 178.482 71.1706C177.749 73.8751 174.083 78.3006 174.083 78.3006C174.083 78.3006 172.128 82.2343 177.504 84.2012C182.881 86.1681 197.789 84.2012 198.033 81.4967C198.033 80.7592 196.322 76.0878 197.544 72.6458C197.544 72.6458 199.744 72.6458 200.721 70.433C202.432 67.4827 201.455 62.8114 202.921 59.3694C204.876 52.977 201.699 51.0101 201.699 51.0101C201.699 51.0101 197.544 50.0267 197.544 51.5018C197.056 55.1897 192.657 56.6649 192.657 56.6649C192.657 56.6649 189.724 53.9604 189.235 51.256C188.991 49.7808 189.479 48.3057 189.479 48.3057C189.479 48.3057 185.569 48.5515 180.926 49.7808Z" fill="#FF4D75"/>
<path d="M210.74 70.9234C212.94 70.1859 214.406 68.4648 214.406 68.4648C214.406 68.4648 213.673 70.9234 210.74 70.9234Z" fill="#C7A496"/>
<path d="M206.094 40.9297C207.316 47.5679 201.94 51.7475 204.139 55.1896C204.139 55.1896 199.74 54.6978 199.984 52.4851C201.695 52.731 204.383 42.4048 204.383 42.4048C204.383 42.4048 205.605 41.4214 206.094 40.9297Z" fill="#603913"/>
<path d="M201.451 53.7118C200.718 54.4494 199.251 54.6953 198.518 54.4494C193.386 52.7284 192.164 48.0571 192.164 48.0571L193.386 42.894L197.785 38.7144L202.184 38.2227C202.184 38.2227 205.117 39.6978 205.117 40.1895C205.117 40.4354 206.094 42.6481 205.605 44.615C205.361 44.615 203.65 51.2532 201.451 53.7118Z" fill="#F0C6B4"/>
<path d="M201.699 42.4044C198.277 41.9126 197.544 45.1088 195.345 47.8133C193.634 50.026 189.724 54.2056 192.901 57.6477C192.901 57.6477 188.746 57.4018 188.99 53.4681C188.013 53.9598 188.257 55.1891 188.257 55.1891C188.257 55.1891 182.148 51.5012 184.836 44.1254C185.569 42.1585 190.457 33.3076 193.634 33.5534C196.811 30.3572 200.477 32.57 202.187 34.5369C203.409 36.012 205.853 39.454 206.098 41.1751C206.342 42.8961 205.364 44.863 205.364 44.863C205.364 44.863 205.853 42.6502 204.143 42.1585C203.165 41.6668 202.432 41.9126 201.699 42.4044Z" fill="#603913"/>
<path d="M194.367 34.29C196.322 35.5193 199.255 39.699 199.255 39.699C199.255 39.699 196.811 34.7818 194.367 34.29Z" fill="#3C2415"/>
<path d="M168.95 48.7965C168.95 48.7965 167.728 47.0755 170.66 44.6169C172.86 42.8959 174.082 43.8793 174.082 43.8793L173.838 48.5507L170.66 49.78L168.95 48.7965Z" fill="#AB183A"/>
<path d="M174.083 43.8782L170.906 40.4362C170.906 40.4362 178.97 29.8642 180.681 27.8973C180.681 27.8973 179.948 25.6846 178.237 25.6846C176.038 27.6514 166.995 34.7814 165.529 36.5024C164.063 38.2234 163.818 41.1737 165.04 43.1406C166.507 45.1075 169.684 49.2871 169.684 49.2871L171.394 50.2706L175.793 47.0744L174.083 43.8782Z" fill="#F0C6B4"/>
<path d="M180.189 58.8771C183.855 56.6644 183.855 51.993 180.434 49.0427C178.723 47.5675 176.279 45.8465 174.324 43.6338C175.057 46.3382 171.391 49.7803 168.947 48.551C171.636 51.2554 173.835 53.9599 175.057 55.6809C176.279 57.6478 177.745 60.3523 180.189 58.8771Z" fill="#FF2456"/>
<path d="M200.724 12.4089L206.589 8.96688C206.834 8.96688 206.834 8.72102 206.834 8.47516C206.834 7.98344 206.589 7.24586 206.1 7C205.612 7 205.367 7 205.367 7L199.502 10.442L200.724 12.4089Z" fill="#944F00"/>
<path d="M199.989 10.4431C200.478 10.689 200.722 11.4266 200.722 11.9183C200.722 12.41 200.478 12.6559 199.989 12.41C199.5 12.1642 199.256 11.4266 199.256 10.9349C199.256 10.4431 199.5 10.1973 199.989 10.4431Z" fill="#754C29"/>
<path d="M187.036 21.9962L201.211 13.6369C201.455 13.3911 201.7 12.8993 201.7 12.4076C201.7 11.1783 200.722 9.70317 199.744 8.96559C199.256 8.71973 198.767 8.71973 198.278 8.71973L184.104 17.079L187.036 21.9962Z" fill="#BA6000"/>
<path d="M185.813 17.5702C186.79 18.0619 187.768 19.5371 187.768 20.7664C187.768 21.9957 186.79 22.4874 185.813 21.9957C184.835 21.2581 183.857 19.7829 183.857 18.5536C183.857 17.3243 184.591 16.8326 185.813 17.5702Z" fill="#FF8400"/>
<path d="M180.439 24.2095L186.304 20.7675C186.548 20.7675 186.548 20.5216 186.548 20.2758C186.548 19.784 186.304 19.0465 185.815 18.8006C185.571 18.5547 185.327 18.5547 185.327 18.8006L179.217 22.2426L180.439 24.2095Z" fill="#BA6000"/>
<path d="M179.948 22.242C180.437 22.4878 180.681 23.2254 180.681 23.7171C180.681 24.2088 180.437 24.2088 179.948 23.963C179.459 23.7171 178.971 23.2254 178.971 22.7337C178.971 22.242 179.459 21.9961 179.948 22.242Z" fill="#FF8400"/>
<path d="M186.054 20.5236C186.299 20.7694 186.299 21.507 185.077 22.7363C184.099 23.4739 183.366 23.9656 182.877 23.7198C182.633 23.4739 182.877 22.4905 183.855 21.507C185.077 20.2777 185.565 20.0319 186.054 20.5236Z" fill="#F0C6B4"/>
<path d="M186.058 19.7856C186.058 18.8021 184.103 17.0811 182.881 16.8353C181.659 16.5894 178.482 20.5232 178.482 21.0149C178.727 21.9983 179.949 22.2442 181.659 22.2442C183.126 22.2442 185.814 20.769 186.058 19.7856Z" fill="#F0C6B4"/>
<path d="M194.855 148.371C194.61 147.142 197.054 141.487 199.743 143.208C203.897 146.158 207.074 146.65 206.83 150.338L205.364 151.567L202.431 152.059C202.431 152.059 195.099 148.617 194.855 148.371Z" fill="white"/>
<path d="M164.061 137.306C164.061 136.077 168.704 130.422 170.659 133.126C173.347 137.552 176.28 138.289 175.547 141.486C175.547 141.486 175.058 142.469 173.836 142.715C172.859 142.961 170.903 142.961 169.926 142.469C166.749 140.748 164.305 137.552 164.061 137.306Z" fill="white"/>
<path d="M180.437 66.252C179.948 68.2188 180.193 69.9399 181.415 70.9233C185.569 73.8736 196.322 72.6443 196.322 72.6443C196.322 72.6443 186.303 73.3819 181.904 70.4316C180.926 69.694 180.437 67.973 180.437 66.252Z" fill="#FF2456"/>
<path d="M215.384 60.1041L206.098 56.6621L214.651 61.3334L215.384 60.1041Z" fill="#E31B25"/>
<path d="M220.025 52.2393L206.828 53.2227L220.025 54.452V52.2393Z" fill="#E31B25"/>
<path d="M214.405 44.8633L206.34 50.0263L214.649 46.3384L214.405 44.8633Z" fill="#E31B25"/>
<path opacity="0.3" d="M244.711 187.215C236.402 197.05 226.382 202.213 222.228 198.771C218.073 195.329 221.494 184.511 229.804 174.677C238.113 164.842 248.133 159.679 252.288 163.121C256.442 166.563 252.776 177.381 244.711 187.215Z" fill="black"/>
<path d="M233.225 191.15C233.469 190.659 233.958 189.675 233.958 189.429C233.958 186.971 233.225 185.987 233.225 185.987V191.15Z" fill="#121214"/>
<path d="M233.223 185.987L226.869 187.462C226.869 187.462 225.647 190.167 223.447 193.363L230.535 196.559C231.268 195.33 232.978 192.134 233.223 191.15C233.712 189.429 233.223 185.987 233.223 185.987Z" fill="#303033"/>
<path d="M223.448 193.364C222.959 194.101 222.47 194.839 221.737 195.577C221.004 196.56 221.248 198.281 222.226 198.527C226.869 200.002 229.557 198.035 230.535 196.314C230.535 196.314 230.779 195.577 229.802 194.347C228.824 193.118 223.448 193.364 223.448 193.364Z" fill="#121214"/>
<path d="M238.113 170.006C237.624 170.498 237.135 170.989 236.646 171.235C235.669 172.71 235.18 175.661 237.135 175.906C238.113 176.152 239.335 175.906 240.312 175.415L238.113 170.006Z" fill="#121214"/>
<path d="M240.31 175.662C241.532 175.17 242.51 174.433 243.243 173.941C244.709 172.712 244.953 171.728 246.909 170.499C248.131 169.761 249.352 169.516 250.33 169.024L248.375 163.615C248.131 163.369 241.288 167.549 241.288 167.549C241.288 167.549 238.111 169.761 237.622 170.007C237.133 170.253 238.111 173.695 238.844 174.679C239.821 175.662 240.31 175.662 240.31 175.662Z" fill="#303033"/>
<path d="M250.576 169.022C251.309 168.531 252.043 168.039 252.531 167.056C253.998 164.351 250.087 162.876 250.087 162.876C250.087 162.876 248.621 163.368 248.621 163.859C248.621 167.301 250.576 169.022 250.576 169.022Z" fill="#121214"/>
<path d="M229.557 163.86C229.557 163.86 235.422 165.335 241.776 167.794C247.641 170.006 253.018 163.122 248.863 161.155C240.554 157.713 236.155 154.025 236.155 154.025L229.557 163.86Z" fill="#1D374E"/>
<path d="M224.181 124.769C219.538 139.274 222.715 155.501 222.715 155.501L231.024 152.551L236.889 126.735C237.134 126.981 225.159 123.785 224.181 124.769Z" fill="#1D374E"/>
<path d="M247.154 121.817C247.154 121.817 249.354 130.422 246.91 136.815C242.511 148.616 232.735 161.892 230.291 166.318C232.246 171.727 232.002 175.907 234.69 183.528C235.912 188.2 226.137 190.166 225.403 185.987C222.96 175.169 218.072 171.481 219.049 166.564C220.271 158.942 227.359 143.945 230.536 137.307C225.648 130.668 224.426 124.276 224.426 124.276C224.426 124.276 245.443 120.834 247.154 121.817Z" fill="#2A4E68"/>
<path d="M223.69 92.8066C221.735 89.6104 217.58 89.8563 217.58 89.8563L210.004 88.627L199.984 92.069V97.232C199.984 97.232 203.65 97.232 205.85 97.232C207.805 97.232 219.535 95.7569 219.535 95.7569L223.201 93.79C223.201 94.0359 224.668 94.5276 223.69 92.8066Z" fill="#C7A496"/>
<path d="M220.515 95.7562L224.67 94.0352L230.047 98.2148L229.313 103.87L223.937 110.754L219.049 111.491L214.895 102.64L220.515 95.7562Z" fill="#C7A496"/>
<path d="M240.801 103.624C240.801 103.624 237.38 99.4446 231.27 96.986C230.292 96.2484 228.337 92.8064 223.449 92.5605C220.761 92.5605 218.562 94.7733 219.05 96.0026C219.05 96.0026 221.25 96.4943 223.938 96.2484C232.736 100.92 223.694 109.033 221.006 109.525C221.006 109.525 215.14 104.854 217.34 99.6905C217.34 99.6905 214.163 102.641 213.918 103.133C212.696 106.82 215.385 111.738 220.272 116.163C221.739 117.638 223.694 120.343 223.449 125.26C223.205 127.227 233.958 130.915 240.557 129.931C246.911 128.702 247.644 123.539 246.422 121.572C244.467 117.392 243.245 111.492 243.001 109.279C242.756 105.099 240.801 103.624 240.801 103.624Z" fill="white"/>
<path d="M242.999 111C243.732 114.442 242.021 117.638 239.333 118.13C236.644 118.622 233.956 116.409 233.223 113.213C232.49 109.771 234.201 106.575 236.889 106.083C239.577 105.591 242.265 107.804 242.999 111Z" fill="#C7A496"/>
<path d="M209.274 108.294C210.984 109.77 214.161 109.524 214.161 109.524C214.161 109.524 215.383 111.982 216.116 111.982C216.85 111.982 217.583 110.999 217.583 110.999C217.583 110.999 221.249 110.753 221.737 110.507C222.226 110.261 223.448 104.607 223.204 103.131C222.959 102.148 222.226 100.919 222.226 100.919C222.226 100.919 222.471 99.1977 221.982 98.4601C221.982 97.4766 221.737 96.4932 221.737 96.4932L215.383 95.5098L210.251 101.165C210.251 101.41 208.785 108.049 209.274 108.294Z" fill="#F0C6B4"/>
<path d="M211.718 91.8213C211.718 91.8213 207.319 91.0837 205.608 94.5257C201.698 102.393 205.608 105.098 205.852 105.589C208.052 110.507 215.628 107.802 215.628 107.802C215.628 107.802 214.895 107.31 215.383 106.819C217.827 105.835 218.072 103.131 218.316 102.885C218.56 102.639 219.538 102.639 219.782 102.639C220.027 102.639 220.76 101.656 220.027 101.41C219.294 101.164 218.316 99.4429 219.782 97.9678C220.76 96.9843 221.982 98.7053 221.982 98.7053C222.226 98.2136 223.937 95.755 217.827 92.5588C216.361 91.8213 211.718 91.8213 211.718 91.8213Z" fill="#FF8400"/>
<path d="M208.052 93.2988C203.409 96.7409 205.608 104.117 205.608 104.117C205.608 104.117 204.142 96.9867 208.052 93.2988Z" fill="#BA6000"/>
<path d="M213.428 117.637C213.428 117.637 211.717 114.932 210.74 114.441C210.006 113.949 206.341 113.457 206.096 113.703C205.852 113.949 206.096 114.687 206.096 114.687C206.096 114.687 200.964 112.966 200.475 113.949C199.986 114.932 202.43 120.833 204.63 121.571C206.829 122.308 209.273 122.062 211.717 122.554C212.206 122.554 214.161 120.587 214.161 120.587L213.428 117.637Z" fill="#F0C6B4"/>
<path d="M240.311 106.82C245.199 108.787 241.533 114.442 240.311 116.9C237.378 123.538 236.401 126.98 233.468 131.16C232.491 132.635 226.381 133.864 223.937 132.389C219.294 129.439 214.895 125.259 211.718 123.047C210.007 121.817 211.962 116.9 213.673 117.638C219.538 121.817 224.426 122.801 226.87 125.014C227.603 123.292 231.024 114.933 231.758 112.721C232.735 110.508 233.957 104.115 240.311 106.82Z" fill="#F0C6B4"/>
<path d="M207.073 86.4141C203.896 87.8892 197.542 89.1185 194.365 91.3313C191.188 93.2981 192.654 97.9695 193.876 98.4612C198.764 100.428 203.896 93.2981 209.028 90.3478V87.6434L207.073 86.4141Z" fill="#F0C6B4"/>
<path d="M208.296 90.3474C209.029 90.5932 211.228 91.0849 211.228 91.0849C211.228 91.0849 211.717 93.2977 212.206 93.5435C212.695 93.7894 216.116 94.527 217.094 94.0353C218.071 93.7894 218.56 91.0849 218.56 90.1015C218.316 89.1181 215.627 87.6429 215.139 87.3971C213.672 86.9053 209.762 85.676 207.318 86.4136C206.096 87.6429 206.829 89.8557 208.296 90.3474Z" fill="#F0C6B4"/>
</g>
<g clip-path="url(#clip1)">
<path opacity="0.3" d="M69.7622 154.996C69.0661 159.172 56.0722 160.099 40.9901 157.316C25.908 154.532 14.3063 148.733 15.0024 144.558C15.6985 140.383 28.6923 139.455 43.7745 142.239C58.8566 145.254 70.4583 150.821 69.7622 154.996Z" fill="black"/>
<path d="M54.91 152.908C53.7498 152.676 52.3576 152.676 51.4295 151.285C50.2693 149.661 51.8936 146.646 51.8936 146.646L54.91 152.908Z" fill="#121214"/>
<path d="M51.8965 146.646H60.2497C60.2497 146.646 61.1778 148.501 63.2661 149.661C63.9622 150.125 64.8903 150.357 66.0505 150.821L63.7302 155.228C61.6419 154.532 60.2497 153.836 57.9293 153.372C57.0012 153.14 55.841 153.14 54.9129 152.908C54.9129 152.908 54.2168 152.676 53.0566 150.589C51.8965 148.501 51.8965 146.646 51.8965 146.646Z" fill="#303033"/>
<path d="M66.0477 150.819C67.9039 151.515 69.9922 152.443 69.9922 153.139C70.6883 156.154 65.3516 155.69 63.7273 155.227C63.7273 155.227 63.0312 154.995 63.0312 153.603C63.0312 151.515 66.0477 150.819 66.0477 150.819Z" fill="#121214"/>
<path d="M47.0234 100.486C48.1836 111.156 52.3602 118.115 52.1282 122.754C51.2 131.105 51.2 140.383 50.968 146.182C51.4321 149.661 60.9454 148.965 60.9454 145.95C61.6415 139.455 61.8735 131.337 62.3376 123.45C62.5696 119.971 63.2657 107.213 60.2493 90.0479C60.2493 90.0479 48.6477 99.5582 47.0234 100.486Z" fill="#1D374E"/>
<path d="M47.4858 52.4707C44.4694 54.5583 41.4529 58.2697 39.5967 59.6614C34.2599 63.1408 34.956 71.7233 33.5638 73.115C33.0997 73.5789 30.7794 75.4346 30.5474 76.8264C29.6192 78.2181 28.9231 78.4501 28.4591 79.6099C27.995 80.7697 29.3872 84.0171 31.2435 84.0171C32.8677 84.0171 34.956 82.3934 35.8841 81.2336C36.3482 80.5377 37.5084 76.3625 37.5084 76.3625L40.5248 70.5635L46.0936 66.3882L50.7342 54.0944C50.5022 54.0944 48.4139 52.9346 47.4858 52.4707Z" fill="#F0C6B4"/>
<path d="M49.5746 50.3819C49.3426 50.8458 48.8785 51.3097 48.8785 51.3097L47.4863 53.6293L48.6465 57.8046L51.6629 60.82L56.0715 61.5159L60.0161 60.1242L60.2481 56.1809L56.7676 51.7736L51.4309 49.918C51.4309 49.918 49.8067 49.918 49.5746 50.3819Z" fill="#C7A496"/>
<path d="M18.2491 139.223C17.553 138.063 17.0889 136.903 17.0889 136.671C16.8569 134.584 19.8733 132.96 19.8733 132.96L18.2491 139.223Z" fill="#121214"/>
<path d="M19.8772 132.96L25.91 136.903C25.91 136.903 26.6061 142.006 27.9983 144.094C27.9983 144.094 28.2303 144.326 28.4624 144.558L24.2858 148.269C23.5897 148.037 23.1256 147.805 22.6616 147.341C21.9655 146.877 19.4131 142.238 18.0209 139.223C18.0209 139.223 17.7889 138.295 18.2529 136.671C18.717 135.048 19.8772 132.96 19.8772 132.96Z" fill="#303033"/>
<path d="M28.6914 144.326C29.6195 145.022 31.7078 146.182 31.2438 147.342C30.3156 149.661 26.8351 148.965 24.5148 148.038C24.5148 148.038 24.0507 147.574 24.7468 146.646C26.139 145.022 28.6914 144.326 28.6914 144.326Z" fill="#121214"/>
<path d="M37.2792 89.3525C34.7269 92.5999 32.6386 109.997 28.694 116.26C23.3573 121.827 22.8932 125.77 19.8768 130.873C16.8604 135.048 24.9815 140.383 27.0698 136.44C30.7823 128.09 35.423 124.61 37.5113 121.827C43.5441 113.708 47.0246 106.981 48.8809 101.646C59.0903 98.6308 60.4825 90.2803 60.4825 90.2803C60.4825 90.2803 39.1355 88.8886 37.2792 89.3525Z" fill="#2A4E68"/>
<path d="M48.8776 51.3115C48.8776 51.3115 47.0213 54.7909 50.9659 58.0383C54.6784 61.2857 58.391 59.662 58.391 59.662C58.391 59.662 59.5511 57.3425 58.391 55.2548L60.4793 54.7909C60.4793 54.7909 63.9597 64.0693 63.4957 68.4765C63.0316 72.8837 60.7113 74.9713 60.0152 79.6105C59.3191 84.2497 59.7832 86.1053 60.2472 88.8888C60.4792 91.2084 57.9269 96.5435 47.0213 96.7754C36.1158 97.0074 36.3478 90.5126 37.508 88.6569C38.9002 86.8012 39.8283 84.0177 40.2924 81.0022C40.9885 76.3631 39.1322 70.3321 40.0604 65.229C40.5244 62.2136 42.8448 58.9662 44.933 56.4146C45.8612 53.3992 48.8776 51.3115 48.8776 51.3115Z" fill="white"/>
<path d="M50.5013 70.7941C50.9653 74.5054 49.1091 77.7528 46.3247 77.9848C43.5403 78.4487 40.9879 75.6652 40.5239 72.1858C40.0598 68.4745 40.5239 65.2271 44.7005 64.9951C48.645 64.7631 49.8052 67.3147 50.5013 70.7941Z" fill="#C7A496"/>
<path d="M40.2945 68.0103C40.7586 65.2268 44.9352 64.299 50.504 66.3866C57.697 66.3866 68.6026 68.7062 68.8346 68.9381C74.6354 66.1546 80.9003 65.9227 85.0769 63.1392C85.541 62.9072 87.6292 65.2268 87.1652 67.0825C83.2206 69.634 77.6518 75.201 69.5307 76.5928C67.6744 76.8247 54.4485 76.3608 50.504 75.8969C44.4711 76.1289 39.1344 73.5773 40.2945 68.0103Z" fill="#F0C6B4"/>
<path d="M85.3109 62.9079C85.3109 62.9079 89.0235 59.6605 89.7196 59.4285C90.4157 58.9646 93.2001 59.6605 93.6641 59.8924C94.3602 60.1244 95.2884 63.1399 95.0563 64.0677C94.8243 64.9955 93.4321 66.3873 92.504 66.1553C91.5758 65.9234 92.0399 64.5316 92.0399 64.5316C92.0399 64.5316 89.0235 66.8512 86.9352 66.6192C85.775 66.3873 84.3828 65.2275 84.3828 65.2275L85.3109 62.9079Z" fill="#F0C6B4"/>
<path d="M63.7295 49.4546C63.7295 49.4546 62.8014 55.4856 61.4092 57.8052C60.9451 58.733 59.3209 58.501 58.6248 58.501C55.3763 57.5732 52.5919 54.5577 52.1279 54.0938C51.4318 53.3979 51.6638 51.7742 51.6638 51.7742C51.6638 51.7742 50.5036 51.3103 49.8075 50.3825C49.5755 50.1505 49.3435 49.6866 49.1114 49.2227C48.4153 48.0629 50.5036 44.1196 50.9677 42.9598C51.4318 41.8 54.2162 40.8722 54.2162 40.8722L57.9287 39.9443C57.9287 39.9443 64.6576 43.8876 64.6576 44.3516C64.6576 44.5835 64.4256 47.1351 64.4256 48.0629C64.4256 48.9907 63.7295 49.4546 63.7295 49.4546Z" fill="#F0C6B4"/>
<path d="M62.5684 51.3115C62.5684 51.3115 63.2645 54.327 63.2645 54.5589C63.0324 54.7909 61.4082 54.7909 61.4082 54.7909L62.5684 51.3115Z" fill="#F0C6B4"/>
<path d="M50.5016 47.3672C51.4297 47.1352 52.3578 49.2229 52.8219 49.9187C53.75 47.5991 57.2305 48.7589 57.9266 45.7435C60.711 46.6713 64.1915 48.295 65.1196 47.1352C66.0478 45.9754 65.3517 39.9445 60.479 37.393C55.6063 34.8414 52.8219 37.393 52.3578 37.8569C49.5734 38.3208 47.9492 41.1043 47.9492 45.2796C47.9492 49.9187 49.8055 50.3827 49.8055 50.3827C49.8055 50.3827 48.8774 47.5991 50.5016 47.3672Z" fill="#FF8400"/>
<path d="M53.0573 38.7837C53.5214 38.3198 56.5378 43.4229 56.5378 43.4229C56.5378 43.4229 52.8253 39.0157 53.0573 38.7837Z" fill="#BA6000"/>
<path d="M31.707 82.1612C71.6167 93.2952 92.2676 68.0117 92.2676 68.0117C92.2676 68.0117 73.705 89.5839 31.707 82.1612Z" fill="#FF3F4A"/>
<path d="M27.5332 83.7846C61.178 100.022 82.293 79.6094 82.293 79.6094C82.293 79.6094 63.7303 96.7743 27.5332 83.7846Z" fill="#FF3F4A"/>
<path d="M81.5965 61.5166C81.5965 58.0372 84.1489 54.7898 87.6294 54.0939C91.1099 53.1661 94.5904 54.7898 96.2146 57.8052C96.2146 57.8052 95.9826 54.5578 97.6068 51.0784C96.2146 53.63 94.8224 54.3258 93.4302 53.8619C92.038 53.398 92.038 51.3104 92.038 48.5269C91.5739 51.5423 90.8778 53.1661 89.2536 53.1661C87.6294 53.1661 86.7012 50.8465 85.7731 48.2949C86.4692 51.5423 86.7012 53.8619 85.309 54.5578C83.9168 55.2537 82.2926 53.63 80.9004 52.0063C82.0606 53.8619 82.7567 56.1815 82.0606 57.1094C81.1324 58.0372 79.5082 57.8052 77.4199 57.8052C80.9004 58.0372 81.5965 61.5166 81.5965 61.5166Z" fill="#FF3F4A"/>
<path opacity="0.3" d="M97.607 166.827C97.3749 169.842 85.7733 171.698 71.6193 170.77C57.4653 169.842 46.0957 166.595 46.3277 163.347C46.5597 160.332 58.1614 158.476 72.3154 159.404C86.4694 160.564 97.839 163.811 97.607 166.827Z" fill="black"/>
<path d="M86.7008 167.29C86.7008 167.29 92.5016 170.538 94.3579 168.218C96.2142 165.899 87.6289 164.043 87.6289 164.043L82.9883 164.507L86.7008 167.29Z" fill="white"/>
<path d="M77.4207 144.559C77.4207 144.559 78.3488 146.183 82.7575 144.327C86.9341 142.471 86.238 140.384 86.238 140.384L84.6137 138.296L76.7246 142.007L77.4207 144.559Z" fill="#BDAF83"/>
<path d="M84.6102 161.724L85.3063 161.956V162.883L83.9141 163.115V162.188L84.6102 161.724Z" fill="#BCBEC0"/>
<path d="M77.8848 142.933C77.8848 142.933 82.9895 151.747 84.8458 157.778C85.0778 158.938 84.6137 162.417 84.6137 162.417C84.6137 162.417 81.5973 162.881 81.3653 163.577C81.1332 164.273 82.9895 166.36 84.8458 166.36C86.702 166.36 88.3262 165.201 88.3262 165.201C88.3262 165.201 91.8067 166.36 92.7349 163.809C92.9669 162.881 90.1825 160.562 89.9505 159.17C86.934 150.355 86.47 145.484 85.5418 140.149C85.3098 138.989 83.6856 138.062 83.6856 138.062L78.3488 139.685L77.8848 142.933Z" fill="#F0C6B4"/>
<path d="M73.7094 135.279C75.5657 138.295 76.9579 143.398 77.654 144.558C79.9743 143.63 82.9907 140.614 86.4712 140.382C86.2392 139.918 83.2228 133.655 83.2228 133.655C83.2228 133.655 89.9517 123.217 93.2002 118.578L79.9743 118.114C79.9743 118.114 71.8531 132.264 73.7094 135.279Z" fill="#D1C699"/>
<path d="M58.393 167.754C58.393 167.754 67.4423 170.073 68.6024 168.218C70.4587 164.97 60.7133 164.274 60.7133 164.274L56.3047 164.738L58.393 167.754Z" fill="white"/>
<path d="M119.418 99.7911C119.418 99.7911 123.363 98.8633 124.291 98.8633C125.219 98.8633 128.004 100.255 128.236 101.415C128.236 102.575 126.147 105.358 124.059 104.43C123.363 104.198 119.882 104.662 119.186 104.43C118.49 104.198 117.33 103.039 117.33 103.039L119.418 99.7911Z" fill="#F0C6B4"/>
<path d="M108.514 89.5836C112.459 92.3671 114.547 96.7743 119.42 100.022C120.116 100.486 119.652 102.573 119.188 103.269C118.724 103.965 117.796 103.965 116.635 103.037C111.763 99.0939 106.194 97.7021 104.106 93.063C103.874 92.599 104.802 88.8877 104.802 88.8877C104.802 88.8877 107.586 89.1197 108.514 89.5836Z" fill="#F0C6B4"/>
<path d="M98.0717 78.9141C94.5912 81.2337 96.9116 84.7131 98.9999 87.0327C100.392 88.6564 100.856 89.3522 103.176 92.5997C104.569 94.6873 110.137 90.976 108.513 88.4244C107.121 86.1048 105.729 84.7131 104.801 83.0894C103.873 81.2337 102.248 76.1306 98.0717 78.9141Z" fill="#FF2456"/>
<path d="M59.5512 160.796C60.7113 160.564 60.9433 162.42 60.9433 162.42C60.9433 162.42 57.2308 163.116 57.2308 162.884C56.9988 162.188 59.0871 161.028 59.5512 160.796Z" fill="#BCBEC0"/>
<path d="M61.1797 160.796C60.7156 161.724 53.9867 161.028 53.0585 160.796C52.1304 160.564 50.2741 160.796 50.0421 162.652C49.578 165.203 54.9148 166.595 57.2351 166.827C61.4117 167.291 66.0524 168.682 66.9805 167.755C68.1407 166.363 67.4446 164.507 67.6766 162.652C66.9805 162.188 61.8758 161.492 61.1797 160.796Z" fill="#F0C6B4"/>
<path d="M63.2638 147.805C63.2638 156.387 61.8716 158.707 61.1755 160.795C60.2473 164.042 66.5122 166.13 67.6724 163.114C68.1365 158.939 70.6888 152.676 70.9208 148.733C70.4568 147.109 64.4239 147.109 63.2638 147.805Z" fill="#F0C6B4"/>
<path d="M74.4022 112.78C67.4413 122.986 63.7287 135.976 62.8006 137.368C61.8725 138.759 62.8006 144.327 62.5686 146.878C62.3365 149.43 71.6178 150.357 71.6178 148.27C71.8499 145.022 70.9218 141.311 70.9218 141.311C70.9218 141.311 81.3632 126.466 82.2914 125.074C85.5398 123.218 89.9484 121.363 92.2688 119.275C94.8211 117.187 95.5172 112.084 95.5172 112.084C95.5172 112.084 76.2585 111.156 74.4022 112.78Z" fill="#E6DAB0"/>
<path d="M85.3108 81.4657C79.742 85.177 74.1732 84.7131 73.7092 89.5843C73.4771 92.5997 76.2615 95.1513 76.4936 95.6152C76.2615 101.878 74.1732 108.837 73.7092 112.084C73.2451 115.332 76.9576 117.419 81.5983 118.115C86.2389 118.811 95.5203 113.708 95.7523 111.388C95.9843 108.837 93.896 102.11 94.3601 99.0946C95.0562 95.1513 100.393 86.1049 100.625 83.3214C100.857 80.5379 99.6969 77.9863 99.6969 77.9863L89.9515 78.4502C89.9515 78.6822 87.8632 79.61 85.3108 81.4657Z" fill="#FF4D75"/>
<path d="M102.246 62.9082C102.246 62.9082 102.942 60.3567 99.2294 59.6608C95.5169 58.9649 91.1083 63.3721 86.2356 60.1247C87.1637 62.6763 89.7161 63.1402 89.9481 63.3721C87.6278 64.068 86.4676 65.9237 82.7551 64.9959C83.9153 67.3154 85.7715 66.8515 86.2356 66.8515C82.9871 68.7072 85.3075 73.1144 79.9707 74.9701C81.1309 78.6814 85.7715 78.4495 85.7715 78.4495C85.7715 78.4495 84.1473 79.8412 82.5231 80.0732C87.8598 84.0165 90.6442 82.8567 91.1083 82.6247C91.3403 83.7845 89.7161 84.2484 89.7161 84.2484C89.7161 84.2484 95.981 85.8721 98.0693 81.6969C98.5333 82.6247 98.0693 83.5526 98.0693 83.5526C102.478 82.6247 102.246 75.434 104.566 68.7072C105.726 65.2278 102.246 62.9082 102.246 62.9082Z" fill="#603913"/>
<path d="M97.3743 67.5484C97.8384 68.0123 102.247 62.9092 102.247 62.9092C102.247 62.9092 96.9102 67.0844 97.3743 67.5484Z" fill="#3C2415"/>
<path d="M71.8512 96.3107C69.5308 99.3261 67.9066 102.342 67.4425 102.806C64.4261 103.965 59.0893 108.141 53.0565 110.46C51.6643 110.924 53.0565 114.867 55.1448 114.172C57.2331 113.476 68.6027 110.924 71.1551 107.213C73.2434 104.197 77.884 100.254 77.884 100.254L75.7957 96.3107C75.7957 96.3107 72.7793 95.8468 71.8512 96.3107Z" fill="#F0C6B4"/>
<path d="M53.0562 110.461C53.0562 110.461 50.0398 110.693 49.3437 111.157C47.7195 112.317 47.9515 113.94 47.9515 113.94C47.9515 113.94 44.0069 117.42 45.3991 119.043C46.7913 120.667 50.9679 119.043 52.3601 118.116C53.0562 117.652 55.1445 113.94 55.1445 113.94L54.9125 111.621L53.0562 110.461Z" fill="#F0C6B4"/>
<path d="M84.3837 86.1052C81.1352 83.5537 78.3508 85.8732 76.4946 88.6567C75.3344 90.2805 74.4063 92.3681 72.0859 95.3836C70.4617 97.2392 76.2625 102.342 78.3508 100.023C80.2071 97.9351 81.5993 95.8475 82.9915 94.2238C84.6157 92.832 87.6321 88.4248 84.3837 86.1052Z" fill="#FF2456"/>
<path d="M59.5555 160.795C55.611 161.027 49.5781 158.243 49.3461 163.115C49.114 166.362 58.3954 167.754 58.3954 167.754C58.3954 167.754 57.4672 164.042 59.5555 160.795Z" fill="white"/>
<path d="M84.6129 161.724C83.4528 163.347 86.7012 167.291 86.7012 167.291C86.7012 167.291 79.9723 166.131 80.9004 163.579C81.1324 162.651 82.9887 162.42 84.6129 161.724Z" fill="white"/>
</g>
<defs>
<clipPath id="clip0">
<rect x="156" y="7" width="98" height="193" fill="white"/>
</clipPath>
<clipPath id="clip1">
<rect x="15" y="36" width="113" height="135" fill="white"/>
</clipPath>
</defs>
</svg>
