<svg width="231" height="267" viewBox="0 0 231 267" fill="none" xmlns="http://www.w3.org/2000/svg">
<path opacity="0.1" d="M115.348 237.198C179.053 237.198 230.696 207.381 230.696 170.6C230.696 133.819 179.053 104.002 115.348 104.002C51.643 104.002 0 133.819 0 170.6C0 207.381 51.643 237.198 115.348 237.198Z" fill="white"/>
<path opacity="0.1" d="M115.348 246.929C179.053 246.929 230.696 217.112 230.696 180.331C230.696 143.55 179.053 113.733 115.348 113.733C51.643 113.733 0 143.55 0 180.331C0 217.112 51.643 246.929 115.348 246.929Z" fill="white"/>
<path d="M90.3901 188.238L51.4336 165.735L52.651 163.606L90.3901 185.501L180.173 133.804L210.607 151.138L181.694 167.863L180.781 166.039L206.042 151.138L180.173 136.541L90.3901 188.238Z" fill="white"/>
<path opacity="0.2" d="M80.0437 10.9477L80.348 127.418V127.722L18.5654 163.606C18.261 163.606 18.261 163.606 18.261 163.302L17.6523 46.8315V46.5274L79.7393 10.6436L80.0437 10.9477Z" fill="#CADCE0"/>
<path opacity="0.2" d="M72.4307 4.56143L72.7351 121.032V121.336L10.9524 157.22C10.6481 157.22 10.6481 157.22 10.6481 156.916L10.3438 40.4453V40.1412L72.1264 4.56143C72.4307 4.25732 72.4307 4.56143 72.4307 4.56143Z" fill="#CADCE0"/>
<path opacity="0.2" d="M64.5202 0.3041L64.8246 116.774V117.079L3.04195 152.658C2.7376 152.658 2.7376 152.658 2.7376 152.354L2.12891 36.1879V35.8838L64.2159 0C64.2159 0 64.5202 0 64.5202 0.3041Z" fill="#CADCE0"/>
<path d="M94.9569 24.6323L102.261 28.8897C101.348 28.2815 100.131 28.2815 98.609 29.1938L91.3047 24.9364C92.8264 24.3282 94.0438 24.0241 94.9569 24.6323Z" fill="#FBFBFB"/>
<path d="M98.609 29.4978L91.3047 24.9363C91.9134 24.6322 92.2177 24.3281 92.8264 24.3281L100.435 28.5855C99.8264 28.8896 99.2177 29.1937 98.609 29.4978Z" fill="#FBFBFB"/>
<path d="M100.437 28.5855L92.8281 24.3281C93.7412 24.3281 94.3499 24.3281 94.9586 24.6322L102.263 28.8896C101.654 28.5855 101.046 28.5855 100.437 28.5855Z" fill="#FBFBFB"/>
<path d="M102.261 28.8902L94.957 24.6328L102.261 28.8902Z" fill="#FBFBFB"/>
<path d="M44.4333 60.5163L37.1289 56.2588L91.3028 24.9365L98.6072 29.498L44.4333 60.5163Z" fill="white"/>
<path d="M39.2614 69.3351L31.957 65.0777C31.957 61.7326 34.3918 57.7793 37.1309 56.2588L44.4353 60.5162C41.6962 62.3408 39.2614 66.2941 39.2614 69.3351Z" fill="url(#paint0_linear)"/>
<path d="M37.1309 56.2588C36.2179 56.867 35.3049 57.4752 34.6962 58.3875C34.0875 59.2998 33.4788 60.2121 32.8701 61.1244C32.2614 62.3408 31.957 63.8613 31.957 65.0777L39.2614 69.3351C39.2614 68.1187 39.5657 66.9023 40.1744 65.3818C40.4788 64.4695 41.0875 63.5572 42.0005 62.6449C42.6092 61.7326 43.5223 61.1244 44.4353 60.5162L37.1309 56.2588Z" fill="#CBD3DC"/>
<path d="M104.385 162.39C104.385 165.735 101.95 169.688 99.2111 171.209L45.0372 202.531C42.2981 204.051 39.8633 202.835 39.8633 199.49V195.233L104.385 158.132V162.39Z" fill="#F1F5FA"/>
<path d="M39.5664 74.8087L39.8708 195.537L104.088 158.436V109.78V56.8668L103.784 37.7085L39.5664 74.8087Z" fill="url(#paint1_linear)"/>
<path d="M39.2578 69.3349C39.2578 65.9898 41.6926 62.0365 44.4317 60.516L98.6056 29.4978C101.345 27.9773 103.78 29.1937 103.78 32.5388V38.0126L39.5622 74.8087L39.2578 69.3349Z" fill="#F1F5FA"/>
<path d="M53.2617 49.8726C53.2617 50.1767 53.5661 50.7849 54.1748 51.089C55.3922 51.6972 57.2182 51.6972 58.4356 51.089C58.74 50.7849 59.0443 50.7849 59.0443 50.4808C59.653 49.8726 59.3487 48.9603 58.4356 48.3521C57.2182 47.7439 55.3922 47.7439 54.1748 48.3521C53.5661 48.9603 53.2617 49.5685 53.2617 49.8726Z" fill="url(#paint2_linear)"/>
<path d="M53.2617 49.8729C53.2617 50.177 53.5661 50.7852 54.1748 51.0893C55.3922 51.6975 57.2182 51.6975 58.4356 51.0893C58.74 50.7852 59.0443 50.7852 59.0443 50.4811C59.0443 50.177 58.74 49.5688 58.1313 49.2647C56.9139 48.6565 55.0878 48.6565 53.8704 49.2647C53.5661 49.5688 53.5661 49.8729 53.2617 49.8729Z" fill="#141E30"/>
<path d="M41.9969 56.8669C41.9969 57.171 42.3013 57.4751 42.6056 57.4751C43.823 58.0833 45.6491 58.0833 46.5622 57.4751L50.823 55.0423C51.4317 54.7382 51.7361 54.7382 51.7361 54.4341C52.0404 53.8259 52.0404 53.2177 51.1274 52.6095C49.91 52.0013 48.0839 52.0013 47.1709 52.6095L42.91 55.0423C41.9969 55.6505 41.6926 56.2587 41.9969 56.8669Z" fill="url(#paint3_linear)"/>
<path d="M42 56.8668C42 57.1709 42.3043 57.475 42.6087 57.475C43.8261 58.0832 45.6522 58.0832 46.5652 57.475L50.8261 55.0422C51.4348 54.7381 51.7391 54.7381 51.7391 54.434C51.7391 54.1299 51.4348 53.8258 51.1304 53.8258C49.913 53.2176 48.087 53.2176 47.1739 53.8258L42.913 56.2586C42.6087 56.5627 42.3043 56.5627 42 56.8668Z" fill="#141E30"/>
<path d="M79.1325 48.6562L59.3499 60.212C58.4368 60.8202 57.8281 60.212 57.8281 59.2997C57.8281 58.3874 58.4368 57.171 59.3499 56.5628L79.1325 45.007C80.0455 44.3988 80.6542 45.007 80.6542 45.9193C80.6542 46.8316 80.0455 48.048 79.1325 48.6562Z" fill="url(#paint4_linear)"/>
<path d="M39.8669 199.794C39.8669 201.314 40.4755 202.531 41.3886 203.139L34.0842 198.882C33.1712 198.273 32.5625 197.361 32.5625 195.536V191.887L39.8669 196.145V199.794Z" fill="#CBD3DC"/>
<path d="M31.957 65.0776L39.2614 69.335L39.5657 74.8088L31.957 70.5514V65.0776Z" fill="#CBD3DC"/>
<path d="M39.5657 74.8092L39.8701 195.841L32.2614 191.584L31.957 70.5518L39.5657 74.8092Z" fill="#CBD3DC"/>
<path d="M35.6094 72.6802L39.5659 74.8089L39.8703 195.841L35.6094 193.408V72.6802Z" fill="url(#paint5_linear)"/>
<g opacity="0.3">
<path opacity="0.2" d="M178.955 51.3929L179.259 205.268V205.572L97.0853 252.707C96.7809 252.707 96.7809 252.707 96.7809 252.403L96.4766 98.5284V98.2243L178.346 50.7847C178.65 50.7847 178.955 51.0888 178.955 51.3929Z" fill="#D1FDFE"/>
<path opacity="0.4" d="M160.089 48.0478L160.393 193.104V193.408L82.7845 238.11C82.4801 238.11 82.4801 238.11 82.4801 237.806L82.1758 92.7505V92.4464L159.48 47.7437C159.784 47.7437 160.089 48.0478 160.089 48.0478Z" fill="#A3FCFD"/>
<path opacity="0.6" d="M141.215 45.0067L141.52 181.548V181.852L68.7806 223.818C68.4762 223.818 68.4762 223.818 68.4762 223.514L68.1719 86.9726V86.6685L140.911 44.7026C140.911 44.7026 141.215 44.7026 141.215 45.0067Z" fill="#75FAFD"/>
<path opacity="0.8" d="M122.345 41.9657L122.65 169.992V170.296L54.4759 209.525C54.1715 209.525 54.1715 209.525 54.1715 209.221L53.8672 81.1946V80.8905L122.041 41.6616C122.041 41.6616 122.345 41.6616 122.345 41.9657Z" fill="#47F9FC"/>
<path opacity="0.3" d="M103.479 38.9247L103.784 158.132V158.436L40.1751 195.232C39.8708 195.232 39.8708 195.232 39.8708 194.928L39.5664 75.7208V75.4167L103.175 38.6206C103.175 38.6206 103.479 38.6206 103.479 38.9247Z" fill="#19F7FB"/>
</g>
<g opacity="0.8">
<path opacity="0.8" d="M126.306 70.8556L124.176 69.6392L124.48 96.4L126.306 97.6164V70.8556Z" fill="url(#paint6_linear)"/>
<path opacity="0.5" d="M149.741 57.1711L147.611 56.2588L124.176 69.6392L126.306 70.8556L149.741 57.1711Z" fill="url(#paint7_linear)"/>
<path opacity="0.8" d="M126.305 70.8559V97.6167L149.739 84.2363V57.1714L126.305 70.8559Z" fill="url(#paint8_linear)"/>
</g>
<path d="M129.957 86.0605L134.827 83.3236V88.7974L141.218 84.8441V79.3703L146.087 76.6334V69.0309L141.218 71.7678V66.2939L134.827 69.9431V75.417L129.957 78.458V86.0605Z" fill="white"/>
<g opacity="0.8">
<path opacity="0.8" d="M126.306 108.26L124.176 107.043L124.48 134.412L126.306 135.629V108.26Z" fill="url(#paint9_linear)"/>
<path opacity="0.5" d="M150.045 94.5753L147.915 93.3589L124.176 107.043L126.306 108.26L150.045 94.5753Z" fill="url(#paint10_linear)"/>
<path opacity="0.8" d="M126.305 108.26V135.629L150.044 121.944V94.5752L126.305 108.26Z" fill="url(#paint11_linear)"/>
</g>
<path d="M140.308 122.552L139.7 121.336C139.7 121.336 139.7 121.64 139.395 121.64C139.091 122.248 138.482 122.856 138.178 123.161C137.874 123.465 137.569 123.465 137.265 123.465L136.961 123.161L136.656 124.681L140.308 122.552Z" fill="white"/>
<path d="M139.091 119.512C138.483 119.208 137.57 119.816 137.265 120.728C136.657 121.64 136.961 122.553 137.57 122.857C138.178 123.161 139.091 122.553 139.396 121.64C140.005 120.728 139.7 119.816 139.091 119.512ZM138.787 121.336C138.483 121.64 138.178 121.945 137.874 121.945C137.57 121.945 137.57 121.336 137.874 121.032C138.178 120.728 138.483 120.424 138.787 120.424C139.091 120.424 139.091 121.032 138.787 121.336Z" fill="white"/>
<path d="M141.826 112.518L140 113.734L140.913 116.471C140.913 116.775 141.217 116.775 141.217 116.471L142.435 115.559C142.739 115.254 142.739 115.254 142.739 114.95L141.826 112.518Z" fill="white"/>
<path d="M138.48 108.868L140.306 107.652L139.697 105.219C139.697 104.915 139.393 104.915 139.393 105.219L138.175 106.435C137.871 106.739 137.871 106.739 137.871 107.043L138.48 108.868Z" fill="white"/>
<path d="M139.697 105.523C139.697 105.219 139.393 105.219 139.393 105.523L138.175 106.435C137.871 106.739 137.871 106.739 137.871 107.043V107.348L139.697 105.523Z" fill="white"/>
<path d="M142.743 112.821C142.743 112.821 142.743 113.125 142.438 113.125L140.004 115.558H139.699C139.699 115.558 139.699 115.254 140.004 115.254L142.743 112.821C142.438 112.517 142.743 112.517 142.743 112.821Z" fill="white"/>
<path d="M142.436 112.517L140.61 106.739C140.61 106.739 140.306 106.435 140.306 106.739L138.175 108.564C138.175 108.564 137.871 108.868 137.871 109.172V109.476C138.175 109.172 138.175 109.172 138.48 108.868C139.088 108.564 139.697 108.564 140.002 108.868C140.306 109.172 140.306 109.78 140.306 110.084C140.306 110.692 140.002 111.301 139.697 111.605C139.393 111.909 139.393 111.909 139.088 112.213L139.697 114.646C139.697 114.646 140.002 114.95 140.002 114.646L142.132 112.821C142.132 113.125 142.436 112.821 142.436 112.517Z" fill="white"/>
<path d="M140.007 109.172C139.703 108.564 138.79 108.868 138.181 109.781C137.573 110.693 137.268 111.605 137.573 112.213C137.877 112.822 138.79 112.517 139.399 111.605C140.007 110.997 140.312 109.781 140.007 109.172ZM139.094 111.301C138.79 111.605 138.486 111.909 138.181 111.605C137.877 111.301 138.181 110.997 138.486 110.389C138.79 110.085 139.094 109.781 139.399 110.085C139.399 110.389 139.399 110.693 139.094 111.301Z" fill="white"/>
<path d="M140 120.12C140 120.424 140 120.424 140 120.728L143.957 117.079L143.652 115.862L140 119.207C140 119.512 140 119.816 140 120.12Z" fill="white"/>
<path d="M135.438 117.687C135.438 116.167 136.351 114.038 137.569 112.822C137.569 112.822 137.569 112.822 137.264 112.518C136.96 112.213 136.96 111.605 136.96 111.301V110.997C136.047 111.909 135.134 112.822 134.525 114.038C133.612 115.863 133.004 117.687 132.699 119.512C132.699 121.032 133.004 124.377 136.047 124.073L136.351 122.553V122.249C136.351 121.641 136.351 121.336 136.656 120.728C136.656 120.424 136.96 120.424 136.96 120.12C136.351 120.12 135.438 118.904 135.438 117.687Z" fill="white"/>
<path d="M143.957 121.336C143.957 121.945 143.652 122.249 143.348 122.553L133.913 128.027C133.609 128.331 133.305 128.027 133.305 127.722C133.305 127.114 133.609 126.81 133.913 126.506L143.348 121.032C143.652 120.728 143.957 121.032 143.957 121.336Z" fill="white"/>
<path d="M103.789 204.052V196.753C103.789 199.49 105.615 202.227 109.267 204.052V211.35C105.311 209.526 103.789 206.789 103.789 204.052Z" fill="url(#paint12_linear)"/>
<path d="M108.959 204.356V211.654C105.307 209.526 103.48 206.789 103.48 204.356V197.058C103.785 199.49 105.611 202.227 108.959 204.356Z" fill="url(#paint13_linear)"/>
<path d="M117.178 208.917V216.216L108.961 211.654V204.356L117.178 208.917Z" fill="url(#paint14_linear)"/>
<path d="M207.871 170.905V178.203C207.871 180.94 206.35 183.677 203.002 185.502C187.176 195.537 158.871 205.876 143.045 215.912C136.045 220.169 124.48 220.169 117.176 216.216V208.917C124.48 213.175 136.045 212.871 143.045 208.613C158.871 198.578 187.176 188.238 203.002 178.203C206.35 176.379 207.871 173.642 207.871 170.905Z" fill="url(#paint15_linear)"/>
<path d="M207.869 170.905V178.203C207.869 180.94 206.347 183.677 202.999 185.502C187.173 195.537 158.869 205.876 143.042 215.912C141.825 216.52 140.608 217.432 139.086 217.736V210.438C140.608 209.83 141.825 209.221 143.042 208.613C158.869 198.578 187.173 188.238 202.999 178.203C206.347 176.379 207.869 173.642 207.869 170.905Z" fill="url(#paint16_linear)"/>
<path d="M139.089 210.742V218.041C132.089 220.473 123.263 219.865 117.176 216.52V209.222C122.958 212.263 132.089 212.871 139.089 210.742Z" fill="url(#paint17_linear)"/>
<path d="M202.392 162.998C209.697 167.255 210.001 173.946 203.001 178.507C187.175 188.543 158.871 198.882 143.045 208.917C136.045 213.175 124.479 213.175 117.175 209.221L109.262 204.66C101.958 200.402 102.262 193.712 109.566 189.759C126.914 180.636 144.566 164.215 161.914 154.787C169.523 150.834 181.392 150.834 188.697 155.091L202.392 162.998Z" fill="white"/>
<path d="M197.826 177.291C194.478 179.42 190.826 181.244 186.565 183.373C182.608 185.197 178.652 187.326 174.391 189.151C174.087 189.151 174.087 189.151 173.782 189.455L172.261 190.063C171.652 190.367 171.347 190.367 170.739 190.671C162.521 191.888 153.391 190.671 146.695 187.022L146.391 186.718L146.087 186.414C141.826 183.677 139.695 180.028 139.695 176.683C139.695 174.858 140.608 173.033 142.13 171.817C142.434 171.817 142.434 171.513 142.739 171.513L143.043 171.209C146.391 168.776 149.739 166.343 153.087 163.91C156.434 161.478 160.087 159.349 163.434 157.524C169.826 154.179 179.565 154.179 185.652 157.828L197.217 164.519C203.304 167.864 203.608 173.642 197.826 177.291Z" fill="url(#paint18_linear)"/>
<path d="M173.783 186.414L147.609 171.209L171.653 157.22L198.131 172.425L173.783 186.414Z" fill="url(#paint19_linear)"/>
<path opacity="0.2" d="M189.91 176.987L173.779 186.414L157.953 176.987H189.91Z" fill="#808080"/>
<path opacity="0.2" d="M180.78 162.39H162.52L171.65 157.22L180.78 162.39Z" fill="#808080"/>
<path opacity="0.2" d="M192.652 169.08L150.652 169.384L153.391 167.56H189.913L192.652 169.08Z" fill="#808080"/>
<path opacity="0.2" d="M198.131 172.425L197.522 172.729H150.349L147.609 171.209L196.001 170.905L198.131 172.425Z" fill="#808080"/>
<path d="M174.699 189.151C174.395 189.151 174.395 189.151 174.09 189.455L157.96 180.028L157.656 179.724L157.351 179.42L143.047 171.209L143.351 170.905L157.96 179.116L158.264 179.42L174.699 189.151Z" fill="white"/>
<path d="M158.569 179.724L158.264 180.028L147.004 186.718L146.699 186.414L157.96 180.028L158.264 179.724H158.569Z" fill="white"/>
<path d="M171.653 158.741L196.609 173.033L198.131 172.425L171.653 157.22L147.609 171.209L149.131 172.121L171.653 158.741Z" fill="#808080"/>
<path d="M171.652 158.741V157.22L198.131 172.425L196.609 173.033L171.652 158.741Z" fill="#E6E6E6"/>
<path d="M166.479 166.343L168.913 166.647L170.435 167.56L162.826 171.817L161.305 170.905L167.392 167.256L165.566 166.647L166.479 166.343Z" fill="white"/>
<path d="M169.526 169.384C170.743 168.776 172.265 168.776 173.178 169.384L175.004 170.297C176.526 171.209 175.917 171.817 175.004 172.425L171.048 174.554C169.83 175.162 168.613 175.162 167.395 174.554L165.569 173.642C164.352 173.034 164.352 172.121 165.569 171.513L169.526 169.384ZM167.395 173.034L168.308 173.642C168.917 173.946 169.221 173.946 169.83 173.642L173.178 171.817C173.787 171.513 173.787 171.209 173.178 170.905L172.265 170.297C171.656 169.993 171.048 169.993 170.743 170.297L167.395 172.121C166.787 172.425 167.091 172.729 167.395 173.034Z" fill="white"/>
<path d="M177.434 171.817C178.651 172.121 179.564 172.73 180.781 173.338C182.303 174.25 181.999 175.162 180.781 176.075C178.955 176.987 175.303 176.683 174.086 176.683L176.825 178.203L175.608 179.116L170.434 176.075L171.651 175.467C173.173 175.771 178.347 176.075 179.564 175.467C180.173 175.162 180.173 174.554 179.26 174.25L176.521 172.73L177.434 171.817Z" fill="white"/>
<path d="M147.615 175.77L149.136 176.682L146.397 179.419L150.962 177.899L152.484 178.811L147.615 182.156L146.702 181.548L150.049 179.115L145.484 180.636L144.267 180.027L147.006 177.291L142.745 179.419L141.832 178.811L147.615 175.77Z" fill="white"/>
<path d="M158.261 183.981C159.479 183.373 160.392 183.677 161.305 183.981C162.218 184.285 162.826 184.893 163.131 185.197L162.218 185.806C161.913 185.502 160.696 184.893 160.392 184.589C160.087 184.285 159.783 184.285 159.174 184.589L158.87 184.893C158.566 185.197 158.566 185.197 158.87 185.502L159.783 186.11C161 186.718 160.087 187.326 159.479 187.63L159.174 187.934C157.957 188.543 157.044 188.238 156.131 187.934C155.218 187.326 154.609 187.022 154.305 186.718L155.218 186.11C155.522 186.414 156.435 186.718 157.044 187.326C157.348 187.63 157.653 187.63 158.261 187.326L158.566 187.022C158.87 186.718 158.87 186.718 158.566 186.414L157.653 185.806C156.435 184.893 157.348 184.285 157.653 184.285L158.261 183.981Z" fill="white"/>
<path d="M140.916 189.455C134.525 185.805 124.482 185.805 118.09 189.455C111.699 193.104 111.699 198.882 118.09 202.531C124.482 206.18 134.525 206.18 140.916 202.531C147.308 198.882 147.308 193.104 140.916 189.455Z" fill="url(#paint20_linear)"/>
<path d="M129.655 202.531C136.042 202.531 141.22 199.536 141.22 195.841C141.22 192.146 136.042 189.151 129.655 189.151C123.268 189.151 118.09 192.146 118.09 195.841C118.09 199.536 123.268 202.531 129.655 202.531Z" fill="url(#paint21_linear)"/>
<path d="M114.736 213.174L110.78 210.742C109.867 210.133 109.258 208.917 109.258 208.005C109.258 207.092 109.867 206.484 110.78 207.092L114.736 209.525C115.649 210.133 116.258 211.35 116.258 212.262C116.258 213.175 115.649 213.783 114.736 213.174Z" fill="url(#paint22_linear)"/>
<path d="M115.348 209.83L112.609 211.35L95.8699 221.081L91.3047 218.649V218.345L91.9134 218.04L94.3482 216.52L101.653 212.263L105 210.438L107.435 209.222L108.044 208.917L110.783 207.397L115.348 209.83Z" fill="#998282"/>
<path d="M112.001 211.35V211.958L109.566 213.175V212.871L112.001 211.35Z" fill="#CC3300"/>
<path d="M95.8699 221.082V220.777L91.3047 218.041V218.649L95.8699 221.082Z" fill="#F2EAE6"/>
<path d="M115.044 209.526L112.609 211.35H112L109.566 212.871L106.218 214.695L98.9134 218.953L95.8699 220.777L91.3047 218.04L91.9134 217.736L94.3482 216.52L101.653 212.262L105 210.134L107.435 208.917L108.044 208.309L110.479 207.093H110.783L115.044 209.526Z" fill="#FBFBFB"/>
<path d="M112 211.35L109.565 212.871L105 210.134L107.435 208.917L112 211.35Z" fill="#FF7866"/>
<path d="M163.739 176.986L164.044 176.682C164.044 176.682 164.044 176.682 163.739 176.682H163.435L162.826 176.378H162.522L163.131 176.074C163.131 176.074 163.131 176.074 162.826 176.074H162.522L161.609 176.378H161.305L162.218 175.77H162.522H162.826C162.826 175.77 162.826 175.77 163.131 175.77H163.435H163.739C163.739 175.77 164.044 175.77 163.739 176.074C163.739 176.074 163.739 176.074 163.435 176.378L163.739 176.986Z" fill="white"/>
<path d="M164.955 177.595C164.651 177.595 164.651 177.899 164.347 177.899C164.042 177.899 164.042 177.899 163.738 177.899C163.738 177.899 163.738 177.899 163.434 177.899H163.738C163.738 177.899 163.738 177.899 164.042 177.899C164.042 177.899 164.042 177.899 164.347 177.899C164.347 177.899 164.347 177.899 164.651 177.899C164.651 177.595 164.651 177.595 164.955 177.595C164.651 177.595 164.651 177.595 164.651 177.595C164.651 177.595 164.651 177.595 164.347 177.595L164.042 177.29C164.042 177.29 164.042 176.986 164.347 176.986H164.651H164.955H165.26H165.564H165.868L164.955 177.595ZM164.955 177.29L165.564 176.986H165.26H164.955C164.955 176.986 164.651 176.986 164.651 177.29C164.651 177.29 164.651 177.29 164.651 177.595C164.651 177.29 164.651 177.29 164.955 177.29Z" fill="white"/>
<path d="M167.395 177.291L164.961 177.899H164.656L167.395 177.291Z" fill="white"/>
<path d="M167.089 178.811C166.784 178.507 166.784 178.507 166.784 178.507C166.784 178.507 166.784 178.507 166.48 178.507L166.176 178.203C166.176 178.203 166.176 177.899 166.48 177.899H166.784H167.089H167.393H167.698L168.002 177.595H168.306L167.089 178.811ZM167.089 178.507L167.698 178.203H167.393H167.089C167.089 178.203 166.784 178.203 166.784 178.507C166.784 178.507 166.784 178.507 166.784 178.811C166.784 178.507 166.784 178.507 167.089 178.507C166.784 178.507 167.089 178.507 167.089 178.507Z" fill="white"/>
<path d="M168.304 179.42L167.391 179.115L168.912 178.203H169.217L167.999 178.811L168.304 179.42Z" fill="white"/>
<path d="M177.432 158.132C177.127 158.132 176.823 158.132 176.823 158.132H176.519C176.519 158.132 176.214 158.132 176.214 157.828L175.605 157.524L177.432 156.612L178.04 156.916C178.04 156.916 178.345 156.916 178.345 157.22C178.345 157.22 178.345 157.22 178.345 157.524H178.04H177.736C177.736 157.524 177.736 157.828 177.432 158.132C177.736 157.828 177.736 158.132 177.432 158.132ZM177.432 157.828C177.432 157.524 177.432 157.524 177.432 157.524C177.432 157.524 177.432 157.524 177.127 157.524L176.823 157.22L176.214 157.524L176.519 157.828H176.823H177.127C177.127 158.132 177.127 158.132 177.432 157.828C177.127 158.132 177.127 157.828 177.432 157.828ZM178.04 157.524C178.04 157.22 178.04 157.22 178.04 157.524C178.04 157.22 178.04 157.22 178.04 157.524C178.04 157.22 178.04 157.22 178.04 157.524C178.04 157.22 178.04 157.22 177.736 157.22L177.432 156.916L176.823 157.22L177.127 157.524C177.127 157.524 177.127 157.524 177.432 157.524C177.432 157.524 177.432 157.524 177.736 157.524C177.736 157.524 177.736 157.524 178.04 157.524C177.736 157.524 178.04 157.524 178.04 157.524Z" fill="white"/>
<path d="M178.346 159.349L177.129 158.74L178.955 157.828H179.259L177.738 158.74L178.346 159.349Z" fill="white"/>
<path d="M181.693 159.349C181.388 159.653 181.388 159.653 181.084 159.957C181.084 159.957 180.78 159.957 180.78 160.261C180.475 160.261 180.475 160.261 180.171 160.261C179.867 160.261 179.866 160.261 179.866 160.261C179.866 160.261 179.562 160.261 179.562 159.957C179.562 159.957 179.258 159.957 179.258 159.653C179.258 159.349 179.258 159.349 179.258 159.349V159.045L179.562 158.741C179.562 158.741 179.866 158.741 179.866 158.437C180.171 158.437 180.171 158.437 180.475 158.437H180.78C180.78 158.437 181.084 158.437 181.084 158.741C181.388 158.741 181.388 159.045 181.693 159.349C181.693 159.045 181.693 159.045 181.693 159.349ZM180.78 159.653C181.084 159.653 181.084 159.349 181.084 159.349C181.084 159.349 181.084 159.045 180.78 159.045C180.475 159.045 180.475 159.045 180.171 159.045C179.867 159.045 179.562 159.045 179.562 159.349C179.258 159.349 179.258 159.653 179.258 159.653C179.258 159.653 179.258 159.957 179.562 159.957C179.867 159.957 179.867 159.957 180.171 159.957C180.475 159.957 180.78 159.653 180.78 159.653Z" fill="white"/>
<path d="M183.521 160.261C183.521 160.565 183.521 160.565 183.521 160.261C183.216 160.565 183.216 160.565 182.912 160.869C182.912 160.869 182.608 160.869 182.608 161.173C182.303 161.173 182.303 161.173 181.999 161.173C181.695 161.173 181.695 161.173 181.695 161.173C181.695 161.173 181.39 161.173 181.39 160.869C181.39 160.869 181.086 160.869 181.086 160.565V160.261V159.957L181.39 159.653C181.39 159.653 181.695 159.653 181.695 159.349C181.999 159.349 181.999 159.349 182.303 159.349H182.608C182.608 159.349 182.912 159.349 182.912 159.653C183.216 159.957 183.521 159.957 183.521 160.261ZM182.912 160.869C183.216 160.869 183.216 160.565 183.216 160.565C183.216 160.565 183.216 160.261 182.912 160.261C182.608 160.261 182.608 160.261 182.303 160.261C181.999 160.261 181.695 160.261 181.695 160.565C181.39 160.565 181.39 160.869 181.39 160.869C181.39 160.869 181.39 161.173 181.695 161.173C181.999 161.173 181.999 161.173 182.303 161.173C182.303 160.869 182.608 160.869 182.912 160.869Z" fill="white"/>
<path d="M185.04 162.086C184.736 162.086 184.736 162.39 184.432 162.39C184.127 162.39 184.127 162.39 183.823 162.39H183.519C183.519 162.39 183.214 162.39 183.214 162.086L182.605 161.478L184.432 160.565L184.736 160.87C185.04 160.87 185.04 161.174 185.04 161.174C185.04 161.174 185.04 161.174 185.345 161.478V161.782C185.345 161.782 185.04 161.782 185.04 162.086ZM184.736 161.782C184.736 161.782 185.04 161.782 184.736 161.782C185.04 161.478 185.04 161.478 185.04 161.174C185.04 161.174 185.04 161.174 185.04 160.87C185.04 160.87 185.04 160.87 184.736 160.565H184.432L182.91 161.478H183.214C183.214 161.478 183.519 161.478 183.519 161.782H183.823H184.127C184.432 162.086 184.736 161.782 184.736 161.782Z" fill="white"/>
<path d="M186.869 163.91V163.302L185.956 162.998L185.347 163.302H185.043L187.478 162.694L187.782 162.998L186.869 163.91ZM186.869 163.302L187.478 162.694L186.26 162.998L186.869 163.302Z" fill="white"/>
<path d="M188.385 164.822L188.689 163.302L187.168 164.214H186.863L188.689 163.302L188.994 163.606L188.385 164.822L189.907 163.91H190.211L188.385 164.822Z" fill="white"/>
<path d="M190.213 166.039V165.43L189.3 165.126L188.691 165.43H188.387L190.822 164.822L191.126 165.126L190.213 166.039ZM190.517 165.43L191.126 164.822L189.908 165.126L190.517 165.43Z" fill="white"/>
<path d="M191.733 166.951L190.516 166.343L192.342 165.431H192.646L191.124 166.343L191.733 166.951Z" fill="white"/>
<path d="M194.778 166.647L193.256 166.951L192.343 167.255H192.039L192.648 166.951L192.952 166.039L193.256 166.343L192.952 166.951L194.778 166.647Z" fill="white"/>
<path d="M194.475 168.472L192.953 167.559H193.257H195.692L194.779 166.951H195.084L196.301 167.863H195.997H193.562L194.475 168.472Z" fill="white"/>
<path d="M195.999 169.384L194.781 168.776L196.607 167.863L197.825 168.471H197.52L196.607 167.863L195.999 168.167L196.912 168.776H196.607L195.694 168.167L195.086 168.471L195.999 169.384Z" fill="white"/>
<path d="M198.123 170.601L197.819 170.296V169.688L197.515 169.384L196.906 169.688H196.602L198.428 168.776L199.036 169.08C199.036 169.08 199.341 169.08 199.341 169.384C199.341 169.384 199.341 169.384 199.341 169.688C199.341 169.688 199.341 169.688 199.341 169.992C199.341 169.992 199.341 169.992 199.036 170.296H198.732C198.732 170.296 198.428 170.296 198.123 170.296V170.601ZM198.732 169.384C198.732 169.08 198.732 169.08 198.732 169.384C198.732 169.08 198.732 169.08 198.732 169.08L198.428 168.776L197.819 169.08H198.123C198.123 169.08 198.123 169.08 198.428 169.08C198.428 169.08 198.428 169.08 198.732 169.08C198.428 169.688 198.428 169.688 198.732 169.384Z" fill="white"/>
<g opacity="0.8">
<path opacity="0.8" d="M126.306 34.6677L124.176 33.7554L124.48 60.5162L126.306 61.7326V34.6677Z" fill="url(#paint23_linear)"/>
<path opacity="0.5" d="M149.741 21.2872L147.611 20.0708L124.176 33.7553L126.306 34.6676L149.741 21.2872Z" fill="url(#paint24_linear)"/>
<path opacity="0.8" d="M126.305 34.6675V61.7324L149.739 48.0479V21.2871L126.305 34.6675Z" fill="url(#paint25_linear)"/>
</g>
<path d="M139.091 31.0186C138.786 31.6268 132.699 43.1826 132.699 47.44C132.699 51.3933 135.438 53.2179 139.091 51.0892C142.743 48.9605 145.482 44.0949 145.482 40.1416C145.482 35.8842 139.395 31.3227 139.091 31.0186Z" fill="white"/>
<path opacity="0.2" d="M111.388 69.335L49.9102 104.915V125.898L111.388 90.3179V69.335Z" fill="#CADCE0"/>
<path opacity="0.5" d="M65.739 106.131C65.739 101.873 62.6955 100.049 59.0433 102.178C55.3911 104.306 52.3477 109.476 52.3477 113.733C52.3477 117.991 55.3911 119.815 59.0433 117.687C62.6955 115.862 65.739 110.388 65.739 106.131Z" fill="#CADCE0"/>
<path d="M78.5187 104.003L67.2578 110.693V107.956L78.5187 101.266V104.003Z" fill="white"/>
<path d="M58.7342 104.611C58.4299 104.915 55.082 111.301 55.082 113.734C55.082 115.863 56.6038 116.775 58.7342 115.863C60.8646 114.646 62.3864 111.909 62.3864 109.781C62.082 107.348 58.7342 104.915 58.7342 104.611Z" fill="white"/>
<path d="M82.1758 93.0544L83.3932 92.4462L85.828 95.4872V91.2298L87.0454 90.6216V97.3118L85.828 97.92L83.3932 94.879V99.4405L82.1758 100.049V93.0544Z" fill="white"/>
<path d="M89.7867 90.9258C91.3084 90.0135 91.9171 90.3176 91.9171 92.4463C91.9171 94.2709 91.3084 95.1832 89.7867 96.0955C88.2649 97.0078 87.6562 96.7037 87.6562 94.8791C87.6562 92.4463 88.2649 91.534 89.7867 90.9258ZM89.7867 94.8791C90.3954 94.575 90.6997 94.2709 90.6997 93.0545C90.6997 91.534 90.3954 91.534 89.7867 91.8381C89.178 92.1422 88.8736 92.4463 88.8736 93.9668C88.8736 95.1832 89.178 95.1832 89.7867 94.8791Z" fill="white"/>
<path d="M92.5195 89.4057L93.4326 88.7975L93.7369 89.4057C94.0413 88.7975 94.3456 88.1893 94.9543 87.8852C95.2587 87.8852 95.2587 87.5811 95.563 87.5811V88.7975C95.563 88.7975 95.2587 89.1016 94.9543 89.1016C94.3456 89.4057 94.0413 89.7098 93.7369 90.318V93.663L92.5195 94.2712V89.4057Z" fill="white"/>
<path d="M95.8743 87.2764L96.7874 86.6682L97.0917 86.9723C97.3961 86.3641 97.7004 86.06 98.3091 85.4518C98.9178 85.1477 99.2222 85.1477 99.5265 85.4518C99.8309 84.8436 100.44 84.2354 101.048 83.9313C101.961 83.3231 102.266 83.9313 102.266 84.8436V88.1887L101.048 88.7969V85.4518C101.048 84.8436 100.744 84.8436 100.44 85.1477C100.135 85.4518 99.5265 85.7559 99.2222 86.06V86.3641V89.7092L98.0048 90.3174V86.9723C98.0048 86.3641 97.7004 86.3641 97.3961 86.6682C97.0917 86.9723 96.7874 87.2764 96.483 87.5805V91.2297L95.2656 91.8379V87.2764H95.8743Z" fill="white"/>
<path d="M102.871 86.3643C102.871 85.7561 103.175 84.8438 104.088 84.2356L105.306 83.6274V83.3233C105.306 82.7151 105.002 82.7151 104.697 83.0192C104.393 83.3233 103.175 83.9315 102.871 84.2356V83.3233C103.48 82.7151 104.088 82.411 105.002 81.8028C105.915 81.1946 106.523 81.1946 106.523 82.411V86.0602L105.61 86.6684L105.306 86.3643C105.306 86.3643 104.697 87.2766 104.088 87.8848C103.175 88.493 102.871 87.8848 102.871 87.2766V86.3643ZM104.393 86.3643C105.002 86.0602 105.306 85.452 105.306 85.452V84.5397L104.393 85.1479C104.088 85.452 104.088 85.7561 104.088 85.7561V86.0602C104.088 86.6684 104.393 86.3643 104.393 86.3643Z" fill="white"/>
<path d="M107.438 78.1536L108.655 77.5454V83.0192C108.655 83.6274 108.959 83.9315 108.959 83.9315H109.568V84.8438L108.655 85.1479C108.046 85.452 107.438 85.452 107.438 83.9315V78.1536Z" fill="white"/>
<path opacity="0.2" d="M116.872 121.64L55.0898 157.22V178.203L116.872 142.623V121.64Z" fill="#CADCE0"/>
<path d="M61.7896 173.033L63.3114 158.132L64.8331 166.951L66.9636 158.436L68.7896 162.998L70.3114 158.74L72.1375 162.694L74.5723 152.658L76.3983 163.91L78.2244 155.395L86.1375 150.834L87.3549 146.272L89.1809 156.004L91.9201 143.84L94.0505 150.53L96.7896 138.366L100.137 150.53L102.877 139.582L103.79 142.623L106.224 135.021L108.964 141.407L111.094 136.237L113.833 134.716C113.833 134.716 114.137 134.412 113.833 134.412C113.833 134.412 113.529 134.108 113.529 134.412L110.79 135.933L109.268 140.19L106.529 133.804L104.094 141.103L103.181 137.757L100.137 149.009L96.7896 136.845L93.7462 149.009L91.6157 142.319L88.8766 153.875L87.0505 144.144L85.5288 150.834L77.6157 155.395L76.3983 161.477L74.5723 150.53L72.1375 161.477L70.3114 157.524L68.7896 161.781L66.9636 156.612L65.1375 164.518L63.3114 154.483L61.7896 169.992L59.6592 160.869L58.4418 166.647L56.6157 167.559C56.6157 167.559 56.3114 167.863 56.6157 167.863C56.6157 167.863 56.9201 168.168 56.9201 167.863L58.7462 166.647L59.6592 162.998L61.7896 173.033Z" fill="white"/>
<path opacity="0.2" d="M96.4783 105.827L35 141.407V162.39L96.4783 126.81V105.827Z" fill="#CADCE0"/>
<path d="M94.3505 117.383L92.8288 115.862L88.8723 123.161L85.8288 120.12L83.394 126.506L80.3505 122.248L77.3071 130.459L76.0897 123.465L74.2636 131.98L72.1332 128.635L70.0027 135.629L68.1766 127.722L65.1332 137.453L61.7853 133.196L59.3505 138.062L56.3071 137.149V137.453C55.394 139.278 54.1766 142.319 53.5679 143.535L50.5245 139.886L47.7853 145.968L44.7418 143.535L42.6114 150.226L40.481 145.664L38.6549 151.442L38.0462 150.834C37.7418 150.834 37.7418 150.834 37.4375 150.834C37.4375 151.138 37.4375 151.138 37.4375 151.442L38.9592 152.963L40.7853 148.097L42.9158 152.658L45.3505 145.056L48.394 147.489L50.8288 142.015L53.5679 145.664L53.8723 145.36C54.1766 145.056 56.0027 140.799 56.9158 138.974L59.9592 139.886L62.394 135.325L65.7418 139.886L68.481 131.371L70.6114 138.974L73.0462 131.067L75.1766 134.717L76.6984 128.026L77.9158 133.804L81.2636 124.377L84.0027 128.635L86.7419 122.248L89.481 124.985L93.4375 117.687L94.6549 118.903V117.383H94.3505Z" fill="white"/>
<path d="M150.044 74.5042C150.348 74.2001 149.74 74.2001 149.74 73.896C149.435 73.2878 149.435 72.3755 148.522 71.4632L148.218 71.1591C148.218 71.1591 147.609 70.5509 147.305 70.5509C147.001 70.5509 147.001 70.855 147.001 70.855C147.001 71.4632 147.914 71.7673 147.914 72.3755C146.696 72.0714 144.261 69.3345 143.957 70.2468C143.957 70.855 145.783 71.7673 146.087 72.0714L145.479 71.7673C145.174 71.4632 144.566 71.1591 144.566 71.7673C144.566 72.0714 144.87 72.3755 145.174 72.6796C145.174 72.6796 145.783 72.9837 145.479 72.9837C145.174 72.9837 144.566 72.3755 144.566 72.9837C144.566 73.2878 144.566 73.2878 144.87 73.5919L145.174 73.896C144.566 73.896 144.261 74.2001 144.87 74.5042C147.001 76.0247 148.522 76.0247 148.827 76.3288C148.827 76.3288 148.827 76.3288 148.827 76.0247C148.827 75.7206 149.131 76.0247 149.131 75.7206C149.131 75.4165 149.74 74.8083 150.044 74.5042Z" fill="#FFD6BF"/>
<path d="M166.787 66.2937C166.483 65.9896 166.483 65.6855 165.874 65.6855C164.352 65.9896 162.83 66.9019 162.222 68.4224C161.917 69.3347 160.091 76.9373 159.178 77.2414C157.048 77.8496 149.743 72.984 149.743 72.984C149.743 72.984 147.309 75.7209 147.309 76.025C147.309 76.025 158.569 86.0603 162.83 82.107C165.569 79.6742 165.265 72.6799 166.178 70.2471C166.482 69.3348 166.787 68.1183 167.091 67.206C167.091 66.9019 167.091 66.5978 166.787 66.2937Z" fill="#CBD3DC"/>
<path d="M172.26 129.243C171.955 129.851 171.651 130.764 171.042 131.372C171.042 131.372 171.042 131.372 171.042 131.676C170.738 131.98 170.738 132.284 170.434 132.892C170.434 133.501 170.434 133.805 170.434 134.413C170.738 134.717 171.042 135.021 171.651 135.325C172.26 135.325 172.564 135.325 173.173 135.021C174.086 134.717 174.999 134.109 175.303 133.196C175.608 132.588 175.912 131.98 175.912 131.372C175.912 130.764 176.216 130.155 176.216 129.851H172.26V129.243Z" fill="#CBD3DC"/>
<path d="M167.084 124.985C167.084 124.985 169.824 123.769 170.128 127.418C170.128 128.33 168.91 128.634 168.606 128.938C168.302 128.938 167.997 128.938 167.693 129.243C167.389 129.547 167.084 129.851 167.084 130.155C165.867 131.675 163.432 131.675 162.519 131.067C161.302 130.155 163.128 128.634 164.954 127.418C166.476 125.897 167.084 124.985 167.084 124.985Z" fill="#CBD3DC"/>
<path d="M170.735 93.055C170.735 96.096 171.04 97.9206 171.04 105.219C171.04 105.219 170.431 110.997 170.431 111.301C170.431 113.734 171.648 122.857 169.822 126.202C169.518 127.114 166.17 126.81 165.257 126.506C164.953 126.506 163.431 103.699 163.735 93.055C163.735 92.1427 163.735 91.8386 163.735 91.8386C165.257 91.5345 170.735 91.5345 170.735 93.055Z" fill="#0B7C92"/>
<path d="M177.739 114.038C177.739 118.295 178.957 123.465 176.522 129.851C176.218 131.067 172.261 130.155 171.957 129.243C171.653 126.81 171.044 120.12 170.739 113.43C170.739 112.821 170.739 106.131 170.435 104.002C170.435 103.09 168.913 98.5287 168.609 97.3123C168.305 96.0959 168.305 94.8795 168.305 93.6631C168.305 93.6631 178.348 92.7508 178.653 93.359C180.783 97.6164 177.739 113.125 177.739 114.038Z" fill="#0B90AA"/>
<path d="M174.996 72.0721L178.952 71.768C178.952 70.2475 178.952 69.3352 178.343 68.4229C177.43 67.2065 172.561 65.686 171.343 65.3819C169.213 65.0778 167.691 64.4696 165.561 66.9024C164.648 68.1188 164.039 70.5516 164.039 72.3762H164.648L165.561 90.3181L174.691 89.7099L174.083 79.9787H175.3L174.996 72.0721Z" fill="url(#paint26_linear)"/>
<path d="M171.953 66.9022C172.561 66.5981 173.474 66.294 173.474 65.6858C173.474 64.4694 173.474 62.0366 173.474 62.0366L169.213 63.8612C169.213 63.8612 168.909 65.9899 169.213 66.5981C169.213 67.2063 171.039 67.2063 171.953 66.9022Z" fill="#FFC6A6"/>
<path d="M169.523 73.8965C168.914 72.0719 167.697 72.0719 168.001 66.294C168.001 65.6858 168.61 65.0776 168.61 65.0776C168.306 65.0776 167.697 65.3817 167.088 65.3817C166.784 65.3817 166.175 65.6858 165.871 65.6858C165.262 65.9899 164.654 66.294 164.349 66.5981C162.827 68.4227 163.436 72.6801 163.436 73.8965C163.436 74.5047 163.436 75.7211 163.74 76.9375C163.74 77.8498 164.045 79.0662 164.045 80.2826C164.045 81.8032 163.74 85.4524 163.436 88.1893C163.132 90.0139 162.219 107.043 162.219 107.348C162.219 107.348 162.523 108.868 166.175 109.172C168.306 109.476 168.306 100.049 168.61 100.353C168.914 100.353 169.523 79.9785 169.523 73.8965Z" fill="#E1E6EC"/>
<path d="M178.958 90.6221C178.045 87.8852 178.045 86.0606 177.741 83.9319C177.437 80.5868 178.654 77.8499 178.958 75.7212C179.263 74.8089 180.176 70.5515 179.871 69.3351C179.567 68.4228 178.35 67.8146 177.741 67.8146C177.741 67.8146 175.611 66.9023 173.785 65.3818C171.958 71.7679 169.524 74.2007 169.524 74.2007C169.219 78.4581 168.002 96.4 168.306 101.874C168.611 102.178 168.306 109.172 169.219 109.476C171.045 110.389 177.437 110.997 179.567 108.564C179.871 108.26 181.089 96.4 178.958 90.6221Z" fill="#EBEFF3"/>
<path d="M169.217 97.008C169.217 96.3998 168.912 96.0957 168.304 96.0957C167.695 96.0957 167.391 96.3998 167.391 97.008C167.391 97.6162 167.695 97.9203 168.304 97.9203C168.912 97.6162 169.217 97.3121 169.217 97.008Z" fill="#FCFBFB"/>
<path d="M169.826 66.5981C169.522 66.294 169.522 66.294 169.522 65.9899C169.522 65.3817 169.522 65.0776 169.522 65.0776C169.522 65.0776 169.522 65.0776 169.218 65.0776L168.913 65.3817H168.609V66.294H168.305C168.305 66.5981 169.218 68.1186 169.218 68.7268C169.218 68.7268 170.739 67.2063 171.044 66.9022C170.435 66.9022 170.131 66.9022 169.826 66.5981Z" fill="url(#paint27_linear)"/>
<path d="M166.785 67.2062L167.698 68.7267L167.09 70.8554L169.829 73.8964C169.829 73.8964 168.611 66.9021 169.829 64.4693C171.046 62.0365 166.785 67.2062 166.785 67.2062Z" fill="#FCFBFB"/>
<path d="M174.086 65.9898L173.781 65.0775L173.477 64.7734C173.477 65.0775 173.477 65.3816 173.173 65.6857C173.173 65.9898 172.868 65.9898 172.564 66.2939C172.26 66.598 171.955 66.9021 171.651 66.9021C171.042 67.2062 170.434 67.2062 170.434 67.2062L171.955 69.0308C172.26 68.7267 174.694 66.9021 174.086 65.9898Z" fill="url(#paint28_linear)"/>
<path d="M172.872 69.3349L175.611 67.2062C175.611 67.2062 174.698 65.0775 173.785 64.7734C173.785 65.0775 169.828 73.5923 169.828 73.8964L173.785 71.4636L172.872 69.3349Z" fill="#FCFBFB"/>
<path d="M167.997 65.6854C168.606 66.2936 169.214 66.2936 170.127 66.2936C171.04 66.2936 172.258 65.6854 172.866 65.0772C172.866 65.0772 172.866 65.0772 173.171 64.7731C173.779 63.8608 174.997 61.7321 175.301 60.8198C175.301 60.5157 175.301 60.5157 175.301 60.2116C175.606 57.4747 173.171 56.8665 171.345 55.346C170.127 54.4337 168.91 54.1296 167.997 54.7378C167.084 55.0419 166.475 55.9542 166.475 57.4747C166.171 60.8198 166.171 64.1649 167.997 65.6854Z" fill="#FFD6BF"/>
<path d="M166.475 57.4748C166.78 57.4748 166.475 56.2584 168.91 56.8666C170.432 57.4748 171.345 56.5625 171.649 57.1707C171.954 57.7789 172.258 58.6912 171.954 59.9076C171.954 60.2117 171.649 62.9486 172.258 62.3404C172.867 62.0363 172.562 62.3404 172.867 62.6445C173.475 63.5568 173.171 64.165 173.171 64.7732C173.78 64.4691 176.214 62.0363 176.519 59.6035C177.127 55.3461 174.693 54.7379 174.693 54.7379C174.693 54.7379 172.258 51.3928 168.91 53.2174C165.562 54.7379 166.171 57.4748 166.475 57.4748Z" fill="#451D2E"/>
<path d="M174.389 54.7383C173.172 55.3465 172.259 56.5629 171.65 57.7793C171.955 58.3875 171.955 59.2998 171.65 59.908C171.65 60.2121 171.346 62.949 171.955 62.3408C172.563 62.0367 172.259 62.3408 172.563 62.6449C173.172 63.5572 172.868 64.1654 172.868 64.7736C173.476 64.4695 175.911 62.0367 176.216 59.6039C177.129 55.3465 174.389 54.7383 174.389 54.7383Z" fill="#381523"/>
<path d="M171.954 63.8607C172.258 64.1648 173.171 63.8607 173.476 63.2525C174.084 62.6443 174.084 61.732 173.78 61.4279C173.476 61.1238 172.563 61.4279 172.258 62.0361C171.649 62.6443 171.649 63.5566 171.954 63.8607Z" fill="#FFD6BF"/>
<path d="M172.564 63.253C172.869 63.5571 173.173 63.253 173.477 62.9489C173.782 62.6448 173.782 62.3407 173.477 62.0366C173.173 62.0366 172.869 62.0366 172.564 62.3407C172.26 62.6448 172.26 63.253 172.564 63.253Z" fill="#F5C2A6"/>
<path d="M167.391 95.1835C167.696 94.8794 168 94.2712 168.609 93.9671C168.304 94.5753 167.696 94.8794 167.087 95.1835C167.087 95.1835 166.782 95.4876 166.478 95.1835C166.174 94.8794 167.391 93.663 167.696 93.3589C168 93.0548 168 93.0548 168.304 92.7507C167.696 93.0548 167.087 93.3589 166.782 93.0548C166.782 92.7507 167.391 92.4466 167.696 92.4466C168.304 92.1425 168.913 91.5343 169.522 91.2302C169.522 91.2302 170.13 90.9261 170.435 90.9261C170.435 90.9261 170.739 90.622 171.043 90.622L171.348 90.9261L172.261 90.3179C172.869 90.622 173.174 91.2302 173.782 91.5343L173.478 92.1425C173.174 92.4466 173.174 92.7507 172.869 93.0548C172.565 93.3589 172.261 93.663 172.261 93.9671C171.956 94.2712 171.652 94.5753 171.348 94.8794C170.739 95.4876 170.435 95.7917 169.826 96.3999L169.522 96.704C169.522 96.3999 170.13 95.4876 170.435 95.1835C170.13 95.7917 169.522 96.0958 169.217 96.704C169.217 96.704 168.913 97.0081 168.609 96.704C168.609 96.3999 168.609 96.3999 168.609 96.0958C168.913 95.7917 168.913 95.4876 169.217 95.1835C168.913 95.4876 168.609 96.0958 168 96.3999H167.696C166.478 96.0958 167.087 95.1835 167.391 95.1835Z" fill="#FFD6BF"/>
<path d="M178.655 67.814C178.35 67.814 177.742 68.1181 177.742 71.1591C177.742 76.0247 178.046 77.5452 177.742 81.1944C175.915 84.2354 173.176 86.06 170.133 90.6215C170.133 91.8379 171.959 92.7502 172.568 93.3584C172.568 93.3584 181.394 84.5395 181.698 83.9313C183.828 79.978 182.915 72.3755 182.611 70.855C181.698 69.0304 180.481 68.1181 178.655 67.814Z" fill="#FCFBFB"/>
<path d="M170.131 78.4582C170.131 77.85 169.826 77.5459 169.218 77.5459C168.609 77.5459 168.305 77.85 168.305 78.4582C168.305 79.0664 168.609 79.3705 169.218 79.3705C169.826 79.3705 170.131 78.7623 170.131 78.4582Z" fill="#FCFBFB"/>
<path d="M169.822 85.4519C169.822 84.8437 169.518 84.5396 168.909 84.5396C168.3 84.5396 167.996 84.8437 167.996 85.4519C167.996 86.0601 168.3 86.3642 168.909 86.3642C169.518 86.3642 169.822 85.756 169.822 85.4519Z" fill="#FCFBFB"/>
<path d="M70.6065 154.788C69.9978 155.092 69.0848 155.092 69.0848 155.092C67.8674 155.7 66.9543 156.612 65.7369 157.524C64.8239 158.133 58.4326 159.045 57.5195 159.349C57.5195 158.741 58.7369 164.215 58.7369 164.519C58.7369 164.519 64.5195 160.565 65.1282 160.261C65.7369 159.957 66.65 159.957 67.2587 159.957C67.2587 159.349 67.563 159.045 67.563 158.437C67.8674 157.829 68.4761 157.524 69.0848 157.22C69.3891 156.916 69.6935 156.308 69.6935 156.308C69.9978 156.308 70.3022 156.004 70.6065 156.004V154.788Z" fill="#F5C2A6"/>
<path d="M47.7788 162.998C71.5179 214.086 51.431 167.559 53.5614 169.688C56.9093 169.688 57.8223 166.647 58.1266 165.126C56.6049 163.302 53.8658 160.565 52.0397 158.74C49.9093 156.611 46.5614 160.261 47.7788 162.998Z" fill="#8CAED5"/>
<path d="M60.5598 221.689C59.3424 222.298 57.5163 223.514 56.2989 222.602C55.3859 221.993 55.6902 220.473 56.2989 219.257C56.9076 218.344 57.212 217.432 58.4293 217.128C58.7337 217.128 59.3424 216.824 59.6467 217.128C60.5598 218.04 62.6902 218.04 64.212 218.04C64.5163 218.04 65.125 218.04 65.4293 218.04C66.6467 218.344 66.9511 219.561 65.125 220.473C62.9946 221.689 61.7772 221.081 60.5598 221.689Z" fill="#171D23"/>
<path d="M50.2103 215.911C50.2103 215.911 48.9929 218.344 49.906 219.561C50.2103 219.865 51.1234 220.169 52.3408 219.865C53.2538 219.865 53.8625 219.561 54.7755 219.561C56.906 219.561 58.4277 218.648 59.6451 217.432C62.0799 214.999 58.1234 215.303 55.6886 215.911C53.2538 216.216 50.2103 215.911 50.2103 215.911Z" fill="#171D23"/>
<path d="M55.3826 215.912L57.5131 186.718C57.8174 184.589 56.6 182.765 54.4696 182.461C52.3392 182.157 48.687 181.852 48.3826 183.981C47.4696 189.759 51.1218 191.888 49.9044 198.274C48.9913 202.531 49.2957 213.479 49.6 215.303C50.2087 217.128 54.7739 217.432 55.3826 215.912Z" fill="#2E2644"/>
<path d="M54.7762 182.461C52.6457 182.157 48.9935 181.852 48.6892 183.981C48.3849 184.893 48.3849 185.806 48.6892 186.718C49.2979 186.718 49.9066 187.326 50.2109 187.63C50.8196 189.759 53.5588 193.712 53.5588 194.625C54.7762 201.923 55.0805 209.526 54.1675 216.824C54.7762 216.824 55.3849 216.52 55.6892 215.912L57.8196 186.718C57.8196 184.589 56.9066 182.765 54.7762 182.461Z" fill="#3F354D"/>
<path d="M61.7798 218.04C62.3885 214.695 62.0841 209.526 62.3885 204.66C62.3885 200.707 62.9972 188.847 62.9972 188.847C62.9972 186.718 62.6928 180.028 60.8667 180.028C59.0406 180.028 50.8233 180.028 50.8233 184.285C50.8233 187.022 50.2146 187.63 52.9537 191.584C54.7798 194.321 55.3885 199.186 55.0841 202.531C54.7798 208.917 55.0841 217.736 55.0841 217.736C55.3885 219.865 61.4754 219.257 61.7798 218.04Z" fill="url(#paint29_linear)"/>
<path d="M61.1685 180.332C59.3424 180.332 51.125 180.332 51.125 184.589C51.125 185.501 51.125 186.109 51.125 187.022C54.4728 188.542 58.125 188.846 61.7772 188.238C62.0815 188.238 62.3859 188.846 62.3859 189.15C62.3859 190.975 62.0815 192.496 62.0815 194.32C61.7772 202.531 63.2989 211.046 60.8641 218.952C61.4728 218.648 62.0815 218.344 62.0815 218.04C62.6902 214.695 62.3859 209.525 62.6902 204.66C62.6902 200.706 63.2989 188.846 63.2989 188.846C62.9946 187.022 62.9946 180.332 61.1685 180.332Z" fill="#2E2644"/>
<path d="M62.387 173.946C62.0826 176.987 63.3 182.765 62.9957 185.198C62.6913 187.326 48.6913 187.63 48.0826 184.589C47.4739 182.157 49.6044 176.987 49.3 174.858C48.6913 169.992 48.0826 163.606 48.0826 161.478C48.0826 160.565 48.0826 159.653 48.9957 159.045C49.9087 158.133 51.4305 157.828 53.5609 158.133L57.8218 158.741C58.7348 159.349 63.3 159.957 63.9087 162.694C63.9087 162.694 63.6044 163.606 63.3 165.127C62.9957 167.256 62.6913 173.642 62.387 173.946Z" fill="#9CBFE8"/>
<path d="M63.3011 165.127C63.6055 163.606 63.9098 162.694 63.9098 162.694C63.6055 161.782 62.9968 160.869 61.7794 160.261C57.5185 159.957 57.8229 165.735 58.4316 169.992C60.2576 173.337 62.0837 178.203 61.475 183.069C61.475 185.501 59.0402 186.414 56.6055 187.022C59.9533 187.022 62.9968 186.414 62.9968 185.501C63.3011 183.373 62.0837 177.595 62.3881 174.25C62.6924 173.641 62.9968 167.255 63.3011 165.127Z" fill="#8CAED5"/>
<path d="M60.2605 154.483C59.9561 153.875 58.1301 153.875 57.5214 153.875C56.304 153.875 55.3909 153.875 54.1735 153.875L53.8692 154.787C53.8692 155.396 53.5648 156.004 53.8692 156.612C53.8692 157.22 53.8692 157.828 53.5648 158.437C53.2605 159.045 53.2605 159.653 54.1735 159.957C56.304 160.869 58.7387 160.869 59.0431 159.957C59.3474 159.349 58.7387 158.741 59.0431 157.22C59.3474 156.004 60.2605 155.091 60.2605 154.483Z" fill="#FFD6BF"/>
<path d="M61.7781 150.226C62.0825 152.963 62.0825 156.004 60.5607 157.22C59.952 157.524 59.3433 157.524 58.7346 157.524H58.4303C57.5173 157.22 56.9086 156.916 56.2999 156.612C55.6912 156.308 54.7781 153.571 54.4738 152.659C53.8651 149.922 55.9955 149.618 57.5173 148.401C59.3433 147.185 61.4738 147.489 61.7781 150.226Z" fill="#FFD6BF"/>
<path d="M60.2565 146.272C59.6478 145.664 58.4304 145.36 57.5174 145.056C57.213 145.056 56.6044 144.752 56.3 144.752C53.5609 145.056 52.6478 146.881 52.6478 146.881C52.6478 146.881 47.1696 149.922 52.9522 156.308C53.2565 156.612 53.2565 156.916 53.5609 157.22C53.8652 157.22 55.9957 157.524 56.3 157.22C56.6044 156.916 56.9087 156.612 57.213 156.004C57.5174 155.7 57.5174 155.091 57.8217 154.787C57.8217 154.483 58.1261 154.179 58.4304 154.179C58.7348 153.875 59.3435 153.875 59.6478 153.571C59.9522 153.267 59.9522 152.659 59.9522 152.354C59.9522 152.05 59.9522 151.746 59.9522 151.442C59.9522 150.834 60.2565 150.53 60.5609 150.226C61.1696 149.618 61.7783 149.922 62.0826 149.009C62.387 148.401 61.7783 147.489 60.2565 146.272Z" fill="#816E5D"/>
<path d="M60.2596 146.272C59.6509 145.664 58.4335 145.36 57.5204 145.056C57.2161 145.056 56.6074 144.752 56.303 144.752C53.5639 145.056 52.6509 146.881 52.6509 146.881C52.6509 146.881 49.303 148.705 50.5204 152.354C52.3465 149.922 55.9987 149.618 59.0422 150.834C59.3465 150.834 59.6509 151.138 59.9552 151.138C59.9552 150.834 60.2596 150.53 60.5639 150.226C61.1726 149.618 61.7813 149.922 62.0856 149.009C62.39 148.401 61.7813 147.489 60.2596 146.272Z" fill="#816E5D"/>
<path d="M50.5156 152.659C50.82 153.875 51.733 155.092 52.9504 156.612C53.2548 156.916 53.2548 157.22 53.5591 157.524C53.8634 157.524 55.9939 157.829 56.2982 157.524C57.2113 156.916 57.2113 156.004 57.82 155.092C57.82 154.788 58.1243 154.483 58.4287 154.483C58.733 154.179 59.3417 154.179 59.6461 153.875C59.9504 153.571 59.9504 152.963 59.9504 152.659C59.9504 152.355 59.9504 152.051 59.9504 151.747V151.442C59.6461 151.138 59.3417 151.138 59.0374 151.138C55.9939 149.922 52.3417 150.226 50.5156 152.659Z" fill="#746150"/>
<path d="M59.0377 153.875C59.3421 154.483 59.3421 155.091 58.7334 155.395C58.429 155.7 57.516 155.395 57.2116 154.787C56.9073 154.179 56.9073 153.571 57.516 153.267C58.1247 152.963 58.7334 153.267 59.0377 153.875Z" fill="#FFD6BF"/>
<path d="M58.7337 154.179C58.7337 154.483 58.7337 154.787 58.7337 154.787C58.4293 154.787 58.4293 154.787 58.125 154.483C58.125 154.179 58.125 153.875 58.125 153.875C58.125 153.875 58.4293 153.875 58.7337 154.179Z" fill="#F5C2A6"/>
<path d="M70.3047 162.39V162.998C70.3047 162.998 70.3047 162.998 70.3047 163.302L70.609 163.606V163.302C70.609 163.302 70.609 163.302 70.609 162.998L70.3047 162.39Z" fill="#9CB5CC"/>
<path d="M70.3047 154.787L71.5221 155.395L70.3047 154.787Z" fill="#9CB5CC"/>
<path d="M69.3938 154.179C69.0895 154.179 69.0895 154.179 69.3938 154.179L68.7852 160.869C68.7852 160.869 68.7852 161.174 69.0895 161.174L72.4373 163.302H72.7417L73.046 156.612C73.046 156.612 73.046 156.308 72.7417 156.308L69.3938 154.179Z" fill="#283033"/>
<path d="M72.4331 155.699C72.7374 156.003 73.0418 156.307 73.0418 156.611L72.7374 164.214C72.7374 164.518 72.4331 164.518 72.1287 164.518L69.0853 162.693C68.7809 162.389 68.4766 162.085 68.4766 161.781L68.7809 154.179C68.7809 153.875 69.0853 153.875 69.3896 153.875L72.4331 155.699ZM68.7809 160.869C68.7809 160.869 68.7809 161.173 69.0853 161.173L72.1287 162.998H72.4331L72.7374 156.611C72.7374 156.611 72.7374 156.307 72.4331 156.307L69.3896 154.483H69.0853L68.7809 160.869ZM70.3027 162.693C70.3027 162.998 70.3027 162.998 70.3027 162.693L70.9113 162.998V162.693C70.9113 162.693 70.9113 162.693 70.9113 162.389L70.607 162.085L70.3027 162.693ZM71.52 155.395L70.607 154.787L71.52 155.395Z" fill="#F2F2F2"/>
<path d="M69.3938 153.267C69.6982 153.267 69.6982 153.267 69.3938 153.267C69.6982 153.267 69.6982 153.267 69.6982 153.267L72.7417 155.091C72.7417 155.091 73.046 155.091 73.046 155.395C73.046 155.699 73.3504 155.699 73.3504 156.003L73.046 163.91C73.046 164.214 73.046 164.214 72.7417 164.214L72.133 164.518C72.133 164.518 72.133 164.214 72.4373 164.214L72.7417 156.612C72.7417 156.308 72.7417 156.003 72.4373 156.003C72.4373 156.003 72.4373 155.699 72.133 155.699L69.3938 153.267C69.3938 153.571 69.3938 153.571 69.3938 153.267C69.0895 153.571 69.0895 153.571 68.7852 153.571L69.3938 153.267Z" fill="#D7E7F7"/>
<path d="M69.082 156.308L70.6038 157.22L72.1255 158.132V161.173L70.6038 160.261L69.082 159.349V156.308Z" fill="#83CFF2"/>
<path d="M69.082 155.091C69.082 154.787 69.3864 154.787 69.082 155.091L70.6038 156.003L72.1255 156.915V157.828L70.6038 156.915L69.082 156.003V155.091Z" fill="white"/>
<path d="M69.082 159.653L70.6038 160.565L72.1255 161.477V162.39L70.6038 161.477L69.082 160.565V159.653Z" fill="white"/>
<path d="M73.9507 157.829C73.6464 157.525 73.342 157.525 73.342 157.829C73.342 158.133 73.6464 159.957 73.0377 160.566C73.0377 160.566 72.7333 161.174 72.1246 160.87C71.8203 160.566 71.5159 159.957 71.5159 159.653C71.2116 159.045 70.6029 159.653 70.9072 159.957C70.9072 160.261 71.2116 160.87 71.5159 161.174C71.5159 161.782 72.429 162.39 72.429 162.694V162.998C72.1246 163.302 71.2116 166.648 69.9942 166.648C67.8638 166.952 63.9072 161.174 63.9072 161.174C62.9942 160.566 61.7768 159.957 60.8638 160.566C60.5594 160.87 59.9507 161.174 59.9507 161.478C58.429 163.302 59.9507 164.823 61.1681 165.735C61.1681 165.735 61.4725 166.648 62.6898 167.256C65.1246 169.08 69.6898 172.73 72.1246 171.513C73.6464 170.601 74.5594 166.648 74.5594 166.039C75.1681 164.519 75.1681 162.998 75.7768 161.478C76.0811 160.87 76.0811 160.87 76.0811 159.957C75.4724 159.349 74.2551 157.829 73.9507 157.829Z" fill="#FFD6BF"/>
<path d="M66.957 159.957C67.2614 159.957 67.5657 159.957 67.8701 159.653C68.1744 159.349 68.7831 159.044 69.0875 159.044C69.3918 159.044 70.0005 159.044 70.3049 158.74C70.6092 158.436 70.6092 158.132 70.3049 158.132C69.6962 158.132 69.0875 158.436 68.7831 158.436C68.1744 158.436 68.4788 157.828 68.7831 157.524C68.1744 157.524 67.5657 158.132 67.2614 158.74C67.2614 158.74 66.957 159.349 66.957 159.957Z" fill="#F5C2A6"/>
<path d="M68.7827 165.735L63.3044 161.174C62.3914 160.565 61.174 159.957 60.261 160.565C59.9566 160.87 59.3479 161.174 59.3479 161.478C57.8262 163.302 58.7392 165.735 59.9566 166.647L66.0436 170.601C67.5653 169.688 68.4784 167.864 68.7827 165.735Z" fill="#9CBFE8"/>
<path d="M215.17 90.3179L214.561 107.347L210.3 104.915L209.691 87.2769L215.17 90.3179ZM209.996 106.739C209.996 106.131 210.3 106.131 210.604 106.435L213.952 108.26C214.257 108.564 214.561 108.868 214.561 109.476V113.429C214.561 114.038 214.257 114.038 213.952 113.734L210.604 111.909C210.3 111.605 209.996 111.301 209.996 110.693V106.739Z" fill="white"/>
<path d="M212.737 117.991C204.52 113.125 197.824 101.57 197.824 92.1425C197.824 87.581 199.346 83.9318 202.389 82.1072C205.433 80.2826 209.085 80.8908 213.346 83.0195L213.042 83.6277L213.346 83.0195C221.563 87.8851 228.259 99.441 228.259 108.868C228.259 113.43 226.737 117.079 223.694 118.903C222.476 119.512 220.955 119.816 219.433 119.816C217.607 119.816 215.172 119.207 212.737 117.991ZM203.302 83.0195C200.868 84.54 199.346 87.581 199.346 91.8384C199.346 100.961 205.737 112.213 213.65 116.775C217.302 118.903 220.65 119.207 223.389 117.687C225.824 116.166 227.346 113.125 227.346 108.868C227.346 99.7451 220.955 88.4933 213.042 83.9318C210.911 82.7154 208.781 82.1072 206.955 82.1072C205.433 82.1072 204.216 82.4113 203.302 83.0195Z" fill="white"/>
<path d="M215.475 138.974C215.475 137.453 214.258 135.325 213.04 134.717C211.519 133.804 210.605 134.412 210.605 136.237C210.605 137.758 211.823 139.886 213.04 140.494C214.258 141.103 215.475 140.494 215.475 138.974Z" fill="white"/>
<path d="M212.449 117.42L212.355 137.49L213.573 137.496L213.666 117.425L212.449 117.42Z" fill="white"/>
<defs>
<linearGradient id="paint0_linear" x1="44.5053" y1="62.9034" x2="31.9689" y2="62.9034" gradientUnits="userSpaceOnUse">
<stop offset="0.00510204" stop-color="#E4E9F2"/>
<stop offset="1" stop-color="#B4C2DA"/>
</linearGradient>
<linearGradient id="paint1_linear" x1="62.3925" y1="225.619" x2="76.9117" y2="57.5149" gradientUnits="userSpaceOnUse">
<stop stop-color="#14DCFF"/>
<stop offset="0.288" stop-color="#0ED0FA"/>
<stop offset="1" stop-color="#00B1EF"/>
</linearGradient>
<linearGradient id="paint2_linear" x1="59.4914" y1="49.9" x2="53.2855" y2="49.9" gradientUnits="userSpaceOnUse">
<stop stop-color="#AABAD6"/>
<stop offset="1" stop-color="#96AAC9"/>
</linearGradient>
<linearGradient id="paint3_linear" x1="51.9263" y1="55.0696" x2="41.9784" y2="55.0696" gradientUnits="userSpaceOnUse">
<stop stop-color="#AABAD6"/>
<stop offset="1" stop-color="#96AAC9"/>
</linearGradient>
<linearGradient id="paint4_linear" x1="80.6393" y1="52.5846" x2="57.7569" y2="52.5846" gradientUnits="userSpaceOnUse">
<stop stop-color="#AABAD6"/>
<stop offset="1" stop-color="#96AAC9"/>
</linearGradient>
<linearGradient id="paint5_linear" x1="34.7837" y1="135.974" x2="97.1461" y2="99.4565" gradientUnits="userSpaceOnUse">
<stop stop-color="#0E98B0"/>
<stop offset="0.288" stop-color="#0A8EAB"/>
<stop offset="1" stop-color="#0076A0"/>
</linearGradient>
<linearGradient id="paint6_linear" x1="137.627" y1="47.5013" x2="120.785" y2="97.0779" gradientUnits="userSpaceOnUse">
<stop stop-color="#14DCFF"/>
<stop offset="0.288" stop-color="#0ED0FA"/>
<stop offset="1" stop-color="#00B1EF"/>
</linearGradient>
<linearGradient id="paint7_linear" x1="141.925" y1="48.9616" x2="125.085" y2="98.5377" gradientUnits="userSpaceOnUse">
<stop stop-color="#14DCFF"/>
<stop offset="0.288" stop-color="#0ED0FA"/>
<stop offset="1" stop-color="#00B1EF"/>
</linearGradient>
<linearGradient id="paint8_linear" x1="147.125" y1="50.7287" x2="130.282" y2="100.305" gradientUnits="userSpaceOnUse">
<stop stop-color="#14DCFF"/>
<stop offset="0.288" stop-color="#0ED0FA"/>
<stop offset="1" stop-color="#00B1EF"/>
</linearGradient>
<linearGradient id="paint9_linear" x1="107.874" y1="107.214" x2="141.592" y2="134.49" gradientUnits="userSpaceOnUse">
<stop stop-color="#14DCFF"/>
<stop offset="0.288" stop-color="#0ED0FA"/>
<stop offset="1" stop-color="#00B1EF"/>
</linearGradient>
<linearGradient id="paint10_linear" x1="122.562" y1="89.0571" x2="156.28" y2="116.333" gradientUnits="userSpaceOnUse">
<stop stop-color="#14DCFF"/>
<stop offset="0.288" stop-color="#0ED0FA"/>
<stop offset="1" stop-color="#00B1EF"/>
</linearGradient>
<linearGradient id="paint11_linear" x1="116.023" y1="97.1394" x2="149.741" y2="124.415" gradientUnits="userSpaceOnUse">
<stop stop-color="#14DCFF"/>
<stop offset="0.288" stop-color="#0ED0FA"/>
<stop offset="1" stop-color="#00B1EF"/>
</linearGradient>
<linearGradient id="paint12_linear" x1="103.682" y1="204.244" x2="109.04" y2="204.244" gradientUnits="userSpaceOnUse">
<stop stop-color="#AABAD6"/>
<stop offset="1" stop-color="#96AAC9"/>
</linearGradient>
<linearGradient id="paint13_linear" x1="122.73" y1="225.444" x2="104.327" y2="202.447" gradientUnits="userSpaceOnUse">
<stop stop-color="#AABAD6"/>
<stop offset="1" stop-color="#96AAC9"/>
</linearGradient>
<linearGradient id="paint14_linear" x1="124.229" y1="224.246" x2="105.827" y2="201.249" gradientUnits="userSpaceOnUse">
<stop stop-color="#AABAD6"/>
<stop offset="1" stop-color="#96AAC9"/>
</linearGradient>
<linearGradient id="paint15_linear" x1="117.034" y1="195.093" x2="207.999" y2="195.093" gradientUnits="userSpaceOnUse">
<stop offset="0.00510204" stop-color="#E4E9F2"/>
<stop offset="0.2748" stop-color="#DFE5EF"/>
<stop offset="0.598" stop-color="#D0D9E8"/>
<stop offset="0.9475" stop-color="#B8C5DC"/>
<stop offset="1" stop-color="#B4C2DA"/>
</linearGradient>
<linearGradient id="paint16_linear" x1="138.918" y1="194.376" x2="207.996" y2="194.376" gradientUnits="userSpaceOnUse">
<stop offset="0.00510204" stop-color="#E4E9F2"/>
<stop offset="0.2748" stop-color="#DFE5EF"/>
<stop offset="0.598" stop-color="#D0D9E8"/>
<stop offset="0.9475" stop-color="#B8C5DC"/>
<stop offset="1" stop-color="#B4C2DA"/>
</linearGradient>
<linearGradient id="paint17_linear" x1="131.81" y1="218.178" x2="113.408" y2="195.181" gradientUnits="userSpaceOnUse">
<stop stop-color="#AABAD6"/>
<stop offset="1" stop-color="#96AAC9"/>
</linearGradient>
<linearGradient id="paint18_linear" x1="157.444" y1="112.248" x2="171.61" y2="177.138" gradientUnits="userSpaceOnUse">
<stop stop-color="#4568DC"/>
<stop offset="0.2898" stop-color="#426FDE"/>
<stop offset="0.7163" stop-color="#3B83E2"/>
<stop offset="1" stop-color="#3494E6"/>
</linearGradient>
<linearGradient id="paint19_linear" x1="147.544" y1="171.691" x2="198.112" y2="171.691" gradientUnits="userSpaceOnUse">
<stop stop-color="#14DCFF"/>
<stop offset="0.288" stop-color="#0ED0FA"/>
<stop offset="1" stop-color="#00B1EF"/>
</linearGradient>
<linearGradient id="paint20_linear" x1="138.231" y1="206.64" x2="119.049" y2="182.668" gradientUnits="userSpaceOnUse">
<stop stop-color="#AABAD6"/>
<stop offset="1" stop-color="#96AAC9"/>
</linearGradient>
<linearGradient id="paint21_linear" x1="138.18" y1="202.612" x2="109.348" y2="179.995" gradientUnits="userSpaceOnUse">
<stop offset="0.00510204" stop-color="#E4E9F2"/>
<stop offset="0.2748" stop-color="#DFE5EF"/>
<stop offset="0.598" stop-color="#D0D9E8"/>
<stop offset="0.9475" stop-color="#B8C5DC"/>
<stop offset="1" stop-color="#B4C2DA"/>
</linearGradient>
<linearGradient id="paint22_linear" x1="108.968" y1="210.093" x2="116.304" y2="210.093" gradientUnits="userSpaceOnUse">
<stop stop-color="#AABAD6"/>
<stop offset="1" stop-color="#96AAC9"/>
</linearGradient>
<linearGradient id="paint23_linear" x1="137.627" y1="11.4916" x2="120.785" y2="61.0683" gradientUnits="userSpaceOnUse">
<stop stop-color="#14DCFF"/>
<stop offset="0.288" stop-color="#0ED0FA"/>
<stop offset="1" stop-color="#00B1EF"/>
</linearGradient>
<linearGradient id="paint24_linear" x1="141.925" y1="12.9515" x2="125.083" y2="62.5282" gradientUnits="userSpaceOnUse">
<stop stop-color="#14DCFF"/>
<stop offset="0.288" stop-color="#0ED0FA"/>
<stop offset="1" stop-color="#00B1EF"/>
</linearGradient>
<linearGradient id="paint25_linear" x1="147.125" y1="14.7185" x2="130.282" y2="64.2952" gradientUnits="userSpaceOnUse">
<stop stop-color="#14DCFF"/>
<stop offset="0.288" stop-color="#0ED0FA"/>
<stop offset="1" stop-color="#00B1EF"/>
</linearGradient>
<linearGradient id="paint26_linear" x1="164.036" y1="77.749" x2="178.899" y2="77.749" gradientUnits="userSpaceOnUse">
<stop stop-color="#4568DC"/>
<stop offset="0.2898" stop-color="#426FDE"/>
<stop offset="0.7163" stop-color="#3B83E2"/>
<stop offset="1" stop-color="#3494E6"/>
</linearGradient>
<linearGradient id="paint27_linear" x1="167.848" y1="66.9083" x2="170.626" y2="66.9083" gradientUnits="userSpaceOnUse">
<stop stop-color="#4568DC"/>
<stop offset="0.2898" stop-color="#426FDE"/>
<stop offset="0.7163" stop-color="#3B83E2"/>
<stop offset="1" stop-color="#3494E6"/>
</linearGradient>
<linearGradient id="paint28_linear" x1="170.624" y1="66.9246" x2="174.274" y2="66.9246" gradientUnits="userSpaceOnUse">
<stop stop-color="#4568DC"/>
<stop offset="0.2898" stop-color="#426FDE"/>
<stop offset="0.7163" stop-color="#3B83E2"/>
<stop offset="1" stop-color="#3494E6"/>
</linearGradient>
<linearGradient id="paint29_linear" x1="50.8233" y1="199.768" x2="63.0806" y2="199.768" gradientUnits="userSpaceOnUse">
<stop stop-color="#4568DC"/>
<stop offset="0.2898" stop-color="#426FDE"/>
<stop offset="0.7163" stop-color="#3B83E2"/>
<stop offset="1" stop-color="#3494E6"/>
</linearGradient>
</defs>
</svg>
