<svg width="143" height="136" viewBox="0 0 143 136" fill="none" xmlns="http://www.w3.org/2000/svg">
<path d="M46.7103 13L48.9625 15.9692L50.1422 21.5314L49.2306 24.6617L44.7262 25.4947L39.3906 22.7002L39.9939 17.8098L43.0773 12.3417L46.7103 13Z" fill="#C7A496"/>
<path d="M56.7932 39.2652C55.037 38.7009 53.7098 38.3113 53.7098 38.3113C53.7098 38.3113 51.8732 33.4478 55.4794 33.5687C56.4715 33.8508 57.8791 34.6972 59.3672 35.7183L56.7932 39.2652Z" fill="#F0C6B4"/>
<path d="M49.4609 15.3779C49.4609 15.3779 53.5363 16.5064 54.2603 19.6637C54.9708 22.821 54.8904 27.6979 54.8904 27.6979L50.453 21.1416L49.4609 15.3779Z" fill="#F0C6B4"/>
<path d="M59.354 99.3344C61.3246 100.275 63.1076 101.296 62.5714 102.25C60.2522 105.232 56.9811 102.129 55.0238 101.538C53.2811 101 49.4067 102.465 49.6346 98.3671L59.354 99.3344Z" fill="#D1D3D4"/>
<path d="M49.635 98.3669C49.6618 97.8698 49.7557 97.2786 49.9165 96.5934C50.4528 93.7989 47.0074 85.4019 47.1281 82.3656C47.2488 79.3292 48.3212 76.9512 48.3212 76.9512L47.9727 72.3698H54.8633C54.8633 72.3698 55.1047 77.3677 53.9651 78.9262C53.5496 79.4636 54.0322 95.7739 55.2789 97.1443C55.8554 97.7757 58.55 98.9446 59.3677 99.3477C59.7565 103.136 49.635 98.3669 49.635 98.3669Z" fill="#F0C6B4"/>
<path d="M28.0239 95.2768C28.5199 96.7547 28.8819 98.0444 28.4931 98.5147C28.0373 99.0924 24.592 100.691 22.0716 95.1021C21.026 92.845 20.2484 87.2963 22.2057 85.281C22.7285 84.8108 22.9564 84.9586 23.2514 84.9452L28.0239 95.2768Z" fill="#D1D3D4"/>
<path d="M23.2784 84.9452C23.6001 84.8914 23.6001 84.8914 23.828 84.7033C25.9059 82.0566 25.5708 77.3408 27.756 75.0434C29.3781 73.6596 32.9441 72.7191 32.9441 72.7191C32.9441 72.7191 38.2394 74.5732 37.6094 75.9302C36.9793 77.2737 33.105 79.3158 33.105 79.3158C33.105 79.3158 26.7639 85.6707 26.7639 90.3461C26.7237 91.6224 27.9034 94.8872 28.0375 95.2768C21.3077 98.5281 22.4874 86.5305 23.2784 84.9452Z" fill="#F0C6B4"/>
<path d="M47.1024 23.3044C44.7028 24.7957 39.3538 18.6424 39.3538 18.6424C39.3538 18.6424 36.7798 22.2699 35.2382 23.4118C34.9968 24.2448 37.2222 37.6934 37.2222 37.6934C37.2222 37.6934 39.8766 42.6376 39.823 44.008C39.7694 45.3784 35.7878 50.4031 34.2997 53.8156C32.7983 57.2416 30.8008 72.0875 30.8008 72.0875C30.8008 72.0875 34.1523 78.7379 41.5121 77.2466C51.3253 75.2582 55.9236 72.0069 55.9236 72.0069C55.9236 72.0069 57.291 49.073 54.8913 44.6125C53.8456 42.4092 54.6232 34.6705 54.6232 34.6705C54.6232 34.6705 57.1167 33.5554 57.1167 30.7206C57.1167 27.8858 50.6952 19.0723 49.2474 15.6329C48.6843 15.6329 47.6923 15.6329 47.6923 15.6329C47.6923 15.6329 49.6228 21.7459 47.1024 23.3044Z" fill="#11C9C4"/>
<path d="M39.7417 44.3441C39.7417 44.3441 39.8623 45.8489 44.4606 45.8892C49.0588 45.9295 54.4078 42.3557 54.4078 42.3557L54.877 44.6129C54.877 44.6129 49.4878 48.9659 43.9378 48.4687C39.2993 48.106 38.5352 46.1848 38.5352 46.1848L39.7417 44.3441Z" fill="#1C4B94"/>
<path d="M51.9123 5.43594C52.1134 5.70464 52.0732 9.21123 52.0732 9.21123C52.0732 9.21123 53.387 11.5355 53.32 11.9789C53.2663 12.4222 52.7569 12.57 52.7569 12.57C52.7569 12.57 52.8776 16.0497 52.4083 16.5334C51.0946 17.4604 45.33 16.0229 45.33 16.0229L45.1289 7.57213L49.9148 3.04448L52.1134 4.388C52.1134 4.40143 52.0732 4.89853 51.9123 5.43594Z" fill="#F0C6B4"/>
<path d="M50.1295 4.95211C50.049 8.44526 45.7323 13.1341 46.0943 19.4487C46.1345 20.5235 47.1131 21.7461 47.1131 21.7461C47.1131 21.7461 41.5228 23.8151 38.1981 19.798C38.2384 20.5504 37.3268 21.2624 37.3268 21.2624C37.3268 21.2624 36.1738 19.0322 35.7851 15.3778C35.3829 11.7234 38.1981 2.86966 39.3913 2.68157C39.8605 1.64706 40.8123 0.384152 43.4265 0.0348373C51.0277 -0.408524 52.0599 3.51455 52.3414 4.15944C52.623 4.79089 51.899 5.42234 51.899 5.42234C51.899 5.42234 51.8588 4.62967 51.3092 4.54906C50.7595 4.48188 50.5584 4.75058 50.1295 4.95211Z" fill="#232323"/>
<path d="M39.9961 2.85603C46.0958 1.78122 49.4607 4.40108 49.4607 4.40108C49.4607 4.40108 45.0635 2.49328 39.9961 2.85603Z" fill="black"/>
<path d="M41.5117 34.8456C42.8389 40.8646 48.2549 37.2237 48.2549 37.2237C48.2549 37.2237 43.5494 39.1314 41.5117 34.8456Z" fill="#1C4B94"/>
<path d="M92.8733 135.644L87.9948 127.681L89.1117 127.032L89.1189 127.04C89.7171 126.708 90.5385 126.751 91.4609 127.27C93.3129 128.308 94.8334 130.837 94.855 132.927C94.8694 133.929 94.5308 134.642 93.9759 135.002L93.9254 135.031C93.911 135.038 93.8966 135.046 93.8822 135.053L92.8733 135.644Z" fill="black"/>
<path d="M88.8587 128.171L90.862 126.996C91.0565 127.068 91.2511 127.155 91.4529 127.263C93.3049 128.3 94.8254 130.83 94.847 132.92C94.8542 133.302 94.8037 133.647 94.7101 133.943L93.485 134.656C93.1968 134.577 92.9013 134.454 92.5915 134.282C92.2456 134.087 91.9213 133.849 91.6042 133.575L89.0388 129.396C88.9379 128.985 88.8731 128.567 88.8587 128.171Z" fill="#1F1F1F"/>
<path d="M87.1106 129.77C87.1394 131.86 88.6599 134.389 90.5046 135.427C92.3566 136.465 93.8339 135.607 93.8123 133.525C93.7834 131.435 92.2629 128.906 90.4182 127.868C88.5662 126.83 87.0889 127.688 87.1106 129.77Z" fill="#2A2A2A"/>
<path d="M87.2372 129.842C87.2588 131.846 88.7216 134.281 90.5015 135.276C92.2815 136.27 93.7011 135.449 93.6794 133.446C93.6578 131.435 92.195 129.007 90.4151 128.005C88.6351 127.018 87.2155 127.839 87.2372 129.842Z" fill="#1D1D1D"/>
<path d="M87.9596 130.246C87.9812 131.802 89.1125 133.698 90.4961 134.469C91.8797 135.24 92.9822 134.606 92.9606 133.049C92.939 131.492 91.8076 129.597 90.4241 128.826C89.0477 128.055 87.9379 128.689 87.9596 130.246Z" fill="#3B3B3B"/>
<path d="M88.1303 130.34C88.1447 131.795 89.204 133.554 90.4939 134.274C91.7838 134.995 92.8143 134.404 92.7926 132.948C92.7782 131.493 91.7189 129.734 90.429 129.014C89.1391 128.3 88.1086 128.891 88.1303 130.34Z" fill="#FF4F4F"/>
<path d="M90.4582 129.036C91.7337 129.763 92.7714 131.515 92.793 132.956C92.793 133.165 92.7714 133.352 92.7353 133.518L91.0563 134.512C90.8761 134.462 90.6888 134.383 90.4942 134.275C89.2259 133.568 88.1882 131.853 88.1378 130.412L90.4582 129.036Z" fill="#D12700"/>
<path d="M91.733 130.196C92.1942 130.801 92.5401 131.515 92.6914 132.214L89.9098 133.864C89.3622 133.396 88.8866 132.761 88.5623 132.077L91.733 130.196Z" fill="#E9EAE7"/>
<path d="M91.733 130.196C92.1942 130.801 92.5401 131.515 92.6914 132.214L89.9098 133.864C89.3622 133.396 88.8866 132.761 88.5623 132.077L91.733 130.196Z" fill="#FF8372"/>
<path d="M88.5647 130.419C88.5791 131.673 89.4943 133.186 90.6041 133.806C91.7138 134.426 92.6002 133.914 92.5858 132.667C92.5714 131.413 91.6562 129.9 90.5464 129.28C89.4367 128.661 88.5503 129.172 88.5647 130.419Z" fill="#B01300"/>
<path d="M88.5648 130.952C88.5792 131.94 89.2999 133.143 90.179 133.633C91.0582 134.123 91.7572 133.72 91.7499 132.732C91.7355 131.745 91.0149 130.542 90.1358 130.052C89.2494 129.562 88.5504 129.965 88.5648 130.952Z" fill="#990F0F"/>
<path d="M91.3533 126.204L90.7624 132.855L92.0307 131.954L94.8555 128.085L91.3533 126.204Z" fill="#C4C4C4"/>
<path d="M90.0838 127.105L89.4496 131.745L90.7611 132.855L93.5859 128.985L90.0838 127.105Z" fill="#828282"/>
<path d="M110.678 125.339L105.799 117.376L106.916 116.728L106.924 116.735C107.522 116.403 108.343 116.447 109.266 116.966C111.118 118.003 112.638 120.533 112.66 122.622C112.674 123.624 112.335 124.337 111.781 124.698L111.73 124.727C111.716 124.734 111.701 124.741 111.687 124.748L110.678 125.339Z" fill="black"/>
<path d="M106.663 117.866L108.667 116.691C108.861 116.763 109.056 116.85 109.258 116.958C111.11 117.996 112.63 120.525 112.652 122.615C112.659 122.997 112.608 123.343 112.515 123.638L111.29 124.351C111.001 124.272 110.706 124.15 110.396 123.977C110.05 123.782 109.726 123.544 109.409 123.27L106.844 119.091C106.743 118.68 106.678 118.269 106.663 117.866Z" fill="#1F1F1F"/>
<path d="M104.915 119.466C104.944 121.556 106.465 124.085 108.309 125.123C110.161 126.16 111.639 125.303 111.617 123.22C111.588 121.131 110.068 118.601 108.223 117.563C106.371 116.526 104.886 117.383 104.915 119.466Z" fill="#2A2A2A"/>
<path d="M105.042 119.538C105.063 121.541 106.526 123.977 108.306 124.971C110.086 125.965 111.506 125.144 111.484 123.141C111.463 121.13 110 118.702 108.22 117.7C106.44 116.713 105.02 117.534 105.042 119.538Z" fill="#1D1D1D"/>
<path d="M105.764 119.941C105.786 121.497 106.917 123.393 108.301 124.164C109.684 124.935 110.787 124.301 110.765 122.744C110.744 121.188 109.612 119.292 108.229 118.521C106.845 117.75 105.743 118.384 105.764 119.941Z" fill="#3B3B3B"/>
<path d="M105.927 120.042C105.942 121.498 107.001 123.256 108.291 123.977C109.581 124.697 110.611 124.107 110.59 122.651C110.575 121.195 109.516 119.437 108.226 118.716C106.943 117.996 105.913 118.587 105.927 120.042Z" fill="#CA0D00"/>
<path d="M108.263 118.731C109.538 119.459 110.576 121.21 110.598 122.651C110.598 122.86 110.576 123.047 110.54 123.213L108.861 124.207C108.681 124.157 108.493 124.085 108.299 123.97C107.031 123.263 105.993 121.548 105.942 120.107L108.263 118.731Z" fill="#FF644F"/>
<path d="M109.538 119.898C109.999 120.503 110.345 121.217 110.496 121.916L107.715 123.566C107.167 123.097 106.691 122.463 106.367 121.779L109.538 119.898Z" fill="#E9EAE7"/>
<path d="M109.538 119.898C109.999 120.503 110.345 121.217 110.496 121.916L107.715 123.566C107.167 123.097 106.691 122.463 106.367 121.779L109.538 119.898Z" fill="#FF8372"/>
<path d="M106.369 120.115C106.384 121.368 107.299 122.882 108.409 123.501C109.519 124.121 110.405 123.61 110.39 122.363C110.376 121.109 109.461 119.596 108.351 118.976C107.241 118.356 106.355 118.868 106.369 120.115Z" fill="#B01300"/>
<path d="M106.37 120.647C106.384 121.635 107.105 122.838 107.984 123.328C108.863 123.818 109.562 123.415 109.555 122.427C109.54 121.44 108.82 120.237 107.94 119.747C107.054 119.257 106.355 119.66 106.37 120.647Z" fill="#990F0F"/>
<path d="M81.2405 105.133L76.362 97.1704L77.4789 96.5219L77.4861 96.5291C78.0842 96.1976 78.9057 96.2408 79.8281 96.7597C81.6801 97.7974 83.2006 100.327 83.2222 102.417C83.2366 103.418 82.8979 104.132 82.3431 104.492L82.2926 104.521C82.2782 104.528 82.2638 104.535 82.2494 104.542L81.2405 105.133Z" fill="black"/>
<path d="M77.2259 97.6681L79.2292 96.4935C79.4237 96.5655 79.6183 96.652 79.8201 96.7601C81.672 97.7978 83.1925 100.327 83.2142 102.417C83.2214 102.799 83.1709 103.145 83.0845 103.44L81.8594 104.154C81.5712 104.074 81.2757 103.952 80.9658 103.779C80.62 103.584 80.2957 103.347 79.9786 103.073L77.4132 98.8931C77.3051 98.4752 77.2403 98.0644 77.2259 97.6681Z" fill="#1F1F1F"/>
<path d="M75.4738 99.2678C75.5027 101.358 77.0232 103.887 78.8679 104.925C80.7199 105.962 82.1972 105.105 82.1755 103.022C82.1467 100.932 80.6262 98.4031 78.7815 97.3654C76.9367 96.3277 75.445 97.178 75.4738 99.2678Z" fill="#2A2A2A"/>
<path d="M75.6043 99.34C75.626 101.343 77.0888 103.779 78.8687 104.773C80.6486 105.768 82.0682 104.946 82.0466 102.943C82.025 100.933 80.5622 98.5041 78.7823 97.5025C77.0023 96.5152 75.5755 97.3295 75.6043 99.34Z" fill="#1D1D1D"/>
<path d="M76.3268 99.7435C76.3484 101.3 77.4797 103.195 78.8633 103.966C80.2469 104.737 81.3494 104.103 81.3278 102.547C81.3062 100.99 80.1748 99.0949 78.7913 98.3239C77.4077 97.5456 76.3051 98.1797 76.3268 99.7435Z" fill="#3B3B3B"/>
<path d="M76.4896 99.8367C76.504 101.292 77.5633 103.051 78.8532 103.771C80.1431 104.492 81.1736 103.901 81.152 102.445C81.1376 100.99 80.0783 99.2314 78.7884 98.5108C77.5057 97.7902 76.4752 98.3811 76.4896 99.8367Z" fill="#FF4F4F"/>
<path d="M78.8176 98.533C80.093 99.2608 81.1307 101.012 81.1523 102.453C81.1523 102.662 81.1307 102.849 81.0947 103.015L79.4157 104.01C79.2355 103.959 79.0481 103.887 78.8536 103.772C77.5853 103.066 76.5476 101.351 76.4972 99.9093L78.8176 98.533Z" fill="#D12700"/>
<path d="M80.1002 99.6929C80.5614 100.298 80.9073 101.012 81.0586 101.711L78.277 103.361C77.7294 102.892 77.2465 102.258 76.9295 101.574L80.1002 99.6929Z" fill="#E9EAE7"/>
<path d="M80.1002 99.6929C80.5614 100.298 80.9073 101.012 81.0586 101.711L78.277 103.361C77.7294 102.892 77.2465 102.258 76.9295 101.574L80.1002 99.6929Z" fill="#FFC123"/>
<path d="M76.9241 99.9166C76.9385 101.17 77.8537 102.684 78.9635 103.303C80.0732 103.923 80.9596 103.412 80.9451 102.165C80.9307 100.911 80.0155 99.3977 78.9058 98.778C77.7961 98.1511 76.9097 98.6627 76.9241 99.9166Z" fill="#B01300"/>
<path d="M76.9242 100.449C76.9386 101.437 77.6592 102.64 78.5384 103.13C79.4175 103.62 80.1165 103.217 80.1093 102.229C80.0949 101.242 79.3743 100.039 78.4951 99.5487C77.616 99.0515 76.917 99.455 76.9242 100.449Z" fill="#D92800"/>
<path d="M57.7796 118.5L52.901 110.537L54.018 109.889L54.0252 109.896C54.6233 109.564 55.4448 109.608 56.3672 110.127C58.2192 111.164 59.7397 113.694 59.7613 115.783C59.7757 116.785 59.437 117.498 58.8821 117.859L58.8317 117.888C58.8173 117.895 58.8029 117.902 58.7884 117.909L57.7796 118.5Z" fill="black"/>
<path d="M53.7649 111.035L55.7682 109.861C55.9628 109.933 56.1574 110.019 56.3591 110.127C58.2111 111.165 59.7316 113.694 59.7532 115.784C59.7604 116.166 59.71 116.512 59.6163 116.807L58.3913 117.521C58.103 117.441 57.8076 117.319 57.4977 117.146C57.1518 116.951 56.8275 116.714 56.5105 116.44L53.9451 112.26C53.8442 111.842 53.7793 111.431 53.7649 111.035Z" fill="#1F1F1F"/>
<path d="M52.0168 112.635C52.0456 114.725 53.5661 117.254 55.4109 118.292C57.2629 119.329 58.7401 118.472 58.7185 116.389C58.6897 114.3 57.1692 111.77 55.3244 110.732C53.4724 109.695 51.988 110.545 52.0168 112.635Z" fill="#2A2A2A"/>
<path d="M52.1434 112.707C52.165 114.71 53.6279 117.146 55.4078 118.14C57.1877 119.134 58.6073 118.313 58.5857 116.31C58.5641 114.299 57.1012 111.871 55.3213 110.869C53.5414 109.875 52.1146 110.696 52.1434 112.707Z" fill="#1D1D1D"/>
<path d="M52.8658 113.11C52.8874 114.667 54.0188 116.562 55.4024 117.333C56.786 118.104 57.8885 117.47 57.8669 115.913C57.8453 114.357 56.7139 112.461 55.3303 111.69C53.9467 110.912 52.8442 111.546 52.8658 113.11Z" fill="#3B3B3B"/>
<path d="M53.0287 113.204C53.0431 114.659 54.1024 116.418 55.3923 117.138C56.6822 117.859 57.7127 117.268 57.6911 115.812C57.6767 114.357 56.6174 112.598 55.3275 111.878C54.0448 111.157 53.0143 111.748 53.0287 113.204Z" fill="#CA0D00"/>
<path d="M55.3566 111.893C56.6321 112.621 57.6698 114.372 57.6914 115.813C57.6914 116.022 57.6698 116.209 57.6338 116.375L55.9547 117.369C55.7746 117.319 55.5872 117.24 55.3926 117.132C54.1244 116.425 53.0867 114.71 53.0362 113.269L55.3566 111.893Z" fill="#FF644F"/>
<path d="M56.6392 113.059C57.1004 113.665 57.4463 114.378 57.5977 115.077L54.8161 116.727C54.2684 116.259 53.7928 115.625 53.4685 114.94L56.6392 113.059Z" fill="#E9EAE7"/>
<path d="M56.6392 113.059C57.1004 113.665 57.4463 114.378 57.5977 115.077L54.8161 116.727C54.2684 116.259 53.7928 115.625 53.4685 114.94L56.6392 113.059Z" fill="#FF8372"/>
<path d="M53.4632 113.283C53.4776 114.537 54.3928 116.05 55.5025 116.67C56.6123 117.29 57.4986 116.778 57.4842 115.531C57.4698 114.278 56.5546 112.764 55.4449 112.145C54.3351 111.518 53.4488 112.029 53.4632 113.283Z" fill="#B01300"/>
<path d="M53.4633 113.809C53.4777 114.796 54.1983 116 55.0774 116.49C55.9566 116.98 56.6556 116.576 56.6484 115.589C56.634 114.602 55.9134 113.398 55.0342 112.908C54.1551 112.418 53.4561 112.822 53.4633 113.809Z" fill="#990F0F"/>
<path d="M56.1339 109.089L55.5358 115.74L56.8041 114.84L59.6289 110.977L56.1339 109.089Z" fill="#C4C4C4"/>
<path d="M54.8611 109.989L54.227 114.637L55.5385 115.74L58.3633 111.877L54.8611 109.989Z" fill="#828282"/>
<path d="M109.136 114.803L107.954 115.25L109.742 121.188L112.566 117.325L109.136 114.803Z" fill="#C4C4C4"/>
<path d="M107.87 115.705L107.164 120.987L108.468 122.089L111.293 118.227L107.87 115.705Z" fill="#828282"/>
<path d="M97.2703 128.546L111.61 120.266C112.216 119.92 112.591 119.293 112.619 118.594C112.648 117.895 112.317 117.246 111.74 116.857L81.3519 96.1252C79.6945 94.9938 77.4966 94.9073 75.7599 95.9162L55.2296 107.77C54.5739 108.145 54.192 108.844 54.2208 109.601C54.2496 110.35 54.6964 111.02 55.3738 111.337L92.3917 128.755C93.1051 129.086 93.869 129.252 94.6256 129.252C95.548 129.252 96.456 129.014 97.2703 128.546ZM80.4223 97.4943L110.811 118.226C110.955 118.32 110.969 118.464 110.962 118.536C110.962 118.608 110.933 118.745 110.782 118.832L96.4416 127.112C95.4183 127.702 94.1716 127.753 93.1051 127.248L56.0872 109.831C55.9142 109.752 55.8854 109.608 55.8854 109.529C55.8854 109.449 55.8998 109.298 56.0656 109.204L76.5886 97.3502C77.1435 97.0331 77.7632 96.8746 78.3902 96.8746C79.1036 96.8746 79.817 97.0764 80.4223 97.4943Z" fill="#C4C4C4"/>
<path d="M97.3996 128.07L111.74 119.79C112.23 119.509 112.54 118.998 112.561 118.428C112.583 117.859 112.316 117.326 111.848 117.009L81.4596 96.2768C80.6525 95.7219 79.6941 95.4337 78.6996 95.4337C77.8421 95.4337 76.9918 95.657 76.2567 96.0822L55.7264 107.936C55.1932 108.239 54.8833 108.815 54.9049 109.428C54.9338 110.041 55.2941 110.581 55.8489 110.84L92.8669 128.258C93.5082 128.56 94.2289 128.719 94.9495 128.719C95.8142 128.719 96.6645 128.495 97.3996 128.07ZM80.9479 97.0334L111.336 117.765C111.545 117.91 111.661 118.14 111.653 118.392C111.646 118.645 111.509 118.868 111.286 118.998L96.9456 127.278C96.3403 127.623 95.6557 127.811 94.9567 127.811C94.373 127.811 93.7893 127.681 93.2632 127.436L56.2453 110.019C55.9931 109.896 55.8417 109.666 55.8273 109.392C55.8129 109.118 55.9498 108.866 56.1948 108.729L76.7251 96.8749C77.3232 96.529 78.0078 96.3488 78.7068 96.3488C79.5139 96.3416 80.2922 96.5794 80.9479 97.0334Z" fill="#E0E0E0"/>
<path d="M78.3605 96.3125L77.7191 100.96L79.0307 102.063L81.8555 98.2005L78.3605 96.3125Z" fill="#828282"/>
<path d="M97.4833 128.467L111.824 120.187C112.227 119.956 112.645 119.445 112.717 117.427C112.732 117.009 112.84 113.355 111.737 112.606L81.3488 91.8739C79.8283 90.8362 78.4375 92.681 77.3205 94.1654C76.7801 94.8788 76.1748 95.6931 75.7496 95.9381L57.7126 106.351L56.8047 106.048C56.2858 105.803 53.2592 108.686 54.5491 110.639C54.8518 111.093 55.5724 109.507 56.048 109.226L57.7847 108.225L92.3814 124.503C92.7273 124.669 93.3686 125.548 93.837 126.19C94.6945 127.371 95.653 128.683 96.7267 128.683C96.9861 128.676 97.2311 128.611 97.4833 128.467ZM76.5855 97.365C77.2989 96.9542 77.9547 96.0823 78.6465 95.1599C79.1437 94.5041 80.0589 93.2791 80.412 93.2358L110.714 113.91C111.096 114.652 111.197 118.025 110.865 118.81L96.7195 126.975C96.352 126.795 95.5953 125.764 95.1846 125.195C94.4856 124.237 93.8298 123.329 93.0948 122.983L59.543 107.194L76.5855 97.365Z" fill="#C4C4C4"/>
<path d="M97.5552 128.013L111.895 119.733C112.068 119.632 112.522 119.373 112.602 117.283C112.674 115.373 112.414 113.211 111.78 112.779L81.399 92.047C81.1684 91.8884 80.9378 91.8092 80.7 91.8092C79.72 91.8092 78.7039 93.1639 77.8824 94.2592C77.2987 95.0375 76.6934 95.8446 76.2034 96.1256L57.9935 106.639L57.2224 106.229C57.1071 106.171 54.6138 109.572 55.0966 110.113C55.2407 110.271 55.565 110.451 55.7668 110.451C55.8965 110.451 56.5594 108.794 56.6819 108.722L57.3017 107.98C57.5323 107.706 57.9142 107.619 58.2313 107.771L92.8063 124.028C93.2099 124.215 93.7431 124.921 94.4061 125.829C95.206 126.925 96.1067 128.171 96.9931 128.171C97.1877 128.171 97.3678 128.121 97.5552 128.013ZM80.7721 92.7243L111.268 113.536L111.312 113.622C111.744 114.465 111.859 117.931 111.477 118.839L111.427 118.955L97.0075 127.278L96.8273 127.191C96.4454 127.011 95.9266 126.355 95.1483 125.296C94.4781 124.374 93.844 123.509 93.2027 123.199L59.0023 107.108L76.6574 96.9111C77.3059 96.5364 77.94 95.6933 78.6102 94.7997C79.756 93.2792 80.246 92.7748 80.6279 92.7315L80.7721 92.7243Z" fill="#E0E0E0"/>
<path d="M61.2101 108.044C61.2101 108.044 60.929 108.433 60.2516 108.181C59.4374 107.885 59.5527 107.633 59.5527 107.633L61.6641 98.7047L58.9762 97.5445L57.0737 106.437L56.2234 107.511L55.1569 107.323L57.7439 95.1521L63.6602 97.7103L61.2101 108.044Z" fill="#828282"/>
<path d="M60.8995 108.188C60.8347 108.188 60.7698 108.173 60.6905 108.145C60.1717 107.957 60.251 107.532 60.2582 107.482L62.3624 98.6108L59.0331 97.1696L57.0587 106.386L56.3813 107.237L55.8624 107.143L58.2909 95.7284L63.5586 98.0055L61.1734 108.065C61.1734 108.058 61.1734 108.058 61.1734 108.058C61.1589 108.065 61.0725 108.188 60.8995 108.188Z" fill="#B8B8B8"/>
<path d="M83.3161 97.6535C83.3161 97.6535 83.0639 98.2156 82.3866 97.9706C81.5723 97.6751 81.738 96.9113 81.738 96.9113L83.7773 88.3071L81.0894 87.147L79.187 96.0393L78.3367 97.113L77.2702 96.9257L79.8572 84.7545L85.7734 87.3127L83.3161 97.6535Z" fill="#828282"/>
<path d="M79.3382 61.1246C78.7905 60.8075 78.1996 60.5769 77.5799 60.44L77.1835 53.7671L77.1403 52.9817L79.4102 52.8448L79.5327 54.9778L79.9219 61.4561L79.3382 61.1246Z" fill="#B8B8B8"/>
<path d="M80.3555 68.7267L79.4547 68.2151C79.0007 67.9557 78.5107 67.7467 78.0063 67.6098L77.6532 61.6791C78.0423 61.78 78.4026 61.9386 78.7485 62.1475L80.0024 62.8754L80.3555 68.7267Z" fill="#B8B8B8"/>
<path d="M80.7852 76.1853L79.6538 75.5368C79.5169 75.4575 79.3655 75.3998 79.2286 75.335C78.9692 75.2125 78.7026 75.1044 78.4288 75.0251L78.0612 68.8783C78.3351 68.972 78.5945 69.0801 78.8467 69.2314L80.4176 70.1466L80.7852 76.1853Z" fill="#B8B8B8"/>
<path d="M81.1758 82.6423L78.8986 82.7793L78.5095 76.2433C78.7041 76.3226 78.8986 76.4162 79.0932 76.5315L79.3094 76.654L80.8803 77.5692L81.1758 82.6423Z" fill="#B8B8B8"/>
<path d="M115.875 102.408L115.781 102.466C115.781 102.466 115.781 102.466 115.767 102.466L115.594 102.567L112.113 104.57C112.099 104.57 112.099 104.585 112.092 104.585C112.07 104.599 112.049 104.606 112.027 104.621L108.64 106.595C108.597 106.617 108.539 106.638 108.489 106.66C108.467 106.674 108.445 106.696 108.409 106.703L105.203 108.562C105.109 108.62 105.008 108.663 104.907 108.721L104.619 108.858C103.841 109.197 102.998 109.384 102.155 109.384C101.549 109.384 100.965 109.305 100.389 109.124C100.266 109.088 100.137 109.045 100.014 109.002L60.6832 94.2942C59.7247 93.9267 59.0618 93.134 58.896 92.1612C58.8528 91.909 58.8384 91.6496 58.86 91.3758L58.9753 90.1867C58.9969 89.9345 59.0185 89.6823 59.0546 89.4373L60.6615 88.5005C60.6183 89.1274 60.5462 89.7328 60.4886 90.3453L60.3949 91.2893L60.3733 91.5199C60.3301 92.0243 60.5679 92.6224 61.202 92.8674L100.548 107.575C101.218 107.827 101.924 107.914 102.623 107.835C103.135 107.777 103.639 107.64 104.107 107.409L104.28 107.33C104.338 107.309 104.381 107.287 104.439 107.251L104.734 107.078L107.826 105.291L107.869 105.269L108.518 104.894L111.508 103.172L112.294 102.718L115.097 101.097L115.111 101.118L115.126 101.14L115.875 102.408Z" fill="#828282"/>
<path d="M116.172 102.25L116.093 102.272V102.286L115.956 102.387L115.819 102.466L115.725 102.524H115.711L115.696 102.538L115.631 102.574L112.403 104.441C112.389 104.455 112.367 104.455 112.36 104.462L109.016 106.401C108.879 106.48 108.757 106.538 108.641 106.595C108.598 106.617 108.541 106.639 108.49 106.66C108.469 106.675 108.447 106.696 108.411 106.703C108.375 106.718 108.332 106.739 108.296 106.747L108.144 106.804C107.438 107.064 106.696 107.201 105.954 107.201C105.543 107.201 105.132 107.157 104.736 107.078C104.541 107.042 104.361 106.999 104.174 106.927C104.058 106.905 103.943 106.869 103.835 106.826L64.4894 92.1038C63.5238 91.7362 62.8608 90.9292 62.7023 89.9491C62.6591 89.6969 62.6447 89.4375 62.6663 89.1709L62.7816 88.0323C62.8176 87.7585 62.8392 87.4846 62.8608 87.2252L64.4822 86.2884C64.4246 86.9298 64.3669 87.5639 64.3021 88.1908L64.2084 89.0772L64.1868 89.3294C64.1435 89.8194 64.3813 90.4319 65.0155 90.6769L104.383 105.406C105.024 105.644 105.709 105.738 106.386 105.666C106.84 105.63 107.301 105.514 107.719 105.349L107.834 105.291L107.878 105.269L108.173 105.132C108.195 105.118 108.231 105.096 108.267 105.089L108.577 104.909L111.769 103.072L111.783 103.057L112.353 102.726L115.12 101.119L115.458 100.924L115.48 100.938H115.494L115.595 100.96V101.645L116.172 102.25Z" fill="#828282"/>
<path d="M116.235 102.12L116.292 102.214L115.867 102.452L115.853 102.466H115.838L115.665 102.567L112.841 104.217C112.689 104.296 112.552 104.376 112.408 104.433C112.394 104.448 112.372 104.448 112.365 104.455C112.286 104.498 112.206 104.534 112.127 104.57C112.113 104.57 112.113 104.585 112.106 104.585C112.084 104.599 112.062 104.606 112.041 104.621L111.961 104.657C111.925 104.657 111.904 104.671 111.868 104.678C111.198 104.916 110.499 105.046 109.792 105.046C109.382 105.046 108.985 105.003 108.582 104.909C108.56 104.923 108.546 104.909 108.538 104.894H108.524C108.366 104.858 108.214 104.83 108.07 104.779C108.048 104.779 108.027 104.779 108.005 104.765C107.991 104.75 107.991 104.75 107.984 104.75C107.883 104.714 107.782 104.686 107.674 104.649L68.3282 89.9417C67.3482 89.5742 66.6852 88.7311 66.5267 87.7511C66.4907 87.5133 66.4835 87.2755 66.5051 87.0233L66.642 85.6685C66.6636 85.4523 66.6852 85.2361 66.6996 85.0199L68.3066 84.0976C68.2634 84.6813 68.2057 85.2505 68.1481 85.8198L68.0472 86.8791L68.0112 87.1674C67.9679 87.6718 68.2057 88.2843 68.8399 88.5221L108.185 103.23C108.827 103.468 109.497 103.561 110.16 103.489C110.585 103.468 111.003 103.374 111.399 103.215L111.515 103.172L111.63 103.129C111.644 103.129 111.652 103.115 111.652 103.115L111.767 103.071L111.781 103.057C111.897 103.014 111.997 102.956 112.098 102.898L112.372 102.725H112.387L115.132 101.14L115.485 100.938H115.5L115.564 100.895L115.882 100.83V101.551L116.609 101.904L116.235 102.12Z" fill="#828282"/>
<path d="M116.235 102.12L116.292 102.214L115.954 102.452H115.874L115.86 102.466H115.781C115.781 102.466 115.781 102.466 115.766 102.466L115.723 102.524H115.709L115.694 102.538L115.673 102.574H115.471C114.865 102.769 114.231 102.87 113.604 102.87C113.194 102.87 112.783 102.827 112.387 102.733H112.372C112.358 102.733 112.358 102.733 112.351 102.733C112.336 102.733 112.315 102.733 112.307 102.719C112.127 102.683 111.94 102.625 111.76 102.567C111.659 102.546 111.565 102.51 111.471 102.474L72.1259 87.7658C71.1314 87.3983 70.4757 86.5552 70.3243 85.5679V85.5535C70.2883 85.3229 70.2811 85.0851 70.3027 84.8473L70.418 83.7087C70.454 83.4133 70.4757 83.1178 70.5117 82.8224L72.1187 81.9C72.061 82.563 71.9962 83.2115 71.9385 83.8601L71.8592 84.6816L71.8232 84.9914C71.78 85.4959 72.0178 86.1084 72.6591 86.3462L112.005 101.054C112.617 101.285 113.273 101.371 113.907 101.328C114.26 101.306 114.613 101.234 114.945 101.133L115.038 101.054L115.464 100.931L115.485 100.946H115.5L115.564 100.903L115.622 100.867L115.882 100.831V101.551L116.609 101.904L116.235 102.12Z" fill="#828282"/>
<path d="M118.723 100.528C118.29 100.629 117.844 100.686 117.39 100.686C116.777 100.686 116.15 100.586 115.545 100.391C115.451 100.355 115.372 100.333 115.285 100.297L75.9542 85.5896C74.9598 85.222 74.2896 84.3573 74.1671 83.3412C74.1239 83.1251 74.1239 82.8945 74.1455 82.6567L74.2247 81.936C74.268 81.5397 74.3184 81.1362 74.3472 80.747C74.8517 80.5669 75.3633 80.4588 75.8894 80.4155C75.8533 80.9848 75.7885 81.5469 75.7308 82.1018L75.666 82.7503L75.6516 82.808C75.6083 83.298 75.8317 83.9105 76.4803 84.1555L115.826 98.8633C116.409 99.0794 117.015 99.1731 117.613 99.1371C117.872 99.1371 118.139 99.0939 118.391 99.0362L118.564 99.0218V99.8073L118.723 100.528Z" fill="#828282"/>
<path d="M102.398 108.815C101.808 108.815 101.26 108.736 100.734 108.57C100.604 108.534 100.489 108.491 100.374 108.448L61.0424 93.7398C60.2065 93.4228 59.6228 92.7238 59.4714 91.8734C59.4282 91.65 59.421 91.4194 59.4426 91.1744C59.4426 91.1744 59.594 89.6107 59.6156 89.4161L60.5091 88.8973C60.4875 89.0919 60.2785 91.2609 60.2785 91.2609C60.2209 91.8878 60.5235 92.6589 61.3306 92.9616L100.676 107.669C101.231 107.878 101.808 107.979 102.384 107.979C102.557 107.979 102.737 107.972 102.91 107.95C103.479 107.885 104.02 107.734 104.503 107.496L104.668 107.417C104.726 107.395 104.784 107.367 104.856 107.323L115.211 101.335L115.629 102.056L112.256 104.001H112.206L112.127 104.073L108.689 106.07L108.531 106.134L108.466 106.178L105.259 108.037C105.202 108.073 104.971 108.195 104.971 108.195L104.704 108.325C103.984 108.642 103.184 108.815 102.398 108.815Z" fill="#E0E0E0"/>
<path d="M106.189 106.639C105.821 106.639 105.432 106.596 105.036 106.524C104.856 106.495 104.69 106.452 104.531 106.387C104.387 106.351 104.294 106.322 104.193 106.286L64.8399 91.5638C63.9968 91.2467 63.4059 90.5405 63.269 89.6758C63.2257 89.4452 63.2185 89.2146 63.2401 88.984L63.3554 87.8454C63.3843 87.6364 63.3987 87.4203 63.4203 87.2113L64.3138 86.6924C64.2778 87.1104 64.2346 87.5212 64.1913 87.9319L64.076 89.0777C64.0184 89.7046 64.3211 90.4757 65.1281 90.7783L104.488 105.5C105.029 105.702 105.591 105.803 106.174 105.803C106.333 105.803 106.491 105.796 106.65 105.782C107.118 105.745 107.616 105.63 108.077 105.436L108.545 105.212L108.581 105.198L108.978 104.967L112.163 103.137L115.485 101.206V101.552L115.859 101.948H115.809L115.701 102.056L112.465 103.915L112.379 103.944L112.336 104.002L109.078 105.875C108.978 105.933 108.891 105.976 108.805 106.019L108.632 106.099L108.502 106.171L108.257 106.264C107.587 106.509 106.895 106.639 106.189 106.639Z" fill="#E0E0E0"/>
<path d="M110.008 104.47C109.64 104.47 109.287 104.434 108.927 104.354L108.898 104.326H108.79L108.761 104.318L108.747 104.326C108.66 104.304 108.523 104.268 108.386 104.225L108.314 104.189H108.192L107.99 104.102L68.659 89.4017C67.8087 89.0847 67.2178 88.364 67.0737 87.4777C67.0448 87.2543 67.0376 87.0453 67.0521 86.8363C67.0521 86.8363 67.225 85.1645 67.2322 85.006L68.1258 84.4944C68.0897 84.8475 67.9168 86.6202 67.9168 86.6202L67.8808 86.9012C67.8231 87.5426 68.1258 88.3136 68.9329 88.6163L108.278 103.324C108.819 103.526 109.381 103.627 109.936 103.627C110.094 103.627 110.246 103.619 110.404 103.605C110.851 103.583 111.305 103.483 111.737 103.31L111.903 103.245H111.975L112.04 103.187L112.162 103.137L112.177 103.122C112.278 103.079 112.371 103.029 112.465 102.971L112.696 102.827L115.737 101.076V101.53L116.09 101.703L115.953 101.782L116.003 101.868L112.854 103.699C112.674 103.792 112.573 103.85 112.472 103.893L112.379 103.929L112.292 104.009C112.299 104.001 112.299 103.994 112.292 103.994C112.278 103.994 112.249 104.009 112.213 104.023L112.04 104.102C112.004 104.109 111.975 104.117 111.954 104.131C111.327 104.354 110.671 104.47 110.008 104.47Z" fill="#E0E0E0"/>
<path d="M113.829 102.294C113.44 102.294 113.058 102.251 112.683 102.164C112.424 102.121 112.251 102.063 112.085 102.013C111.97 101.984 111.898 101.955 111.818 101.926L72.4729 87.2186C71.6154 86.9015 71.0245 86.1809 70.8875 85.2873C70.8515 85.0567 70.8515 84.8477 70.8659 84.6532L71.0533 82.8012L71.9396 82.2968L71.7379 84.4226L71.7018 84.7252C71.6442 85.3666 71.9468 86.1376 72.7539 86.4403L112.114 101.148C112.662 101.35 113.238 101.451 113.815 101.451C113.93 101.451 114.045 101.451 114.16 101.436C114.535 101.415 114.91 101.343 115.277 101.227L115.342 101.206L115.429 101.126L115.703 101.047H115.76V101.523L116.113 101.696L115.976 101.775L116.041 101.876H116.02L115.998 101.89H115.912L115.825 101.948H115.796L115.746 101.991H115.688C115.025 102.2 114.413 102.294 113.829 102.294Z" fill="#E0E0E0"/>
<path d="M117.617 100.117C117.041 100.117 116.457 100.024 115.873 99.8363L115.628 99.7498L76.2901 85.042C75.4325 84.725 74.8344 83.9755 74.7191 83.0748C74.6831 82.8874 74.6759 82.7001 74.6975 82.4695C74.6975 82.4695 74.8488 81.1003 74.8849 80.7832C75.1587 80.6967 75.4325 80.6319 75.7352 80.5887C75.7136 80.8769 75.6775 81.1651 75.6487 81.4534L75.5406 82.5055C75.4686 83.1973 75.7712 83.9683 76.5855 84.2638L115.931 98.9715C116.472 99.1733 117.026 99.2742 117.596 99.2742C117.682 99.2742 117.862 99.267 117.862 99.267C118.064 99.267 118.266 99.2381 118.446 99.2093V99.5985L118.547 100.038C118.23 100.088 117.92 100.117 117.617 100.117Z" fill="#E0E0E0"/>
<path d="M81.7001 82.6518L82.4883 83.9521L60.2533 97.4304L59.4651 96.1301L81.7001 82.6518Z" fill="#AEAEAE"/>
<path d="M85.4266 84.0343L86.2148 85.3344L63.9825 98.8127L63.1942 97.5125L85.4266 84.0343Z" fill="#AEAEAE"/>
<path d="M89.9971 85.4097L90.7852 86.7101L68.5502 100.186L67.7621 98.8854L89.9971 85.4097Z" fill="#AEAEAE"/>
<path d="M93.4696 87.1432L94.2578 88.4436L72.0228 101.922L71.2346 100.622L93.4696 87.1432Z" fill="#AEAEAE"/>
<path d="M97.743 88.3665L98.5312 89.6668L76.2963 103.145L75.508 101.845L97.743 88.3665Z" fill="#AEAEAE"/>
<path d="M101.532 89.9453L102.32 91.2456L80.0853 104.724L79.2971 103.424L101.532 89.9453Z" fill="#AEAEAE"/>
<path d="M105.325 91.9522L106.113 93.2525L83.8783 106.731L83.0901 105.43L105.325 91.9522Z" fill="#AEAEAE"/>
<path d="M109.567 93.2284L110.355 94.5288L88.1205 108.007L87.3323 106.707L109.567 93.2284Z" fill="#AEAEAE"/>
<path d="M113.798 94.5058L114.586 95.8061L92.3509 109.284L91.5627 107.984L113.798 94.5058Z" fill="#AEAEAE"/>
<path d="M81.4732 82.8303L81.9062 83.5452L60.2542 96.661L59.8211 95.9461L81.4732 82.8303Z" fill="#E0E0E0"/>
<path d="M85.1919 84.2105L85.625 84.9255L63.9729 98.0413L63.5398 97.3263L85.1919 84.2105Z" fill="#E0E0E0"/>
<path d="M89.7661 85.5861L90.1992 86.301L68.5472 99.4168L68.1141 98.7019L89.7661 85.5861Z" fill="#E0E0E0"/>
<path d="M93.2427 87.3172L93.6758 88.0322L72.0237 101.148L71.5906 100.433L93.2427 87.3172Z" fill="#E0E0E0"/>
<path d="M97.5161 88.5399L97.9492 89.2548L76.2971 102.371L75.8641 101.656L97.5161 88.5399Z" fill="#E0E0E0"/>
<path d="M101.305 90.1212L101.738 90.8361L80.0862 103.952L79.6531 103.237L101.305 90.1212Z" fill="#E0E0E0"/>
<path d="M105.094 92.1285L105.527 92.8435L83.8753 105.959L83.4422 105.244L105.094 92.1285Z" fill="#E0E0E0"/>
<path d="M109.333 93.4041L109.766 94.119L88.1136 107.235L87.6805 106.52L109.333 93.4041Z" fill="#E0E0E0"/>
<path d="M113.571 94.6822L114.004 95.3971L92.3518 108.513L91.9188 107.798L113.571 94.6822Z" fill="#E0E0E0"/>
<path d="M86.3869 84.7325L85.2483 84.6533L87.1075 58.6895L88.2461 58.776L86.3869 84.7325Z" fill="#828282"/>
<path d="M91.1381 61.2813L92.2734 61.3659L90.4198 86.2437L89.2844 86.1591L91.1381 61.2813Z" fill="#828282"/>
<path d="M95.1657 63.8711L96.3008 63.96L94.4368 87.7528L93.3017 87.6639L95.1657 63.8711Z" fill="#828282"/>
<path d="M99.1934 66.463L100.328 66.5564L98.4591 89.2719L97.3244 89.1785L99.1934 66.463Z" fill="#828282"/>
<path d="M103.213 69.0493L104.348 69.1472L102.48 90.779L101.346 90.6811L103.213 69.0493Z" fill="#828282"/>
<path d="M107.233 71.6452L108.367 71.7475L106.514 92.3033L105.38 92.2011L107.233 71.6452Z" fill="#828282"/>
<path d="M111.273 74.2303L112.406 74.3393L110.535 93.8068L109.401 93.6978L111.273 74.2303Z" fill="#828282"/>
<path d="M115.281 76.8156L116.414 76.929L114.573 95.3203L113.44 95.2069L115.281 76.8156Z" fill="#828282"/>
<path d="M119.321 79.4027L120.453 79.5251L118.582 96.827L117.45 96.7046L119.321 79.4027Z" fill="#828282"/>
<path d="M82.8197 56.1488L83.957 56.2022L82.6832 83.3323L81.5459 83.2789L82.8197 56.1488Z" fill="#828282"/>
<path d="M87.7073 59.1097L88.1602 59.1421L86.3531 84.4227L85.9003 84.3903L87.7073 59.1097Z" fill="#B8B8B8"/>
<path d="M89.9242 85.8991L91.7257 61.7009L92.1797 61.7369L90.3782 85.9351L89.9242 85.8991Z" fill="#B8B8B8"/>
<path d="M95.7544 64.2913L96.207 64.3266L94.4035 87.4392L93.9508 87.4039L95.7544 64.2913Z" fill="#B8B8B8"/>
<path d="M97.9749 88.9187L99.7765 66.8823L100.23 66.9184L98.4289 88.9547L97.9749 88.9187Z" fill="#B8B8B8"/>
<path d="M102.002 90.4246L103.804 69.4764L104.258 69.5124L102.456 90.4679L102.002 90.4246Z" fill="#B8B8B8"/>
<path d="M106.029 91.9383L107.823 72.0637L108.277 72.107L106.483 91.9743L106.029 91.9383Z" fill="#B8B8B8"/>
<path d="M111.849 74.6572L112.301 74.7003L110.51 93.4883L110.058 93.4452L111.849 74.6572Z" fill="#B8B8B8"/>
<path d="M115.876 77.2447L116.328 77.2902L114.541 94.9986L114.089 94.953L115.876 77.2447Z" fill="#B8B8B8"/>
<path d="M119.896 79.8339L120.348 79.8822L118.565 96.5124L118.113 96.464L119.896 79.8339Z" fill="#B8B8B8"/>
<path d="M82.1723 83.0024L83.4405 56.563L83.8945 56.5846L82.6262 83.024L82.1723 83.0024Z" fill="#B8B8B8"/>
<path d="M105.18 90.7133L102.622 92.1906L87.6399 86.5842L78.8989 80.8913L105.18 90.7133Z" fill="#C4C4C4"/>
<path d="M117.836 95.4408L117.8 95.8876L117.663 97.3144L117.605 97.8981C117.526 97.8044 117.411 97.7179 117.252 97.6603L105.398 93.2285L107.949 91.7585L117.836 95.4408Z" fill="#C4C4C4"/>
<path d="M77.7461 75.7893C76.3985 75.2272 74.8492 75.3209 73.5593 76.0631L57.3023 85.4599L56.4159 85.9715C56.0484 86.1733 55.8034 86.5192 55.7097 86.9156C55.7241 86.7642 55.7457 86.4904 55.6953 86.1085C55.6377 85.4815 55.0323 85.6977 55.0323 85.6977C55.2485 85.4095 55.5224 85.1645 55.8394 84.9771L57.187 84.1988L72.99 75.0687C74.4241 74.2472 76.1391 74.0742 77.674 74.5642L77.7461 75.7893Z" fill="#828282"/>
<path d="M56.3817 85.5539C56.3313 85.3954 56.2448 85.2657 56.1223 85.1792C56.216 85.1071 56.3096 85.0423 56.4033 84.9846L73.5539 75.0762C74.3898 74.6006 75.3411 74.3484 76.3067 74.3484C76.7967 74.3484 77.2795 74.4132 77.7407 74.5357L77.7695 75.0041C77.3011 74.8672 76.8183 74.7951 76.3283 74.7951C75.4347 74.7951 74.5556 75.0329 73.7845 75.4725L56.6339 85.381C56.5474 85.4314 56.461 85.4891 56.3817 85.5539Z" fill="#C4C4C4"/>
<path d="M77.3711 68.4611C76.0235 67.899 74.4742 67.9927 73.1843 68.735L56.9273 78.1318L56.0409 78.6434C55.6734 78.8452 55.4284 79.1911 55.3347 79.5874C55.3491 79.4361 55.3707 79.1622 55.3203 78.7803C55.2627 78.1534 54.6573 78.3696 54.6573 78.3696C54.8735 78.0813 55.1474 77.8363 55.4644 77.649L56.812 76.8707L72.615 67.7477C74.0491 66.9262 75.7641 66.7533 77.299 67.2433L77.3711 68.4611Z" fill="#828282"/>
<path d="M56.0067 78.2247C55.9563 78.0662 55.8698 77.9365 55.7473 77.85C55.841 77.7779 55.9346 77.7131 56.0283 77.6554L73.1789 67.7542C74.0149 67.2786 74.9661 67.0264 75.9317 67.0264C76.4217 67.0264 76.9045 67.0912 77.3657 67.2137L77.3945 67.6821C76.9261 67.5452 76.4433 67.4731 75.9533 67.4731C75.0597 67.4731 74.1806 67.711 73.4095 68.1505L56.2589 78.059C56.1724 78.1094 56.086 78.1671 56.0067 78.2247Z" fill="#C4C4C4"/>
<path d="M77.1836 61.4781C75.836 60.916 74.2867 61.0097 72.9968 61.7519L56.7398 71.1487L55.8534 71.6603C55.4859 71.8621 55.2409 72.208 55.1472 72.6044C55.1616 72.453 55.1832 72.1792 55.1328 71.7973C55.0752 71.1703 54.4698 71.3865 54.4698 71.3865C54.686 71.0983 54.9599 70.8533 55.2769 70.6659L56.6245 69.8876L72.4347 60.7575C73.8688 59.936 75.5838 59.763 77.1187 60.253L77.1836 61.4781Z" fill="#828282"/>
<path d="M55.827 71.2427C55.7766 71.0842 55.6901 70.9544 55.5676 70.868C55.6613 70.7959 55.755 70.7311 55.8486 70.6734L72.9993 60.765C73.8352 60.2894 74.7864 60.0371 75.7448 60.0371C76.2348 60.0371 76.7176 60.102 77.186 60.2317L77.2148 60.7001C76.7464 60.5632 76.2636 60.4911 75.7736 60.4911C74.8801 60.4911 74.0009 60.7289 73.2298 61.1685L56.0792 71.0697C55.9855 71.1202 55.9063 71.1778 55.827 71.2427Z" fill="#C4C4C4"/>
<path d="M108.516 104.895L107.874 105.269L107.831 105.291L107.716 105.349C107.291 105.522 106.837 105.637 106.383 105.666L107.968 104.751C107.982 104.751 107.982 104.751 107.99 104.765C108.011 104.779 108.033 104.779 108.054 104.779C108.206 104.823 108.357 104.859 108.516 104.895ZM108.516 104.895L107.874 105.269L107.831 105.291L107.716 105.349C107.291 105.522 106.837 105.637 106.383 105.666L107.968 104.751C107.982 104.751 107.982 104.751 107.99 104.765C108.011 104.779 108.033 104.779 108.054 104.779C108.206 104.823 108.357 104.873 108.516 104.895ZM108.516 104.895L107.874 105.269L107.831 105.291L107.716 105.349C107.291 105.522 106.837 105.637 106.383 105.666L107.968 104.751C107.982 104.751 107.982 104.751 107.99 104.765C108.011 104.779 108.033 104.779 108.054 104.779C108.206 104.823 108.357 104.873 108.516 104.895ZM108.516 104.895L107.874 105.269L107.831 105.291L107.716 105.349C107.291 105.522 106.837 105.637 106.383 105.666L107.968 104.751C107.982 104.751 107.982 104.751 107.99 104.765C108.011 104.779 108.033 104.779 108.054 104.779C108.206 104.823 108.357 104.873 108.516 104.895ZM108.516 104.895L107.874 105.269L107.831 105.291L107.716 105.349C107.291 105.522 106.837 105.637 106.383 105.666L107.968 104.751C107.982 104.751 107.982 104.751 107.99 104.765C108.011 104.779 108.033 104.779 108.054 104.779C108.206 104.823 108.357 104.873 108.516 104.895ZM108.516 104.895L107.874 105.269L107.831 105.291L107.716 105.349C107.291 105.522 106.837 105.637 106.383 105.666L107.968 104.751C107.982 104.751 107.982 104.751 107.99 104.765C108.011 104.779 108.033 104.779 108.054 104.779C108.206 104.823 108.357 104.859 108.516 104.895ZM107.946 91.7507L105.395 93.2208L102.628 92.1975L105.179 90.7131L107.946 91.7507ZM108.516 104.895L107.874 105.269L107.831 105.291L107.716 105.349C107.291 105.522 106.837 105.637 106.383 105.666L107.968 104.751C107.982 104.751 107.982 104.751 107.99 104.765C108.011 104.779 108.033 104.779 108.054 104.779C108.206 104.823 108.357 104.873 108.516 104.895ZM108.516 104.895L107.874 105.269L107.831 105.291L107.716 105.349C107.291 105.522 106.837 105.637 106.383 105.666L107.968 104.751C107.982 104.751 107.982 104.751 107.99 104.765C108.011 104.779 108.033 104.779 108.054 104.779C108.206 104.823 108.357 104.873 108.516 104.895ZM108.516 104.895L107.874 105.269L107.831 105.291L107.716 105.349C107.291 105.522 106.837 105.637 106.383 105.666L107.968 104.751C107.982 104.751 107.982 104.751 107.99 104.765C108.011 104.779 108.033 104.779 108.054 104.779C108.206 104.823 108.357 104.873 108.516 104.895ZM108.516 104.895L107.874 105.269L107.831 105.291L107.716 105.349C107.291 105.522 106.837 105.637 106.383 105.666L107.968 104.751C107.982 104.751 107.982 104.751 107.99 104.765C108.011 104.779 108.033 104.779 108.054 104.779C108.206 104.823 108.357 104.859 108.516 104.895Z" fill="#C4C4C4"/>
<path d="M118.526 101.292L101.585 111.078C100.59 111.661 99.4731 111.942 98.3562 111.942C97.5923 111.942 96.8141 111.806 96.0862 111.532L56.7263 96.824C55.5661 96.3916 54.7662 95.3395 54.6653 94.0856C54.5645 92.8462 55.1698 91.6788 56.2507 91.0518L59.0539 89.4305L60.6609 88.4937L62.8587 87.2254L64.4801 86.2886L66.678 85.0131H66.6996L68.3066 84.0907L70.5044 82.8152L72.1114 81.8928L73.1923 81.2659C73.5598 81.0497 73.9346 80.8768 74.3309 80.7543C74.3669 80.7398 74.4102 80.7326 74.4462 80.7182L77.8331 82.9305C77.1269 82.6711 76.3702 82.6134 75.6424 82.7576C75.1884 82.8368 74.7417 82.9954 74.3309 83.2332L74.1507 83.3341L71.8448 84.6672L70.3171 85.5463V85.5608L68.0399 86.8723L66.5122 87.7514L64.2063 89.0846L62.7002 89.9493L60.3942 91.2824L58.8881 92.1472L57.3821 93.0119C56.9281 93.2713 56.9137 93.7109 56.9281 93.8911C56.9425 94.064 57.029 94.4964 57.519 94.6765L96.8861 109.399C98.0463 109.824 99.329 109.73 100.396 109.125C100.41 109.125 100.432 109.11 100.439 109.103L102.629 107.835L104.179 106.934L106.377 105.666C106.831 105.63 107.292 105.515 107.71 105.349L107.825 105.291L107.868 105.27L108.51 104.895C108.351 104.859 108.2 104.83 108.056 104.78C108.034 104.78 108.012 104.78 107.991 104.765C107.976 104.751 107.976 104.751 107.969 104.751L110.16 103.482L111.76 102.56L113.914 101.321L115.543 100.384L117.388 99.3101C117.424 99.2885 117.452 99.274 117.488 99.238C117.532 99.2164 117.568 99.1804 117.604 99.1371C117.856 98.8849 117.863 98.5678 117.842 98.4309C117.827 98.3156 117.784 98.0778 117.604 97.8833L117.661 97.2996L117.798 95.8727L117.834 95.426L118.051 95.5052C118.966 95.8367 119.636 96.5429 119.946 97.4221C120.039 97.6743 120.104 97.9481 120.126 98.2292C120.227 99.4974 119.614 100.665 118.526 101.292Z" fill="#C4C4C4"/>
<path d="M107.674 93.0338L80.1174 77.1083L78.5464 76.1931L78.3303 76.0706C78.1357 75.9553 77.9411 75.8688 77.7466 75.7823L77.6745 74.5645C77.9483 74.6438 78.2078 74.7446 78.4744 74.8743C78.6113 74.9392 78.7626 74.9969 78.8995 75.0761L80.0309 75.7247L108.337 92.097C108.481 92.1763 107.753 93.0771 107.674 93.0338Z" fill="#828282"/>
<path d="M78.4959 75.5374C78.3518 75.4581 77.8618 75.1338 77.7248 75.069L77.696 74.5717C77.7897 74.6078 78.4815 75.0185 78.4815 75.0185C78.5608 75.0546 78.64 75.0906 78.7193 75.1338L107.926 92.0178C107.847 92.1403 107.731 92.2844 107.638 92.3853L78.4959 75.5374Z" fill="#C4C4C4"/>
<path d="M78.5765 60.6718C78.0288 60.3547 77.4379 60.1241 76.8182 59.9872L76.4218 53.3143L76.3786 52.5288L78.6485 52.3919L78.771 54.5249L79.1602 61.0032L78.5765 60.6718Z" fill="#828282"/>
<path d="M79.1602 60.9959L78.5765 60.6644C78.2594 60.4698 77.9135 60.3257 77.5604 60.196L77.1713 53.7681L77.128 52.9826L78.6773 52.8889L78.771 54.5175L79.1602 60.9959Z" fill="#9E9E9E"/>
<path d="M79.5938 68.2739L78.693 67.7622C78.239 67.5028 77.749 67.2938 77.2445 67.1569L76.8914 61.2263C77.2806 61.3272 77.6409 61.4857 77.9868 61.6947L79.2406 62.4225L79.5938 68.2739Z" fill="#828282"/>
<path d="M79.5938 68.274L78.693 67.7623C78.4624 67.6398 78.2246 67.5101 77.9868 67.4092L77.6481 61.6876C78.0372 61.7884 78.3975 61.947 78.7434 62.156L79.2479 62.4514L79.5938 68.274Z" fill="#9E9E9E"/>
<path d="M80.0234 75.7324L78.8921 75.0839C78.7552 75.0046 78.6038 74.947 78.4669 74.8821C78.2075 74.7596 77.9409 74.6515 77.667 74.5723L77.2995 68.4254C77.5734 68.5191 77.8328 68.6272 78.085 68.7785L79.6559 69.6937L80.0234 75.7324Z" fill="#828282"/>
<path d="M80.0234 75.7325L78.8921 75.084C78.7552 75.0047 78.6038 74.9471 78.4669 74.8822C78.4453 74.8678 78.4309 74.8606 78.4093 74.8606L78.0562 68.8867C78.33 68.9804 78.5894 69.0885 78.8416 69.2398L79.6631 69.7154L80.0234 75.7325Z" fill="#9E9E9E"/>
<path d="M80.4141 82.1817L78.1369 82.3186L77.7478 75.7827C77.9424 75.8619 78.1369 75.9556 78.3315 76.0709L78.5477 76.1934L80.1186 77.1086L80.4141 82.1817Z" fill="#828282"/>
<path d="M80.4141 82.1818L78.8503 82.2755L78.4972 76.2439C78.6918 76.3232 78.8864 76.4169 79.0809 76.5322L79.2971 76.6547L80.1186 77.1303L80.4141 82.1818Z" fill="#9E9E9E"/>
<path d="M60.6673 88.5012L59.0603 89.438C59.2621 87.305 59.4278 85.2656 59.2188 83.1903L57.0786 61.4277L58.5919 61.2764L60.7321 83.0389C60.9195 84.8765 60.8258 86.7069 60.6673 88.5012Z" fill="#9E9E9E"/>
<path d="M64.487 86.2964L62.8656 87.2332C63.0962 85.0569 63.2619 82.9671 63.0818 80.863L61.1289 59.0644L62.6422 58.9275L64.5806 80.726C64.7608 82.5924 64.6599 84.466 64.487 86.2964Z" fill="#9E9E9E"/>
<path d="M68.3079 84.0978L66.701 85.0202C66.9027 82.8439 67.0757 80.7758 66.8955 78.6716L64.9427 56.873L66.4559 56.7361L68.4088 78.5347C68.5673 80.4011 68.4809 82.2747 68.3079 84.0978Z" fill="#9E9E9E"/>
<path d="M72.113 81.9004L70.506 82.8228C70.7006 80.733 70.8447 78.7441 70.6429 76.7264L68.4306 54.8702L69.9439 54.7116L72.1562 76.5823C72.3436 78.355 72.2643 80.1421 72.113 81.9004Z" fill="#9E9E9E"/>
<path d="M75.8724 80.4232C75.3463 80.4665 74.8347 80.5746 74.3303 80.7547C74.3735 80.1638 74.3951 79.5657 74.3663 78.9892L71.9018 52.8453L73.4151 52.7084L75.8796 78.8739C75.9228 79.4 75.9084 79.926 75.8724 80.4232Z" fill="#9E9E9E"/>
<path d="M59.8055 88.8548C59.9785 86.9668 60.0938 85.1004 59.9064 83.2052L57.795 61.7813L58.6309 61.7021L60.7423 83.1259C60.9225 84.9779 60.8216 86.7938 60.6919 88.3432L59.8055 88.8548Z" fill="#B1B1B1"/>
<path d="M63.6167 86.6567C63.7969 84.8047 63.9338 82.8518 63.7681 80.8846L61.8512 59.4247L62.6871 59.3526L64.5968 80.8125C64.7697 82.7077 64.6544 84.5669 64.5103 86.1523L63.6167 86.6567Z" fill="#B1B1B1"/>
<path d="M67.4454 84.4514C67.6256 82.4409 67.7409 80.5889 67.5823 78.6937L65.6655 57.2338L66.5014 57.1618L68.4182 78.6217C68.548 80.171 68.5263 81.8212 68.3318 83.947L67.4454 84.4514Z" fill="#B1B1B1"/>
<path d="M71.2504 82.2468C71.4089 80.402 71.517 78.586 71.3296 76.7341L69.1534 55.2165L69.9893 55.1301L72.1655 76.6548C72.3529 78.4707 72.252 80.3011 72.1367 81.7351L71.2504 82.2468Z" fill="#B1B1B1"/>
<path d="M75.054 80.3366C75.0756 79.8466 75.0828 79.4214 75.054 79.0251L72.6255 53.2127L73.4614 53.1334L75.8899 78.9602C75.9115 79.3277 75.9187 79.7313 75.8971 80.1709C75.6016 80.2069 75.3206 80.2645 75.054 80.3366Z" fill="#B1B1B1"/>
<path d="M106.71 91.0732L107.844 91.1755L106.361 107.619L105.227 107.516L106.71 91.0732Z" fill="#9E9E9E"/>
<path d="M111.991 87.9006L113.125 88.0028L111.642 104.446L110.508 104.344L111.991 87.9006Z" fill="#9E9E9E"/>
<path d="M116.409 85.611L117.543 85.7132L116.06 102.156L114.926 102.054L116.409 85.611Z" fill="#9E9E9E"/>
<path d="M102.715 94.1656L102.347 98.2803L102.21 99.7143L101.72 105.177L101.605 106.553L101.375 109.075C101.375 109.075 101.295 110.25 100.135 110.444C99.155 110.603 99.0181 109.781 99.0181 109.781L99.2559 107.093L99.3712 105.897L99.8612 100.449L99.9621 99.2387L100.438 93.9566L102.715 94.1656Z" fill="#9E9E9E"/>
<path d="M121.172 83.7887L120.43 92.0902L120.091 95.8662L119.94 97.4371L119.824 98.7343C119.824 98.7343 119.759 99.9665 118.743 99.9665C117.828 99.9809 117.49 99.2459 117.49 99.2459L117.605 97.8911L117.662 97.3074L117.799 95.8806L117.835 95.4338L118.153 91.91L118.268 90.6346L118.909 83.5797L121.172 83.7887Z" fill="#9E9E9E"/>
<path d="M118.266 90.6418L118.15 91.9172L79.6695 69.6863L78.0986 68.7711C77.8464 68.6198 77.587 68.5117 77.3131 68.418L77.2483 67.1497C77.7527 67.2867 78.2427 67.4884 78.6967 67.7551L79.5975 68.2667L118.266 90.6418Z" fill="#828282"/>
<path d="M78.2725 68.2449C78.0779 68.1296 77.3285 67.7548 77.1051 67.6684L77.0763 67.1207C77.3861 67.236 78.2364 67.6467 78.5247 67.8197L79.4255 68.3313L117.906 90.5911L117.863 91.1171L78.2725 68.2449Z" fill="#C4C4C4"/>
<path d="M117.871 83.3775L116.682 84.0621L79.239 62.422L77.9851 61.6942C77.6464 61.4924 77.2789 61.3267 76.8898 61.2258L76.8249 59.9863C77.4374 60.1233 78.0355 60.3539 78.5832 60.6709L79.1669 61.0024L117.871 83.3775Z" fill="#828282"/>
<path d="M95.6914 90.7422V77.699L77.813 88.0687V101.112L95.6914 90.7422Z" fill="#E7B51A"/>
<path d="M77.8125 88.0687L63.9983 80.0988V93.1419L77.8125 101.112V88.0687Z" fill="#BF7000"/>
<path d="M95.6914 77.6992L77.813 88.0689L63.9988 80.0917L81.8772 69.722L95.6914 77.6992Z" fill="#FFE366"/>
<path d="M89.2773 79.0181V72.1218L79.0374 78.0741V84.9704L89.2773 79.0181Z" fill="#0042A6"/>
<path d="M79.0391 78.0732L67.9344 71.6885V78.5848L79.0391 84.9694V78.0732Z" fill="#02286E"/>
<path d="M89.2773 72.1215L79.0374 78.0738L67.9328 71.6891L78.1799 65.7368L89.2773 72.1215Z" fill="#5C9AED"/>
<path d="M81.0547 71.2202V68.2008L75.0952 71.6597V74.6863L81.0547 71.2202Z" fill="#0042A6"/>
<path d="M75.0938 71.6603L71.4691 69.5561V72.5827L75.0938 74.6869V71.6603Z" fill="#02286E"/>
<path d="M81.0547 68.2018L75.0952 71.6607L71.4633 69.5565L77.43 66.0976L81.0547 68.2018Z" fill="#5C9AED"/>
<path d="M106.773 90.0935V81.8353L99.1638 86.2526V94.5109L106.773 90.0935Z" fill="#E7B51A"/>
<path d="M99.1641 86.253L90.913 81.5113V89.7696L99.1641 94.5112V86.253Z" fill="#BF7000"/>
<path d="M106.773 81.8354L99.1638 86.2527L90.9127 81.5111L98.5224 77.0865L106.773 81.8354Z" fill="#FFE366"/>
<path d="M96.9805 100.455V93.984L91.021 97.443V103.914L96.9805 100.455Z" fill="#D9594A"/>
<path d="M91.0195 97.4428L84.5628 93.7316V100.196L91.0195 103.914V97.4428Z" fill="#BF2C2C"/>
<path d="M96.9805 93.984L91.021 97.4429L84.5643 93.7317L90.5238 90.2656L96.9805 93.984Z" fill="#FA8C8C"/>
<path d="M94.8623 73.3201L91.4023 71.3143V80.1378L94.8623 82.1436V73.3201Z" fill="#C2C2C2"/>
<path d="M98.3233 71.3143L94.8633 73.3201V82.1436L98.3233 80.1378V71.3143Z" fill="#ABABAB"/>
<path d="M98.3233 78.1848L94.8633 80.18V80.9161L98.3233 78.921V78.1848Z" fill="#61A31F"/>
<path d="M91.4023 78.1848L94.8623 80.18V80.9161L91.4023 78.921V78.1848Z" fill="#75C425"/>
<path d="M96.5018 70.5037L93.0419 68.4978L91.4023 71.3145L94.8623 73.3204L96.5018 70.5037Z" fill="#D1D1D1"/>
<path d="M96.503 69.2973L93.043 67.3021V68.4971L96.503 70.5029V69.2973Z" fill="#C2C2C2"/>
<path d="M98.3233 71.3144L94.8633 73.3203L95.5446 72.1466L96.9819 71.3144L96.2579 70.909L96.5028 70.5036L96.6838 70.3969L98.3233 71.3144Z" fill="#9C9C9C"/>
<path d="M96.9802 71.3144L95.543 72.1466L96.2563 70.9089L96.9802 71.3144Z" fill="#858585"/>
<path d="M96.681 69.1908L96.5 69.2975V70.5031L96.681 70.3964V69.1908Z" fill="#ABABAB"/>
<path d="M93.224 67.1959L93.043 67.3026L96.503 69.2977L96.684 69.191L93.224 67.1959Z" fill="#D1D1D1"/>
<path d="M84.46 68.1134L81 66.1183V74.9418L84.46 76.9477V68.1134Z" fill="#C2C2C2"/>
<path d="M87.9209 66.1183L84.4609 68.1134V76.9477L87.9209 74.9418V66.1183Z" fill="#ABABAB"/>
<path d="M87.9209 72.979L84.4609 74.9848V75.721L87.9209 73.7152V72.979Z" fill="#61A31F"/>
<path d="M81 72.979L84.46 74.9848V75.721L81 73.7152V72.979Z" fill="#75C425"/>
<path d="M86.0995 65.3072L82.6395 63.3013L81 66.118L84.46 68.1132L86.0995 65.3072Z" fill="#D1D1D1"/>
<path d="M86.1006 64.1013L82.6406 62.1061V63.3011L86.1006 65.3069V64.1013Z" fill="#C2C2C2"/>
<path d="M87.9209 66.1184L84.4609 68.1136L85.1423 66.9507L86.5902 66.1184L85.8662 65.713L86.1004 65.3076L86.2921 65.2009L87.9209 66.1184Z" fill="#9C9C9C"/>
<path d="M86.5885 66.1179L85.1406 66.9501L85.8646 65.7124L86.5885 66.1179Z" fill="#858585"/>
<path d="M86.2893 63.9953L86.0977 64.102V65.3077L86.2893 65.201V63.9953Z" fill="#ABABAB"/>
<path d="M82.8216 61.9999L82.6406 62.1066L86.1006 64.1017L86.2923 63.9951L82.8216 61.9999Z" fill="#D1D1D1"/>
<path d="M89.955 75.1764L86.4844 73.1812V82.0048L89.955 84.0106V75.1764Z" fill="#C2C2C2"/>
<path d="M93.4025 73.1812L89.9531 75.1764V84.0106L93.4025 82.0048V73.1812Z" fill="#ABABAB"/>
<path d="M93.4025 80.0414L89.9531 82.0472V82.7834L93.4025 80.7776V80.0414Z" fill="#61A31F"/>
<path d="M86.4844 80.0414L89.955 82.0472V82.7834L86.4844 80.7776V80.0414Z" fill="#75C425"/>
<path d="M91.5839 72.3696L88.1239 70.3638L86.4844 73.1805L89.955 75.1756L91.5839 72.3696Z" fill="#D1D1D1"/>
<path d="M91.585 71.1643L88.125 69.1691V70.3641L91.585 72.3699V71.1643Z" fill="#C2C2C2"/>
<path d="M93.4025 73.1814L89.9531 75.1765L90.6238 74.0136L92.0717 73.1814L91.3478 72.7759L91.582 72.3705L91.7736 72.2638L93.4025 73.1814Z" fill="#9C9C9C"/>
<path d="M92.0729 73.1808L90.625 74.013L91.3489 72.7754L92.0729 73.1808Z" fill="#858585"/>
<path d="M91.7737 71.0572L91.582 71.1639V72.3696L91.7737 72.2629V71.0572Z" fill="#ABABAB"/>
<path d="M88.3166 69.0519L88.125 69.1693L91.585 71.1645L91.7766 71.0578L88.3166 69.0519Z" fill="#D1D1D1"/>
<path d="M79.4129 61.8886L78.159 61.1608C77.8564 60.9807 77.1574 60.7573 76.8403 60.6492L76.8115 60.1159C77.2367 60.2456 78.0293 60.5051 78.4113 60.7284L78.995 61.0599L117.188 83.1467L116.683 83.435L79.4129 61.8886Z" fill="#C4C4C4"/>
<path d="M121.035 85.1792L120.999 85.5178V85.5395C120.999 85.5395 120.279 86.2457 120.279 86.9879V87.0311C120.279 87.7517 118.729 85.3881 118.729 85.3881L118.744 85.2512L118.866 83.9541L118.888 83.7523L121.035 85.1792Z" fill="#9E9E9E"/>
<path d="M63.6086 97.7394C63.061 97.8619 62.9457 97.1485 62.9457 97.1485L64.6896 72.7197L65.8281 72.799L64.0842 97.1917C64.0842 97.1917 64.1491 97.6241 63.6086 97.7394Z" fill="#828282"/>
<path d="M67.6072 99.094C67.1099 99.0364 66.9874 98.5392 66.9874 98.5392L68.7169 75.3138L69.8555 75.393L68.1188 98.6472C68.1188 98.6472 68.1548 99.1661 67.6072 99.094Z" fill="#828282"/>
<path d="M71.6705 100.615C71.2454 100.709 71.0148 100.053 71.0148 100.053L72.7442 77.9011L73.8828 77.9876L72.1533 100.182C72.1461 100.19 72.1533 100.507 71.6705 100.615Z" fill="#828282"/>
<path d="M75.7228 102.251C75.1751 102.452 75.031 101.789 75.031 101.789L76.7677 80.4952L77.9062 80.5889L76.184 101.667C76.184 101.66 76.2777 102.049 75.7228 102.251Z" fill="#828282"/>
<path d="M79.8012 103.821C79.0013 104.009 79.0589 103.367 79.0589 103.367L80.8028 83.082L81.9414 83.1829L80.2191 103.259C80.2119 103.252 80.1831 103.728 79.8012 103.821Z" fill="#828282"/>
<path d="M83.7408 105.27C83.3229 105.32 83.0851 104.809 83.0851 104.809L84.8146 85.6693L85.9531 85.7702L84.2309 104.874C84.2309 104.881 84.2164 105.212 83.7408 105.27Z" fill="#828282"/>
<path d="M87.6889 106.646C87.0548 106.646 87.1485 106.091 87.1485 106.091L88.8491 88.2562L89.9805 88.3643L88.2798 106.178C88.2798 106.185 88.2222 106.646 87.6889 106.646Z" fill="#828282"/>
<path d="M91.8997 108.246C91.0998 108.347 91.1791 107.605 91.1791 107.605L92.8725 90.8435L94.0039 90.9588L92.3177 107.684C92.3177 107.691 92.3177 108.189 91.8997 108.246Z" fill="#828282"/>
<path d="M95.8982 109.868C95.2353 109.932 95.192 109.349 95.192 109.349L96.8999 93.4376L98.0312 93.5601L96.345 109.284C96.345 109.277 96.3234 109.824 95.8982 109.868Z" fill="#828282"/>
<path d="M59.573 96.1684C59.2848 96.1684 59.1983 95.664 59.1983 95.664L60.4161 70.1759L61.5547 70.2263L60.3296 95.8586C60.3296 95.8658 60.1279 96.1756 59.573 96.1684Z" fill="#828282"/>
<path d="M63.6667 97.4298C63.5442 97.4298 63.4722 97.156 63.465 97.1128L65.1945 73.1019L65.6484 73.1307L63.9262 97.1776C63.9334 97.3217 63.8613 97.3866 63.7172 97.4154L63.6667 97.4298Z" fill="#B8B8B8"/>
<path d="M67.8265 98.77C67.5743 98.7412 67.5022 98.4962 67.495 98.4673L69.2101 75.6887L69.6641 75.7248L67.9562 98.6331L67.9346 98.7628L67.8769 98.77H67.8265Z" fill="#B8B8B8"/>
<path d="M71.7674 100.298C71.7169 100.298 71.6088 100.168 71.544 100.017L73.2374 78.2833L73.6914 78.3193L71.9835 100.176C71.9835 100.204 71.9259 100.262 71.7674 100.298Z" fill="#B8B8B8"/>
<path d="M75.7004 101.955C75.6212 101.955 75.5491 101.782 75.5347 101.725L77.2569 80.8701L77.7109 80.9062L76.0175 101.645C76.0247 101.782 75.9671 101.876 75.7797 101.941L75.7004 101.955Z" fill="#B8B8B8"/>
<path d="M79.7094 103.526C79.6446 103.526 79.6086 103.512 79.5942 103.497L81.2804 83.4642L81.7344 83.5002L80.0409 103.238C80.0409 103.245 80.0193 103.468 79.8968 103.497C79.832 103.519 79.7671 103.526 79.7094 103.526Z" fill="#B8B8B8"/>
<path d="M83.8665 104.946C83.7728 104.946 83.6791 104.837 83.6215 104.751L85.3077 86.0583L85.7617 86.1015L84.0683 104.866C84.0611 104.888 84.0106 104.931 83.8809 104.946H83.8665Z" fill="#B8B8B8"/>
<path d="M87.8644 106.322C87.7563 106.322 87.7059 106.3 87.6843 106.279C87.6554 106.25 87.6554 106.17 87.6626 106.163L89.3273 88.6451L89.7812 88.6883L88.1166 106.163C88.095 106.257 88.0085 106.322 87.8644 106.322Z" fill="#B8B8B8"/>
<path d="M91.9311 107.929C91.8446 107.929 91.7798 107.915 91.7509 107.879C91.6933 107.814 91.6933 107.684 91.6933 107.662L93.3507 91.2397L93.8047 91.2829L92.1473 107.67C92.1473 107.699 92.1401 107.908 92.0248 107.922L91.9311 107.929Z" fill="#B8B8B8"/>
<path d="M95.9728 109.544C95.7495 109.544 95.7134 109.399 95.7134 109.335L97.3853 93.8198L97.832 93.8774L96.1818 109.255C96.1818 109.277 96.1602 109.529 96.0377 109.544H95.9728Z" fill="#B8B8B8"/>
<path d="M59.7536 95.8444C59.7752 95.83 59.7248 95.7075 59.7104 95.6282L60.921 70.5508L61.375 70.5725L60.1716 95.7363C60.1067 95.7795 59.9842 95.8444 59.768 95.8444H59.7536Z" fill="#B8B8B8"/>
<path d="M122.015 81.8209C121.979 82.9595 121.366 83.99 120.386 84.5665L120.148 84.7034L118.974 85.388L107.948 91.751L105.397 93.221L102.695 94.7848C101.657 95.3757 100.519 95.6711 99.3801 95.6711C98.1118 95.6711 96.8579 95.318 95.7554 94.5974L77.8409 82.9307L74.454 80.7184L58.3123 70.1974L57.2097 69.4768L54.2696 67.56C53.3112 66.933 52.7563 65.8809 52.7851 64.7352C52.8212 63.5966 53.4265 62.5661 54.4137 61.9968L72.1048 51.7857C74.2739 50.5319 76.9401 50.5967 79.0371 51.9803L120.537 79.0033C121.496 79.6158 122.043 80.6751 122.015 81.8209ZM119.737 81.7633C119.737 81.5903 119.701 81.1796 119.283 80.9057L78.7777 54.5241L77.7977 53.8827C77.3653 53.6089 76.9113 53.4143 76.4285 53.3134C75.3692 53.0396 74.2306 53.1909 73.2506 53.7602L55.5523 63.9785C55.1199 64.2307 55.0623 64.6415 55.0623 64.8144C55.0479 64.973 55.0839 65.3981 55.5091 65.6575L59.422 68.2085L60.539 68.9291L78.9002 80.8913L87.6485 86.5842L96.9948 92.6806C98.3712 93.5813 100.122 93.6246 101.556 92.8031L102.63 92.1906L105.181 90.7061L116.682 84.062L117.871 83.3774L119.247 82.5776C119.673 82.3398 119.723 81.9218 119.737 81.7633Z" fill="#C4C4C4"/>
<path d="M121.051 93.7975C121.051 94.619 120.698 95.3468 120.092 95.8585C119.977 95.9594 119.84 96.053 119.703 96.1323L117.664 97.3069L102.149 106.279C101.976 106.379 101.796 106.473 101.616 106.552C100.874 106.884 100.074 107.064 99.2666 107.086L99.3819 105.889C100.146 105.868 100.895 105.652 101.573 105.262L101.731 105.169L117.801 95.8873L119.127 95.1234C119.602 94.8496 119.891 94.3596 119.891 93.7975C119.891 93.6606 119.869 93.5237 119.833 93.4012V93.3868C119.819 92.6373 120.438 92.0897 120.438 92.0897C120.835 92.5581 121.051 93.1634 121.051 93.7975Z" fill="#C4C4C4"/>
<path d="M99.69 105.875C100.403 105.811 101.102 105.587 101.737 105.22L119.291 95.0734C119.874 94.7419 120.228 94.1366 120.228 93.452C120.228 93.2935 120.206 93.1278 120.155 92.962C120.155 92.7098 120.278 92.472 120.4 92.2991C120.595 92.645 120.703 93.0413 120.703 93.452C120.703 94.1582 120.408 94.7996 119.867 95.2536C119.774 95.3328 119.665 95.4121 119.529 95.4914L117.489 96.666L101.974 105.638C101.809 105.739 101.643 105.818 101.47 105.897C100.879 106.156 100.267 106.322 99.6396 106.38L99.69 105.875Z" fill="#E0E0E0"/>
<path d="M121.461 87.0315C121.461 88.026 120.957 88.8979 120.106 89.3951L102.329 99.6711C102.293 99.6927 102.264 99.7143 102.213 99.7287C101.486 100.139 100.671 100.377 99.8641 100.457L99.965 99.2459C100.578 99.1666 101.183 98.9577 101.731 98.6406L102.343 98.2875L119.508 88.3646C119.984 88.0908 120.286 87.6008 120.286 87.0387V86.9955C120.286 86.2532 121.007 85.547 121.007 85.547V85.5254C121.302 85.9578 121.461 86.4838 121.461 87.0315Z" fill="#C4C4C4"/>
<path d="M100.288 99.1881C100.857 99.08 101.412 98.8782 101.909 98.5827L119.679 88.3068C120.27 87.9681 120.623 87.3628 120.623 86.6854C120.623 86.3611 120.782 86.0368 120.948 85.7918C121.056 86.0657 121.113 86.3611 121.113 86.671C121.113 87.5357 120.674 88.3068 119.931 88.7319L102.154 99.0151L102.111 99.0295L102.039 99.0728C101.491 99.3826 100.878 99.5916 100.237 99.7069L100.288 99.1881Z" fill="#E0E0E0"/>
<path d="M57.6705 89.2647L57.303 85.4598L57.1877 84.206L57.1444 83.7592L57.0075 82.3324L56.6328 78.3546L56.5103 77.0791L56.4743 76.69L56.3373 75.2559L55.9842 71.552L55.8689 70.2549L55.7032 68.511L54.262 67.5742C53.8152 67.2787 53.4693 66.8896 53.2171 66.45L53.7287 71.869L54.0386 75.1334L54.3557 78.5203L54.7232 82.3179L55.0402 85.7048L55.3717 89.1854L55.9338 94.2513C55.9338 94.2513 56.2509 95.6853 57.2309 95.6853C57.9587 95.6853 58.2109 94.9575 58.2109 94.9575L57.8074 90.6771L57.6705 89.2647Z" fill="#828282"/>
<path d="M57.4245 95.4331C56.7399 95.4331 56.466 94.2729 56.4588 94.2657L55.8968 89.2358L53.8502 67.639C53.9799 67.7543 54.1168 67.8624 54.261 67.9561L55.5653 68.8064L55.7166 70.3845L55.8319 71.6817L56.3579 77.2088L56.4877 78.4915L57.0425 84.3428L57.1578 85.5967L57.6623 90.8068L58.0586 94.9935C57.9865 95.1232 57.7992 95.4331 57.4245 95.4331Z" fill="#B8B8B8"/>
<path d="M84.7148 104.895C84.5779 104.852 83.8285 104.599 83.4394 104.772C83.0718 104.945 82.9854 105.219 82.9854 105.219L57.8143 90.67L55.8542 89.5386C55.6741 89.4377 55.5156 89.308 55.3786 89.1711C54.8454 88.6667 54.5499 87.9821 54.5499 87.2471C54.5499 86.6778 54.7301 86.1301 55.0544 85.6978C55.0544 85.6978 55.6597 85.4816 55.7173 86.1085C55.7606 86.4976 55.739 86.7715 55.7317 86.9156C55.7317 86.93 55.7317 86.93 55.7317 86.9372C55.7173 86.9732 55.7173 87.0021 55.7101 87.0525C55.6957 87.1102 55.6957 87.175 55.6957 87.2471C55.6957 87.7947 55.9695 88.2703 56.4379 88.5442L57.6918 89.2648L84.7148 104.895Z" fill="#828282"/>
<path d="M56.107 89.0051C55.9556 88.9187 55.8187 88.8178 55.6962 88.6953C55.2206 88.2485 54.9612 87.6504 54.9612 87.009C54.9612 86.5695 55.0909 86.1371 55.3215 85.7768C55.3287 85.7768 55.3359 85.7768 55.3431 85.7768C55.4224 85.7768 55.4368 85.8056 55.444 85.8993C55.4872 86.2524 55.4656 86.4974 55.4584 86.6415C55.4224 86.8361 55.4224 86.9298 55.4224 87.009C55.4224 87.672 55.7611 88.2701 56.3304 88.6016L57.5842 89.3222L83.375 104.232C83.1948 104.318 83.0651 104.426 82.9715 104.527L56.107 89.0051Z" fill="#C4C4C4"/>
<path d="M99.3711 105.897L99.2558 107.093H99.1189C98.0668 107.093 97.0219 106.819 96.0995 106.286L57.1431 83.7597L55.0821 82.5635C54.9452 82.4842 54.8299 82.405 54.7146 82.3113C54.0877 81.8068 53.7346 81.0574 53.7346 80.2359C53.7346 79.5874 53.9508 78.982 54.3471 78.5136C54.3471 78.5136 54.9524 78.2975 55.0101 78.9244C55.0461 79.2343 55.0461 79.4576 55.0245 79.6234C54.9452 79.8035 54.902 80.0197 54.902 80.2359C54.902 80.7836 55.1902 81.288 55.6658 81.5618L57.0134 82.3401L96.6832 105.27C97.5119 105.753 98.4487 105.969 99.3711 105.897Z" fill="#828282"/>
<path d="M99.641 106.38C98.697 106.351 97.1765 106.228 96.3622 105.753L55.3376 82.03C55.2151 81.9579 55.1142 81.8859 55.0133 81.8066C54.4729 81.3743 54.163 80.7185 54.163 79.9979C54.163 79.479 54.3215 78.9818 54.6242 78.5927C54.6386 78.5927 54.6458 78.5927 54.6602 78.5927C54.7395 78.5927 54.7539 78.6215 54.7611 78.7224C54.7971 79.0539 54.7899 79.2412 54.7755 79.3421C54.7035 79.479 54.6458 79.7457 54.6458 80.0051C54.6458 80.6753 55.0061 81.295 55.5826 81.6265L96.6072 105.335C97.371 105.774 98.8339 105.861 99.6914 105.875L99.641 106.38Z" fill="#C4C4C4"/>
<path d="M99.9727 99.2384L99.8718 100.449C99.67 100.471 99.4754 100.485 99.2665 100.485C98.2144 100.485 97.1551 100.211 96.2111 99.6636L56.4764 76.6904L54.6893 75.6527C54.4371 75.5014 54.2209 75.3356 54.0407 75.1267C53.5939 74.6366 53.3345 73.9881 53.3345 73.2891C53.3345 72.7775 53.4714 72.2874 53.7309 71.8623C53.7309 71.8623 54.4371 71.6245 54.4947 72.2514C54.5668 72.8783 54.5163 73.2459 54.5163 73.2459V73.2891C54.5163 73.8512 54.8046 74.3484 55.2802 74.6366L56.3395 75.2492L96.802 98.6331C97.7676 99.1952 98.8845 99.3969 99.9727 99.2384Z" fill="#828282"/>
<path d="M99.3517 99.9088C98.3428 99.9088 97.3411 99.6422 96.4692 99.1306L54.9474 75.1197C54.724 74.9828 54.5367 74.8387 54.3781 74.6657C53.9746 74.2261 53.7584 73.6569 53.7584 73.0587C53.7584 72.6624 53.8521 72.2733 54.0322 71.9346C54.0539 71.9346 54.0755 71.9274 54.0971 71.9274C54.2124 71.9274 54.2268 71.949 54.234 72.0499C54.2989 72.6264 54.2556 72.9651 54.2556 72.9651C54.2556 73.7289 54.6015 74.3414 55.1852 74.6945L96.7142 98.6982C97.5141 99.1594 98.4149 99.3972 99.3372 99.3972C99.4525 99.3972 100.166 99.1882 100.281 99.181L100.238 99.6999C100.152 99.7071 99.4453 99.9088 99.3517 99.9088Z" fill="#C4C4C4"/>
<path d="M102.406 93.7542L120.097 83.5431C120.911 83.0603 121.423 82.2099 121.445 81.2731C121.466 80.3219 121.005 79.45 120.22 78.9456L78.7194 51.9225C77.7321 51.274 76.5864 50.9281 75.4118 50.9281C74.3525 50.9281 73.3076 51.2091 72.3852 51.7424L54.6869 61.9607C53.8726 62.4291 53.3682 63.2722 53.3394 64.2162C53.3105 65.1602 53.7717 66.0321 54.5644 66.551L78.1501 81.9289L96.0574 93.5884C97.0446 94.2298 98.1904 94.5685 99.3722 94.5685C100.424 94.5685 101.476 94.2874 102.406 93.7542ZM76.5431 52.2252C77.0764 52.3405 77.6024 52.5567 78.1069 52.8737L119.593 79.8968C120.054 80.1922 120.313 80.6678 120.306 81.2731C120.263 81.8352 119.989 82.2892 119.535 82.5414L105.461 90.6699L102.903 92.1544L101.829 92.7669C101.073 93.1993 100.223 93.4299 99.365 93.4299C98.4138 93.4299 97.4842 93.1489 96.6771 92.63L87.3307 86.5264L78.5825 80.8336L60.2212 68.8642L59.0971 68.1435L55.1985 65.5998C54.6292 65.2467 54.4563 64.663 54.4851 64.2738C54.4851 64.0649 54.5428 63.3659 55.2634 62.9479L72.9545 52.7368C73.6895 52.3116 74.5254 52.0811 75.3757 52.0811C75.7793 52.0811 76.1756 52.1315 76.5431 52.2252Z" fill="#E0E0E0"/>
<path d="M104.754 81.5043V78.0309L99.5871 81.0287V84.5093L104.754 81.5043Z" fill="#0042A6"/>
<path d="M99.5859 81.0287L93.994 77.8076V81.2881L99.5859 84.5093V81.0287Z" fill="#02286E"/>
<path d="M104.754 78.0308L99.5871 81.0285L93.9951 77.8074L99.1547 74.8096L104.754 78.0308Z" fill="#5C9AED"/>
<path d="M78.2457 52.9606C76.7324 52.7588 76.3865 51.3752 76.3865 51.3752L74.4913 47.5992L67.6815 44.2339L67.2347 40.1841L75.9757 45.8049L76.2784 46.0643L79.3554 52.348C79.3626 52.348 79.4491 53.1335 78.2457 52.9606Z" fill="#828282"/>
<path d="M46.2724 58.2285L44.5573 55.2667L67.8259 41.8057C68.3664 41.4886 69.0654 41.676 69.3753 42.2236L69.5266 42.483C70.0742 43.427 69.75 44.6449 68.806 45.1926L46.2724 58.2285Z" fill="url(#paint0_linear)"/>
<path d="M51.2779 61.1967L50.651 60.1158L74.4313 46.4097C74.6258 46.2944 74.8853 46.3664 74.9933 46.561L75.051 46.6547C75.2528 47.0006 75.1303 47.4402 74.7844 47.6419L51.2779 61.1967Z" fill="url(#paint1_linear)"/>
<path d="M67.2408 40.2129L68.4443 39.3626L76.2773 46.0715L75.3982 46.5903L67.2408 40.2129Z" fill="#E0E0E0"/>
<path d="M78.2457 52.961L75.4064 46.5907L76.2784 46.0647L79.3554 52.3484C79.3626 52.3484 79.4491 53.1339 78.2457 52.961Z" fill="#B8B8B8"/>
<path d="M54.8594 64.9805C54.8594 64.9805 54.8594 64.9949 54.8594 65.0165C54.8594 65.1679 54.8161 65.7371 54.0018 65.6435C53.937 65.629 53.8649 65.629 53.8073 65.6579C53.1587 65.7516 53.202 66.7964 53.202 66.7964L50.6005 61.4855L43.8052 58.1347L43.3584 54.0848L52.0922 59.6912L52.3877 59.9506L52.4886 60.1452L54.8594 64.9805Z" fill="#828282"/>
<path d="M43.358 54.0919L44.5687 53.2488L52.3945 59.9505L51.5226 60.4766L43.358 54.0919Z" fill="#E0E0E0"/>
<path d="M54.8594 65.016C54.8594 65.1673 54.8161 65.7366 54.0018 65.643C53.937 65.6285 53.8649 65.6285 53.8073 65.6574L51.5157 60.5122L52.3949 59.9861L54.8594 65.016Z" fill="#B8B8B8"/>
<path d="M80.725 67.235C80.6458 67.5129 80.3288 67.7313 80.0317 67.7313H79.8733C79.5761 67.7313 79.2196 67.5328 79.0413 67.2946L78.3678 66.302C78.2094 66.0638 78.3282 65.8454 78.6055 65.8454H80.626C80.9231 65.8454 81.2004 65.7065 81.1013 65.9844L80.725 67.235Z" fill="#1F8BA6"/>
<path d="M74.5836 67.2366C74.6628 67.5145 74.9797 67.7329 75.2768 67.7329H75.4551C75.7522 67.7329 76.1088 67.5344 76.287 67.2961L76.9407 66.3036C77.0992 66.0654 77.0001 65.847 76.703 65.847H74.6826C74.3855 65.847 74.0884 65.6684 74.1874 65.9463L74.5836 67.2366Z" fill="#1F8BA6"/>
<path d="M79.2201 54.8891H76.0904C74.902 55.4648 74.0898 56.6757 74.0898 58.0653V65.5095C74.0898 66.0454 74.4464 66.5616 75.1397 66.9586C75.5358 67.1968 75.9914 67.3556 76.4866 67.4549L76.9224 68.2291C77.061 68.4871 77.3978 68.6856 77.6553 68.6856C77.9128 68.6856 78.2495 68.4673 78.3882 68.2291L78.8239 67.4549C79.3191 67.3556 79.7747 67.1968 80.1709 66.9586C80.8642 66.5616 81.2207 66.0256 81.2207 65.5095V58.0653C81.2207 56.6559 80.3888 55.4648 79.2201 54.8891Z" fill="#25A4C4"/>
<path d="M77.6556 57.0926C78.5668 57.0926 79.4779 56.8941 80.1712 56.4971C80.3495 56.3978 80.508 56.2787 80.6466 56.1596C80.2901 55.6236 79.7949 55.1671 79.2006 54.8891H76.071C75.4965 55.1671 74.9815 55.6236 74.625 56.1596C74.7637 56.2787 74.9221 56.3978 75.1004 56.4971C75.8333 56.8941 76.7444 57.0926 77.6556 57.0926Z" fill="#1F8BA6"/>
<path d="M74.0898 64.0796C74.0898 64.5957 74.4464 65.1317 75.1397 65.5287C76.5262 66.3426 78.7843 66.3426 80.1709 65.5287C80.8642 65.1317 81.2207 64.5957 81.2207 64.0796V64.2582C81.2207 64.7942 80.8642 65.3103 80.1709 65.7074C78.7843 66.5213 76.5262 66.5213 75.1397 65.7074C74.4464 65.3103 74.0898 64.7744 74.0898 64.2582V64.0796Z" fill="#1F8BA6"/>
<path d="M74.0898 63.0269C74.0898 63.5629 74.4464 64.079 75.1397 64.4761C76.5262 65.2899 78.7843 65.2899 80.1709 64.4761C80.8642 64.079 81.2207 63.543 81.2207 63.0269V63.2056C81.2207 63.7416 80.8642 64.2577 80.1709 64.6547C78.7843 65.4686 76.5262 65.4686 75.1397 64.6547C74.4464 64.2577 74.0898 63.7217 74.0898 63.2056V63.0269Z" fill="#1F8BA6"/>
<path d="M74.0898 61.9551C74.0898 62.4911 74.4464 63.0072 75.1397 63.4042C76.5262 64.2181 78.7843 64.2181 80.1709 63.4042C80.8642 63.0072 81.2207 62.4712 81.2207 61.9551V62.1337C81.2207 62.6697 80.8642 63.1858 80.1709 63.5829C78.7843 64.3968 76.5262 64.3968 75.1397 63.5829C74.4464 63.1858 74.0898 62.6697 74.0898 62.1337V61.9551Z" fill="#1F8BA6"/>
<path d="M74.0898 60.9029C74.0898 61.4191 74.4464 61.955 75.1397 62.3521C76.5262 63.166 78.7843 63.166 80.1709 62.3521C80.8642 61.955 81.2207 61.4191 81.2207 60.9029V61.0816C81.2207 61.6176 80.8642 62.1337 80.1709 62.5307C78.7843 63.3446 76.5262 63.3446 75.1397 62.5307C74.4464 62.1337 74.0898 61.5977 74.0898 61.0816V60.9029Z" fill="#1F8BA6"/>
<path d="M74.0898 59.8316C74.0898 60.3676 74.4464 60.8837 75.1397 61.2808C76.5262 62.0946 78.7843 62.0946 80.1709 61.2808C80.8642 60.8837 81.2207 60.3477 81.2207 59.8316V60.0103C81.2207 60.5463 80.8642 61.0624 80.1709 61.4594C78.7843 62.2733 76.5262 62.2733 75.1397 61.4594C74.4464 61.0624 74.0898 60.5264 74.0898 60.0103V59.8316Z" fill="#1F8BA6"/>
<path d="M81.0037 52.8631C81.0037 51.5529 80.251 50.4214 79.1219 49.8854C79.1219 49.8854 78.5673 49.5678 77.6561 49.5678C76.7648 49.5678 76.1903 49.8854 76.1903 49.8854C75.0811 50.4214 74.3086 51.5529 74.3086 52.8631V54.7092C74.3086 55.2055 74.6453 55.7018 75.2792 56.0789C76.5865 56.8333 78.7059 56.8333 80.0133 56.0789C80.6669 55.7018 80.9839 55.2055 80.9839 54.7092V52.8631H81.0037Z" fill="#25A4C4"/>
<path d="M76.625 48.4182V49.9864C76.625 50.1452 76.724 50.2842 76.9221 50.4033C77.3381 50.6415 77.9917 50.6415 78.3879 50.4033C78.586 50.2842 78.685 50.1254 78.685 49.9864V49.4306V48.4182H76.625Z" fill="#1F8BA6"/>
<path d="M78.3871 48.8342C77.9712 49.0724 77.3175 49.0724 76.9213 48.8342C76.5054 48.596 76.5054 48.2188 76.9213 47.9806C77.3373 47.7424 77.991 47.7424 78.3871 47.9806C78.8031 48.2188 78.8031 48.596 78.3871 48.8342Z" fill="#3A822A"/>
<path d="M76.3672 47.4629V48.7135C76.3672 48.9121 76.486 49.0907 76.7435 49.2495C77.2387 49.5473 78.0707 49.5473 78.5659 49.2495C78.8234 49.1106 78.9422 48.9121 78.9422 48.7334V47.4629H76.3672Z" fill="#A62626"/>
<path d="M78.5687 47.9801C78.0735 48.2779 77.2416 48.2779 76.7464 47.9801C76.2512 47.6824 76.2512 47.2258 76.7464 46.928C77.2416 46.6303 78.0735 46.6303 78.5687 46.928C79.0639 47.2258 79.0639 47.6824 78.5687 47.9801Z" fill="#D63A3A"/>
<path d="M75.3165 51.4933C75.0986 51.7712 75.059 52.0889 75.2175 52.208C75.3759 52.3271 75.6533 52.1881 75.8711 51.9102C76.089 51.6323 76.1286 51.3147 75.9702 51.1956C75.8117 51.0765 75.5146 51.2154 75.3165 51.4933Z" fill="white"/>
<path d="M74.0898 63.4641C74.0898 63.4641 74.3077 65.8066 78.5466 65.5485V60.4269C74.3077 60.6651 74.0898 58.3426 74.0898 58.3426V63.4641Z" fill="white"/>
<path d="M74.3579 71.4812C74.2787 71.7591 73.9617 71.9775 73.6646 71.9775H73.4863C73.1892 71.9775 72.8327 71.7789 72.6544 71.5407L72.0007 70.5482C71.8423 70.31 71.9413 70.0916 72.2384 70.0916H74.2589C74.556 70.0916 74.8333 69.9527 74.7342 70.2306L74.3579 71.4812Z" fill="#1F8BA6"/>
<path d="M68.2362 71.4828C68.3352 71.7607 68.6323 71.979 68.9295 71.979H69.0879C69.385 71.979 69.7416 71.7805 69.9198 71.5423L70.5735 70.5498C70.732 70.3115 70.6329 70.0932 70.3358 70.0932H68.3154C68.0183 70.0932 67.7212 69.9145 67.8202 70.1924L68.2362 71.4828Z" fill="#1F8BA6"/>
<path d="M72.8529 59.1353H69.7233C68.5348 59.711 67.7227 60.9219 67.7227 62.3115V69.7556C67.7227 70.2718 68.0792 70.8077 68.7725 71.2048C69.1686 71.4231 69.6242 71.5819 70.1194 71.701L70.5552 72.4752C70.6938 72.7333 71.0306 72.9318 71.2881 72.9318C71.5456 72.9318 71.8823 72.7135 72.021 72.4752L72.4567 71.701C72.9519 71.6018 73.4075 71.443 73.8037 71.2048C74.497 70.8077 74.8535 70.2718 74.8535 69.7556V62.3115C74.8535 60.9021 74.0414 59.711 72.8529 59.1353Z" fill="#25A4C4"/>
<path d="M71.2879 61.3388C72.199 61.3388 73.1102 61.1403 73.8035 60.7432C73.9817 60.644 74.1402 60.5249 74.2789 60.4058C73.9223 59.8499 73.4271 59.4132 72.8527 59.1353H69.723C69.1288 59.4132 68.6336 59.8499 68.2969 60.4058C68.4355 60.5249 68.594 60.644 68.7723 60.7432C69.4853 61.1403 70.3965 61.3388 71.2879 61.3388Z" fill="#1F8BA6"/>
<path d="M67.7422 68.3263C67.7422 68.8622 68.0987 69.3784 68.792 69.7754C70.1786 70.5893 72.4367 70.5893 73.8232 69.7754C74.5165 69.3784 74.873 68.8622 74.873 68.3263V68.5049C74.873 69.0409 74.5165 69.557 73.8232 69.9541C72.4367 70.768 70.1786 70.768 68.792 69.9541C68.0987 69.557 67.7422 69.021 67.7422 68.5049V68.3263Z" fill="#1F8BA6"/>
<path d="M67.7422 67.2731C67.7422 67.8091 68.0987 68.3252 68.792 68.7222C70.1786 69.5361 72.4367 69.5361 73.8232 68.7222C74.5165 68.3252 74.873 67.7892 74.873 67.2731V67.4518C74.873 67.9877 74.5165 68.5039 73.8232 68.9009C72.4367 69.7148 70.1786 69.7148 68.792 68.9009C68.0987 68.5039 67.7422 67.9679 67.7422 67.4518V67.2731Z" fill="#1F8BA6"/>
<path d="M67.7422 66.2023C67.7422 66.7383 68.0987 67.2544 68.792 67.6514C70.1786 68.4653 72.4367 68.4653 73.8232 67.6514C74.5165 67.2544 74.873 66.7184 74.873 66.2023V66.381C74.873 66.9169 74.5165 67.4331 73.8232 67.8301C72.4367 68.644 70.1786 68.644 68.792 67.8301C68.0987 67.4331 67.7422 66.8971 67.7422 66.381V66.2023Z" fill="#1F8BA6"/>
<path d="M67.7422 65.1491C67.7422 65.6652 68.0987 66.2012 68.792 66.5982C70.1786 67.4121 72.4367 67.4121 73.8232 66.5982C74.5165 66.2012 74.873 65.6652 74.873 65.1491V65.3278C74.873 65.8638 74.5165 66.3799 73.8232 66.7769C72.4367 67.5908 70.1786 67.5908 68.792 66.7769C68.0987 66.3799 67.7422 65.8439 67.7422 65.3278V65.1491Z" fill="#1F8BA6"/>
<path d="M67.7422 64.0778C67.7422 64.6138 68.0987 65.1299 68.792 65.5269C70.1786 66.3408 72.4367 66.3408 73.8232 65.5269C74.5165 65.1299 74.873 64.6138 74.873 64.0778V64.2565C74.873 64.7726 74.5165 65.3086 73.8232 65.7056C72.4367 66.5195 70.1786 66.5195 68.792 65.7056C68.0987 65.3086 67.7422 64.7726 67.7422 64.2565V64.0778Z" fill="#1F8BA6"/>
<path d="M74.6365 57.1104C74.6365 55.8002 73.864 54.6687 72.7547 54.1129C72.7547 54.1129 72.1803 53.7953 71.2889 53.7953C70.4174 53.7953 69.8232 54.1129 69.8232 54.1129C68.7139 54.6489 67.9414 55.7804 67.9414 57.1104V58.9566C67.9414 59.4529 68.2781 59.9491 68.9318 60.3263C70.2391 61.0806 72.3586 61.0806 73.6659 60.3263C74.3196 59.9491 74.6365 59.4529 74.6365 58.9566V57.1104Z" fill="#25A4C4"/>
<path d="M70.2578 52.6626V54.2308C70.2578 54.3897 70.3569 54.5286 70.5549 54.6477C70.9709 54.8859 71.6246 54.8859 72.0405 54.6477C72.2386 54.5286 72.3376 54.3698 72.3376 54.2308V53.675V52.6626H70.2578Z" fill="#1F8BA6"/>
<path d="M72.0405 53.0804C71.6444 53.3186 70.9709 53.3186 70.5549 53.0804C70.1588 52.8422 70.1588 52.465 70.5549 52.2268C70.9709 51.9886 71.6246 51.9886 72.0405 52.2268C72.4367 52.465 72.4367 52.8422 72.0405 53.0804Z" fill="#3A822A"/>
<path d="M70 51.7104V52.961C70 53.1595 70.1188 53.3382 70.3764 53.497C70.8715 53.7948 71.7035 53.7948 72.1987 53.497C72.4562 53.358 72.575 53.1595 72.575 52.9809V51.7104H70Z" fill="#A62626"/>
<path d="M72.2172 52.2263C71.722 52.5241 70.89 52.5241 70.3948 52.2263C69.8996 51.9285 69.8996 51.472 70.3948 51.1742C70.89 50.8764 71.722 50.8764 72.2172 51.1742C72.7124 51.472 72.7124 51.9285 72.2172 52.2263Z" fill="#D63A3A"/>
<path d="M68.9493 55.7395C68.7314 56.0174 68.6918 56.335 68.8503 56.4542C68.9889 56.5733 69.2861 56.4343 69.504 56.1564C69.7218 55.8785 69.7615 55.5608 69.603 55.4417C69.4643 55.3226 69.1672 55.4616 68.9493 55.7395Z" fill="white"/>
<path d="M67.7422 67.7103C67.7422 67.7103 67.9601 70.0527 72.199 69.7947V64.6731C67.9403 64.9113 67.7422 62.5887 67.7422 62.5887V67.7103Z" fill="white"/>
<path d="M48.936 50.4244C48.4667 50.3035 44.6729 50.4244 44.6729 50.4244C40.8924 47.7239 36.9376 43.5187 36.9376 43.5187C37.9699 39.0717 39.7931 29.3849 39.7931 29.3849C39.7931 29.3849 41.0667 24.5482 37.6481 23.4331C32.5405 21.7672 32.9695 31.8435 32.9695 31.8435C32.9695 31.8435 31.1462 44.701 31.9372 46.2192C32.9695 48.0867 42.7156 52.7487 42.7156 52.7487C42.7156 52.7487 43.2518 53.8772 43.7881 54.1997C44.7935 54.7908 46.4424 54.6699 46.4424 54.6699C46.4424 54.6699 51.3088 56.5374 52.3009 54.9924C53.2795 53.4473 49.4052 50.5453 48.936 50.4244Z" fill="#F0C6B4"/>
<path d="M59.3262 35.7604C61.4577 37.2249 63.7635 39.0386 65.332 40.0731C65.8683 40.3687 68.6835 39.6298 69.5147 40.2881C70.3459 40.9464 70.4263 43.4991 69.2734 44.238C67.3697 45.4606 65.0639 42.8542 65.0639 42.8542L63.3882 43.8215C62.6508 42.9751 63.5222 42.5855 63.3882 41.6316C61.5516 40.7046 58.9776 40.0194 56.7656 39.3073V36.4591L59.3262 35.7604Z" fill="#F0C6B4"/>
<defs>
<linearGradient id="paint0_linear" x1="56.6812" y1="48.2413" x2="58.4026" y2="51.2227" gradientUnits="userSpaceOnUse">
<stop offset="0.1261" stop-color="#FF4747"/>
<stop offset="0.1272" stop-color="#F25555"/>
<stop offset="0.4378" stop-color="#F25555"/>
<stop offset="0.4407" stop-color="#C23226"/>
<stop offset="0.8367" stop-color="#C23226"/>
<stop offset="0.8387" stop-color="#961E1E"/>
</linearGradient>
<linearGradient id="paint1_linear" x1="62.716" y1="53.1517" x2="63.3488" y2="54.2477" gradientUnits="userSpaceOnUse">
<stop offset="0.1261" stop-color="#E7E8E9"/>
<stop offset="0.1272" stop-color="#DBDBDB"/>
<stop offset="0.4378" stop-color="#DBDBDB"/>
<stop offset="0.4407" stop-color="#A9AAAB"/>
<stop offset="0.8367" stop-color="#A9AAAB"/>
<stop offset="0.8387" stop-color="#7E7F80"/>
</linearGradient>
</defs>
</svg>
