<svg width="143" height="98" viewBox="0 0 143 98" fill="none" xmlns="http://www.w3.org/2000/svg">
<path d="M128.775 58.668L128.525 58.9797C128.026 59.6032 127.652 60.6631 127.652 61.2865V64.7156C127.652 65.3391 128.026 65.4014 128.525 64.778L128.962 64.1545C129.46 63.531 129.647 62.8452 129.647 62.1594V58.7303C129.71 58.1069 129.273 58.0445 128.775 58.668Z" fill="#1F150B"/>
<path d="M129.087 58.668L128.838 58.9797C128.339 59.6032 127.965 60.6631 127.965 61.2865V64.7156C127.965 65.3391 128.339 65.4014 128.838 64.778L129.274 64.1545C129.773 63.531 129.96 62.8452 129.96 62.1594V58.7303C129.96 58.1069 129.586 58.0445 129.087 58.668Z" fill="#484038"/>
<path d="M125.285 70.2024L128.901 66.1499V56.5485L126.22 58.793L126.407 59.167L128.714 57.1719V65.9628L125.035 69.8907L125.285 70.2024Z" fill="#403932"/>
<path d="M104.246 82.4891V84.1725L95.2678 78.9977L94.582 79.3095V76.9403C94.582 73.8853 96.7641 72.6384 99.3827 74.197C102.126 75.6934 104.246 79.4342 104.246 82.4891Z" fill="#272629"/>
<path d="M97.4522 77.0019C97.4522 79.5581 99.2603 82.6755 101.505 83.9848C102.378 84.4835 101.442 85.7305 102.128 85.5434C102.315 85.4811 104.248 84.3588 104.373 84.2341C105.121 83.7977 105.557 82.9248 105.557 81.6156C105.557 79.0594 103.749 75.942 101.505 74.6328C100.445 74.0093 99.5096 73.9469 98.8238 74.2587C98.7615 74.2587 96.9534 75.3186 96.8911 75.3809C96.1429 75.8797 97.4522 75.755 97.4522 77.0019Z" fill="#151B1F"/>
<path d="M102.31 85.384C103.885 84.463 103.881 81.5234 102.299 78.8184C100.718 76.1133 98.1586 74.6671 96.5831 75.5881C95.0076 76.5092 95.0125 79.4487 96.5939 82.1538C98.1753 84.8589 100.735 86.3051 102.31 85.384Z" fill="#585B5D"/>
<path d="M95.5195 78.311C95.5195 80.8049 97.2652 83.8599 99.4474 85.1068C101.629 86.3537 103.375 85.3562 103.375 82.8623C103.375 80.3684 101.629 77.3135 99.4474 76.0665C97.2652 74.8196 95.5195 75.8172 95.5195 78.311Z" fill="#3A3E40"/>
<path d="M96.6445 78.8719C96.6445 80.6799 97.8915 82.7997 99.4501 83.7349C101.009 84.6701 102.256 83.922 102.256 82.1139C102.256 80.3058 101.009 78.1861 99.4501 77.2509C97.8915 76.378 96.6445 77.0638 96.6445 78.8719Z" fill="#A5A9B2"/>
<path d="M102.003 81.9891C102.003 83.6101 100.818 84.2959 99.4469 83.4854C98.0129 82.6749 96.8906 80.6798 96.8906 78.9964C96.8906 77.3754 98.0752 76.6896 99.4469 77.5001C100.881 78.3106 102.003 80.3057 102.003 81.9891Z" fill="#484B4D"/>
<path d="M101.943 82.0516C101.943 83.3609 101.008 83.8596 99.8856 83.2362C98.7634 82.5504 97.8281 80.9917 97.8281 79.6824C97.8281 78.3732 98.7634 77.8744 99.8856 78.4978C101.008 79.1213 101.943 80.7423 101.943 82.0516Z" fill="#21272B"/>
<path d="M101.877 81.4902C101.877 82.7995 100.941 83.2983 99.8191 82.6748C98.6969 81.989 97.7617 80.4303 97.7617 79.1211C97.7617 77.8118 98.6969 77.313 99.8191 77.9365C100.941 78.5599 101.877 80.181 101.877 81.4902Z" fill="#3D454B"/>
<path d="M97.888 77.1886C97.5139 77.5003 97.2646 77.9991 97.2646 78.7473C97.2646 80.3683 98.4491 82.3634 99.8208 83.2362C100.382 83.5479 100.881 83.6726 101.317 83.5479C100.818 83.922 100.132 83.922 99.3843 83.4233C97.9503 82.6128 96.8281 80.6177 96.8281 78.9343C96.8281 77.9991 97.2646 77.3756 97.888 77.1886Z" fill="#666B70"/>
<path d="M101.502 81.7399C101.502 83.0491 100.566 83.5479 99.4441 82.9244C98.3219 82.2386 97.3867 80.68 97.3867 79.3707C97.3867 78.0614 98.3219 77.5626 99.4441 78.1861C100.566 78.8096 101.502 80.4306 101.502 81.7399Z" fill="#7E8386"/>
<path d="M100.008 81.1162C100.008 81.6774 99.6336 81.8644 99.1972 81.615C98.7608 81.3656 98.3867 80.6798 98.3867 80.181C98.3867 79.6823 98.7608 79.4329 99.1972 79.6823C99.6336 79.9317 100.008 80.5551 100.008 81.1162Z" fill="#5C3E17"/>
<path d="M99.9452 81.1164C99.9452 81.6776 99.5711 81.8646 99.1347 81.6152C98.6983 81.3658 98.3242 80.68 98.3242 80.1812C98.3242 79.6201 98.6983 79.4331 99.1347 79.6825C99.5711 79.9319 99.9452 80.6177 99.9452 81.1164Z" fill="#A5A9B2"/>
<path d="M59.6676 56.7401V58.4235L50.565 53.1864L50.0039 53.5604V51.1913C50.0039 48.1363 52.186 46.8894 54.8046 48.448C57.4855 49.9443 59.6676 53.6851 59.6676 56.7401Z" fill="#272629"/>
<path d="M52.81 51.3791C52.81 53.9353 54.6181 57.0527 56.8625 58.3619C57.7354 58.8607 56.8002 60.1076 57.486 59.9206C57.673 59.8582 59.6058 58.736 59.7305 58.6113C60.4786 58.1749 60.9151 57.302 60.9151 55.9928C60.9151 53.4366 59.107 50.3192 56.8625 49.0099C55.8026 48.3865 54.8675 48.3241 54.1816 48.6359C54.1193 48.6359 52.3112 49.6958 52.2489 49.7581C51.5631 50.1945 52.81 50.0698 52.81 51.3791Z" fill="#151B1F"/>
<path d="M50.75 52.5015C50.75 55.0577 52.5581 58.175 54.8025 59.4843C57.047 60.7935 58.8551 59.7337 58.8551 57.1774C58.8551 54.6212 57.047 51.5039 54.8025 50.1946C52.5581 48.9477 50.75 49.9452 50.75 52.5015Z" fill="#585B5D"/>
<path d="M50.875 52.6884C50.875 55.1823 52.6207 58.2373 54.8028 59.4842C56.985 60.7312 58.7307 59.7336 58.7307 57.2398C58.7307 54.7459 56.985 51.6909 54.8028 50.444C52.6207 49.197 50.875 50.1946 50.875 52.6884Z" fill="#3A3E40"/>
<path d="M51.9961 53.2499C51.9961 55.0579 53.243 57.1777 54.8017 58.1129C56.3604 58.9858 57.6073 58.3 57.6073 56.4919C57.6073 54.6839 56.3604 52.5641 54.8017 51.6289C53.243 50.756 51.9961 51.4418 51.9961 53.2499Z" fill="#A5A9B2"/>
<path d="M57.3585 56.3667C57.3585 57.1149 57.1091 57.676 56.7351 57.9254C56.2363 58.2995 55.5505 58.2371 54.8023 57.8007C53.3683 56.9902 52.2461 54.9951 52.2461 53.3741C52.2461 52.3142 52.7449 51.6284 53.493 51.566C53.8671 51.5037 54.3035 51.6284 54.8023 51.9401C56.2363 52.7506 57.3585 54.6833 57.3585 56.3667Z" fill="#666B70"/>
<path d="M57.3561 56.3667C57.3561 57.1149 57.1068 57.676 56.7327 57.9254C56.3586 57.9877 55.9222 57.863 55.4234 57.5513C53.9894 56.7408 52.8672 54.7457 52.8672 53.1247C52.8672 52.3765 53.1166 51.8154 53.4907 51.566C53.8647 51.5037 54.3012 51.6284 54.7999 51.9401C56.2339 52.7506 57.3561 54.6833 57.3561 56.3667Z" fill="#484B4D"/>
<path d="M57.0475 55.6809C57.0475 56.1173 56.9228 56.4291 56.6734 56.5538C56.424 56.7408 55.9876 56.7408 55.5512 56.4914C54.7406 55.9926 54.1172 54.8704 54.1172 53.9352C54.1172 53.3117 54.4289 52.9377 54.803 52.8753C55.0524 52.8753 55.3018 52.9376 55.5512 53.0623C56.424 53.6235 57.0475 54.7457 57.0475 55.6809Z" fill="#21272B"/>
<path d="M56.9225 55.245C56.9225 55.6814 56.7978 55.9931 56.5484 56.1178C56.299 56.3049 55.8626 56.3049 55.4262 56.0555C54.6157 55.5567 53.9922 54.4345 53.9922 53.4993C53.9922 52.8758 54.3039 52.5017 54.678 52.4394C54.9274 52.4394 55.1768 52.5017 55.4262 52.6264C56.299 53.1875 56.9225 54.3098 56.9225 55.245Z" fill="#3D454B"/>
<path d="M56.5475 55.4319C56.5475 55.8683 56.4228 56.1801 56.1734 56.3048C55.924 56.4918 55.4876 56.4918 55.0512 56.2424C54.2406 55.7436 53.6172 54.6214 53.6172 53.6862C53.6172 53.0627 53.9289 52.6886 54.303 52.6263C54.5524 52.6263 54.8018 52.6886 55.0512 52.8133C55.924 53.3745 56.5475 54.4967 56.5475 55.4319Z" fill="#7E8386"/>
<path d="M142.027 75.9431V84.6716L141.341 85.4197L124.009 93.8989L121.951 73.948L112.288 68.3991V69.0849L72.1365 45.892V45.2062L67.7099 42.65V43.3358L51.4374 33.9215L43.457 27.5621L44.6416 3.05989L45.3274 2L141.404 57.3638L140.655 61.4163L140.406 62.1645L141.029 75.9431H142.027Z" fill="#9D9D9C"/>
<path d="M123.388 86.1053L124.011 86.417V95.582L104.31 84.8584V82.4892C104.31 81.1176 103.874 79.6213 103.188 78.312C102.315 76.5663 100.943 75.07 99.5092 74.1971C98.0129 73.3243 96.7037 73.3243 95.8308 74.0724C95.145 74.6335 94.7085 75.6311 94.7085 77.0027V79.3719L59.7321 59.1716V56.8024C59.7321 55.4308 59.2957 53.9968 58.6099 52.6252C57.737 50.8795 56.3654 49.3832 54.9314 48.5103C53.4351 47.6375 52.1258 47.6375 51.1906 48.3856C50.5048 48.9467 50.0684 49.9443 50.0684 51.3159V53.6851L33.7959 44.2707L27.0625 38.6595V13.4092L27.7483 12.3493L124.199 67.9001L122.577 68.3365V68.96L122.515 70.3316L122.764 71.8279L123.388 86.1053Z" fill="#B2AEAA"/>
<path d="M121.206 77.8133V88.0382L103.126 77.6263C102.253 75.8806 100.881 74.3843 99.4474 73.5114C97.951 72.6386 96.6418 72.6386 95.7689 73.3867L58.548 51.9395C57.6751 50.1938 56.3035 48.6975 54.8696 47.8246C53.3732 46.9518 52.064 46.9518 51.1288 47.6999L27.25 33.9213V23.6965L121.206 77.8133Z" fill="#4A6FA8"/>
<path d="M27 13.285L122.453 68.2123L124.074 67.7759L27.6858 12.2251L27 13.285Z" fill="#E0DDDA"/>
<path d="M27.7482 35.5422L27 36.2904V30.4298L27.7482 30.8662V35.5422Z" fill="#A6310B"/>
<path d="M105.494 77.0029C105.494 76.5665 105.432 76.2548 105.307 75.9431C105.058 75.3819 104.684 74.8832 104.123 74.5714L95.7682 69.7707C95.3941 69.5214 94.9577 69.5837 94.646 69.7707C94.3966 69.8954 94.2096 70.1448 94.1472 70.4566L60.7294 51.1915C60.7294 50.8174 60.6671 50.5056 60.5424 50.1939C60.293 49.6328 59.9189 49.134 59.3578 48.8223L51.0657 44.0216C50.6916 43.7722 50.2552 43.8346 49.9435 44.0216C49.6941 44.1463 49.5694 44.3957 49.5071 44.6451L28.5586 32.5498V27.2504V16.028L119.709 68.5862V85.1704L105.494 77.0029Z" fill="#292017"/>
<path d="M106.12 62.04V75.2575L92.7773 67.5889V56.4912L101.693 61.6036L103.189 60.3567L106.12 62.04Z" fill="#3E434A"/>
<path d="M83.1719 50.9421L91.651 55.8051V68.3991L83.1719 63.4737V50.9421Z" fill="#3E434A"/>
<path d="M61.6037 38.4729V49.5706L48.1992 41.8396V28.6221L56.4913 33.4228L57.9876 36.4154L61.6037 38.4729Z" fill="#3E434A"/>
<path d="M61.0426 50.0069V50.4433L60.6061 50.1939C60.3567 49.6328 59.9827 49.134 59.4215 48.8223L51.1294 44.0216C50.7554 43.7722 50.3189 43.8346 50.0072 44.0216L49.7578 43.8969V43.7722C49.7578 42.8994 50.693 42.4006 51.3788 42.837L59.6709 47.6377C60.4814 48.0741 61.0426 49.0093 61.0426 50.0069Z" fill="#322920"/>
<path d="M105.742 75.7559V76.1923L105.305 75.943C105.056 75.3818 104.682 74.8831 104.121 74.5713L95.7662 69.7706C95.3921 69.5212 94.9557 69.5836 94.6439 69.7706L94.3945 69.646V69.5213C94.3945 68.6484 95.3298 68.1496 96.0156 68.5861L104.37 73.3867C105.18 73.8232 105.742 74.7584 105.742 75.7559Z" fill="#322920"/>
<path d="M34.1676 22.6365L29.2422 19.8309V27.0007L34.1676 29.8063V22.6365Z" fill="#3E434A"/>
<path d="M69.0818 42.7747V55.3687L62.6602 51.6902V39.0962L63.346 39.4703L65.2787 40.5925L68.4584 42.4629L69.0818 42.7747Z" fill="#3E434A"/>
<path d="M119.395 68.8354L107.051 61.7279V85.7937L119.395 92.9012V68.8354Z" fill="#292017"/>
<path d="M33.7305 43.4605L50.0029 52.8748V53.5606L33.7305 44.1463V43.4605Z" fill="#414141"/>
<path d="M59.668 58.4237L94.6444 78.624V79.3098L59.668 59.1095V58.4237Z" fill="#414141"/>
<path d="M124.01 95.0833V95.5821L122.576 95.4574L104.246 84.8585V84.1727L121.204 93.9611L124.01 95.0833Z" fill="#414141"/>
<path d="M142.03 85.4197L139.349 87.4772L127.815 94.0859L124.012 95.5822V95.0835L126.256 93.7742L139.723 86.2926L142.03 84.921V85.4197Z" fill="#414141"/>
<path d="M27 38.5351L33.7334 44.1463V43.4605L27 37.8493V38.5351Z" fill="#414141"/>
<path d="M112.725 66.0302V86.4175L107.488 83.3626V63.0376L108.486 63.5987L111.167 65.1573L112.725 66.0302Z" fill="#3E434A"/>
<path d="M113.848 87.0406L118.898 89.9709V69.5836L113.848 66.7156V87.0406Z" fill="#3E434A"/>
<path d="M82.2393 47.3883L69.957 40.3432V64.3466L82.2393 71.4541V47.3883Z" fill="#292017"/>
<path d="M75.5654 44.6451V64.9701L70.3906 61.9774V41.5901L75.5654 44.6451Z" fill="#3E434A"/>
<path d="M76.75 65.5938L81.7377 68.5241V48.1991L76.75 45.2688V65.5938Z" fill="#3E434A"/>
<path d="M47.3253 27.2501L35.043 20.1426V44.2084L47.3253 51.3159V27.2501Z" fill="#292017"/>
<path d="M35.4766 41.7772L40.6513 44.7699V24.4449L35.4766 21.4523V41.7772Z" fill="#3E434A"/>
<path d="M41.7773 45.4553L46.8274 48.3856V27.9983L41.7773 25.1303V45.4553Z" fill="#3E434A"/>
<path d="M48.6972 47.326L47.8867 46.8895V45.9543L48.6972 46.3908V47.326Z" fill="#2F2D31"/>
<path d="M69.5827 58.6733L68.2734 57.9875V56.4912L69.5827 57.2393V58.6733Z" fill="#68B8C2"/>
<path d="M106.49 80.7437L105.68 80.245V79.3098L106.49 79.8085V80.7437Z" fill="#2F2D31"/>
<path d="M82.2383 64.471L82.6747 64.7204V47.1387L82.2383 46.9516V64.471Z" fill="#848C7C"/>
<path d="M75.9414 67.838L76.3778 68.0874V43.6475L75.9414 43.4605V67.838Z" fill="#20160C"/>
<path d="M69.582 56.6777L70.0185 56.9271V39.3454L69.582 39.1583V56.6777Z" fill="#848C7C"/>
<path d="M47.3242 44.0217L47.6983 44.2088V26.6894L47.3242 26.44V44.0217Z" fill="#848C7C"/>
<path d="M34.8555 37.1634L35.2296 37.4127V19.8934L34.8555 19.644V37.1634Z" fill="#848C7C"/>
<path d="M54.6797 38.6596L55.0538 38.9089V32.4872L54.6797 32.3002V38.6596Z" fill="#322920"/>
<path d="M61.6037 42.6502L48.1992 34.9192V34.3581L61.6037 42.0891V42.6502Z" fill="#322920"/>
<path d="M124.071 67.7757L27.6836 12.2248L45.3277 2L141.404 57.3638L124.071 67.7757Z" fill="#E9E5E2"/>
<path d="M142.03 82.2402V84.6717L124.012 95.0836V92.6521L131.057 88.5995L135.733 85.8563L142.03 82.2402Z" fill="#8C8C8C"/>
<path d="M142.03 84.9212L139.349 86.9786L127.815 93.5874L124.012 95.0837V94.772L126.256 93.2757L139.723 85.7941L142.03 84.5471V84.9212Z" fill="#8C8C8C"/>
<path d="M124.01 86.417L142.028 75.9428H141.031L123.387 86.1053L124.01 86.417Z" fill="#5E5E5E"/>
<path d="M142.028 75.9428V82.2398L133.986 88.6615L124.01 92.6517V86.417L123.387 86.1053L124.01 85.7936L141.031 75.9428H142.028Z" fill="#CCC7C4"/>
<path d="M127.812 85.2953V93.5874L139.347 86.9786V78.6242L127.812 85.2953Z" fill="#CCC7C4"/>
<path d="M142.03 75.9428V76.3169L124.012 86.7911V85.7936L141.032 75.9428H142.03Z" fill="#403932"/>
<path d="M142.03 75.9433L141.032 74.8834L141.095 75.881L124.76 85.2953C123.949 85.7317 123.014 85.5447 122.391 84.8589L122.765 85.9811L123.139 86.5422L124.074 86.7293L124.136 86.3552L142.03 75.9433Z" fill="#403932"/>
<path d="M141.032 75.9428L124.635 85.5442C124.448 85.6689 124.199 85.6689 123.949 85.7312C123.388 85.7936 122.765 85.5442 122.391 85.0454L122.64 71.8279L123.575 71.3915L126.381 70.0822C128.376 69.147 130.309 68.1495 132.179 67.0896C133.925 66.092 135.608 65.0321 137.229 63.8476C137.79 63.4735 138.289 63.0994 138.85 62.7253L140.346 61.6031L141.032 75.9428Z" fill="#5E6F72"/>
<path d="M138.227 72.5138L141.032 75.9428L140.346 61.6031L138.227 63.1618V72.5138Z" fill="#9FB8B9"/>
<path d="M137.288 63.8479V70.2073L132.238 67.277V67.09C133.984 66.0924 135.667 64.9702 137.288 63.8479Z" fill="#9FB8B9"/>
<path d="M124.011 85.7314C123.45 85.7937 122.827 85.5443 122.453 85.0455L122.39 84.9832L122.328 71.641L122.64 71.8281L123.575 71.3916C123.575 71.454 123.575 71.5787 123.637 71.641C123.637 71.641 124.011 84.8585 124.011 85.7314Z" fill="#555A61"/>
<path d="M123.701 72.2023L127.441 70.893L138.726 64.4089L140.41 62.7879V62.1645L138.789 63.5984L127.691 69.9578L122.703 71.8282L123.701 72.2023Z" fill="#555A61"/>
<path d="M48.1379 10.2925L42.6514 13.4722C42.1527 13.7839 42.1527 14.5321 42.6514 14.8438L52.8139 20.7044C53.5621 21.1408 54.5596 21.1408 55.3078 20.7044L60.7943 17.5247C61.2931 17.213 61.2931 16.4648 60.7943 16.1531L50.6318 10.2925C49.8836 9.85609 48.8861 9.85609 48.1379 10.2925Z" fill="#96826E"/>
<path d="M48.6987 10.9783L44.0227 13.6592C43.6487 13.8463 43.6487 14.4074 44.0227 14.6568L53.1877 19.9562C53.7488 20.268 54.4346 20.268 54.9958 19.9562L59.6717 17.2753C60.0458 17.0883 60.0458 16.5272 59.6717 16.2778L50.5068 10.9783C49.9457 10.6666 49.2599 10.6666 48.6987 10.9783Z" fill="#9FB8B9"/>
<path d="M80.8664 35.4178L86.3529 32.2381C86.8517 31.9264 86.8517 31.1782 86.3529 30.8665L76.1904 25.0059C75.4422 24.5695 74.4447 24.5695 73.6965 25.0059L68.21 28.1856C67.7112 28.4973 67.7112 29.2455 68.21 29.5572L78.3725 35.4178C79.1207 35.8542 80.1182 35.8542 80.8664 35.4178Z" fill="#96826E"/>
<path d="M80.3043 34.7316L84.9803 32.0507C85.3544 31.8636 85.3544 31.3025 84.9803 31.0531L75.8154 25.7537C75.2543 25.4419 74.5685 25.4419 74.0073 25.7537L69.3313 28.4346C68.9573 28.6216 68.9573 29.1827 69.3313 29.4321L78.4963 34.7316C79.0574 35.0433 79.7432 35.0433 80.3043 34.7316Z" fill="#9FB8B9"/>
<path d="M108.673 45.2685L103.187 48.4482C102.688 48.7599 102.688 49.5081 103.187 49.8198L113.349 55.6804C114.097 56.1168 115.095 56.1168 115.843 55.6804L121.329 52.5007C121.828 52.189 121.828 51.4408 121.329 51.1291L111.167 45.2685C110.419 44.8321 109.421 44.8321 108.673 45.2685Z" fill="#96826E"/>
<path d="M109.234 45.9542L104.558 48.6351C104.184 48.8221 104.184 49.3832 104.558 49.6326L113.723 54.9321C114.284 55.2438 114.97 55.2438 115.531 54.9321L120.207 52.2512C120.581 52.0641 120.581 51.503 120.207 51.2536L111.042 45.9542C110.481 45.6424 109.795 45.6424 109.234 45.9542Z" fill="#9FB8B9"/>
<path d="M27.6836 12.2251L124.071 67.1524L140.718 57.364L132.675 52.3763L141.404 57.364L124.071 67.7759L27.6836 12.2251Z" fill="#E9EDDC"/>
<path d="M141.032 75.9429V74.883L137.479 73.262L132.803 76.6287L132.366 78.9979L129.187 80.993L124.012 82.9258V85.7937L141.032 75.9429Z" fill="#737F82"/>
<path d="M124.011 82.9259L122.328 82.7388V84.921C122.328 84.921 123.076 85.9185 123.949 85.7315C124.011 82.9259 124.011 82.9259 124.011 82.9259Z" fill="#637376"/>
<path d="M92.4628 76.4414L91.6523 75.9426V75.3815L92.4628 75.8803V76.4414Z" fill="#FD3D0E"/>
<path d="M92.5895 75.818V76.3791L92.4648 76.4415V75.8804L92.5895 75.818Z" fill="#FD5C0E"/>
<path d="M91.777 75.3194L92.5875 75.8181L92.4628 75.8805L91.6523 75.3817L91.777 75.3194Z" fill="#FDB03B"/>
<path d="M69.455 63.1616L68.6445 62.7252V62.1641L69.455 62.6005V63.1616Z" fill="#FD3D0E"/>
<path d="M69.5817 62.5379V63.099L69.457 63.1614V62.6002L69.5817 62.5379Z" fill="#FD5C0E"/>
<path d="M68.7692 62.0396L69.5797 62.5384L69.455 62.6008L68.6445 62.1643L68.7692 62.0396Z" fill="#FDB03B"/>
<path d="M105.806 84.1724L104.934 83.6736V83.1125L105.806 83.6112V84.1724Z" fill="#FD3D0E"/>
<path d="M105.929 83.4869V84.0481L105.805 84.1727V83.6116L105.929 83.4869Z" fill="#FD5C0E"/>
<path d="M105.121 83.0504L105.931 83.4868L105.806 83.6115L104.934 83.1127L105.121 83.0504Z" fill="#FDB03B"/>
<path d="M106.49 79.3098L105.68 78.811V78.2499L106.49 78.7487V79.3098Z" fill="#FD3D0E"/>
<path d="M106.617 78.6865V79.2476L106.492 79.3099V78.7488L106.617 78.6865Z" fill="#FD5C0E"/>
<path d="M105.804 78.1877L106.615 78.6864L106.49 78.7488L105.68 78.25L105.804 78.1877Z" fill="#FDB03B"/>
<path d="M61.1033 58.3604L60.2305 57.8617V57.3005L61.1033 57.7993V58.3604Z" fill="#FD3D0E"/>
<path d="M61.2262 57.675V58.2361L61.1016 58.3608V57.7997L61.2262 57.675Z" fill="#FD5C0E"/>
<path d="M60.4175 57.2384L61.228 57.6748L61.1033 57.7995L60.2305 57.3007L60.4175 57.2384Z" fill="#FDB03B"/>
<path d="M49.3808 51.5659L48.5703 51.1294V50.5683L49.3808 51.0047V51.5659Z" fill="#FD3D0E"/>
<path d="M49.5075 50.9421V51.5033L49.3828 51.5656V51.0045L49.5075 50.9421Z" fill="#FD5C0E"/>
<path d="M48.695 50.4434L49.5055 50.9422L49.3808 51.0046L48.5703 50.5681L48.695 50.4434Z" fill="#FDB03B"/>
<path d="M31.74 41.0913L30.8672 40.5925V40.0937L31.74 40.5301V41.0913Z" fill="#FD3D0E"/>
<path d="M31.863 40.4676V41.0287L31.7383 41.091V40.5299L31.863 40.4676Z" fill="#FD5C0E"/>
<path d="M31.0542 39.9689L31.8647 40.4677L31.74 40.53L30.8672 40.0936L31.0542 39.9689Z" fill="#FDB03B"/>
<path d="M29.3691 15.8411L28.5586 15.3424V14.7812L29.3691 15.28V15.8411Z" fill="#FD3D0E"/>
<path d="M29.4958 15.2178V15.7789L29.3711 15.8413V15.2801L29.4958 15.2178Z" fill="#FD5C0E"/>
<path d="M28.6833 14.7189L29.4938 15.2177L29.3691 15.2801L28.5586 14.7813L28.6833 14.7189Z" fill="#FDB03B"/>
<path d="M124.008 91.2799L128.31 89.4718V92.8385L124.008 94.6466V91.2799Z" fill="#322920"/>
<path d="M142.465 80.806L142.403 84.1727L139.784 86.2925V82.9258L128.312 89.4722L139.784 82.9258L142.465 80.806Z" fill="#3A3128"/>
<path d="M142.464 80.8062L139.783 82.926L128.311 89.4724L124.009 91.2804L122.949 91.0311L124.009 90.9687L126.503 90.0335L139.72 82.4272L142.027 80.7439V80.3698L142.464 80.8062Z" fill="#68615A"/>
<path d="M124.009 91.2799V94.6466L122.949 94.2725V91.0305L124.009 91.2799Z" fill="#20160C"/>
<path d="M139.784 82.9254V86.2921L128.312 92.8385V89.4718L139.784 82.9254Z" fill="#403932"/>
<path d="M139.411 83.6737V83.9231L128.75 89.9707V89.7213L139.411 83.6737Z" fill="#20160C"/>
<path d="M139.411 84.1724V84.4217L128.75 90.4694V90.22L139.411 84.1724Z" fill="#20160C"/>
<path d="M139.411 84.6716V84.921L128.75 90.9686V90.7816L139.411 84.6716Z" fill="#20160C"/>
<path d="M139.411 85.1703V85.4197L128.75 91.4673V91.2802L139.411 85.1703Z" fill="#20160C"/>
<path d="M139.411 85.6689V85.9183L128.75 91.9659V91.7789L139.411 85.6689Z" fill="#20160C"/>
<path d="M142.213 82.926V83.6118C142.213 83.7988 142.088 83.9859 141.964 84.1106L140.218 85.5445C140.093 85.6692 139.906 85.6069 139.906 85.4198V84.734C139.906 84.547 140.031 84.3599 140.156 84.2353L141.403 83.2377L141.839 82.8636C142.088 82.6766 142.275 82.7389 142.213 82.926Z" fill="#20160C"/>
<path d="M141.905 82.8012V83.487C141.905 83.6741 141.781 83.8611 141.656 83.9858L139.973 85.3574V84.6716C139.973 84.4846 140.097 84.2975 140.222 84.1728L141.469 83.1753L141.905 82.8012Z" fill="#A29F9C"/>
<path d="M141.469 83.113V83.3623C141.469 83.5494 141.344 83.7364 141.22 83.8611L139.973 84.921V84.6716C139.973 84.4846 140.097 84.2975 140.222 84.1728L141.469 83.113Z" fill="#CBC9C7"/>
<path d="M126.814 93.2128L124.569 94.0856C124.382 94.148 124.195 94.0233 124.195 93.8362V93.2128C124.195 93.0257 124.32 92.901 124.507 92.8387L126.689 92.0282C126.876 91.9658 127.063 92.0905 127.063 92.2776V92.901C127.126 92.9634 127.001 93.0881 126.814 93.2128Z" fill="#20160C"/>
<path d="M126.752 92.7144C126.752 92.8391 126.689 92.9637 126.502 93.0261L124.632 93.7119C124.507 93.7743 124.32 93.6496 124.32 93.5249V93.0261C124.32 92.9014 124.445 92.7767 124.57 92.7144L126.315 92.0285H126.378C126.502 91.9662 126.69 92.0909 126.69 92.2156L126.752 92.7144Z" fill="#A29F9C"/>
<path d="M126.378 92.4646C126.378 92.5893 126.315 92.714 126.128 92.7763L124.32 93.4621V93.088C124.32 92.9634 124.445 92.8387 124.57 92.7763L126.315 92.0905L126.378 92.4646Z" fill="#CBC9C7"/>
<path d="M142.217 81.6792V82.0533C142.217 82.2403 142.092 82.4274 141.968 82.5521L140.222 83.986C140.097 84.1107 139.91 84.0484 139.91 83.8613V83.4873C139.91 83.3002 140.035 83.1132 140.16 82.9885L141.406 81.9909L141.843 81.6169C142.092 81.4298 142.279 81.4922 142.217 81.6792Z" fill="#20160C"/>
<path d="M141.905 81.5545V81.9285C141.905 82.1156 141.781 82.3026 141.656 82.4273L139.973 83.7989V83.4249C139.973 83.2378 140.097 83.0508 140.222 82.9261L141.469 81.9285L141.905 81.5545Z" fill="#872F00"/>
<path d="M141.469 81.9283C141.469 82.1153 141.344 82.24 141.22 82.3647L139.973 83.4246V83.487C139.973 83.2999 140.097 83.1129 140.222 82.9882L141.469 81.9283Z" fill="#FF7904"/>
<path d="M126.818 91.6545L124.573 92.5274C124.386 92.5897 124.199 92.465 124.199 92.278V91.9039C124.199 91.7169 124.324 91.5922 124.511 91.5298L126.693 90.7193C126.88 90.657 127.067 90.7817 127.067 90.9687V91.2804C127.129 91.4051 127.005 91.5922 126.818 91.6545Z" fill="#20160C"/>
<path d="M126.756 91.218C126.756 91.3427 126.693 91.4674 126.506 91.5297L124.636 92.2155C124.511 92.2779 124.324 92.1532 124.324 92.0285V91.8414C124.324 91.7167 124.449 91.5921 124.574 91.5297L126.319 90.8439H126.382C126.506 90.7815 126.693 90.9062 126.693 91.0309L126.756 91.218Z" fill="#872F00"/>
<path d="M126.382 90.9686C126.382 91.0933 126.319 91.2179 126.132 91.2803L124.324 91.9661V91.9038C124.324 91.7791 124.449 91.6544 124.574 91.592L126.382 90.9686Z" fill="#FF7904"/>
<path d="M141.406 57.738L138.538 60.1071L127.939 66.1548L124.136 67.7134V67.4017L123.949 67.09L140.596 57.3016L141.406 57.3639V57.738Z" fill="#E2E3D5"/>
<path d="M142.03 76.6289L139.349 78.624L127.815 85.2951L124.012 86.7914V86.4796L126.256 84.9833L139.723 77.5017L142.03 76.1924V76.6289Z" fill="#403932"/>
<path d="M142.03 78.6864L139.349 80.6815L127.815 87.3526L124.012 88.8489V86.7915L127.815 85.2952L139.349 78.6241L142.03 76.629V78.6864Z" fill="#3A3128"/>
<path d="M141.032 76.1927L139.349 77.689L127.815 84.2978L124.012 85.8564V85.5447L126.256 84.0484L139.723 76.5668L141.032 75.8186V76.1927Z" fill="#737F82"/>
<path d="M140.597 61.9773L138.789 63.5983L127.691 69.9577L122.703 71.8281L124.012 71.1423L126.195 69.7083L139.1 62.4761L140.659 61.4162L140.597 61.9773Z" fill="#9D9D9C"/>
<path d="M138.474 60.8554L128 66.9654L123.199 68.7735L123.137 71.1426L127.813 69.2722L137.726 63.5363L140.095 61.6659L140.905 58.6733L138.474 60.8554Z" fill="#403932"/>
<path d="M123.199 68.7731V70.3318L127.252 68.7107L137.227 62.9748L139.534 61.0421L139.97 59.5458L138.474 60.8551L128 66.965L123.199 68.7731Z" fill="#2C251E"/>
<path d="M123.077 86.6046L119.586 84.6718L119.711 68.6488L122.641 71.579L122.703 71.8284L122.329 71.579L122.392 84.9212L123.077 86.6046Z" fill="#322920"/>
<path d="M130.556 90.5948L129.371 91.2806V89.9089L130.556 89.2231V90.5948Z" fill="#635E59"/>
<path d="M126.692 68.7733L123.949 69.8332V68.6486L126.692 67.5887V68.7733Z" fill="#F59C00"/>
<path d="M119.273 84.2975L119.398 85.1703L122.952 88.6618L124.012 88.8488V86.7914L123.077 86.6043L119.273 84.2975Z" fill="#322920"/>
<path d="M43.0859 20.6412L43.3353 20.5165L55.9293 12.9102L96.5793 50.5052H94.896C94.896 50.4429 43.3353 20.5165 43.0859 20.6412Z" fill="#CCC7C4"/>
<path d="M45.3906 18.1474L45.64 18.0227L58.234 10.4164L109.046 39.5322L96.2031 47.2632C96.2654 47.2009 45.3906 18.085 45.3906 18.1474Z" fill="#F3F3F3"/>
<path d="M45.3922 18.1476L44.457 20.6415L96.5788 50.4431L96.267 47.2011L45.3922 18.1476Z" fill="#B2AEAA"/>
<path d="M45.0181 19.0828L44.457 20.6415L96.5788 50.4431L96.3917 48.5104L45.0181 19.0828Z" fill="#4A6FA8"/>
<path d="M96.2695 47.2006L96.5813 50.4426L111.919 41.5271L109.113 39.4697L96.2695 47.2006Z" fill="#CCC7C4"/>
<path d="M64.1574 16.2773L60.666 14.2822L51.9375 19.5193C51.9375 19.5193 51.9375 19.5193 55.4289 21.4521L64.1574 16.2773Z" fill="#363636"/>
<path d="M54.1789 21.8884L53.8672 21.639L64.4661 15.2796L64.6531 15.4043L64.5285 15.4667L64.7155 15.529C63.0321 16.5889 58.5432 19.3945 54.1789 21.8884Z" fill="#F3F3F3"/>
<path d="M53.3703 21.3897L53.0586 21.1403L63.6575 14.781L63.8446 14.9057L63.7199 14.968L63.9069 15.0304C62.2236 16.0903 57.7346 18.8959 53.3703 21.3897Z" fill="#F3F3F3"/>
<path d="M52.5578 20.9532L52.2461 20.7038L62.845 14.3445L63.032 14.4692L62.9074 14.5315L63.0944 14.5938C61.411 15.5914 56.9221 18.397 52.5578 20.9532Z" fill="#F3F3F3"/>
<path d="M51.7492 20.4544L51.4375 20.205L62.0364 13.8456L62.2235 13.9703L62.0988 14.0327L62.2858 14.095C60.6024 15.1549 56.1135 17.8982 51.7492 20.4544Z" fill="#F3F3F3"/>
<path d="M105.274 72.4476L104.65 72.5099C104.151 72.6346 103.777 73.1957 103.777 73.8815V77.6223C103.777 78.2458 104.151 78.7446 104.65 78.6199L105.461 78.4952C105.959 78.3705 106.147 77.8717 106.147 77.2483V73.5075C106.147 72.7593 105.772 72.3229 105.274 72.4476Z" fill="#322920"/>
<path d="M105.274 72.6351L104.65 72.6974C104.151 72.8221 103.777 73.3832 103.777 74.069V77.8098C103.777 78.4333 104.151 78.9321 104.65 78.8074L105.461 78.6827C105.959 78.558 106.147 78.0592 106.147 77.4358V73.695C106.147 73.0091 105.772 72.5727 105.274 72.6351Z" fill="#484038"/>
<path d="M105.023 79.7427L107.393 81.9872L107.517 81.5508L105.335 79.431V72.4482L108.203 69.6426L108.078 69.3308L105.023 72.1988V79.7427Z" fill="#403932"/>
<path d="M57.562 62.477C57.562 62.477 57.32 62.3963 57.32 62.3156C57.1586 62.3156 56.9972 62.2349 56.8359 62.2349C56.6745 62.2349 56.5938 62.3156 56.4324 62.3963C56.1097 62.5577 55.9483 62.719 55.7063 62.8804C55.6256 62.8804 55.6256 62.9611 55.6256 62.9611C55.5449 63.0418 55.3835 63.2838 55.3835 63.6873C55.3835 63.768 55.3028 63.6066 55.3835 63.8486C55.3835 64.01 55.4642 64.8976 55.5449 64.9783C55.6256 65.059 55.9483 65.2203 56.029 65.301C56.1904 65.3817 56.2711 65.3817 56.4324 65.301C56.7552 65.1396 57.0779 64.8976 57.4007 64.7362C57.5621 64.6555 57.6427 62.5577 57.562 62.477Z" fill="#7A848E"/>
<path d="M6.97234 66.9957L10.1998 64.8978C10.1998 64.8978 15.7672 62.3965 12.7011 60.7021C9.63501 59.0077 9.15089 57.2326 7.45646 58.927C5.84273 60.6215 6.32684 66.1082 6.97234 66.9957Z" fill="#362725"/>
<path d="M8.34766 64.1717L10.9296 68.6902L11.3331 69.4164L14.1571 73.6121C14.1571 73.6121 15.6902 72.7245 16.8198 72.079C16.9005 71.9983 17.0619 71.9176 17.1425 71.9176C17.788 71.5142 18.1915 70.6266 18.1915 69.497C18.1915 69.1743 18.1915 68.8515 18.1108 68.5288C17.9494 67.4799 17.4653 66.3503 16.8198 65.382C16.0936 64.2524 15.2061 63.3648 14.2378 62.8C13.2696 62.2352 12.382 62.1545 11.7365 62.3966C11.6558 62.4773 11.4945 62.558 11.3331 62.6386C10.2035 63.1228 8.34766 64.1717 8.34766 64.1717Z" fill="#260E08"/>
<path d="M10.4492 68.9324L11.2561 69.4165L13.8381 70.8689L18.0338 68.4483C17.8724 67.3994 17.3883 66.2697 16.7428 65.3015L10.8527 68.6903L10.4492 68.9324Z" fill="#260E08"/>
<path d="M13.4307 63.1234C12.3011 62.4779 11.2522 62.3972 10.526 62.962L10.4453 63.0427C11.1715 62.7199 12.0591 62.8007 13.108 63.3655C15.2865 64.5758 17.0616 67.6419 17.0616 70.1431C17.0616 71.2728 16.6582 72.1603 16.0934 72.5638C16.1741 72.4831 16.2548 72.4831 16.3355 72.4024C17.0616 71.9989 17.4651 71.1114 17.4651 69.9011C17.3844 67.3998 15.6093 64.3337 13.4307 63.1234Z" fill="#260E08"/>
<path d="M12.7042 63.5263C11.5746 62.8808 10.5256 62.8002 9.79944 63.365L9.71875 63.4456C10.4449 63.1229 11.3325 63.2036 12.3814 63.7684C14.5599 64.9787 16.3351 68.0448 16.3351 70.5461C16.3351 71.6757 15.9316 72.5633 15.3668 72.9667C15.4475 72.886 15.5282 72.886 15.6089 72.8053C16.3351 72.4019 16.7385 71.5143 16.7385 70.304C16.6578 67.8027 14.8827 64.7366 12.7042 63.5263Z" fill="#260E08"/>
<path d="M12.0596 63.9298C10.93 63.2843 9.88107 63.2036 9.15489 63.7684L9.07422 63.8491C9.8004 63.5263 10.6879 63.607 11.7369 64.1719C13.9154 65.3822 15.6905 68.4482 15.6905 70.9495C15.6905 72.0792 15.2871 72.9667 14.7223 73.3701C14.803 73.2895 14.8837 73.2894 14.9643 73.2088C15.6905 72.8053 16.094 71.9178 16.094 70.7075C15.9326 68.2062 14.1575 65.2208 12.0596 63.9298Z" fill="#260E08"/>
<path d="M7.29688 66.5922C7.29688 69.0935 9.07198 72.0789 11.2505 73.3699C13.4291 74.5802 15.2042 73.6119 15.2042 71.1106C15.2042 68.6093 13.4291 65.6239 11.2505 64.3329C9.07198 63.1226 7.29688 64.1716 7.29688 66.5922Z" fill="#3F261A"/>
<path d="M7.61719 66.8345C7.61719 69.0937 9.23092 71.8371 11.1674 72.9667C13.1039 74.0963 14.7176 73.2087 14.7176 70.9495C14.7176 68.6903 13.1039 65.9469 11.1674 64.8173C9.23092 63.6877 7.61719 64.5752 7.61719 66.8345Z" fill="#5B4A44"/>
<path d="M8.01953 67.077C8.01953 69.0942 9.47189 71.5148 11.1663 72.5637C12.9414 73.6126 14.3131 72.8058 14.3131 70.7886C14.3131 68.7714 12.8607 66.3508 11.1663 65.3019C9.47189 64.253 8.01953 65.0598 8.01953 67.077Z" fill="#3F261A"/>
<path d="M8.17969 67.1575C8.17969 69.094 9.55135 71.3533 11.1651 72.3215C12.8595 73.2897 14.1505 72.4829 14.1505 70.6271C14.1505 68.6906 12.7788 66.4314 11.1651 65.4631C9.55135 64.4949 8.17969 65.2211 8.17969 67.1575Z" fill="#141B22"/>
<path d="M8.33984 67.2381C8.33984 67.6415 8.42054 68.1257 8.50123 68.5291C8.58191 68.9325 8.74329 69.2553 8.90466 69.578C9.3081 70.4656 9.9536 71.2724 10.6798 71.7566C10.8412 71.8373 10.9218 71.9179 11.0832 71.9986C11.2446 72.0793 11.406 72.16 11.4866 72.2407C12.2128 72.5634 12.8583 72.4827 13.2617 72.0793C13.4231 71.9179 13.5845 71.7565 13.6652 71.5145C13.8266 71.1917 13.8266 70.869 13.8266 70.4656C13.8266 70.0621 13.7459 69.578 13.6652 69.1746C13.5845 68.7711 13.4231 68.4484 13.2617 68.1257C12.8583 67.2381 12.2128 66.4312 11.4866 65.9471C11.3253 65.8664 11.2446 65.7857 11.0832 65.7051C10.9218 65.6244 10.7605 65.5437 10.6798 65.463C9.9536 65.1402 9.3081 65.2209 8.90466 65.6244C8.74329 65.7857 8.58191 65.9471 8.50123 66.1892C8.42054 66.5119 8.33984 66.8347 8.33984 67.2381Z" fill="#748388"/>
<path d="M8.50391 67.3184C8.50391 67.7218 8.5846 68.1253 8.66529 68.5287C8.74598 68.8514 8.90735 69.2549 9.06872 69.5776C9.47216 70.3845 10.1176 71.1914 10.7631 71.6755C10.9245 71.7562 11.0052 71.8368 11.1666 71.9175C11.3279 71.9982 11.4086 72.0789 11.57 72.0789C12.2962 72.321 12.861 72.321 13.2644 71.9175C13.4258 71.7562 13.5872 71.5948 13.6679 71.3527C13.8292 71.03 13.8292 70.7072 13.8292 70.3038C13.8292 69.9004 13.7485 69.4969 13.6679 69.0935C13.5872 68.7707 13.4258 68.3673 13.2644 68.0446C12.861 67.2377 12.2155 66.4308 11.57 65.9467C11.4086 65.866 11.3279 65.7853 11.1666 65.7047C11.0052 65.624 10.9245 65.5433 10.7631 65.5433C10.0369 65.3012 9.47216 65.3012 9.06872 65.7047C8.90735 65.866 8.74598 66.0274 8.66529 66.2695C8.50392 66.5922 8.50391 66.915 8.50391 67.3184Z" fill="#B8C0C2"/>
<path d="M13.75 70.1428C13.75 71.4338 13.0238 72.0793 12.0556 71.8373C11.8135 71.7566 11.5715 71.6759 11.3294 71.5145C10.3612 70.9497 9.5543 69.9008 9.15087 68.7711C9.07018 68.6098 9.0702 68.5291 8.98951 68.3677C8.90882 68.045 8.82812 67.6415 8.82812 67.3188C8.82812 65.7857 9.87705 65.2209 11.168 65.8664C11.168 65.8664 11.2487 65.8664 11.2487 65.9471C11.4908 66.1085 11.7328 66.2699 11.9749 66.4312C12.459 66.8347 12.8625 67.3995 13.1045 67.9643C13.2659 68.287 13.4273 68.6098 13.508 68.9325C13.75 69.4167 13.75 69.8201 13.75 70.1428Z" fill="#131E24"/>
<path d="M12.053 66.5118V70.8689V71.9178C11.8916 71.8371 11.7302 72.1599 11.5688 72.0792C11.4881 71.9985 11.4075 71.7564 11.3268 71.5951C11.3268 71.5144 11.2461 71.5144 11.2461 71.4337V65.947C11.2461 65.947 11.3268 65.947 11.3268 66.0277C11.6495 66.1084 11.8109 66.3504 12.053 66.5118Z" fill="#3D5259"/>
<path d="M10.1992 67.8025C10.1992 68.6901 10.8447 69.8197 11.6516 70.3038C12.4584 70.7879 13.1039 70.3845 13.1039 69.4969C13.1039 68.6093 12.4584 67.4798 11.6516 66.9956C10.8447 66.5115 10.1992 66.9149 10.1992 67.8025Z" fill="#3D5259"/>
<path d="M9.14844 65.8664L9.87464 66.9961L10.8429 68.2064L11.2463 68.6905L11.6497 69.1746L12.0532 69.6587L13.0214 70.869L13.5862 71.2725C13.7476 71.1111 13.6669 71.0304 13.7476 70.7883L13.4249 70.3042L12.4566 69.0939L12.0532 68.6098L11.6497 68.1257L11.2463 67.6416L10.2781 66.4313L9.71326 65.7051C9.63257 65.9471 9.22912 65.6244 9.14844 65.8664Z" fill="#3D5259"/>
<path d="M13.5886 69.0131H13.4273L12.459 69.0938H12.0556H11.6522H11.2487L10.2805 69.1745L9.23156 68.6097L8.82812 68.3676C8.82812 68.2869 8.98949 68.2062 9.15087 68.2062C9.23155 68.2062 9.23156 68.2062 9.31225 68.2062L9.95774 68.1255L10.926 68.0449H11.3294H11.7329H12.1363L13.1045 67.9642H13.2659C13.4273 68.3676 13.508 68.6904 13.5886 69.0131Z" fill="#3D5259"/>
<path d="M10.8438 65.7051V71.5952C11.0051 71.6759 11.0858 71.7566 11.2472 71.8373C11.4086 71.918 11.4892 71.9986 11.6506 71.9986V66.0278C11.4892 65.9471 11.4086 65.9471 11.2472 65.8664C11.0858 65.8664 10.9244 65.7858 10.8438 65.7051Z" fill="#6C7C80"/>
<path d="M8.74609 66.4314L9.3916 67.2383L10.3598 68.4486L10.7633 68.9327L11.1667 69.4169L11.5701 69.901L12.5384 71.1113L13.1839 71.9181C13.3452 71.7568 13.5066 71.5954 13.5873 71.3533L12.9418 70.5465L11.9736 69.3362L11.5701 68.852L11.1667 68.3679L10.7633 67.8838L9.79504 66.6735L9.14953 65.8666C8.98815 66.028 8.90747 66.1894 8.74609 66.4314Z" fill="#95A1A4"/>
<path d="M8.74609 68.61C8.82678 68.9327 8.98815 69.2555 9.14953 69.5782L9.79504 69.4975L10.7633 69.4169H11.1667H11.5701H11.9736L12.9418 69.3362L13.668 69.2555C13.5873 68.9327 13.4259 68.61 13.2646 68.2872L12.5384 68.3679L11.5701 68.4486H11.1667H10.7633H10.3598L9.3916 68.5293L8.74609 68.61Z" fill="#95A1A4"/>
<path d="M9.875 67.9644C9.875 68.8519 10.5205 69.9816 11.3274 70.4657C12.1342 70.9498 12.7797 70.5464 12.7797 69.6588C12.7797 68.7712 12.1342 67.6416 11.3274 67.1575C10.5205 66.6734 9.875 66.9961 9.875 67.9644Z" fill="#95A1A4"/>
<path d="M9.71484 68.0452C9.71484 68.9327 10.3603 70.0624 11.1672 70.5465C11.9741 71.0306 12.6196 70.6272 12.6196 69.7396C12.6196 68.8521 11.9741 67.7224 11.1672 67.2383C10.3603 66.7542 9.71484 67.1576 9.71484 68.0452Z" fill="#D9DDDE"/>
<path d="M10.4409 68.4481L9.47266 68.5288C9.55334 68.8516 9.71472 69.1743 9.87609 69.497L10.8443 69.4164V70.7073C11.0057 70.788 11.0864 70.8687 11.2478 70.9494C11.4091 71.0301 11.4898 71.1108 11.6512 71.1108V69.8198L12.6194 71.0301C12.7808 70.9494 12.9422 70.7073 13.0229 70.4653L12.0546 69.255L13.0229 69.1743C12.9422 68.8515 12.7808 68.5288 12.6194 68.2061L11.6512 68.2867V66.9958C11.4898 66.9151 11.4091 66.8344 11.2478 66.7537C11.0864 66.673 11.0057 66.5923 10.8443 66.5923V67.8833L9.87609 66.673C9.71472 66.7537 9.55334 66.9957 9.47266 67.2378L10.4409 68.4481Z" fill="#D1D6D7"/>
<path d="M10.0352 68.2064C10.0352 68.9326 10.6 69.9008 11.2455 70.3042C11.891 70.7077 12.4558 70.3849 12.4558 69.6588C12.4558 68.9326 11.891 67.9643 11.2455 67.5609C10.5193 67.1575 10.0352 67.3995 10.0352 68.2064Z" fill="#56686E"/>
<path d="M10.1172 68.2871C10.1172 68.9326 10.6013 69.8202 11.1661 70.1429C11.7309 70.4657 12.215 70.2236 12.215 69.4974C12.215 68.8519 11.7309 67.9644 11.1661 67.6416C10.6013 67.3189 10.1172 67.6416 10.1172 68.2871Z" fill="#B8C0C2"/>
<path d="M10.7617 68.6903C10.7617 68.9324 10.9231 69.2552 11.1652 69.4165C11.4072 69.5779 11.5686 69.4165 11.5686 69.1745C11.5686 68.9324 11.4072 68.6097 11.1652 68.4483C11.0038 68.2869 10.7617 68.3676 10.7617 68.6903Z" fill="#586A70"/>
<path d="M10.8438 68.6906C10.8438 68.852 11.0051 69.0941 11.1665 69.2554C11.3279 69.3361 11.4893 69.2554 11.4893 69.0941C11.4893 68.9327 11.3279 68.6906 11.1665 68.5293C11.0051 68.4486 10.8438 68.5292 10.8438 68.6906Z" fill="#D9DDDE"/>
<path d="M11.9734 69.5776C11.8927 69.4163 11.7313 69.4163 11.6506 69.4969C11.5699 69.5776 11.6506 69.8197 11.7313 69.9004C11.812 70.0617 11.9734 70.0618 12.054 69.9811C12.1347 69.9004 12.1347 69.6583 11.9734 69.5776Z" fill="#748388"/>
<path d="M11.3279 69.9815C11.3279 69.8201 11.2472 69.6587 11.0858 69.578C10.9245 69.4973 10.8438 69.578 10.8438 69.7394C10.8438 69.9008 10.9245 70.0622 11.0858 70.1428C11.2472 70.1428 11.3279 70.1428 11.3279 69.9815Z" fill="#88959A"/>
<path d="M11.8953 69.5776C11.8146 69.4163 11.6532 69.4163 11.5725 69.4969C11.4918 69.5776 11.5725 69.8197 11.6532 69.9004C11.7339 70.0617 11.8952 70.0618 11.9759 69.9811C12.0566 69.9004 12.0566 69.739 11.8953 69.5776Z" fill="#88959A"/>
<path d="M11.6532 68.61C11.5725 68.61 11.4918 68.7714 11.5725 68.9327C11.6532 69.0941 11.8146 69.2555 11.8953 69.2555C11.9759 69.2555 12.0566 69.0941 11.9759 68.9327C11.8952 68.6907 11.8145 68.5293 11.6532 68.61Z" fill="#88959A"/>
<path d="M10.8438 67.8836C10.8438 68.045 10.9245 68.2064 11.0858 68.287C11.2472 68.3677 11.3279 68.2871 11.3279 68.1257C11.3279 67.9643 11.2472 67.8029 11.0858 67.7223C11.0051 67.7223 10.8438 67.8029 10.8438 67.8836Z" fill="#88959A"/>
<path d="M10.3602 68.2866C10.4409 68.448 10.6023 68.448 10.683 68.3673C10.7637 68.2866 10.683 68.0446 10.6023 67.9639C10.5216 67.8025 10.3603 67.8025 10.2796 67.8832C10.1989 67.9639 10.1989 68.1253 10.3602 68.2866Z" fill="#88959A"/>
<path d="M10.6023 69.3362C10.6829 69.3362 10.7636 69.1748 10.683 69.0134C10.6023 68.852 10.4409 68.6907 10.3602 68.6907C10.2795 68.6907 10.1988 68.852 10.2795 69.0134C10.2795 69.1748 10.4409 69.3362 10.6023 69.3362Z" fill="#88959A"/>
<path d="M42.3923 88.6196L45.6198 86.5218C45.6198 86.5218 51.1872 84.0205 48.1211 82.3261C45.055 80.6316 44.5708 78.8565 42.8764 80.5509C41.3434 82.2454 41.8275 87.7321 42.3923 88.6196Z" fill="#362725"/>
<path d="M44.0898 85.3923L46.6718 89.9107L47.0752 90.6369L49.8993 94.8326C49.8993 94.8326 51.4323 93.945 52.562 93.2996C52.6426 93.2189 52.804 93.1382 52.8847 93.1382C53.5302 92.7348 53.9336 91.8472 53.9336 90.7176C53.9336 90.3948 53.9336 90.0721 53.853 89.7493C53.6916 88.7004 53.2075 87.5708 52.562 86.6026C51.8358 85.4729 50.9482 84.5854 49.98 84.0206C49.0117 83.4558 48.1242 83.3751 47.4787 83.6171C47.398 83.6978 47.2366 83.7785 47.0752 83.8592C45.9456 84.3433 44.0898 85.3923 44.0898 85.3923Z" fill="#260E08"/>
<path d="M46.1875 90.1527L46.9944 90.6369L49.5763 92.0892L53.7721 89.6686C53.6107 88.6197 53.1266 87.4901 52.4811 86.5218L46.5909 89.9107L46.1875 90.1527Z" fill="#260E08"/>
<path d="M49.1729 84.3432C48.0433 83.6977 46.9943 83.617 46.2682 84.1819L46.1875 84.2625C46.9137 83.9398 47.8012 84.0205 48.8502 84.5853C51.0287 85.7956 52.8038 88.8617 52.8038 91.363C52.8038 92.4926 52.4004 93.3801 51.8356 93.7836C51.9163 93.7029 51.9969 93.7029 52.0776 93.6222C52.8038 93.2188 53.2072 92.3312 53.2072 91.1209C53.1266 88.6196 51.3514 85.5535 49.1729 84.3432Z" fill="#260E08"/>
<path d="M48.4464 84.7467C47.3167 84.1012 46.2678 84.0205 45.5416 84.5853L45.4609 84.666C46.1871 84.3432 47.0747 84.4239 48.1236 84.9887C50.3022 86.199 52.0773 89.2651 52.0773 91.7664C52.0773 92.896 51.6738 93.7836 51.109 94.187C51.1897 94.1063 51.2704 94.1063 51.3511 94.0257C52.0773 93.6222 52.4807 92.7347 52.4807 91.5244C52.4 89.0231 50.6249 85.957 48.4464 84.7467Z" fill="#260E08"/>
<path d="M47.8018 85.1506C46.6722 84.5051 45.6233 84.4244 44.8971 84.9892L44.8164 85.0699C45.5426 84.7471 46.4301 84.8278 47.4791 85.3926C49.6576 86.6029 51.4327 89.669 51.4327 92.1703C51.4327 93.2999 51.0293 94.1875 50.4645 94.5909C50.5452 94.5102 50.6258 94.5103 50.7065 94.4296C51.4327 94.0261 51.8362 93.1386 51.8362 91.9283C51.6748 89.427 49.8997 86.4416 47.8018 85.1506Z" fill="#260E08"/>
<path d="M43.0391 87.8939C43.0391 90.3952 44.8142 93.3806 46.9927 94.6716C49.1713 95.8819 50.9464 94.9136 50.9464 92.4123C50.9464 89.911 49.1713 86.9256 46.9927 85.6346C44.8142 84.3436 43.0391 85.3926 43.0391 87.8939Z" fill="#3F261A"/>
<path d="M43.3633 88.0546C43.3633 90.3138 44.977 93.0572 46.9135 94.1868C48.85 95.3164 50.4637 94.4289 50.4637 92.1696C50.4637 89.9104 48.85 87.167 46.9135 86.0374C44.977 84.9078 43.3633 85.7954 43.3633 88.0546Z" fill="#5B4A44"/>
<path d="M43.7656 88.297C43.7656 90.3142 45.218 92.7348 46.9124 93.7837C48.6875 94.8327 50.0592 94.0258 50.0592 92.0086C50.0592 89.9915 48.6068 87.5709 46.9124 86.5219C45.218 85.473 43.7656 86.2799 43.7656 88.297Z" fill="#3F261A"/>
<path d="M43.9258 88.3776C43.9258 90.3141 45.2975 92.5733 46.9112 93.5415C48.6056 94.5098 49.8966 93.7029 49.8966 91.8471C49.8966 89.9106 48.5249 87.6514 46.9112 86.6831C45.2975 85.7149 43.9258 86.4411 43.9258 88.3776Z" fill="#141B22"/>
<path d="M44.0898 88.4581C44.0898 88.8615 44.1705 89.3457 44.2512 89.7491C44.3319 90.1525 44.4933 90.4753 44.6546 90.798C45.0581 91.6856 45.7036 92.4924 46.4298 92.9766C46.5911 93.0573 46.6718 93.138 46.8332 93.2186C46.9946 93.2993 47.1559 93.38 47.2366 93.4607C47.9628 93.7834 48.6083 93.7027 49.0117 93.2993C49.1731 93.1379 49.3345 92.9766 49.4152 92.7345C49.5766 92.4118 49.5765 92.089 49.5765 91.6856C49.5765 91.2821 49.4959 90.798 49.4152 90.3946C49.3345 89.9912 49.1731 89.6684 49.0117 89.3457C48.6083 88.4581 47.9628 87.6513 47.2366 87.1671C47.0753 87.0864 46.9946 87.0057 46.8332 86.9251C46.6718 86.8444 46.5104 86.7637 46.4298 86.683C45.7036 86.3603 45.0581 86.4409 44.6546 86.8444C44.4933 87.0057 44.3319 87.1671 44.2512 87.4092C44.1705 87.7319 44.0898 88.0547 44.0898 88.4581Z" fill="#748388"/>
<path d="M44.2539 88.5384C44.2539 88.9418 44.3346 89.3453 44.4153 89.7487C44.496 90.0715 44.6574 90.4749 44.8187 90.7976C45.2222 91.6045 45.8677 92.4114 46.5132 92.8955C46.6745 92.9762 46.7552 93.0569 46.9166 93.1376C47.078 93.2182 47.1586 93.2989 47.32 93.2989C48.0462 93.541 48.611 93.541 49.0144 93.1376C49.1758 92.9762 49.3372 92.8148 49.4179 92.5727C49.5793 92.25 49.5792 91.9273 49.5792 91.5238C49.5792 91.1204 49.4986 90.717 49.4179 90.3135C49.3372 89.9908 49.1758 89.5873 49.0144 89.2646C48.611 88.4577 47.9655 87.6509 47.32 87.1667C47.1586 87.0861 47.078 87.0054 46.9166 86.9247C46.7552 86.844 46.6745 86.7633 46.5132 86.7633C45.787 86.5212 45.2222 86.5212 44.8187 86.9247C44.6574 87.086 44.496 87.2474 44.4153 87.4895C44.2539 87.8122 44.2539 88.135 44.2539 88.5384Z" fill="#B8C0C2"/>
<path d="M49.4975 91.3628C49.4975 92.6538 48.7713 93.2993 47.8031 93.0573C47.561 92.9766 47.3189 92.8959 47.0769 92.7345C46.1086 92.1697 45.3018 91.1208 44.8983 89.9912C44.8176 89.8298 44.8176 89.7491 44.8176 89.5877C44.7369 89.265 44.6562 88.8615 44.6562 88.5388C44.6562 87.0058 45.7052 86.441 46.9962 87.0864C46.9962 87.0864 47.0769 87.0865 47.0769 87.1671C47.3189 87.3285 47.561 87.4899 47.8031 87.6512C48.2872 88.0547 48.6906 88.6195 48.9327 89.1843C49.094 89.5071 49.2554 89.8298 49.3361 90.1525C49.4975 90.6367 49.4975 91.0401 49.4975 91.3628Z" fill="#131E24"/>
<path d="M47.803 87.7318V92.0889V93.1378C47.6416 93.0571 47.4802 93.3799 47.3188 93.2992C47.2381 93.2185 47.1574 92.9765 47.0768 92.8151C47.0768 92.7344 46.9961 92.7344 46.9961 92.6537V87.167C46.9961 87.167 47.0768 87.167 47.0768 87.2477C47.3188 87.4091 47.5609 87.5704 47.803 87.7318Z" fill="#3D5259"/>
<path d="M45.9453 89.0225C45.9453 89.9101 46.5908 91.0397 47.3977 91.5238C48.2046 92.0079 48.85 91.6045 48.85 90.7169C48.85 89.8294 48.2046 88.6998 47.3977 88.2157C46.5908 87.7315 45.9453 88.135 45.9453 89.0225Z" fill="#3D5259"/>
<path d="M44.8945 87.0865L45.6207 88.2161L46.589 89.4264L46.9924 89.9105L47.3958 90.3947L47.7993 90.8788L48.7675 92.0891L49.3323 92.4925C49.4937 92.3311 49.413 92.2505 49.4937 92.0084L49.1709 91.5243L48.2027 90.314L47.7993 89.8298L47.3958 89.3457L46.9924 88.8616L46.0241 87.6513L45.4593 86.9251C45.298 87.1672 44.9752 86.8444 44.8945 87.0865Z" fill="#3D5259"/>
<path d="M49.3347 90.3135H49.1734L48.2051 90.3942H47.8017H47.3983H46.9948L46.0266 90.4749L44.9777 89.9101L44.5742 89.668C44.5742 89.5873 44.7356 89.5066 44.897 89.5066C44.9776 89.5066 44.9776 89.5066 45.0583 89.5066L45.7038 89.4259L46.6721 89.3452H47.0755H47.4789H47.8824L48.8506 89.2646H49.012C49.0927 89.5873 49.254 89.9101 49.3347 90.3135Z" fill="#3D5259"/>
<path d="M46.5898 86.9251V92.8153C46.7512 92.8959 46.8319 92.9766 46.9933 93.0573C47.1547 93.138 47.2353 93.2187 47.3967 93.2187V87.2479C47.2353 87.1672 47.1547 87.1672 46.9933 87.0865C46.8319 87.0865 46.6705 87.0058 46.5898 86.9251Z" fill="#6C7C80"/>
<path d="M44.4922 87.6514L45.1377 88.4583L46.1059 89.6686L46.5094 90.1527L46.9128 90.6369L47.3162 91.121L48.2845 92.3313L48.93 93.1382C49.0913 92.9768 49.2527 92.8154 49.3334 92.5733L48.6879 91.7665L47.7197 90.5562L47.3162 90.072L46.9128 89.5879L46.5094 89.1038L45.5411 87.8935L44.8956 87.0866C44.7342 87.248 44.6536 87.4094 44.4922 87.6514Z" fill="#95A1A4"/>
<path d="M44.4922 89.83C44.5729 90.1527 44.7342 90.4755 44.8956 90.7982L45.5411 90.7175L46.5094 90.6369H46.9128H47.3162H47.7197L48.6879 90.5562L49.4141 90.4755C49.3334 90.1527 49.172 89.83 49.0107 89.5072L48.2845 89.5879L47.3162 89.6686H46.9128H46.5094H46.1059L45.1377 89.7493L44.4922 89.83Z" fill="#95A1A4"/>
<path d="M45.625 89.1844C45.625 90.072 46.2705 91.2015 47.0774 91.6857C47.8842 92.1698 48.5297 91.7664 48.5297 90.8788C48.5297 89.9912 47.8842 88.8617 47.0774 88.3775C46.2705 87.8934 45.625 88.2162 45.625 89.1844Z" fill="#95A1A4"/>
<path d="M45.4609 89.2652C45.4609 90.1528 46.1064 91.2824 46.9133 91.7665C47.7202 92.2506 48.3657 91.8472 48.3657 90.9596C48.3657 90.0721 47.7202 88.9425 46.9133 88.4583C46.1064 87.9742 45.4609 88.3777 45.4609 89.2652Z" fill="#D9DDDE"/>
<path d="M46.187 89.6681L45.2188 89.7488C45.2994 90.0716 45.4608 90.3943 45.6222 90.7171L46.5904 90.6364V91.9274C46.7518 92.0081 46.8325 92.0887 46.9939 92.1694C47.1552 92.2501 47.2359 92.3308 47.3973 92.3308V91.0398L48.3655 92.2501C48.5269 92.1694 48.6883 91.9274 48.769 91.6853L47.8007 90.475L48.769 90.3943C48.6883 90.0716 48.5269 89.7488 48.3655 89.4261L47.3973 89.5068V88.2158C47.2359 88.1351 47.1552 88.0544 46.9939 87.9737C46.8325 87.893 46.7518 87.8123 46.5904 87.8123V89.1033L45.6222 87.893C45.4608 87.9737 45.2994 88.2158 45.2188 88.4578L46.187 89.6681Z" fill="#D1D6D7"/>
<path d="M45.7031 89.4263C45.7031 90.1525 46.2679 91.1207 46.9134 91.5241C47.5589 91.9276 48.1237 91.6048 48.1237 90.8786C48.1237 90.1524 47.5589 89.1842 46.9134 88.7808C46.2679 88.3774 45.7031 88.7001 45.7031 89.4263Z" fill="#56686E"/>
<path d="M45.8672 89.5073C45.8672 90.1528 46.3513 91.0403 46.9161 91.3631C47.4809 91.6858 47.965 91.4438 47.965 90.7176C47.965 89.9914 47.4809 89.1845 46.9161 88.8618C46.2706 88.6197 45.8672 88.8618 45.8672 89.5073Z" fill="#B8C0C2"/>
<path d="M46.5078 89.9104C46.5078 90.1524 46.6692 90.4752 46.9112 90.6366C47.1533 90.7979 47.3147 90.6366 47.3147 90.3945C47.3147 90.1524 47.1533 89.8297 46.9112 89.6683C46.6692 89.5069 46.5078 89.5876 46.5078 89.9104Z" fill="#586A70"/>
<path d="M46.5898 89.9107C46.5898 90.072 46.7512 90.3141 46.9126 90.4755C47.074 90.5561 47.2353 90.4755 47.2353 90.3141C47.2353 90.1527 47.074 89.9107 46.9126 89.7493C46.7512 89.6686 46.5898 89.7493 46.5898 89.9107Z" fill="#D9DDDE"/>
<path d="M47.7194 90.7977C47.6388 90.6363 47.4774 90.6363 47.3967 90.717C47.316 90.7977 47.3967 91.0397 47.4774 91.1204C47.5581 91.2818 47.7195 91.2818 47.8001 91.2011C47.8808 91.1204 47.8808 90.8783 47.7194 90.7977Z" fill="#748388"/>
<path d="M47.0739 91.2015C47.0739 91.0401 46.9933 90.8787 46.8319 90.7981C46.6705 90.7174 46.5898 90.798 46.5898 90.9594C46.5898 91.1208 46.6705 91.2822 46.8319 91.3628C46.9933 91.4435 47.0739 91.3629 47.0739 91.2015Z" fill="#88959A"/>
<path d="M47.6413 90.7977C47.5606 90.6363 47.3993 90.6363 47.3186 90.717C47.2379 90.7977 47.3186 91.0397 47.3993 91.1204C47.48 91.2818 47.6413 91.2818 47.722 91.2011C47.8027 91.2011 47.8027 90.959 47.6413 90.7977Z" fill="#88959A"/>
<path d="M47.3993 89.8295C47.3186 89.8295 47.2379 89.9909 47.3186 90.1523C47.3993 90.3136 47.5606 90.475 47.6413 90.475C47.722 90.475 47.8027 90.3136 47.722 90.1523C47.6413 89.9102 47.5606 89.8295 47.3993 89.8295Z" fill="#88959A"/>
<path d="M46.5898 89.1842C46.5898 89.3455 46.6705 89.5069 46.8319 89.5876C46.9933 89.6683 47.0739 89.5876 47.0739 89.4262C47.0739 89.2648 46.9933 89.1035 46.8319 89.0228C46.7512 88.9421 46.5898 89.0228 46.5898 89.1842Z" fill="#88959A"/>
<path d="M46.1063 89.5067C46.187 89.668 46.3484 89.668 46.4291 89.5874C46.5098 89.5067 46.4291 89.2646 46.3484 89.1839C46.2677 89.0225 46.1063 89.0225 46.0257 89.1032C45.945 89.1839 45.945 89.3453 46.1063 89.5067Z" fill="#88959A"/>
<path d="M46.3484 90.5562C46.429 90.5562 46.5097 90.3948 46.429 90.2334C46.3484 90.072 46.187 89.9107 46.1063 89.9107C46.0256 89.9107 45.9449 90.072 46.0256 90.2334C46.0256 90.3948 46.187 90.5562 46.3484 90.5562Z" fill="#88959A"/>
<path d="M19.2383 44.8872C19.2383 44.8872 25.9353 47.9533 28.598 49.8898C31.2606 51.8263 33.6812 53.3593 33.6812 53.3593C65.7139 73.531 66.7628 73.9345 70.4744 76.5165C70.4744 76.5165 70.071 75.3062 69.5062 74.822C68.6186 74.0959 64.7457 71.1105 56.2736 65.2203C55.1439 63.2031 48.1242 56.3448 48.1242 56.3448C46.5104 54.6503 35.3757 48.4375 32.713 47.4692C30.0503 46.501 27.7104 46.3396 27.7104 46.3396L20.0451 44.0804L19.2383 44.8872Z" fill="#414653"/>
<path d="M60.3867 77.7265C60.3867 79.9857 61.9198 82.6484 63.8563 83.778C65.7928 84.9076 67.3258 84.0201 67.3258 81.7608C67.3258 79.5016 65.7928 76.8389 63.8563 75.7093C61.9198 74.5797 60.3867 75.4673 60.3867 77.7265Z" fill="#6B6B6B"/>
<path d="M61.2734 78.2108C61.2734 79.8245 62.4031 81.8417 63.8554 82.7293C65.3078 83.5361 66.4374 82.8906 66.4374 81.2769C66.4374 79.6631 65.3078 77.646 63.8554 76.7584C62.4031 75.8709 61.2734 76.597 61.2734 78.2108Z" fill="#FFA312"/>
<path d="M25.8516 56.1835C25.8516 58.362 30.9348 63.1225 29.3211 62.235C31.2576 63.3646 32.7906 62.477 32.7906 60.2178C32.7906 57.9586 29.6438 55.6993 27.7073 54.5697C25.8516 53.4401 25.8516 53.9242 25.8516 56.1835Z" fill="#6B6B6B"/>
<path d="M26.739 56.6672C26.739 58.281 31.4188 62.3153 29.3209 61.1857C30.7733 61.9926 31.9029 61.3471 31.9029 59.7333C31.9029 58.1196 29.1596 56.5059 27.7879 55.699C26.3355 54.8114 26.739 55.0535 26.739 56.6672Z" fill="#FFA312"/>
<path d="M59.1742 78.9374C59.1742 78.2919 59.0128 72.4018 63.854 74.9837C63.854 74.9837 67.0815 76.6782 67.6463 79.825C67.969 81.6001 67.969 82.9717 67.8077 83.6979C67.969 83.7786 68.0497 83.8593 68.2111 83.8593C68.3725 82.9717 68.4532 81.5194 68.0497 79.3408C67.4042 75.7906 63.854 73.9348 63.854 73.9348C58.2059 70.9494 58.6901 78.3726 58.6901 78.3726C58.6901 78.3726 58.6094 78.3726 58.6094 78.534C58.8514 78.6953 59.0128 78.776 59.1742 78.9374Z" fill="#FFA312"/>
<path d="M24.8039 56.5866C24.9652 56.6673 25.0459 56.8287 25.2073 56.9094C25.2073 55.3763 24.0777 51.6647 27.4665 53.7626C27.4665 53.7626 33.276 55.2956 33.276 62.3154C33.4374 62.396 33.5987 62.4767 33.6794 62.5574C33.6794 62.4767 33.6794 62.3154 33.6794 62.2347C33.5987 54.408 27.3858 52.6329 27.3858 52.6329C23.4322 50.2123 24.7232 55.2956 24.8039 56.5866Z" fill="#FFA312"/>
<path d="M58.6906 74.0153C56.028 72.3209 32.3867 57.1518 32.3867 57.1518C32.9515 58.4428 33.3549 60.1372 33.3549 62.2351C33.5163 62.3157 33.6777 62.3964 33.7584 62.4771C33.9198 62.5578 34.0004 62.6385 34.1618 62.6385C35.9369 63.4454 55.7859 76.7587 57.2383 77.6462C57.4803 77.8076 58.0451 78.1304 58.6906 78.5338C58.852 78.6145 59.0134 78.6952 59.1747 78.8565C59.1747 78.4531 59.0941 76.0325 60.2237 74.9029C59.5782 74.5801 59.0941 74.2574 58.6906 74.0153Z" fill="#DE7F00"/>
<path d="M17.9453 48.6797V51.5844L18.6715 53.1175C18.6715 53.1175 22.7865 54.8119 24.4809 56.2642C24.5616 56.3449 24.723 56.5063 24.8844 56.587C25.0457 56.6677 25.1264 56.8291 25.2878 56.9097C25.2878 55.9415 23.9161 54.2471 24.9651 53.5209L17.9453 48.6797Z" fill="#DE7F00"/>
<path d="M18.8328 48.1147L20.608 49.1637L21.7376 51.2615L17.9453 48.6795L18.8328 48.1147Z" fill="#FFA312"/>
<path d="M42.7972 68.4477L42.6358 68.2863L34.5671 62.3155V62.2348C34.5671 62.2348 34.6478 61.5087 33.5182 57.8778C32.4693 54.2468 28.677 53.1172 28.5963 53.1172H28.5156L29.1611 47.3078H29.2418C29.4032 47.2271 31.0169 47.5498 32.3079 47.8726C35.132 48.5181 40.78 51.9069 40.78 51.9069V51.9876L42.4745 58.6846L42.6358 64.5748V68.4477H42.7972ZM34.7285 62.2348L42.4745 68.0443V64.5748L42.3131 58.6846L40.6186 52.0683C40.1345 51.7456 34.8899 48.6795 32.2272 48.034C30.2101 47.5499 29.5646 47.4692 29.3225 47.4692L28.677 52.9559C29.2418 53.1979 32.6307 54.4889 33.5989 57.8778C34.6478 61.0245 34.7285 61.9928 34.7285 62.2348Z" fill="#B16D15"/>
<path d="M70.474 76.4363L69.9899 80.2286L63.8577 85.4732L53.207 89.911L53.6912 86.1187L70.474 76.4363Z" fill="#A5A9B2"/>
<path d="M70.3943 77.0816C70.3943 77.0816 68.4578 78.2112 68.2158 78.9374C67.9737 79.6636 67.5703 81.6 68.2158 81.1966C68.5385 80.9545 70.0715 79.9863 70.0715 79.7443C70.0715 79.5022 70.475 77.6464 70.3943 77.0816Z" fill="#72889D"/>
<path d="M70.071 77.6461C70.071 77.6461 68.3766 78.6951 68.2959 79.1792C68.1345 79.6633 68.3766 79.744 68.8607 79.3406C69.3448 78.9371 70.2324 78.2916 70.2324 78.1303C70.2324 77.9689 70.3937 77.4041 70.071 77.6461Z" fill="#DCDBDD"/>
<path d="M69.7468 78.9376C69.7468 78.9376 68.0524 79.9865 67.9717 80.4706C67.8103 80.9548 68.0523 81.0355 68.5365 80.632C69.0206 80.2286 69.9081 79.5831 69.9081 79.4217C69.9888 79.2603 70.0695 78.6955 69.7468 78.9376Z" fill="#FF7400"/>
<path d="M67.6497 79.3407C67.6497 79.3407 64.1802 82.0033 63.6154 82.2454C63.0505 82.4875 58.048 84.5853 57.8866 84.9081C57.7252 85.1501 57.6445 85.3922 57.6445 85.8763C57.6445 85.8763 63.454 83.4557 63.6154 83.375C63.7767 83.2136 67.7304 80.3089 67.7304 80.3089L67.6497 79.3407Z" fill="#23292D"/>
<path d="M67.6497 80.9544C67.6497 80.9544 63.7767 83.7784 63.2119 84.0205C62.6471 84.2626 57.9673 86.199 57.8866 86.5218C57.7252 86.7639 57.6445 87.0059 57.6445 87.49C57.6445 87.49 63.0505 85.2308 63.2119 85.1501C63.3733 84.9888 67.7304 81.9227 67.7304 81.9227L67.6497 80.9544Z" fill="#23292D"/>
<path d="M70.7979 80.7929L64.4236 86.0375L53.6922 90.2332L52.8047 94.0255L64.2622 88.8616L69.5069 84.3431C69.5069 84.3431 69.9103 84.1011 70.1524 83.1328C70.4751 82.1646 70.7979 80.7929 70.7979 80.7929Z" fill="#979FA7"/>
<path d="M69.5825 82.9716C69.5825 82.9716 69.9052 81.9227 68.9369 82.5682C67.9687 83.2137 67.9687 83.4557 67.7266 84.2626C67.5653 85.0695 68.6949 84.1012 68.9369 83.9398C69.2597 83.7785 69.5018 83.4557 69.5825 82.9716Z" fill="#4A5764"/>
<path d="M69.3416 83.5361C69.3416 83.5361 69.0995 83.294 68.8574 83.4554C68.6154 83.536 67.8085 84.1008 67.8085 84.1008C67.8085 84.1008 67.4858 84.9077 67.9699 84.6657C68.5347 84.4236 69.3416 83.6974 69.3416 83.5361Z" fill="#E6E8EA"/>
<path d="M68.8575 83.3752C68.8575 83.3752 68.9382 82.891 68.5348 83.2138C68.0506 83.5365 67.97 83.6979 67.97 83.6979L67.8086 84.182V84.3434L68.7768 83.6979C68.6962 83.6979 68.8575 83.6172 68.8575 83.3752Z" fill="#FEFDDD"/>
<path d="M70.2317 82.8912L63.8575 88.0552L53.5295 92.3316L52.7227 94.026C52.7227 94.026 59.0969 92.2509 63.0506 90.0723C68.2952 87.1676 69.5055 84.3436 69.5055 84.3436C69.5055 84.3436 69.909 84.1015 70.151 83.1333L70.2317 82.8912Z" fill="#979FA7"/>
<path d="M53.6909 86.1182L63.1313 81.7611L70.4738 76.4358C70.4738 76.4358 69.9897 75.1448 69.5055 74.7414C68.86 75.0641 66.1167 77.8075 62.6472 79.744C58.1287 82.3259 52.7227 84.4238 52.7227 84.4238L53.6909 86.1182Z" fill="#E6E8EA"/>
<path d="M56.2712 65.2205L39.4883 74.9029L52.7209 84.5046L62.8068 80.4703L69.5038 74.8222C69.5038 74.8222 67.4866 73.2892 66.2763 72.4016C65.066 71.4334 57.8042 66.1887 56.2712 65.2205Z" fill="#E6E8EA"/>
<path d="M55.7888 65.6239C55.7888 65.6239 55.1432 68.0445 49.0917 71.5947C43.4437 74.9029 40.2969 74.5802 40.2969 74.5802L55.7888 65.6239Z" fill="#12181D"/>
<path d="M56.2721 65.2205C56.2721 65.2205 51.5923 69.1741 49.6558 70.3037C47.3159 71.6754 39.4893 74.9029 39.4893 74.9029L33.9219 64.6557L48.1228 56.3449C48.1228 56.3449 55.546 63.6067 56.2721 65.2205Z" fill="#665F55"/>
<path d="M47.8005 56.7487C47.8005 56.7487 54.5782 63.9298 54.9009 64.9788C43.2013 58.2011 37.1498 53.7633 37.1498 53.7633L32.0666 50.2937C32.0666 50.2937 29.8073 49.4062 30.0494 48.8414C30.3721 48.1959 35.294 49.3255 37.3112 50.4551C39.8125 51.7461 44.6537 54.4895 47.8005 56.7487Z" fill="#999690"/>
<path d="M56.2697 65.2205C56.2697 65.2205 51.5898 69.1741 49.6533 70.3037C47.3134 71.6754 39.4868 74.9029 39.4868 74.9029L39.1641 73.5312L47.3134 69.7389C47.3134 69.7389 47.4748 68.5286 48.1203 67.399C48.8465 66.2694 53.2036 64.0102 53.2036 64.0102L56.2697 65.2205Z" fill="#78736A"/>
<path d="M20.1266 44L11.8159 47.7116L3.34375 53.6824L11.009 55.9417L27.7918 46.3399L20.1266 44Z" fill="#E6E8EA"/>
<path d="M32.7126 47.4694L18.5924 55.6994L11.0078 55.9415C11.0078 55.9415 16.0911 51.9072 17.9469 50.6968C21.7392 48.1956 27.7907 46.2591 27.7907 46.2591C27.7907 46.2591 30.534 46.4204 32.7126 47.4694Z" fill="#AFB5BB"/>
<path d="M32.7126 47.4694C32.7126 47.4694 26.5804 49.1638 24.2405 50.5355C22.304 51.6651 18.5117 55.7801 18.5117 55.7801L33.9229 64.6557C33.9229 64.6557 40.862 61.8316 43.3633 60.2986C45.0577 59.2496 48.1238 56.4256 48.1238 56.4256C48.1238 56.4256 46.51 54.9733 42.6371 52.7947C38.8448 50.5355 34.8911 48.1956 32.7126 47.4694Z" fill="#E6E8EA"/>
<path d="M50.9451 89.5071C51.2679 91.2822 51.2679 92.6538 51.1065 93.38C51.1872 93.4607 51.2679 93.4607 51.3486 93.5414C51.9134 92.2504 52.7202 91.1208 53.7692 90.1525L53.2044 89.9912L53.6885 86.1989C53.6885 86.1989 53.285 84.9886 52.7202 84.5045C51.8327 83.7783 47.9597 80.7929 39.4876 74.9027C38.358 72.8856 33.9202 64.6555 33.9202 64.6555C32.3065 62.9611 21.1717 56.7482 18.509 55.78L10.9245 56.022L3.25922 53.7628L2.37166 54.5697L1.96823 57.7971L1 58.3619V61.2667L1.72618 62.7997C1.72618 62.7997 4.30814 64.9783 5.92188 66.4306C6.00256 66.5113 6.16394 66.6727 6.32531 66.7534C6.48668 66.8341 6.56737 66.9954 6.72874 67.0761C6.72874 66.1079 6.89012 64.01 7.93905 63.2032C8.50385 62.7997 9.31073 62.719 10.521 63.4452C10.521 63.4452 12.5382 64.4135 13.8292 67.3182C14.394 68.6092 14.7974 70.3036 14.7974 72.4015C14.9588 72.4821 15.1202 72.5628 15.2009 72.6435C15.3622 72.7242 15.4429 72.8049 15.6043 72.8049C17.3794 73.6118 38.7614 86.441 40.2138 87.4092C40.4558 87.5706 41.0207 87.8933 41.6662 88.2968C41.8275 88.3775 41.9889 88.4581 42.1503 88.6195C42.1503 88.2161 42.0696 85.7955 43.1992 84.6659C43.8447 83.9397 44.9743 83.6976 46.8301 84.6659C46.8301 84.6659 49.4121 86.0375 50.3803 88.6195C50.7838 88.8616 50.8644 89.1843 50.9451 89.5071Z" fill="#95A1AD"/>
<path d="M1.16016 58.3621V61.2668L1.88633 62.7999C1.88633 62.7999 4.46832 64.9784 6.08206 66.4308C6.16274 66.5115 6.32412 66.6728 6.48549 66.7535C6.64686 66.8342 6.72755 66.9956 6.88893 67.0763C6.88893 66.108 7.0503 64.0102 8.09923 63.2033L1.16016 58.3621Z" fill="#7A848E"/>
<path d="M3.41979 60.7025L1.88672 59.6536V60.5412L3.3391 61.6708L3.41979 60.7025Z" fill="#D4D6DA"/>
<path d="M3.34044 60.7834L1.96875 59.8151V60.4606L3.25974 61.4289L3.34044 60.7834Z" fill="#FF7400"/>
<path d="M41.9073 83.6982C39.2446 82.0038 14.0703 67.3188 14.0703 67.3188C14.6351 68.6098 15.0386 70.3042 15.0386 72.4021C15.1999 72.4828 15.3613 72.5635 15.442 72.6441C15.6034 72.7248 15.6841 72.8055 15.8454 72.8055C17.6205 73.6124 39.0026 86.4416 40.4549 87.4098C40.697 87.5712 41.2618 87.8939 41.9073 88.2974C42.0686 88.3781 42.23 88.4588 42.3914 88.6201C42.3914 88.2167 42.3107 85.7961 43.4403 84.6665C42.7948 84.263 42.3107 83.9403 41.9073 83.6982Z" fill="#C8CCD0"/>
<path d="M12.2173 59.7339L11.8945 62.7193C11.8945 62.7193 14.6379 64.9786 15.2027 67.6412C15.6868 70.3039 16.3323 72.4017 16.3323 72.4017L39.8928 86.0378L40.619 82.9717L40.1349 76.8395L12.2173 59.7339Z" fill="#95A1AD"/>
<path d="M41.9073 83.6982C39.2446 82.0038 14.0703 67.3188 14.0703 67.3188C14.6351 68.6098 15.0386 70.3042 15.0386 72.4021C15.1999 72.4828 15.3613 72.5635 15.442 72.6441C15.6034 72.7248 15.6841 72.8055 15.8454 72.8055C17.6205 73.6124 39.0026 86.4416 40.4549 87.4098C40.697 87.5712 41.2618 87.8939 41.9073 88.2974C42.0686 88.3781 42.23 88.4588 42.3914 88.6201C42.3914 88.2167 42.3107 85.7961 43.4403 84.6665C42.7948 84.263 42.3107 83.9403 41.9073 83.6982Z" fill="#7A848E"/>
<path d="M16.2498 71.7561L16.3304 72.4016L39.891 86.0377L40.0524 85.4729L23.5116 75.6291L16.9759 71.7561L15.7656 69.6583L16.2498 71.7561Z" fill="#AFB5BB"/>
<path d="M53.2031 89.911C53.2031 89.911 52.1541 89.3462 50.6211 88.5393C50.7018 88.862 50.7825 89.1041 50.8631 89.4268C51.1859 91.202 51.1859 92.5736 51.0245 93.2998C51.1859 93.3805 51.2666 93.4612 51.428 93.4612C52.0735 93.7839 52.5576 93.9453 52.7189 93.9453C53.3644 93.7839 53.6065 90.3144 53.6065 90.3144L53.2031 89.911Z" fill="#7A848E"/>
<path d="M69.9879 80.2287L63.8557 85.3927L53.2051 89.9111H51.9141L52.8823 90.2339C53.5278 90.4759 54.254 90.4759 54.8995 90.1532L64.1785 86.2802L70.6334 80.8742L69.9879 80.2287Z" fill="#E6E8EA"/>
<path d="M70.7158 80.9546C70.7158 80.9546 70.9579 80.7932 70.6351 80.2284C70.3124 79.6636 70.151 79.5022 70.151 79.5022V79.7443L70.0703 80.2284L70.7158 80.9546Z" fill="#2A3140"/>
<path d="M2.45179 54.4896L2.37109 55.1351L12.0535 61.0252L25.7703 69.9007L40.3746 78.6149L53.6072 87.0064L53.6879 86.1188C53.6879 86.1188 47.5557 82.0038 43.8441 79.8252C40.2939 77.566 6.32475 54.2475 2.45179 54.4896Z" fill="#AFB5BB"/>
<path d="M2.45312 54.4893C2.45312 54.4893 9.15014 57.5554 11.8128 59.4919C14.4755 61.4283 16.8961 62.9614 16.8961 62.9614C48.9287 83.1331 49.9777 83.5365 53.6893 86.1185C53.6893 86.1185 53.2858 84.9082 52.721 84.4241C51.8335 83.6979 47.9605 80.7125 39.4884 74.8224C38.3588 72.8052 33.921 64.5751 33.921 64.5751C32.3073 62.8807 21.1725 56.6678 18.5098 55.6996L10.9252 55.9416L3.25999 53.6824L2.45312 54.4893Z" fill="#D8DBDE"/>
<path d="M42.3929 88.6198C42.3929 87.9743 42.2316 82.0842 47.0728 84.6662C47.0728 84.6662 50.3003 86.3606 50.8651 89.5074C51.1878 91.2825 51.1878 92.6542 51.0264 93.3803C51.1878 93.461 51.2685 93.5417 51.4299 93.5417C51.5913 92.7348 51.6719 91.2018 51.2685 89.0232C50.623 85.473 47.0728 83.6172 47.0728 83.6172C41.4247 80.6318 41.9088 88.055 41.9088 88.055C41.9088 88.055 41.8281 88.055 41.8281 88.2164C42.0702 88.3778 42.2316 88.4584 42.3929 88.6198Z" fill="#C8CCD0"/>
<path d="M6.48806 66.6727C6.64944 66.7534 6.73012 66.9148 6.8915 66.9955C6.8915 65.4624 7.29494 61.3474 10.6838 63.4452C10.6838 63.4452 14.8795 65.3817 14.9602 72.4821C15.1216 72.5628 15.2829 72.6435 15.3636 72.7242C15.3636 72.6435 15.3636 72.4821 15.3636 72.4015C15.2829 64.5748 10.6031 62.3963 10.6031 62.3963C6.64944 59.895 6.40738 65.4624 6.48806 66.6727Z" fill="#C8CCD0"/>
<path d="M2.12841 57.7974L4.22627 59.3305L7.29236 62.6386L1.16016 58.3622L2.2091 56.9099L2.12841 57.7974Z" fill="#E6E8EA"/>
<path d="M33.5977 65.0591C33.5977 65.0591 37.7934 73.6926 38.1161 74.6608C26.4165 67.8832 20.365 63.4454 20.365 63.4454L15.2817 59.9758C15.2817 59.9758 13.9908 58.12 14.3135 57.5552C14.3135 57.5552 21.0912 57.6359 23.1891 58.7655C25.6097 60.0565 30.4509 62.7192 33.5977 65.0591Z" fill="#483F32"/>
<path d="M26.0947 59.9758L25.4492 66.1887L26.5788 66.9956L27.063 60.5407L26.0947 59.9758Z" fill="#0E0600"/>
<path d="M22.6243 63.9299L17.541 60.4604C17.541 60.4604 16.25 58.6046 16.5727 58.0398C16.8148 57.6364 19.7195 57.7977 22.2208 58.2819C19.4775 57.1522 14.3135 57.475 14.3135 57.475C13.9908 57.9591 15.2817 59.8956 15.2817 59.8956L20.365 63.3651C20.365 63.3651 26.4165 67.8029 38.1161 74.5806C38.0354 74.4192 37.8741 74.0158 37.632 73.5317C27.7882 67.7222 22.6243 63.9299 22.6243 63.9299Z" fill="#0E0600"/>
<path d="M40.2936 76.7591C37.1468 71.1917 35.6944 68.3677 34.9683 66.754C34.4035 65.5437 34.1614 65.0595 33.758 64.6561C28.5133 61.0252 26.7382 60.2183 26.6575 60.1377C26.4962 60.057 23.5107 58.1205 22.1391 57.6364C18.5888 56.3454 15.5227 56.6681 13.9897 56.8295C13.1828 56.9102 12.4566 57.2329 12.376 58.0398L11.7305 62.6389V62.7196H11.8112C11.8112 62.7196 14.0704 64.3334 15.2 67.9643C16.2489 71.5952 16.2489 72.2407 16.2489 72.3213V72.402L25.8507 77.9694L26.012 78.0501L39.9709 86.1188L40.7777 82.8913L40.2936 76.7591ZM15.4421 68.0449C14.3931 64.6561 12.376 63.0424 12.0532 62.7196L12.6987 58.2011C12.7794 57.475 13.3442 57.2329 14.0704 57.1522C15.6034 56.9909 18.5888 56.7488 22.1391 57.9591C23.3494 58.3625 26.0927 60.1376 26.5768 60.3797L25.6893 68.3677L25.8507 74.2578V77.7274L16.491 72.3213C16.4103 72.0793 16.3296 71.111 15.4421 68.0449ZM39.8095 85.8767L25.9314 77.8888V74.2578L25.77 68.3677L26.6575 60.4604C27.1417 60.7025 29.0781 61.8321 33.5159 64.8175C33.9193 65.2209 34.1614 65.705 34.7262 66.8346C35.4524 68.3677 36.9048 71.2724 40.0515 76.7591L40.5357 82.8913L39.8095 85.8767Z" fill="#96A2AF"/>
<path d="M31.2595 47.4698C31.2595 47.4698 25.6921 49.0836 23.7556 50.2132C21.8191 51.2621 18.5917 54.9737 18.5917 54.9737C18.5917 54.9737 15.3642 54.9737 13.9925 55.0544C12.6208 55.1351 12.1367 55.3771 12.1367 55.3771C12.1367 55.3771 15.7676 52.7952 18.3496 50.9394C20.9316 49.0836 27.5479 46.7437 27.5479 46.7437C27.5479 46.7437 29.6458 46.905 31.2595 47.4698Z" fill="#665F55"/>
<path d="M57.3171 87.8131C57.3171 87.8131 57.3171 86.038 56.4295 85.7153C55.8647 85.4732 53.9282 86.5221 53.1213 86.5221C52.5565 86.5221 51.5883 88.4586 52.3145 88.9427C53.2827 89.5882 53.202 89.4269 53.6055 89.3462C54.0089 89.2655 55.9454 88.62 57.3171 87.8131Z" fill="#72889D"/>
<path d="M57.2388 87.7324C57.2388 87.7324 56.4319 87.329 54.8989 87.8131C53.85 88.1358 53.5272 88.1359 53.3658 88.7814C53.2852 89.1041 53.2852 89.3461 53.2852 89.3461C53.2852 89.3461 53.9307 89.2655 54.9796 88.862C56.0285 88.3779 57.2388 87.8938 57.2388 87.7324Z" fill="#ACB9C5"/>
<path d="M53.3673 86.6836C53.3673 86.6836 52.8025 86.7643 52.3991 87.4098C51.9956 88.0553 52.0763 88.4588 52.2377 88.7815C52.3991 89.1043 53.0446 89.2656 53.0446 89.2656C53.0446 89.2656 53.6094 87.1678 53.3673 86.6836Z" fill="#FD3C1D"/>
<path d="M56.434 87.0059C56.434 87.0059 54.0941 87.6514 53.852 87.8935C53.6906 88.0549 53.6099 88.3776 53.852 88.539C54.1747 88.7003 56.3533 87.8128 56.5953 87.6514C56.7567 87.4093 56.9181 87.0866 56.434 87.0059Z" fill="#FF7400"/>
<path d="M56.3521 86.1187C56.3521 86.1187 54.2542 86.6835 53.8508 86.9255C53.5281 87.1676 53.6087 87.571 53.7701 87.6517C54.1735 87.7324 56.2714 87.0062 56.5135 86.7642C56.7555 86.5221 56.7555 86.1187 56.3521 86.1187Z" fill="#DCDBDD"/>
<path d="M51.1091 88.0548C51.1091 88.0548 49.9795 84.9887 47.1554 83.6978C44.4121 82.3261 43.1211 83.6978 43.1211 83.6978C43.1211 83.6978 44.3314 81.3578 47.6396 83.2136C51.0284 84.9887 51.1091 88.0548 51.1091 88.0548Z" fill="#E6E8EA"/>
<path d="M14.7178 67.5604C14.7178 67.5604 13.9109 64.4136 11.4096 62.7999C8.9083 61.1862 7.85938 62.0737 7.85938 62.0737C7.85938 62.0737 9.31173 60.6213 11.4096 61.9123C13.5074 63.284 14.7984 65.7046 14.7178 67.5604Z" fill="#E6E8EA"/>
<path d="M59.4198 80.7933L47.6396 73.2088L43.1211 75.226L54.6593 82.4071L59.4198 80.7933Z" fill="#EEF0F2"/>
<path d="M56.0309 66.7538L52.9648 69.6586L64.503 77.5659L67.085 75.226L56.0309 66.7538Z" fill="#EEF0F2"/>
<path d="M59.4194 80.7933L47.3164 73.6929L47.6391 73.2088L59.4194 80.7933Z" fill="#95A1AD"/>
<path d="M56.0323 66.7538L55.6289 67.1573L67.0864 75.226L56.0323 66.7538Z" fill="#95A1AD"/>
<path d="M47.3168 73.6929L43.6052 75.5487L43.1211 75.226L47.6396 73.2088L47.3168 73.6929Z" fill="#1B1A1A"/>
<path d="M52.9648 69.6586L53.2069 69.82L56.0309 67.3994V66.7538L52.9648 69.6586Z" fill="#1B1A1A"/>
<path d="M17.139 45.2907L20.5278 46.7431C20.5278 46.7431 16.2514 48.7602 15.4445 49.6478C14.6377 50.5353 11.8943 52.7139 11.8943 52.7139L6.48828 51.5036C6.48828 51.5036 11.1681 48.034 11.8136 47.7113C12.5398 47.3885 17.139 45.2907 17.139 45.2907Z" fill="#D8DBDE"/>
<path d="M56.3525 91.1211C56.3525 91.1211 56.6752 90.1529 55.707 90.5563C54.7387 90.9597 54.658 91.1211 54.4967 91.928C54.2546 92.7349 55.4649 92.0894 55.707 91.928C55.949 91.8473 56.2718 91.6052 56.3525 91.1211Z" fill="#4A5764"/>
<path d="M56.1111 91.6054C56.1111 91.6054 55.869 91.2826 55.627 91.3633C55.3042 91.444 54.5781 91.7667 54.5781 91.7667C54.5781 91.7667 54.2553 92.4929 54.7394 92.4123C55.2235 92.2509 56.1111 91.7668 56.1111 91.6054Z" fill="#E6E8EA"/>
<path d="M55.6257 91.3634C55.6257 91.3634 55.7064 90.96 55.2223 91.1214C54.7381 91.2827 54.6575 91.4441 54.6575 91.4441L54.4961 91.9282V92.0896L55.4643 91.6861C55.4643 91.6055 55.545 91.5248 55.6257 91.3634Z" fill="#FEFDDD"/>
<path d="M65.3068 88.5386C65.5489 88.3772 65.7102 88.1352 65.7102 87.9738L65.7909 86.1987C65.7909 86.0373 65.6296 85.9566 65.3875 86.0373L62.4021 87.7317C62.16 87.8931 61.9986 88.1352 61.9986 88.2966L61.918 90.0716C61.918 90.233 62.0793 90.3137 62.3214 90.233L65.3068 88.5386Z" fill="#D3D3D3"/>
<path d="M62.3228 90.1524L65.3082 88.458C65.4695 88.3773 65.6309 88.1352 65.6309 87.9739L65.7116 86.1987C65.7116 86.0374 65.5502 85.9567 65.3889 86.118L62.4034 87.8125C62.2421 87.8932 62.0807 88.1352 62.0807 88.2966L62 90.0717C62 90.2331 62.1614 90.3138 62.3228 90.1524Z" fill="#EFDCA9"/>
<path d="M62.0793 88.7809C62.0793 88.6195 61.9986 88.1354 62.4827 87.8933L65.4681 86.1989C65.8716 85.8762 65.7909 86.6023 65.7102 86.7637L62.0793 88.7809Z" fill="#5E6095"/>
<path d="M34.3266 64.4948L40.2975 74.5806L39.4906 74.9034L34.0039 64.5755L34.3266 64.4948Z" fill="#D8DBDE"/>
<path d="M48.1196 56.3449C47.8776 56.5063 47.7969 56.4256 47.7969 56.4256V56.6677L55.7042 65.7046L56.1883 65.3012C56.269 65.2205 52.4767 60.2986 48.1196 56.3449Z" fill="#D8DBDE"/>
<path d="M38.5996 74.2577C38.5189 74.2577 38.5189 74.2577 38.5996 74.2577C38.4383 74.177 38.519 74.2577 38.519 74.177C38.4383 74.0964 38.3576 73.4509 38.2769 73.3702C38.2769 73.3702 38.1962 73.3702 38.1962 73.2895C38.0348 73.2895 37.8735 73.2088 37.7121 73.2088C37.5507 73.2088 37.47 73.2895 37.3087 73.3702C36.9859 73.5315 36.7439 73.7736 36.4211 73.935C36.3404 73.935 36.3404 74.0157 36.3404 74.0157C36.2597 74.0963 36.0984 74.0963 36.0984 74.4998C36.0984 74.5805 36.0177 74.8225 36.0984 75.0646C36.0984 75.226 36.179 75.6294 36.2597 75.7101C36.3404 75.7908 36.6632 75.9521 36.7438 76.0328C36.9052 76.1135 36.9859 76.1135 37.1473 76.0328C37.47 75.8715 37.7928 75.6294 38.1155 75.468C38.1962 75.3873 38.1962 75.226 38.3576 75.3066C38.4383 75.3066 38.5189 75.3873 38.5996 75.3066C38.6803 75.226 38.761 75.1453 38.8417 75.0646C38.9224 74.9032 38.9224 74.6612 38.761 74.5805C38.761 74.3384 38.6803 74.3384 38.5996 74.2577Z" fill="#7A848E"/>
<path d="M43.4405 61.1056L43.6826 61.4283L44.4894 61.0249L44.8929 60.9442L45.0542 61.509L44.9736 61.8318L44.0053 62.558L42.2302 63.3648L41.9881 63.2841L41.7461 62.7193L42.0688 62.3159L43.1178 61.7511L42.795 61.509L43.1178 61.1863L43.4405 61.1056Z" fill="#706D65"/>
<path d="M26.6587 70.8687L27.9497 71.5949C28.111 71.6756 28.2724 71.5949 28.2724 71.3528V70.8687C28.2724 70.6267 28.111 70.3846 27.9497 70.2232L26.6587 69.497C26.4973 69.4163 26.3359 69.497 26.3359 69.7391V70.3039C26.3359 70.546 26.4973 70.788 26.6587 70.8687Z" fill="#445970"/>
<path d="M26.0938 70.0617L28.595 71.514V71.1106L26.0938 69.6583V70.0617Z" fill="#D8DBDE"/>
<path d="M13.5877 62.3969L14.798 63.2845C14.9594 63.3652 15.1208 63.2844 15.1208 63.0424L15.2015 62.4776C15.2015 62.2355 15.1208 61.9935 14.9594 61.8321L13.7491 60.9446C13.5877 60.8639 13.4264 60.9445 13.4264 61.1866L13.3457 61.7514C13.265 61.9935 13.4264 62.3162 13.5877 62.3969Z" fill="#445970"/>
<path d="M13.1016 61.5092L15.3608 63.1229L15.4415 62.7195L13.1016 61.1058V61.5092Z" fill="#D8DBDE"/>
<path d="M42.9565 81.196L43.1179 81.3574V81.9222L41.9883 81.2767L42.9565 81.196Z" fill="#394F67"/>
<path d="M41.91 80.551L42.959 81.1965V81.6806L41.668 80.7124L41.91 80.551Z" fill="#E07436"/>
<path d="M41.668 80.7122L42.7976 81.277V81.8418L41.668 81.1963V80.7122Z" fill="#FF9436"/>
<path d="M42.7969 81.2767L42.9583 81.196V81.6801L42.7969 81.8415V81.2767Z" fill="#DB5E16"/>
<path d="M63.2134 82.4068L62.8906 85.2308L63.1327 85.1501L63.5361 84.8274L63.6975 82.1647L63.2134 82.4068Z" fill="#A5A9B2"/>
</svg>
