<svg width="530" height="314" viewBox="0 0 530 314" fill="none" xmlns="http://www.w3.org/2000/svg">
<path d="M253.137 3.86621V150.481L300.17 177.661V30.9675L253.137 3.86621Z" fill="#383C48"/>
<path d="M301.661 30.1748L300.164 30.9626V177.656L301.661 176.79V30.1748Z" fill="#626877"/>
<path d="M254.634 3L253.137 3.86661L300.17 30.9679L301.667 30.1801L254.634 3Z" fill="#F24A63"/>
<path d="M267.312 53.4998V89.4248L300.165 48.3789L267.312 53.4998Z" fill="#292B37"/>
<path d="M285.523 169.235L228.012 202.481V148.357L285.523 115.189V169.235Z" fill="#BDBDBD"/>
<path d="M285.523 117.001L228.012 150.248V148.357L285.523 115.189V117.001Z" fill="#E8E8E8"/>
<path d="M206.098 129.842L233.435 145.441L285.511 115.188L258.488 99.9043L206.098 129.842Z" fill="white"/>
<path d="M257.469 77.8471L272.28 85.489V83.4407L259.281 76.7441L257.469 77.8471Z" fill="#62C2EC"/>
<path d="M260.785 75.8752L272.287 81.7839V77.766L264.488 73.748L260.785 75.8752Z" fill="#62C2EC"/>
<path d="M214.691 102.501V134.408L272.282 101.162V89.3446L253.925 79.8906L214.691 102.501Z" fill="#62C2EC"/>
<path d="M267.237 72.1748L265.977 72.8838L272.279 76.1139V74.7746L267.237 72.1748Z" fill="#62C2EC"/>
<path d="M272.291 61.0644V47.041L259.449 54.4466L272.291 61.0644Z" fill="#2EABE3"/>
<path d="M245.664 62.4083L265.99 72.8864L267.251 72.1773L246.925 61.6992L245.664 62.4083Z" fill="#2EABE3"/>
<path d="M237.141 67.3666L257.467 77.8448L259.279 76.7418L238.953 66.2637L237.141 67.3666Z" fill="#2EABE3"/>
<path d="M233.599 69.4189L214.691 80.291V102.508L253.925 79.8971L233.599 69.4189Z" fill="#2EABE3"/>
<path d="M240.457 65.3957L260.783 75.8738L264.486 73.7467L244.239 63.2686L240.457 65.3957Z" fill="#2EABE3"/>
<path d="M253.918 79.895L272.274 89.349V85.4886L257.463 77.8467L253.918 79.895Z" fill="#6DD6FC"/>
<path d="M233.59 69.4185L253.916 79.8966L257.461 77.8482L237.135 67.3701L233.59 69.4185Z" fill="#62C2EC"/>
<path d="M267.246 72.1747L272.288 74.7746V69.2598L267.246 72.1747Z" fill="#6DD6FC"/>
<path d="M246.918 61.6982L267.244 72.1763L272.286 69.2614V61.068L259.444 54.4502L246.918 61.6982Z" fill="#62C2EC"/>
<path d="M259.281 76.7397L272.28 83.4362V81.7818L260.778 75.873L259.281 76.7397Z" fill="#6DD6FC"/>
<path d="M238.949 66.2641L259.275 76.7422L260.772 75.8756L240.446 65.3975L238.949 66.2641Z" fill="#62C2EC"/>
<path d="M264.48 73.7485L272.28 77.7664V76.1119L265.977 72.8818L264.48 73.7485Z" fill="#6DD6FC"/>
<path d="M244.234 63.268L264.482 73.7461L265.978 72.8795L245.652 62.4014L244.234 63.268Z" fill="#62C2EC"/>
<path d="M300.175 48.3759L233.84 86.6643V69.3321L300.175 30.9648V48.3759Z" fill="white"/>
<path d="M300.168 33.0132L233.833 71.3017L232.336 70.1987L300.168 30.9648V33.0132Z" fill="#626877"/>
<path d="M253.616 131.891L262.833 126.613L248.495 118.341L239.277 123.619L253.616 131.891Z" fill="#E8E8E8"/>
<path d="M253.616 131.023L262.833 125.745L248.495 117.394L239.277 122.751L253.616 131.023Z" fill="#A8A8A8"/>
<path d="M253.616 130.078L262.833 124.8L248.495 116.527L239.277 121.806L253.616 130.078Z" fill="#E8E8E8"/>
<path d="M252.109 126.452L257.545 123.301L249.116 118.416L243.68 121.567L252.109 126.452Z" fill="#2EABE3"/>
<path d="M245.337 122.042L249.749 119.442L249.119 119.048L244.707 121.569L245.337 122.042Z" fill="white"/>
<path d="M251.951 125.745L256.362 123.224L255.732 122.83L251.32 125.351L251.951 125.745Z" fill="white"/>
<path d="M248.646 123.457C249.907 124.166 251.798 124.244 252.901 123.614C254.004 122.984 253.846 121.881 252.586 121.172C251.325 120.463 249.434 120.384 248.331 121.014C247.228 121.645 247.386 122.747 248.646 123.457Z" fill="white"/>
<path d="M243.68 121.563V122.036L252.109 126.921V126.448L243.68 121.563Z" fill="#275FAD"/>
<path d="M257.549 123.297V123.77L252.113 126.921V126.448L257.549 123.297Z" fill="#275FAD"/>
<path d="M185.309 43.0234V189.638L232.342 216.818V70.2035L185.309 43.0234Z" fill="#383C48"/>
<path d="M233.833 69.335L232.336 70.2016V216.816L233.833 215.95V69.335Z" fill="#626877"/>
<path d="M254.638 3L185.309 43.0217L232.342 70.2018L301.671 30.1801L254.638 3Z" fill="#4E5363"/>
<path d="M232.027 70.2035L185.309 128.66V43.0234L232.027 70.2035Z" fill="#292B37"/>
<path d="M245.814 65.9482L236.754 71.2267V82.5714L245.814 77.3718V65.9482Z" fill="#292B37"/>
<path d="M291.191 47.4365L251.957 70.2048V71.3077L291.191 48.5395V47.4365Z" fill="#292B37"/>
<path d="M291.191 49.7168L251.957 72.4063V73.588L291.191 50.8198V49.7168Z" fill="#292B37"/>
<path d="M239.504 77.8427C241.001 75.164 242.025 73.1945 242.025 72.1703C242.025 71.3825 241.71 71.2249 241.237 71.4612C240.843 71.6976 240.528 72.2491 240.213 72.8793L239.504 72.3278C240.055 71.1461 240.607 70.4371 241.473 69.9644C242.576 69.3341 243.364 69.8068 243.364 71.3037C243.364 72.5642 242.419 74.5338 241.552 76.3458C241.867 76.1094 242.261 75.8731 242.498 75.7155L243.679 75.0065V76.5033L239.583 78.8668V77.8427H239.504Z" fill="white"/>
<path d="M251.242 64.5301L252.109 64.0574L252.503 66.027C252.582 66.4997 252.66 66.8936 252.818 67.3663C252.897 66.8148 252.975 66.2633 253.133 65.7118L253.527 63.2696L254.315 62.7969L253.291 68.0753L252.345 68.6268L251.242 64.5301Z" fill="#292B37"/>
<path d="M254.633 62.5625L255.421 62.0898V66.8168L254.633 67.2895V62.5625Z" fill="#292B37"/>
<path d="M256.527 64.8469C256.763 65.0044 257.078 65.0044 257.393 64.8469C257.708 64.6893 257.866 64.3742 257.866 64.1378C257.866 63.8227 257.63 63.9015 257.393 63.9015H256.921C256.527 63.9015 256.212 63.7439 256.212 63.0349C256.212 62.247 256.763 61.3804 257.472 60.9077C257.866 60.6714 258.26 60.6714 258.575 60.9077L258.181 61.7743C257.945 61.6956 257.708 61.6956 257.472 61.8531C257.236 62.0107 256.999 62.247 256.999 62.5622C256.999 62.8773 257.236 62.7985 257.551 62.7985H258.024C258.418 62.7985 258.733 63.0349 258.733 63.6651C258.733 64.453 258.26 65.3984 257.393 65.8711C256.921 66.1074 256.448 66.1862 256.133 65.9498L256.527 64.8469Z" fill="#292B37"/>
<path d="M260.85 62.5651L259.747 63.1953L259.51 64.4559L258.723 64.9286L259.826 59.6501L260.771 59.0986L261.874 63.1166L261.007 63.5893L260.85 62.5651ZM260.692 61.856L260.613 61.4621C260.535 61.0682 260.456 60.5955 260.298 60.1228C260.22 60.6743 260.141 61.2258 260.062 61.7773L259.983 62.2499L260.692 61.856Z" fill="#292B37"/>
<path d="M263.215 59.9577C263.215 58.4608 263.845 57.2003 264.791 56.6488C265.736 56.0973 266.366 56.6488 266.366 58.1457C266.366 59.6425 265.736 60.9818 264.791 61.4545C263.845 62.006 263.215 61.4545 263.215 59.9577ZM265.578 58.6184C265.578 57.673 265.263 57.2791 264.791 57.5942C264.318 57.8305 264.003 58.6184 264.003 59.5638C264.003 60.5092 264.318 60.9031 264.791 60.6667C265.263 60.2728 265.578 59.485 265.578 58.6184Z" fill="#292B37"/>
<path d="M267.078 55.4653L267.866 54.9926L268.811 56.8046L269.126 57.5924C269.126 57.1198 269.048 56.4895 269.048 55.938V54.2836L269.836 53.8896V58.5378L269.048 59.0105L268.102 57.1985L267.787 56.4107C267.787 56.8834 267.866 57.5137 267.866 58.0651V59.7196L267.078 60.1923V55.4653Z" fill="#292B37"/>
<path d="M273.377 55.3073L272.274 55.9375L272.038 57.1981L271.25 57.6708L272.353 52.3923L273.298 51.8408L274.401 55.8587L273.535 56.3314L273.377 55.3073ZM273.22 54.5982L273.141 54.2043C273.062 53.8104 272.983 53.3377 272.826 52.865C272.747 53.4165 272.668 53.968 272.589 54.5194L272.511 54.9921L273.22 54.5982Z" fill="#292B37"/>
<path d="M276.683 54.5271L276.053 53.2666L275.659 53.5029V55.1574L274.871 55.6301V50.9819L276.132 50.2728C276.841 49.8789 277.471 49.8001 277.471 50.9031C277.471 51.6121 277.235 52.1636 276.841 52.6363L277.628 54.0544L276.683 54.5271ZM275.58 52.6363L275.974 52.4C276.368 52.1636 276.604 51.7697 276.604 51.3758C276.604 50.9031 276.368 50.9031 275.974 51.1394L275.58 51.3758V52.6363Z" fill="#292B37"/>
<path d="M279.929 52.6335L279.299 51.373L278.905 51.6094V53.2638L278.117 53.7365V49.0883L279.378 48.3793C280.087 47.9853 280.717 47.9066 280.717 49.0095C280.717 49.7186 280.481 50.2701 280.087 50.7427L280.875 52.1608L279.929 52.6335ZM278.826 50.7427L279.22 50.5064C279.614 50.2701 279.85 49.8761 279.85 49.4822C279.85 49.0883 279.614 49.0095 279.22 49.2459L278.826 49.4822V50.7427Z" fill="#292B37"/>
<path d="M281.34 47.1973L282.128 46.7246V51.3728L281.34 51.8455V47.1973Z" fill="#292B37"/>
<path d="M282.52 46.4927L283.386 46.02L283.78 47.9108C283.859 48.3835 283.938 48.7774 284.095 49.2501C284.174 48.6986 284.253 48.1471 284.41 47.5956L284.804 45.1534L285.592 44.6807L284.568 49.9591L283.622 50.5106L282.52 46.4927Z" fill="#292B37"/>
<path d="M287.483 47.1959L286.38 47.8262L286.143 49.0867L285.355 49.5594L286.458 44.281L287.404 43.7295L288.507 47.7474L287.64 48.2201L287.483 47.1959ZM287.325 46.4869L287.246 46.093C287.167 45.6991 287.089 45.2264 286.931 44.7537C286.852 45.3051 286.774 45.8566 286.695 46.4081L286.616 46.8808L287.325 46.4869Z" fill="#292B37"/>
<path d="M288.907 42.8643L289.695 42.3916V46.1732L291.034 45.3854V46.252L288.828 47.5125V42.8643H288.907Z" fill="#292B37"/>
<path d="M250.133 108.015C250.133 108.33 250.369 108.488 250.606 108.33C250.842 108.173 251.078 107.779 251.078 107.464C251.078 107.149 250.842 106.991 250.606 107.149C250.369 107.228 250.133 107.621 250.133 108.015Z" fill="#2EABE3"/>
<path d="M247.77 109.357C247.77 109.672 248.006 109.83 248.242 109.672C248.479 109.515 248.715 109.121 248.715 108.806C248.715 108.491 248.479 108.333 248.242 108.491C247.927 108.569 247.77 108.963 247.77 109.357Z" fill="#2EABE3"/>
<path d="M246.43 107.779C246.43 108.094 246.666 108.252 246.902 108.094C247.139 107.937 247.375 107.543 247.375 107.228C247.375 106.912 247.139 106.755 246.902 106.912C246.666 106.991 246.43 107.385 246.43 107.779Z" fill="#2EABE3"/>
<path d="M249.105 106.282C249.105 106.597 249.342 106.755 249.578 106.597C249.815 106.44 250.051 106.046 250.051 105.73C250.051 105.415 249.815 105.258 249.578 105.415C249.263 105.494 249.105 105.888 249.105 106.282Z" fill="#2EABE3"/>
<path d="M251.555 104.784C251.555 105.099 251.791 105.257 252.027 105.099C252.264 104.941 252.5 104.548 252.5 104.232C252.5 103.917 252.264 103.76 252.027 103.917C251.791 104.075 251.555 104.469 251.555 104.784Z" fill="#2EABE3"/>
<path d="M250.133 103.446C250.133 103.761 250.369 103.919 250.606 103.761C250.842 103.604 251.078 103.21 251.078 102.895C251.078 102.579 250.842 102.422 250.606 102.579C250.369 102.737 250.133 103.131 250.133 103.446Z" fill="#2EABE3"/>
<path d="M247.77 104.784C247.77 105.099 248.006 105.257 248.242 105.099C248.479 104.941 248.715 104.548 248.715 104.232C248.715 103.917 248.479 103.76 248.242 103.917C247.927 104.075 247.77 104.469 247.77 104.784Z" fill="#2EABE3"/>
<path d="M296.712 97.4609L287.258 92.0248V75.9531L296.712 81.3891V97.4609Z" fill="#E8E8E8"/>
<path d="M277.801 82.6514V93.4446L284.734 97.4626V86.7481L277.801 82.6514Z" fill="#E8E8E8"/>
<path d="M295.998 81.8627L287.805 77.1357V78.0024L295.998 82.7293V81.8627Z" fill="#A8A8A8"/>
<path d="M295.998 83.6752L287.805 78.9482V79.8149L295.998 84.6206V83.6752Z" fill="#A8A8A8"/>
<path d="M295.998 85.5649L287.805 80.8379V91.3948L295.998 96.1218V85.5649Z" fill="#A8A8A8"/>
<path d="M281.953 114.479C281.953 114.479 284.474 123.775 284.159 127.241C283.923 130.629 279.59 140.398 279.59 140.398C279.59 140.398 275.887 134.726 275.887 128.187C275.887 121.648 277.305 114.479 277.305 114.479H281.953Z" fill="#FFC3B1"/>
<path d="M279.677 120.937L284.168 119.283C284.168 119.283 282.907 113.61 281.962 111.326C281.253 109.592 280.544 107.859 278.338 107.386C276.605 107.071 275.423 108.253 275.187 109.592C274.793 111.877 279.677 120.937 279.677 120.937Z" fill="#EF3329"/>
<path d="M278.724 197.435C278.094 198.932 276.597 198.774 273.682 197.75C271.082 196.805 268.876 195.702 266.985 194.363C265.095 192.945 265.095 192.787 264.858 191.842C264.543 190.502 266.434 189.793 269.585 190.817C269.9 190.896 270.216 190.975 270.452 191.133C269.9 191.211 269.27 191.448 269.034 191.92C268.482 193.023 270.294 194.205 272.185 195.15C274.076 196.096 275.652 196.096 276.597 195.702C277.306 195.387 278.251 194.993 278.645 194.757C278.882 195.938 279.118 196.569 278.724 197.435Z" fill="#292B37"/>
<path d="M269.981 181.681C269.981 181.918 269.902 179.318 269.823 176.009C267.617 177.033 265.254 177.584 262.812 177.978C263.048 179.475 263.206 180.893 263.442 182.311C263.993 188.614 264.466 196.807 264.466 196.807C264.466 196.807 263.599 196.414 261.866 195.862C261.315 195.941 260.684 196.177 260.448 196.65C259.897 197.753 261.709 198.935 263.599 199.88C265.49 200.825 267.066 200.825 268.011 200.431C268.72 200.116 269.666 199.722 270.06 199.486C269.902 198.619 269.823 197.517 269.981 195.783C270.217 192.317 270.138 186.014 269.981 181.681Z" fill="#FFC3B1"/>
<path d="M278.965 176.72C279.043 175.932 279.122 175.066 279.201 174.12C276.916 174.829 274.553 175.144 272.268 174.908C272.426 177.429 272.504 179.792 272.583 181.132C272.898 185.859 273.056 191.925 273.056 191.925C273.056 191.925 272.189 191.531 270.456 190.98C269.905 191.058 269.274 191.295 269.038 191.767C268.487 192.87 270.299 194.052 272.189 194.998C274.08 195.943 275.656 195.943 276.601 195.549C277.31 195.234 278.256 194.84 278.649 194.604C278.492 193.737 278.413 192.634 278.571 190.901C278.886 188.143 278.728 179.477 278.965 176.72Z" fill="#FFC3B1"/>
<path d="M270.064 202.24C269.434 203.737 267.937 203.579 265.022 202.555C262.422 201.61 260.216 200.507 258.325 199.167C256.435 197.749 256.435 197.592 256.198 196.646C255.883 195.307 257.774 194.598 260.925 195.622C261.24 195.701 261.555 195.78 261.792 195.937C261.24 196.016 260.61 196.252 260.374 196.725C259.822 197.828 261.634 199.01 263.525 199.955C265.416 200.901 266.991 200.901 267.937 200.507C268.646 200.191 269.591 199.798 269.985 199.561C270.222 200.743 270.458 201.294 270.064 202.24Z" fill="#292B37"/>
<path d="M280.386 166.866C280.071 171.672 279.599 188.216 279.047 191.289C277.156 192.392 273.375 192.392 271.484 190.186C271.484 185.538 272.114 175.06 271.957 170.805C271.799 166.157 272.902 155.364 272.745 153.158C271.248 157.412 270.539 159.382 270.223 166.866C269.593 178.605 270.617 194.204 270.46 196.804C266.915 197.749 265.103 197.277 263.842 195.701C263.842 194.755 260.77 172.224 260.77 170.805C260.77 164.897 261.872 144.571 262.739 140.316C263.369 137.48 263.684 134.014 263.684 134.014L277.787 132.281C277.787 132.281 277.156 132.044 279.599 137.874C282.041 143.704 281.647 148.195 281.332 150.952C281.174 153.079 280.465 165.054 280.386 166.866Z" fill="#EF3329"/>
<path d="M269.047 90.6048C268.338 91.0775 265.265 90.9987 264.556 97.065C263.847 102.422 265.423 102.895 266.526 103.368C267.156 103.604 269.283 104.313 269.283 104.313L269.047 109.749C269.047 109.749 271.725 110.773 274.246 109.749C276.767 108.725 276.767 108.725 276.767 108.725C276.767 108.725 275.743 106.992 275.901 104.077C276.137 100.374 277.398 95.1742 276.452 93.2046C274.877 89.6594 271.095 89.2655 269.047 90.6048Z" fill="#FFC3B1"/>
<path d="M281.883 141.033C281.095 142.057 279.913 142.215 278.259 142.766C278.022 141.269 276.919 139.773 276.919 139.773C276.919 139.773 276.447 142.136 276.131 143.554C274.635 143.869 271.877 144.342 271.247 144.421C268.411 144.736 263.132 143.003 261.793 140.876C263.526 135.44 264.314 124.883 264.314 124.883C264.314 124.883 261.793 117.95 263.605 114.247C265.417 110.623 267.78 110.15 269.514 109.599C271.326 108.969 277.313 107.944 277.313 107.944C277.313 107.944 282.907 112.356 281.725 117.792C280.701 122.362 280.622 125.119 280.465 127.876C280.307 130.004 281.883 138.985 281.883 141.033Z" fill="#FF4A39"/>
<path d="M261.633 119.052C261.633 119.052 259.585 123.464 258.167 127.56C256.512 128.033 254.227 129.215 251.47 130.396C247.767 131.972 246.664 132.524 245.325 132.13C243.986 131.736 242.489 132.13 240.992 131.815C239.495 131.421 239.653 132.602 240.44 132.839C241.307 133.075 241.858 133.784 241.858 133.784C241.858 133.784 240.756 134.414 238.707 135.36C236.816 136.226 237.053 137.802 238.628 137.881C241.307 137.96 245.01 136.62 246.743 135.911C248.397 135.202 258.245 134.651 261.791 132.524C262.342 132.208 263.603 130.396 264.39 128.742C266.281 124.96 267.857 121.1 267.857 121.1L261.633 119.052Z" fill="#FFC3B1"/>
<path d="M265.647 111.563C266.75 111.326 268.877 112.193 269.586 114.714C270.689 118.496 269.271 120.229 268.404 122.12C268.089 122.75 266.907 124.877 266.907 124.877C265.962 124.956 264.386 125.035 262.417 123.853C260.605 122.829 260.211 121.332 260.211 121.332C260.211 121.332 260.92 118.653 261.629 116.29C262.259 114.163 263.441 112.114 265.647 111.563Z" fill="#EF3329"/>
<path d="M267.465 110.379C267.465 110.379 268.174 108.646 269.986 108.488C275.343 107.937 276.289 107.228 276.289 107.228C276.289 107.228 277.47 106.991 278.022 108.015C278.337 108.646 278.652 109.118 278.652 109.118C278.652 109.118 272.349 112.191 267.465 110.379Z" fill="#D69A55"/>
<path d="M264.066 94.8627C264.066 94.8627 265.563 95.8869 267.297 96.5959C266.745 106.286 264.775 108.256 268.715 110.619C269.896 111.328 272.26 112.195 272.733 116.213C273.442 122.358 277.223 123.54 277.223 123.54C277.223 123.54 281.241 119.679 281.32 110.462C281.399 105.577 281.005 93.0507 279.114 90.766C276.12 87.142 272.89 87.0632 269.739 88.3237C267.297 87.7722 264.697 88.8752 264.066 94.8627Z" fill="#292B37"/>
<path d="M171.902 51.7676V198.383L218.857 225.563V78.9477L171.902 51.7676Z" fill="#383C48"/>
<path d="M220.431 78.084L218.855 78.9506V225.566L220.431 224.699V78.084Z" fill="#626877"/>
<path d="M173.399 50.9053L171.902 51.7719L218.857 78.952L220.433 78.0854L173.399 50.9053Z" fill="#F24A63"/>
<path d="M186.164 101.404V137.172L218.859 96.2832L186.164 101.404Z" fill="#292B37"/>
<path d="M204.286 217.218L146.695 250.464V196.34L204.286 163.094V217.218Z" fill="#BDBDBD"/>
<path d="M204.286 164.985L146.695 198.152V196.34L204.286 163.094V164.985Z" fill="#E8E8E8"/>
<path d="M124.781 177.746L152.119 193.345L204.273 163.092L177.251 147.809L124.781 177.746Z" fill="white"/>
<path d="M176.16 125.747L190.971 133.389V131.341L178.051 124.645L176.16 125.747Z" fill="#62C2EC"/>
<path d="M179.551 123.859L190.974 129.768V125.671L183.254 121.653L179.551 123.859Z" fill="#62C2EC"/>
<path d="M133.457 150.407V182.314L190.969 149.146V137.25L172.612 127.796L133.457 150.407Z" fill="#62C2EC"/>
<path d="M185.924 120.08L184.742 120.789L190.966 124.019V122.68L185.924 120.08Z" fill="#62C2EC"/>
<path d="M190.971 109.045V95.0215L178.129 102.427L190.971 109.045Z" fill="#2EABE3"/>
<path d="M164.43 110.389L184.756 120.788L185.937 120.079L165.611 109.68L164.43 110.389Z" fill="#2EABE3"/>
<path d="M155.832 115.268L176.158 125.746L178.049 124.643L157.723 114.244L155.832 115.268Z" fill="#2EABE3"/>
<path d="M152.286 117.315L133.457 128.266V150.404L172.612 127.794L152.286 117.315Z" fill="#2EABE3"/>
<path d="M159.223 113.379L179.549 123.857L183.251 121.651L162.925 111.173L159.223 113.379Z" fill="#2EABE3"/>
<path d="M172.609 127.795L190.966 137.249V133.389L176.155 125.747L172.609 127.795Z" fill="#6DD6FC"/>
<path d="M152.281 117.315L172.607 127.793L176.152 125.745L155.826 115.267L152.281 117.315Z" fill="#62C2EC"/>
<path d="M185.922 120.076L190.964 122.676V117.24L185.922 120.076Z" fill="#6DD6FC"/>
<path d="M165.59 109.679L185.916 120.078L190.958 117.242V109.048L178.116 102.431L165.59 109.679Z" fill="#62C2EC"/>
<path d="M178.047 124.641L190.967 131.338V129.762L179.544 123.854L178.047 124.641Z" fill="#6DD6FC"/>
<path d="M157.715 114.245L178.041 124.644L179.538 123.856L159.212 113.378L157.715 114.245Z" fill="#62C2EC"/>
<path d="M183.246 121.649L190.967 125.667V124.012L184.743 120.782L183.246 121.649Z" fill="#6DD6FC"/>
<path d="M162.914 111.17L183.24 121.648L184.737 120.781L164.411 110.382L162.914 111.17Z" fill="#62C2EC"/>
<path d="M218.866 96.2815L152.531 134.57V117.238L218.866 78.9492V96.2815Z" fill="white"/>
<path d="M218.859 80.9188L152.524 119.286L151.027 118.104L218.859 78.9492V80.9188Z" fill="#626877"/>
<path d="M172.381 179.875L181.599 174.517L167.261 166.245L158.043 171.524L172.381 179.875Z" fill="#E8E8E8"/>
<path d="M162.059 177.899L167.573 174.748L159.065 169.863L153.629 173.015L162.059 177.899Z" fill="#FF4A39"/>
<path d="M155.287 173.486L159.698 170.965L159.068 170.571L154.656 173.092L155.287 173.486Z" fill="white"/>
<path d="M161.9 177.192L166.312 174.671L165.681 174.277L161.27 176.798L161.9 177.192Z" fill="white"/>
<path d="M158.595 174.985C159.855 175.694 161.746 175.773 162.849 175.142C163.952 174.512 163.795 173.409 162.534 172.7C161.274 171.991 159.383 171.912 158.28 172.543C157.256 173.173 157.334 174.197 158.595 174.985Z" fill="white"/>
<path d="M153.629 173.02V173.492L162.059 178.377V177.904L153.629 173.02Z" fill="#F2352C"/>
<path d="M167.577 174.749V175.222L162.062 178.373V177.9L167.577 174.749Z" fill="#E02020"/>
<path d="M184.737 242.025C184.737 242.025 179.459 239.661 176.938 239.583C174.338 239.504 174.102 242.498 176.938 244.861C179.774 247.225 181.98 247.54 184.265 248.485C186.392 249.352 187.101 249.43 188.755 248.327C190.961 246.909 189.228 243.049 189.228 243.049L184.737 242.025Z" fill="#383C48"/>
<path d="M200.73 233.129C200.73 233.129 196.555 231.395 193.955 231.317C191.355 231.238 190.41 233.444 193.246 235.807C196.082 238.171 197.894 238.722 200.179 239.667C202.306 240.534 203.015 240.613 204.669 239.51C206.954 238.092 205.142 234.231 205.142 234.231L200.73 233.129Z" fill="#383C48"/>
<path d="M188.293 155.681C188.293 155.681 193.099 150.56 198.22 154.657C202.947 158.438 207.516 165.529 206.334 169.074C205.152 172.619 201.135 174.825 201.135 174.825L188.293 155.681Z" fill="#136FBA"/>
<path d="M184.504 187.509C184.504 187.509 179.461 210.75 178.358 216.659C177.255 222.567 180.486 243.602 180.486 243.602C180.486 243.602 182.77 245.966 184.976 245.966C189.94 245.966 190.412 243.445 190.412 243.445L188.285 219.495C188.285 219.495 194.588 202.32 195.06 201.375C194.273 206.338 194.745 212.562 194.982 215.871C195.376 220.834 197.503 234.385 197.66 235.251C199.236 237.142 204.751 238.324 206.484 235.882C206.326 233.676 206.484 217.919 204.278 210.277C206.642 203.344 206.957 186.406 202.781 183.018C199.236 180.261 184.504 187.509 184.504 187.509Z" fill="#292B37"/>
<path d="M180.014 168.286C179.699 164.19 179.463 161.59 182.141 159.305C182.456 159.069 189.468 153.554 191.753 154.027C195.219 154.736 200.025 158.517 201.128 164.111C202.388 170.571 205.54 183.57 205.934 187.352C205.54 188.612 199.552 193.103 195.613 194.679C188.286 197.751 182.85 192.079 182.85 192.079C182.85 192.079 182.85 187.352 182.062 180.892C181.511 175.692 180.172 169.389 180.014 168.286Z" fill="#1D91D8"/>
<path d="M180.637 141.19C180.006 141.82 177.249 141.347 177.564 147.098C177.8 150.959 178.903 153.795 180.164 154.583C180.715 154.898 183.315 154.819 183.315 154.819L184.024 159.073C184.024 159.073 186.703 159.625 188.83 158.207C191.036 156.789 191.036 156.789 191.036 156.789C191.036 156.789 189.775 155.371 189.46 152.613C188.988 149.147 189.303 144.026 188.121 142.45C185.915 139.299 182.291 139.535 180.637 141.19Z" fill="#FFC3B1"/>
<path d="M192.387 155.369C192.387 155.369 191.521 157.26 189.236 158.52C186.951 159.702 184.745 160.017 182.224 159.308C181.909 157.733 183.721 156.708 183.721 156.708C183.721 156.708 187.345 157.102 189.078 155.133C191.442 152.297 192.387 155.369 192.387 155.369Z" fill="white"/>
<path d="M179.626 148.198C179.153 147.332 178.129 145.205 177.814 144.417C177.42 143.393 177.105 141.896 178.208 140.241C179.311 138.508 184.117 137.169 186.007 137.799C187.977 138.508 191.995 139.611 191.837 145.914C191.68 151.035 190.813 151.744 189.553 153.162C188.45 154.422 186.244 155.053 186.244 155.053C186.244 155.053 184.826 154.343 184.195 152.531C184.038 151.98 183.723 150.168 183.723 150.168C183.723 150.168 184.511 147.332 183.329 146.623C182.068 145.835 181.28 147.568 181.123 148.277C180.65 150.641 181.832 154.659 181.832 154.659C181.832 154.659 180.729 155.762 179.311 155.683C178.602 155.604 178.681 152.768 178.681 152.768C178.681 152.768 180.099 151.901 179.626 148.198Z" fill="#292B37"/>
<path d="M168.987 173.25C168.987 173.25 165.441 170.177 162.211 170.492C159.06 170.808 159.06 172.856 160.399 174.353C161.817 175.85 167.49 177.819 167.49 177.819L168.987 173.25Z" fill="#FFC3B1"/>
<path d="M181.747 160.095C183.717 161.513 184.268 165.61 184.268 171.282C184.268 177.427 180.959 182.469 178.202 183.178C175.129 183.966 168.196 179.554 165.518 177.9C164.966 174.748 167.015 172.779 168.511 172.7C170.402 172.621 175.287 174.827 175.287 174.827C175.287 174.827 177.178 164.901 178.674 162.616C180.25 160.331 180.959 159.543 181.747 160.095Z" fill="#136FBA"/>
<path d="M104 90.9287V237.622L151.033 264.724V118.109L104 90.9287Z" fill="#383C48"/>
<path d="M152.524 117.24L151.027 118.107V264.722L152.524 263.934V117.24Z" fill="#626877"/>
<path d="M173.408 50.9053L104 90.927L151.033 118.107L220.441 78.0854L173.408 50.9053Z" fill="#4E5363"/>
<path d="M150.797 118.109L104 176.566V90.9287L150.797 118.109Z" fill="#292B37"/>
<path d="M164.498 113.932L155.438 119.131V130.476L164.498 125.276V113.932Z" fill="#292B37"/>
<path d="M214.763 92.6641L167.336 120.159V121.341L214.763 93.8458V92.6641Z" fill="#292B37"/>
<path d="M214.763 95.2598L167.336 122.755V124.016L214.763 96.4415V95.2598Z" fill="#292B37"/>
<path d="M158.587 125.196L159.847 124.487V120.075L158.744 120.705V119.602C159.374 119.051 159.768 118.657 160.162 118.105L161.108 117.554V123.778L162.211 123.147V124.565L158.508 126.693V125.196H158.587Z" fill="white"/>
<path d="M167.016 113.539L168.276 112.83C169.064 112.357 169.615 112.436 169.615 113.539C169.615 114.642 168.985 115.509 168.276 115.902L167.803 116.218V117.793L167.016 118.266V113.539ZM168.276 115.115C168.67 114.878 168.906 114.484 168.906 114.012C168.906 113.539 168.67 113.46 168.276 113.697L167.803 113.933V115.351L168.276 115.115Z" fill="#292B37"/>
<path d="M171.658 114.482L170.555 115.112L170.319 116.373L169.531 116.846L170.634 111.567L171.58 111.016L172.683 115.034L171.816 115.506L171.658 114.482ZM171.501 113.694L171.422 113.3C171.343 112.906 171.264 112.434 171.107 111.961C171.028 112.512 170.949 113.064 170.871 113.615L170.792 114.088L171.501 113.694Z" fill="#292B37"/>
<path d="M173.316 113.302C173.552 113.46 173.867 113.46 174.182 113.302C174.498 113.144 174.655 112.829 174.655 112.593C174.655 112.278 174.419 112.357 174.182 112.357H173.71C173.316 112.357 173.001 112.199 173.001 111.49C173.001 110.702 173.552 109.836 174.261 109.363C174.655 109.126 175.049 109.126 175.364 109.363L174.97 110.229C174.734 110.151 174.498 110.151 174.261 110.308C174.025 110.466 173.788 110.702 173.788 111.017C173.788 111.332 174.025 111.254 174.34 111.254H174.813C175.207 111.254 175.522 111.49 175.522 112.12C175.522 112.908 175.049 113.853 174.182 114.326C173.71 114.562 173.237 114.641 172.922 114.405L173.316 113.302Z" fill="#292B37"/>
<path d="M176.16 111.649C176.396 111.806 176.711 111.806 177.026 111.649C177.341 111.491 177.499 111.176 177.499 110.94C177.499 110.624 177.262 110.703 177.026 110.703H176.553C176.16 110.703 175.844 110.546 175.844 109.837C175.844 109.049 176.396 108.182 177.105 107.709C177.499 107.473 177.893 107.473 178.208 107.709L177.814 108.576C177.578 108.497 177.341 108.497 177.105 108.655C176.869 108.812 176.632 109.049 176.632 109.364C176.632 109.679 176.869 109.6 177.184 109.6H177.656C178.05 109.6 178.365 109.837 178.365 110.467C178.365 111.255 177.893 112.2 177.026 112.673C176.553 112.909 176.081 112.988 175.766 112.752L176.16 111.649Z" fill="#292B37"/>
<path d="M178.914 106.681L180.175 105.972C180.962 105.499 181.514 105.578 181.514 106.681C181.514 107.784 180.884 108.65 180.175 109.044L179.702 109.359V110.935L178.914 111.408V106.681ZM180.096 108.256C180.49 108.02 180.726 107.626 180.726 107.153C180.726 106.681 180.49 106.602 180.096 106.838L179.623 107.074V108.493L180.096 108.256Z" fill="#292B37"/>
<path d="M181.984 107.234C181.984 105.737 182.615 104.477 183.56 103.925C184.505 103.374 185.136 103.925 185.136 105.422C185.136 106.919 184.505 108.258 183.56 108.731C182.615 109.282 181.984 108.731 181.984 107.234ZM184.348 105.895C184.348 104.949 184.033 104.555 183.56 104.871C183.087 105.107 182.772 105.895 182.772 106.84C182.772 107.786 183.087 108.179 183.56 107.943C184.033 107.549 184.348 106.84 184.348 105.895Z" fill="#292B37"/>
<path d="M187.652 106.288L187.022 105.027L186.628 105.264V106.918L185.84 107.391V102.743L187.1 102.034C187.809 101.64 188.44 101.561 188.44 102.664C188.44 103.373 188.203 103.924 187.809 104.397L188.597 105.815L187.652 106.288ZM186.549 104.397L186.943 104.161C187.337 103.924 187.573 103.53 187.573 103.137C187.573 102.743 187.337 102.664 186.943 102.9L186.549 103.137V104.397Z" fill="#292B37"/>
<path d="M189.629 101.403L188.684 101.955V101.088L191.362 99.5127V100.379L190.417 100.931V104.712L189.629 105.185V101.403Z" fill="#292B37"/>
<path d="M194.51 97.6218C194.983 97.3855 195.298 97.4643 195.534 97.6218L195.14 98.4884C194.983 98.4097 194.825 98.3309 194.589 98.4884C194.116 98.8036 193.722 99.5914 193.722 100.458C193.722 101.403 194.037 101.797 194.589 101.482C194.904 101.325 195.061 101.009 195.219 100.694L195.613 101.088C195.298 101.719 194.904 102.191 194.51 102.428C193.643 102.979 192.855 102.585 192.855 101.009C192.855 99.4338 193.643 98.0945 194.51 97.6218Z" fill="#292B37"/>
<path d="M195.777 99.2741C195.777 97.7772 196.408 96.5167 197.353 95.9652C198.298 95.4137 198.929 95.9652 198.929 97.4621C198.929 98.9589 198.298 100.298 197.353 100.771C196.408 101.322 195.777 100.771 195.777 99.2741ZM198.141 97.9348C198.141 96.9894 197.826 96.5955 197.353 96.9106C196.88 97.1469 196.565 97.9348 196.565 98.8802C196.565 99.8256 196.88 100.219 197.353 99.9831C197.826 99.5892 198.141 98.8014 198.141 97.9348Z" fill="#292B37"/>
<path d="M199.629 94.7866L200.417 94.3139L201.362 96.1259L201.677 96.9137C201.677 96.441 201.598 95.8108 201.598 95.2593V93.6049L202.386 93.2109V97.8591L201.598 98.3318L200.653 96.5198L200.338 95.732C200.338 96.2047 200.417 96.835 200.417 97.3864V99.0409L199.629 99.5136V94.7866Z" fill="#292B37"/>
<path d="M203.891 93.2082L202.945 93.7597V92.893L205.624 91.3174V92.184L204.679 92.7355V96.5171L203.891 96.9898V93.2082Z" fill="#292B37"/>
<path d="M208.054 94.5505L207.424 93.29L207.03 93.5264V95.1808L206.242 95.6535V91.0053L207.503 90.2963C208.212 89.9023 208.842 89.8236 208.842 90.9265C208.842 91.6356 208.606 92.187 208.212 92.6597L209 94.0778L208.054 94.5505ZM206.951 92.6597L207.345 92.4234C207.739 92.187 207.975 91.7931 207.975 91.3992C207.975 90.9265 207.739 90.9265 207.345 91.1629L206.951 91.3992V92.6597Z" fill="#292B37"/>
<path d="M209.246 91.4694C209.246 89.9725 209.876 88.712 210.822 88.1605C211.767 87.609 212.397 88.1605 212.397 89.6574C212.397 91.1543 211.767 92.4936 210.822 92.9663C209.876 93.5177 209.246 92.9663 209.246 91.4694ZM211.61 90.1301C211.61 89.1847 211.294 88.7908 210.822 89.1059C210.349 89.3423 210.034 90.1301 210.034 91.0755C210.034 92.0209 210.349 92.4148 210.822 92.1784C211.294 91.7845 211.61 91.0755 211.61 90.1301Z" fill="#292B37"/>
<path d="M213.114 86.9854L213.902 86.5127V90.2943L215.241 89.5064V90.3731L213.035 91.6336V86.9854H213.114Z" fill="#292B37"/>
<path d="M168.832 155.923C168.832 156.238 169.068 156.395 169.305 156.238C169.541 156.08 169.777 155.686 169.777 155.371C169.777 155.056 169.541 154.898 169.305 155.056C169.068 155.214 168.832 155.607 168.832 155.923Z" fill="#2EABE3"/>
<path d="M166.477 157.264C166.477 157.579 166.713 157.737 166.949 157.579C167.186 157.422 167.422 157.028 167.422 156.713C167.422 156.398 167.186 156.24 166.949 156.398C166.713 156.555 166.477 156.949 166.477 157.264Z" fill="#2EABE3"/>
<path d="M165.215 155.686C165.215 156.001 165.451 156.159 165.688 156.001C165.924 155.844 166.16 155.45 166.16 155.135C166.16 154.82 165.924 154.662 165.688 154.82C165.372 154.977 165.215 155.371 165.215 155.686Z" fill="#2EABE3"/>
<path d="M167.816 154.189C167.816 154.504 168.053 154.662 168.289 154.504C168.525 154.347 168.762 153.953 168.762 153.638C168.762 153.323 168.525 153.165 168.289 153.323C168.053 153.48 167.816 153.874 167.816 154.189Z" fill="#2EABE3"/>
<path d="M170.34 152.691C170.34 153.006 170.576 153.164 170.813 153.006C171.049 152.849 171.285 152.455 171.285 152.14C171.285 151.825 171.049 151.667 170.813 151.825C170.497 151.982 170.34 152.376 170.34 152.691Z" fill="#2EABE3"/>
<path d="M168.832 151.353C168.832 151.668 169.068 151.826 169.305 151.668C169.541 151.511 169.777 151.117 169.777 150.802C169.777 150.487 169.541 150.329 169.305 150.487C169.068 150.644 168.832 151.038 168.832 151.353Z" fill="#2EABE3"/>
<path d="M166.477 152.691C166.477 153.006 166.713 153.164 166.949 153.006C167.186 152.849 167.422 152.455 167.422 152.14C167.422 151.825 167.186 151.667 166.949 151.825C166.713 151.982 166.477 152.376 166.477 152.691Z" fill="#2EABE3"/>
<path d="M215.391 145.366L205.938 139.93V123.858L215.391 129.294V145.366Z" fill="#E8E8E8"/>
<path d="M196.48 130.636V141.35L203.492 145.447V134.654L196.48 130.636Z" fill="#E8E8E8"/>
<path d="M214.764 129.768L206.57 125.041V125.908L214.764 130.635V129.768Z" fill="#A8A8A8"/>
<path d="M214.764 131.659L206.57 126.854V127.799L214.764 132.526V131.659Z" fill="#A8A8A8"/>
<path d="M214.764 133.47L206.57 128.743V139.3L214.764 144.027V133.47Z" fill="#A8A8A8"/>
<path d="M344.299 206.581C350.391 206.581 355.329 203.795 355.329 200.358C355.329 196.92 350.391 194.134 344.299 194.134C338.208 194.134 333.27 196.92 333.27 200.358C333.27 203.795 338.208 206.581 344.299 206.581Z" fill="#EA9611"/>
<path d="M355.329 198.552H333.27V200.443H355.329V198.552Z" fill="#EA9611"/>
<path d="M344.299 204.772C350.391 204.772 355.329 201.985 355.329 198.548C355.329 195.111 350.391 192.324 344.299 192.324C338.208 192.324 333.27 195.111 333.27 198.548C333.27 201.985 338.208 204.772 344.299 204.772Z" fill="#FFCA00"/>
<path d="M346.51 197.76C346.51 198.469 345.564 199.02 344.304 199.02C343.122 199.02 342.098 198.469 342.098 197.76C342.098 197.051 343.043 196.499 344.304 196.499C345.485 196.499 346.51 197.051 346.51 197.76Z" fill="#EA9611"/>
<path d="M346.51 194.294H342.098V197.76H346.51V194.294Z" fill="#EA9611"/>
<path d="M346.51 194.297C346.51 195.006 345.564 195.557 344.304 195.557C343.122 195.557 342.098 195.006 342.098 194.297C342.098 193.588 343.043 193.036 344.304 193.036C345.485 193.036 346.51 193.588 346.51 194.297Z" fill="#FFDC81"/>
<path d="M345.41 145.367H343.125V194.291H345.41V145.367Z" fill="#626A77"/>
<path d="M345.488 194.211C345.488 194.605 344.937 194.842 344.307 194.842C343.676 194.842 343.125 194.526 343.125 194.211C343.125 193.817 343.676 193.581 344.307 193.581C344.937 193.581 345.488 193.896 345.488 194.211Z" fill="#626A77"/>
<path d="M341.219 146.393C341.219 147.339 342.637 148.127 344.291 148.127C346.025 148.127 347.364 147.339 347.364 146.393C347.364 145.448 345.946 144.66 344.291 144.66C342.558 144.66 341.219 145.448 341.219 146.393Z" fill="#EA9611"/>
<path d="M341.12 146.372H347.344V140.778H341.12V146.372Z" fill="#EA9611"/>
<path d="M341.219 140.798C341.219 141.743 342.637 142.531 344.291 142.531C346.025 142.531 347.364 141.743 347.364 140.798C347.364 139.852 345.946 139.064 344.291 139.064C342.558 139.064 341.219 139.852 341.219 140.798Z" fill="#FFCA00"/>
<path d="M346.496 143.318V147.336C346.496 147.336 352.247 162.541 370.131 172.626C386.36 181.764 399.596 175.856 399.596 175.856L398.572 174.122C398.572 174.122 383.051 177.431 373.046 171.68C353.114 160.178 346.496 143.318 346.496 143.318Z" fill="#F2352C"/>
<path d="M410.145 231.155C410.145 234.542 405.182 237.378 399.116 237.378C393.049 237.378 388.086 234.621 388.086 231.155C388.086 227.767 393.049 224.931 399.116 224.931C405.261 225.009 410.145 227.767 410.145 231.155Z" fill="#EA9611"/>
<path d="M410.219 229.344H388.16V231.235H410.219V229.344Z" fill="#EA9611"/>
<path d="M399.116 235.569C405.207 235.569 410.145 232.782 410.145 229.345C410.145 225.908 405.207 223.121 399.116 223.121C393.024 223.121 388.086 225.908 388.086 229.345C388.086 232.782 393.024 235.569 399.116 235.569Z" fill="#FFCA00"/>
<path d="M401.33 228.563C401.33 229.272 400.384 229.824 399.124 229.824C397.863 229.824 396.918 229.272 396.918 228.563C396.918 227.854 397.863 227.303 399.124 227.303C400.384 227.303 401.33 227.854 401.33 228.563Z" fill="#EA9611"/>
<path d="M401.404 225.09H396.992V228.556H401.404V225.09Z" fill="#EA9611"/>
<path d="M401.33 225.093C401.33 225.802 400.384 226.353 399.124 226.353C397.863 226.353 396.918 225.802 396.918 225.093C396.918 224.384 397.863 223.832 399.124 223.832C400.384 223.832 401.33 224.462 401.33 225.093Z" fill="#FFDC81"/>
<path d="M400.308 176.162H398.023V225.086H400.308V176.162Z" fill="#626A77"/>
<path d="M400.313 225.002C400.313 225.396 399.761 225.633 399.131 225.633C398.501 225.633 397.949 225.317 397.949 225.002C397.949 224.608 398.501 224.372 399.131 224.372C399.84 224.372 400.313 224.687 400.313 225.002Z" fill="#626A77"/>
<path d="M396.059 177.189C396.059 178.135 397.477 178.922 399.131 178.922C400.864 178.922 402.204 178.135 402.204 177.189C402.204 176.244 400.786 175.456 399.131 175.456C397.477 175.456 396.059 176.244 396.059 177.189Z" fill="#EA9611"/>
<path d="M396.053 177.186H402.277V171.592H396.053V177.186Z" fill="#EA9611"/>
<path d="M396.059 171.594C396.059 172.539 397.477 173.327 399.131 173.327C400.864 173.327 402.204 172.539 402.204 171.594C402.204 170.648 400.786 169.86 399.131 169.86C397.477 169.86 396.059 170.648 396.059 171.594Z" fill="#FFCA00"/>
<path d="M314.442 158.521C314.285 167.265 313.576 180.028 313.576 180.028L312 180.107C312 180.107 312.473 169.156 312.709 160.884C313.182 160.096 313.812 159.308 314.442 158.521Z" fill="#292B37"/>
<path d="M307.807 162.703L317.34 157.188L316.08 142.298L306.547 147.813L307.807 162.703Z" fill="white"/>
<path d="M318.69 148.749C318.69 148.749 315.617 148.355 315.066 148.906C314.514 149.458 316.405 150.009 316.405 150.009L318.69 148.749Z" fill="#FFC3B1"/>
<path d="M312.86 147.177C312.86 146.862 312.703 146.704 312.467 146.862L308.055 149.383V158.994L312.467 156.473C312.703 156.316 312.86 156 312.86 155.685V147.177Z" fill="#368DCA"/>
<path d="M312.786 146.863L313.101 147.021L312.865 147.178L312.707 147.021L312.786 146.863Z" fill="#368DCA"/>
<path d="M313.255 147.417C313.255 147.102 313.097 146.944 312.861 147.102L308.449 149.623V159.234L312.861 156.713C313.097 156.556 313.255 156.241 313.255 155.926V147.417Z" fill="#2EABE3"/>
<path d="M310.813 151.034C310.025 151.507 309.316 152.767 309.316 153.87C309.316 154.973 309.947 155.446 310.813 154.973C311.601 154.501 312.31 153.24 312.31 152.137C312.31 151.034 311.601 150.561 310.813 151.034ZM311.601 152.452C311.601 152.137 311.522 151.901 311.444 151.664C311.522 151.507 311.601 151.428 311.759 151.27C311.995 151.428 312.074 151.743 312.153 152.137L311.601 152.452ZM310.341 154.185C310.498 154.028 310.656 153.87 310.813 153.713C310.971 153.634 311.207 153.555 311.365 153.555C311.207 153.949 311.05 154.343 310.813 154.658C310.656 154.658 310.419 154.501 310.341 154.185ZM310.813 153.634C310.656 153.713 310.419 153.87 310.262 154.107C310.183 153.87 310.183 153.634 310.183 153.398L311.522 152.61C311.522 152.925 311.444 153.24 311.365 153.476C311.207 153.476 311.05 153.555 310.813 153.634ZM310.183 153.319C310.183 153.004 310.262 152.767 310.262 152.452C310.419 152.452 310.577 152.373 310.813 152.295C311.05 152.137 311.207 151.979 311.365 151.822C311.444 152.058 311.444 152.295 311.444 152.531L310.183 153.319ZM310.813 151.27C310.813 151.27 310.892 151.27 310.813 151.27C311.05 151.27 311.286 151.428 311.365 151.664C311.207 151.901 311.05 152.058 310.813 152.137C310.656 152.216 310.419 152.295 310.262 152.295C310.419 151.901 310.577 151.586 310.813 151.27ZM311.444 151.586C311.365 151.349 311.207 151.192 311.05 151.113C311.286 151.034 311.522 151.034 311.68 151.192C311.601 151.349 311.522 151.507 311.444 151.586ZM310.262 152.295C310.183 152.295 310.025 152.216 309.947 152.216C310.104 151.901 310.341 151.586 310.656 151.428C310.498 151.664 310.341 151.979 310.262 152.295ZM310.183 152.452C310.104 152.767 310.104 153.082 310.025 153.319L309.474 153.634C309.474 153.161 309.632 152.689 309.868 152.295C309.947 152.373 310.104 152.452 310.183 152.452ZM310.104 153.476C310.104 153.791 310.183 154.028 310.262 154.264C310.104 154.422 310.025 154.579 309.947 154.816C309.71 154.658 309.632 154.264 309.632 153.87L310.104 153.476ZM310.262 154.264C310.341 154.579 310.577 154.737 310.735 154.737C310.419 154.894 310.104 154.894 309.947 154.737C310.025 154.579 310.104 154.422 310.262 154.264ZM310.971 154.658C311.207 154.343 311.365 154.028 311.444 153.634C311.522 153.634 311.68 153.713 311.759 153.713C311.522 154.107 311.286 154.422 310.971 154.658ZM311.444 153.476C311.522 153.161 311.601 152.846 311.601 152.531L312.153 152.216C312.153 152.689 311.995 153.161 311.837 153.555C311.68 153.555 311.601 153.555 311.444 153.476Z" fill="white"/>
<path d="M312.464 155.844L309.234 157.656V157.341L312.464 155.529V155.844Z" fill="white"/>
<path d="M312.79 154.978L308.93 157.184V156.869L312.79 154.663V154.978Z" fill="white"/>
<path d="M312.79 148.285L308.93 150.57V150.254L312.79 147.97V148.285Z" fill="white"/>
<path d="M312.79 149.067L308.93 151.273V150.958L312.79 148.752V149.067Z" fill="white"/>
<path d="M308.055 159.07L308.37 159.228V149.617L308.055 149.459V159.07Z" fill="#275FAD"/>
<path d="M323.101 225.172C321.368 224.305 319.792 223.281 320.265 222.336C320.501 221.863 321.052 221.705 321.525 221.627C323.101 222.178 323.889 222.493 323.889 222.493C323.889 222.493 323.889 220.287 323.81 218.397C323.731 213.276 328.301 211.779 327.907 216.427C327.749 218.003 328.694 224.069 328.852 224.778C328.458 224.936 327.591 225.329 326.961 225.566C326.173 226.039 324.755 226.039 323.101 225.172Z" fill="#FFC3B1"/>
<path d="M328.933 227.3C328.382 228.639 327.042 228.56 324.442 227.536C322.079 226.67 320.188 225.724 318.455 224.464C316.8 223.203 316.8 223.046 316.564 222.258C316.249 221.076 317.982 220.446 320.818 221.312C321.134 221.391 321.37 221.47 321.606 221.549C321.055 221.627 320.503 221.864 320.346 222.258C319.794 223.203 321.449 224.227 323.182 225.094C324.915 225.96 326.254 225.96 327.121 225.567C327.751 225.251 328.539 224.936 329.012 224.779C329.091 225.96 329.327 226.512 328.933 227.3Z" fill="#292B37"/>
<path d="M314.827 229.976C313.094 229.109 311.519 228.085 311.991 227.14C312.228 226.667 312.779 226.509 313.252 226.431C314.827 226.982 315.615 227.297 315.615 227.297C315.615 227.297 315.615 225.406 315.536 222.649C315.379 215.874 320.657 218.395 320.263 223.043C320.106 224.619 320.421 228.873 320.579 229.661C320.185 229.818 319.318 230.212 318.688 230.448C317.9 230.842 316.482 230.842 314.827 229.976Z" fill="#FFC3B1"/>
<path d="M320.66 232.101C320.108 233.44 318.769 233.361 316.169 232.337C313.806 231.47 311.915 230.525 310.182 229.264C308.527 228.004 308.527 227.846 308.291 227.058C307.976 225.877 309.709 225.246 312.545 226.113C312.86 226.192 313.096 226.271 313.333 226.349C312.781 226.428 312.23 226.665 312.072 227.058C311.521 228.004 313.175 229.028 314.908 229.895C316.642 230.761 317.981 230.761 318.848 230.367C319.478 230.052 320.266 229.737 320.738 229.58C320.817 230.761 321.054 231.234 320.66 232.101Z" fill="#292B37"/>
<path d="M321.05 128.342C320.341 128.815 317.741 129.445 317.032 135.196C316.402 140.317 317.505 141.656 318.529 142.05C319.081 142.286 321.129 142.286 321.129 142.286L321.05 146.619C321.05 146.619 323.571 147.644 326.014 146.619C328.456 145.595 328.456 145.595 328.456 145.595C328.456 145.595 327.51 143.941 327.668 141.105C327.826 137.559 329.086 132.596 328.22 130.705C326.565 127.396 322.941 127.003 321.05 128.342Z" fill="#FFC3B1"/>
<path d="M329.726 142.925C329.726 142.925 322.794 144.894 321.06 145.525C319.406 146.076 318.067 147.258 316.333 150.724C314.6 154.191 315.861 159.548 315.861 159.548L315.939 169.16C315.939 169.16 320.036 173.493 323.187 173.808C327.599 174.202 329.726 170.184 329.726 170.184C329.726 170.184 333.666 159.548 332.799 153.718C331.932 148.361 329.726 142.925 329.726 142.925Z" fill="#FF4A39"/>
<path d="M316.802 133.232C316.959 135.202 318.614 135.832 320.032 137.329C321.45 138.826 321.607 140.874 322.08 142.213C322.553 143.553 321.922 149.619 324.128 154.11C326.492 158.915 329.486 160.018 329.486 160.018C329.486 160.018 333.188 153.007 333.504 144.971C333.819 135.832 331.298 127.717 325.468 126.457C319.244 125.196 316.408 129.135 316.802 133.232Z" fill="#292B37"/>
<path d="M310.418 163.721C310.418 163.721 316.012 147.807 318.769 147.57C320.187 147.413 321.999 151.116 321.842 154.346C321.684 158.521 314.83 168.448 311.679 169.629C309.946 170.339 310.418 163.721 310.418 163.721Z" fill="#FFC3B1"/>
<path d="M318.531 136.07C318.531 136.07 320.028 133.47 320.737 136.07C321.367 138.512 319.24 139.3 319.24 139.3L318.531 136.07Z" fill="#FFC3B1"/>
<path d="M330.121 170.73C330.121 170.73 332.011 178.294 330.83 184.045C329.569 190.505 327.836 195.468 328.151 199.565C328.466 203.662 329.096 212.328 328.309 220.758C325.236 221.309 323.818 220.206 323.818 220.206C323.818 220.206 320.509 195.468 320.824 194.129C321.061 192.79 319.879 172.149 319.879 172.149L330.121 170.73Z" fill="#136FBA"/>
<path d="M320.59 224.778C320.59 224.778 317.832 226.433 315.626 224.778C313.972 212.33 311.923 206.264 312.002 197.913C312.002 196.338 315.705 170.654 315.705 170.654L324.214 171.757C324.214 171.757 321.141 196.338 320.983 198.622C320.668 200.907 320.59 224.778 320.59 224.778Z" fill="#136FBA"/>
<path d="M330.113 170.73C330.113 170.73 324.992 173.803 321.21 172.936C316.798 171.991 315.695 170.573 315.695 170.573L315.932 168.997C315.932 168.997 319.713 171.124 323.022 171.045C326.646 170.967 330.034 168.997 330.034 168.997V170.73H330.113Z" fill="#275FAD"/>
<path d="M319.003 146.627C319.003 146.627 322.391 146.627 322.627 153.717C322.864 161.202 321.761 180.11 321.761 180.11L320.185 180.188C320.185 180.188 321.288 154.111 320.894 151.984C320.185 148.439 317.664 148.36 317.664 148.36L319.003 146.627Z" fill="#292B37"/>
<path d="M320.739 178.926C320.503 178.848 312.152 176.405 312.152 176.405C312.152 176.405 309.631 181.684 310.97 184.756C311.994 187.199 319.242 189.326 321.685 187.986C324.521 186.489 321.764 178.926 321.764 178.926H320.739Z" fill="#292B37"/>
<path d="M320.191 179.79C320.191 179.79 320.427 182.862 318.536 183.887C316.646 184.911 312.47 183.808 311.919 181.996C311.367 180.184 312.155 177.584 312.155 177.584L320.191 179.79Z" fill="#626A77"/>
<path d="M315.857 183.023L314.045 182.393C314.045 182.393 313.179 184.362 314.518 184.835C315.857 185.308 315.857 183.023 315.857 183.023Z" fill="white"/>
<path d="M307.346 154.743C307.346 154.743 308.055 154.192 308.37 153.404C308.685 152.616 309.394 153.325 309 154.192C308.527 155.137 308.527 157.737 308.764 158.446C309 159.155 312.151 166.009 312.151 166.009L311.285 169.712C311.285 169.712 310.655 169.869 309.63 169.16C308.843 168.609 308.134 167.427 307.424 165.458C306.243 162.228 305.849 156.398 305.77 154.979C305.612 153.561 307.031 151.355 307.031 151.355L307.346 154.743Z" fill="#FFC3B1"/>
<path d="M340.283 180.107L349.658 174.671L342.016 157.182L332.641 162.618L340.283 180.107Z" fill="white"/>
<path d="M340.994 180.268L350.369 174.832L342.727 157.342L333.273 162.778L340.994 180.268Z" fill="#E8E8E8"/>
<path d="M341.865 180.578L351.24 175.142L343.598 157.573L334.223 163.009L341.865 180.578Z" fill="white"/>
<path d="M376.516 168.364C377.067 169.388 378.958 175.218 379.588 181.048C379.903 183.727 379.509 189.793 378.564 195.781C378.328 197.435 378.643 198.617 378.17 199.799C377.776 200.823 374.782 198.538 374.782 198.538C374.782 198.538 371.789 185.066 372.025 179.709C372.261 174.352 372.34 169.861 372.34 169.861L376.516 168.364Z" fill="#FFC3B1"/>
<path d="M383.628 210.515L382.447 213.824L370.55 207.127V215.163L367.32 217.054V202.873C367.32 202.4 367.478 201.849 367.635 201.376L383.628 210.515Z" fill="#A84E11"/>
<path d="M368.975 199.722C369.369 199.485 369.763 199.485 370.078 199.643L384.496 207.915L383.629 210.436L367.715 201.219C368.03 200.667 368.503 200.037 368.975 199.722Z" fill="#B75818"/>
<path d="M381.969 225.489V211.308C381.969 210.127 382.678 208.709 383.623 208.236C384.49 207.684 385.278 208.236 385.278 209.496V223.677L381.969 225.489Z" fill="#99490D"/>
<path d="M367.395 204.14L381.969 212.491V225.49L367.395 217.06V204.14Z" fill="#7C3806"/>
<path d="M372.749 201.223C372.749 201.223 372.198 200.908 371.568 200.514C370.78 200.041 369.519 200.908 370.228 201.459C370.937 201.932 371.331 202.169 371.331 202.169L372.749 201.223Z" fill="#DBDBDB"/>
<path d="M380.391 205.635C380.391 205.635 379.682 201.538 379.525 200.908C379.367 200.278 377.476 199.332 376.137 198.623C374.719 197.914 373.065 197.442 372.277 198.702C371.41 199.963 371.41 202.169 371.41 202.169C371.41 202.169 371.962 201.853 372.198 201.696C372.671 201.381 372.828 201.302 372.828 201.302C372.828 201.302 373.065 200.357 373.301 199.726C373.459 199.411 373.616 199.332 374.01 199.411C375.034 199.726 377.87 201.144 378.028 201.932C378.264 203.035 378.973 206.58 378.973 206.58L380.391 205.635Z" fill="#7C3806"/>
<path d="M380.395 205.638C380.395 205.638 381.104 205.953 381.656 206.347C381.892 206.504 380.947 207.528 380.238 207.213C379.45 206.819 378.898 206.504 378.898 206.504L380.395 205.638Z" fill="white"/>
<path d="M377.155 197.833C377.549 198.069 377.628 198.699 377.313 199.251C376.761 200.354 377.155 200.984 377.155 200.984L377.785 201.536C377.785 201.536 377.076 202.087 376.131 201.693C375.264 201.299 374.477 199.881 374.477 199.881C374.477 199.881 375.658 196.966 377.155 197.833Z" fill="#FFC3B1"/>
<path d="M364.548 237.385C365.494 236.755 370.457 239.67 370.457 239.67L376.838 241.797V246.366C376.838 246.366 374.317 249.675 371.008 247.391C369.039 246.051 365.494 243.924 364.391 241.639C363.209 239.355 363.524 237.937 364.548 237.385Z" fill="#383C48"/>
<path d="M349.349 244.87C350.294 244.239 355.258 247.154 355.258 247.154L362.112 249.439L361.56 254.56C361.56 254.56 359.118 257.16 355.809 254.875C353.84 253.536 350.294 251.408 349.191 249.124C348.01 246.839 348.325 245.421 349.349 244.87Z" fill="#383C48"/>
<path d="M373.286 187.987C373.286 187.987 376.044 193.345 376.516 199.884C376.753 202.798 375.098 219.264 375.098 219.264C375.098 219.264 375.807 221.391 376.437 225.567C377.225 230.845 377.698 243.923 377.698 243.45C377.698 243.45 376.044 245.735 373.759 245.814C371.001 245.893 368.874 242.505 368.874 242.505C368.874 242.505 365.802 224.385 365.644 219.816C365.565 216.901 365.881 206.58 365.881 206.58C365.881 206.58 362.887 220.367 363.123 223.834C363.36 227.379 362.65 248.02 362.493 249.517C361.941 251.644 360.208 252.195 358.317 252.589C355.954 253.141 352.96 248.808 352.96 248.808C352.96 248.808 353.118 225.33 352.96 221.628C352.645 215.325 355.718 190.587 355.718 190.587L373.286 187.987Z" fill="#292B37"/>
<path d="M372.582 171.044C372.188 170.965 371.557 166.947 371.557 166.947L369.824 159.699C369.824 159.699 371.164 157.572 373.921 160.093C374.945 161.038 378.018 165.844 378.018 169.941C376.442 171.201 374.472 171.438 372.582 171.044Z" fill="#D2DCE6"/>
<path d="M362.5 144.578C364.391 143.317 367.936 143.711 369.512 146.941C370.379 148.753 369.197 153.638 368.961 157.025C368.803 159.783 369.748 161.358 369.748 161.358C369.748 161.358 369.748 161.358 367.385 162.304C365.021 163.249 362.579 162.304 362.579 162.304L362.658 158.128C362.658 158.128 360.137 157.734 359.664 157.34C358.561 156.395 358.01 153.401 358.482 149.62C359.192 144.105 361.87 145.05 362.5 144.578Z" fill="#FFC3B1"/>
<path d="M356.121 176.484C354.782 173.412 357.933 167.897 358.8 165.928C359.745 163.958 362.581 162.697 362.581 162.697L371.247 160.098C371.247 160.098 376.447 164.194 375.738 172.151C375.502 174.988 375.502 185.623 375.817 193.423C375.029 196.417 365.654 198.465 361.715 197.441C360.454 197.126 356.515 196.653 355.176 194.211C354.782 192.556 355.727 191.138 356.2 188.066C356.83 184.048 356.909 178.375 356.121 176.484Z" fill="white"/>
<path d="M341.855 174.673C345.321 176.17 350.836 178.061 350.836 178.061C350.836 178.061 356.981 166.164 359.03 166.007C360.448 165.849 361.157 168.449 360.999 171.6C360.92 174.043 358.399 178.376 355.957 181.527C355.957 181.527 353.515 185.387 352.491 185.23C351.466 185.072 346.109 182.236 344.455 181.133C342.958 180.109 342.012 179.321 340.516 178.376C340.831 177.43 341.303 175.146 341.855 174.673Z" fill="#FFC3B1"/>
<path d="M362.975 161.52C362.975 161.52 367.545 160.338 369.829 159.156C371.247 158.447 372.035 161.52 372.035 161.52C372.035 161.52 370.381 163.568 368.017 164.356C365.575 165.144 363.448 164.986 361.084 163.804C361.006 162.229 362.975 161.52 362.975 161.52Z" fill="#D2DCE6"/>
<path d="M351.238 174.753C353.05 170.893 356.359 165.299 359.589 164.275C361.086 163.802 362.662 167.426 362.189 171.05C361.874 173.335 360.535 176.802 358.959 179.323C356.123 179.244 352.656 177.353 351.238 174.753Z" fill="#D2DCE6"/>
<path d="M368.329 142.293C369.196 141.741 370.299 142.45 370.456 143.396C371.244 143.081 372.111 144.026 371.795 144.735C372.898 144.656 373.214 145.917 372.583 146.784C373.923 147.335 373.686 148.28 372.977 149.147C373.923 149.935 373.923 150.959 372.741 151.353C373.686 152.141 372.898 153.165 372.347 153.165C372.977 154.032 372.347 154.977 371.638 154.898C372.426 155.922 371.638 157.025 370.929 157.183C371.086 158.049 370.614 158.837 369.826 158.68C369.432 160.413 367.62 159.704 367.462 159.074C366.832 159.468 365.808 159.468 365.65 158.522C364.705 159.074 363.444 157.34 363.996 156.474C362.814 155.844 362.499 155.292 363.208 154.425C361.79 154.347 361.475 153.48 361.948 152.456C361.16 152.85 360.53 152.613 360.214 151.353C359.269 151.51 358.402 150.25 359.19 149.226C358.087 148.832 358.166 147.729 358.875 147.335C358.087 147.099 357.772 145.287 359.111 145.208C358.481 143.711 359.269 143.16 360.293 143.396C360.293 142.214 361.081 141.663 362.342 142.372C362.972 141.19 365.178 140.56 365.572 141.978C366.202 140.717 368.014 140.875 368.329 142.293Z" fill="#7D3C05"/>
<path d="M341.856 174.672C341.856 174.672 340.911 173.096 340.517 171.993C340.202 171.048 339.887 169.866 339.887 169.866C339.887 169.866 339.493 169.787 339.257 170.339C339.099 170.89 339.257 172.23 338.784 172.387C338.232 172.624 336.578 171.757 336.184 170.812C335.317 170.654 334.766 170.89 334.687 171.757C334.608 173.648 333.899 175.775 335.79 176.484C338.941 177.744 340.438 178.296 340.438 178.296L341.856 174.672Z" fill="#FFC3B1"/>
<path d="M295.141 237.935C295.141 241.322 290.178 244.159 284.112 244.159C278.045 244.159 273.082 241.401 273.082 237.935C273.082 234.547 278.045 231.711 284.112 231.711C290.178 231.711 295.141 234.468 295.141 237.935Z" fill="#EA9611"/>
<path d="M295.141 236.049H273.082V237.94H295.141V236.049Z" fill="#EA9611"/>
<path d="M284.112 242.27C290.203 242.27 295.141 239.483 295.141 236.046C295.141 232.609 290.203 229.822 284.112 229.822C278.02 229.822 273.082 232.609 273.082 236.046C273.082 239.483 278.02 242.27 284.112 242.27Z" fill="#FFCA00"/>
<path d="M286.326 235.256C286.326 235.965 285.381 236.516 284.12 236.516C282.859 236.516 281.914 235.965 281.914 235.256C281.914 234.547 282.859 233.995 284.12 233.995C285.381 233.995 286.326 234.625 286.326 235.256Z" fill="#EA9611"/>
<path d="M286.326 231.866H281.914V235.333H286.326V231.866Z" fill="#EA9611"/>
<path d="M286.326 231.87C286.326 232.579 285.381 233.13 284.12 233.13C282.859 233.13 281.914 232.579 281.914 231.87C281.914 231.161 282.859 230.609 284.12 230.609C285.381 230.609 286.326 231.161 286.326 231.87Z" fill="#FFDC81"/>
<path d="M285.214 182.866H282.93V231.79H285.214V182.866Z" fill="#626A77"/>
<path d="M284.111 232.422C284.764 232.422 285.293 232.139 285.293 231.791C285.293 231.443 284.764 231.161 284.111 231.161C283.459 231.161 282.93 231.443 282.93 231.791C282.93 232.139 283.459 232.422 284.111 232.422Z" fill="#626A77"/>
<path d="M284.112 185.626C285.809 185.626 287.184 184.85 287.184 183.892C287.184 182.935 285.809 182.159 284.112 182.159C282.415 182.159 281.039 182.935 281.039 183.892C281.039 184.85 282.415 185.626 284.112 185.626Z" fill="#EA9611"/>
<path d="M280.991 183.893H287.215V178.299H280.991V183.893Z" fill="#EA9611"/>
<path d="M281.039 178.373C281.039 179.319 282.457 180.107 284.112 180.107C285.845 180.107 287.184 179.319 287.184 178.373C287.184 177.428 285.766 176.64 284.112 176.64C282.378 176.561 281.039 177.349 281.039 178.373Z" fill="#FFCA00"/>
<path d="M286.32 180.894V184.911C286.32 184.911 292.071 200.117 309.955 210.201C326.184 219.34 339.42 213.431 339.42 213.431L338.396 211.698C338.396 211.698 322.876 215.007 312.87 209.255C292.938 197.753 286.32 180.894 286.32 180.894Z" fill="#F2352C"/>
<path d="M350.02 268.727C350.02 272.114 345.057 274.951 338.991 274.951C332.924 274.951 327.961 272.193 327.961 268.727C327.961 265.339 332.924 262.503 338.991 262.503C345.057 262.503 350.02 265.339 350.02 268.727Z" fill="#EA9611"/>
<path d="M350.02 266.837H327.961V268.728H350.02V266.837Z" fill="#EA9611"/>
<path d="M338.991 273.062C345.082 273.062 350.02 270.275 350.02 266.838C350.02 263.401 345.082 260.614 338.991 260.614C332.899 260.614 327.961 263.401 327.961 266.838C327.961 270.275 332.899 273.062 338.991 273.062Z" fill="#FFCA00"/>
<path d="M341.217 266.137C341.217 266.846 340.271 267.397 339.011 267.397C337.829 267.397 336.805 266.846 336.805 266.137C336.805 265.427 337.75 264.876 339.011 264.876C340.192 264.876 341.217 265.427 341.217 266.137Z" fill="#EA9611"/>
<path d="M341.217 262.663H336.805V266.13H341.217V262.663Z" fill="#EA9611"/>
<path d="M341.217 262.666C341.217 263.375 340.271 263.926 339.011 263.926C337.829 263.926 336.805 263.375 336.805 262.666C336.805 261.957 337.75 261.405 339.011 261.405C340.192 261.405 341.217 261.957 341.217 262.666Z" fill="#FFDC81"/>
<path d="M340.109 213.667H337.824V262.591H340.109V213.667Z" fill="#626A77"/>
<path d="M340.113 262.596C340.113 262.99 339.562 263.226 338.932 263.226C338.301 263.226 337.75 262.911 337.75 262.596C337.75 262.202 338.301 261.966 338.932 261.966C339.641 261.966 340.113 262.202 340.113 262.596Z" fill="#626A77"/>
<path d="M339.002 216.494C340.699 216.494 342.075 215.718 342.075 214.761C342.075 213.803 340.699 213.027 339.002 213.027C337.305 213.027 335.93 213.803 335.93 214.761C335.93 215.718 337.305 216.494 339.002 216.494Z" fill="#EA9611"/>
<path d="M335.901 214.711H342.125V209.117H335.901V214.711Z" fill="#EA9611"/>
<path d="M335.855 209.174C335.855 210.119 337.274 210.907 338.928 210.907C340.661 210.907 342.001 210.119 342.001 209.174C342.001 208.228 340.582 207.44 338.928 207.44C337.274 207.44 335.855 208.149 335.855 209.174Z" fill="#FFCA00"/>
<path d="M285.844 220.528L287.813 220.685L288.207 219.425L286.474 218.479L285.844 220.528Z" fill="#FFC3B1"/>
<path d="M278.043 229.354L287.576 223.918V205.168L278.043 210.683V229.354Z" fill="white"/>
<path d="M285.439 212.651C285.439 212.336 285.281 212.179 285.045 212.336L280.633 214.857V224.469L285.045 221.948C285.281 221.79 285.439 221.475 285.439 221.16V212.651Z" fill="#368DCA"/>
<path d="M285.29 212.338L285.605 212.495L285.447 212.574L285.211 212.417L285.29 212.338Z" fill="#368DCA"/>
<path d="M285.759 212.803C285.759 212.488 285.601 212.33 285.365 212.488L280.953 215.009V224.62L285.365 222.099C285.601 221.942 285.759 221.626 285.759 221.311V212.803Z" fill="#2EABE3"/>
<path d="M283.317 216.509C282.529 216.981 281.82 218.242 281.82 219.345C281.82 220.448 282.451 220.921 283.317 220.448C284.105 219.975 284.814 218.715 284.814 217.612C284.814 216.509 284.184 216.036 283.317 216.509ZM284.105 217.927C284.105 217.612 284.026 217.375 283.947 217.139C284.026 216.981 284.105 216.903 284.263 216.745C284.499 216.903 284.578 217.218 284.656 217.612L284.105 217.927ZM282.844 219.66C283.002 219.502 283.16 219.345 283.317 219.187C283.475 219.109 283.711 219.03 283.869 219.03C283.711 219.424 283.554 219.818 283.317 220.133C283.16 220.133 282.923 219.896 282.844 219.66ZM283.317 219.109C283.16 219.187 282.923 219.345 282.766 219.581C282.687 219.345 282.687 219.109 282.687 218.872L284.026 218.084C284.026 218.399 283.947 218.715 283.869 218.951C283.711 218.951 283.554 218.951 283.317 219.109ZM282.687 218.715C282.687 218.399 282.766 218.163 282.766 217.848C282.923 217.848 283.081 217.769 283.317 217.69C283.554 217.533 283.711 217.375 283.869 217.218C283.947 217.454 283.947 217.69 283.947 217.927L282.687 218.715ZM283.317 216.745C283.396 216.666 283.396 216.666 283.317 216.745C283.554 216.745 283.79 216.903 283.869 217.139C283.711 217.375 283.554 217.533 283.317 217.612C283.16 217.69 282.923 217.769 282.766 217.769C282.923 217.375 283.081 216.981 283.317 216.745ZM283.947 217.06C283.869 216.824 283.711 216.666 283.554 216.587C283.79 216.509 284.026 216.509 284.184 216.666C284.105 216.824 284.026 216.903 283.947 217.06ZM282.766 217.769C282.687 217.769 282.529 217.69 282.451 217.69C282.608 217.375 282.844 217.06 283.16 216.903C283.002 217.139 282.844 217.454 282.766 217.769ZM282.687 217.848C282.608 218.163 282.608 218.478 282.529 218.715L281.978 219.03C281.978 218.557 282.135 218.084 282.372 217.69C282.529 217.848 282.608 217.848 282.687 217.848ZM282.608 218.872C282.608 219.187 282.687 219.424 282.766 219.66C282.608 219.818 282.529 219.975 282.451 220.211C282.214 220.054 282.135 219.66 282.135 219.266L282.608 218.872ZM282.766 219.739C282.844 220.054 283.081 220.211 283.238 220.211C282.923 220.369 282.608 220.369 282.451 220.211C282.529 220.054 282.608 219.896 282.766 219.739ZM283.475 220.133C283.711 219.818 283.869 219.502 283.947 219.109C284.026 219.109 284.184 219.187 284.263 219.187C284.026 219.581 283.79 219.896 283.475 220.133ZM283.947 218.951C284.026 218.636 284.105 218.321 284.105 218.006L284.656 217.69C284.656 218.163 284.499 218.636 284.341 219.03C284.184 219.03 284.105 218.951 283.947 218.951Z" fill="white"/>
<path d="M284.968 221.235L281.738 223.126V222.811L284.968 220.92V221.235Z" fill="white"/>
<path d="M285.294 220.377L281.434 222.661V222.267L285.294 220.062V220.377Z" fill="white"/>
<path d="M285.294 213.751L281.434 215.957V215.641L285.294 213.436V213.751Z" fill="white"/>
<path d="M285.294 214.466L281.434 216.75V216.356L285.294 214.15V214.466Z" fill="white"/>
<path d="M280.559 224.469L280.953 224.705V215.094L280.559 214.857V224.469Z" fill="#275FAD"/>
<path d="M288.209 217.767C288.209 217.767 285.372 216.113 285.057 216.034C284.742 215.955 284.033 216.034 284.742 216.822C285.451 217.609 285.451 217.609 286.081 218.476C286.554 219.106 287.499 219.658 287.499 219.658L288.209 217.767Z" fill="#FFC3B1"/>
<path d="M306.011 212.258C306.011 212.258 308.138 222.421 302.781 225.021C299.787 226.439 300.181 231.638 300.181 225.415C300.181 219.112 301.52 212.258 301.52 212.258H306.011Z" fill="#FFC3B1"/>
<path d="M302.943 288.519C302.313 289.937 300.895 289.859 298.059 288.834C295.538 287.889 293.489 286.865 291.677 285.604C289.865 284.265 289.865 284.108 289.629 283.241C289.314 281.98 291.126 281.271 294.199 282.217C294.514 282.296 294.75 282.374 295.065 282.453C294.514 282.532 293.883 282.768 293.647 283.241C293.096 284.265 294.829 285.368 296.641 286.313C298.453 287.259 299.95 287.259 300.895 286.786C301.525 286.471 302.471 286.077 302.865 285.92C303.022 287.101 303.259 287.653 302.943 288.519Z" fill="#292B37"/>
<path d="M286.636 288.594C286.872 288.122 287.502 287.885 288.054 287.806C289.708 288.358 290.575 288.752 290.575 288.752C290.575 288.752 290.102 280.874 289.629 274.886C288.841 269.608 287.975 263.147 287.975 259.76C287.975 259.445 287.896 256.372 287.896 255.899C288.763 256.293 294.12 257.002 295.932 256.924C295.932 257.16 295.617 259.917 295.538 263.226C295.538 268.347 295.774 274.65 295.696 274.256C295.853 278.353 295.932 284.498 295.696 287.728C295.538 289.382 295.617 290.485 295.774 291.273C295.302 291.43 294.435 291.824 293.805 292.14C292.859 292.533 291.363 292.533 289.55 291.667C287.817 290.721 286.084 289.618 286.636 288.594Z" fill="#FFC3B1"/>
<path d="M293.569 283.162C293.805 282.69 294.436 282.453 294.987 282.374C296.641 282.926 297.508 283.32 297.508 283.32C297.508 283.32 297.351 277.49 297.035 272.921C296.799 269.139 296.248 258.424 296.169 255.982C298.769 255.588 301.684 256.219 303.653 254.485C303.653 255.116 303.653 257.637 303.653 258.267C303.89 261.339 303.259 265.594 303.023 268.587C302.787 271.187 302.944 279.538 302.708 282.217C302.55 283.871 302.629 284.974 302.787 285.762C302.314 285.92 301.447 286.314 300.817 286.629C299.872 287.023 298.375 287.023 296.563 286.156C294.751 285.368 293.017 284.265 293.569 283.162Z" fill="#FFC3B1"/>
<path d="M295.92 293.876C295.29 295.294 293.872 295.215 291.035 294.191C288.514 293.246 286.466 292.221 284.654 290.961C282.842 289.622 282.842 289.464 282.606 288.597C282.291 287.337 284.103 286.628 287.175 287.573C287.49 287.652 287.727 287.731 288.042 287.81C287.49 287.888 286.86 288.125 286.624 288.597C286.072 289.622 287.805 290.724 289.617 291.67C291.429 292.615 292.926 292.615 293.872 292.143C294.502 291.827 295.447 291.434 295.841 291.276C295.999 292.458 296.235 293.009 295.92 293.876Z" fill="#292B37"/>
<path d="M304.117 255.507C296.318 260.707 289.306 257.555 287.179 256.531C287.1 251.962 287.021 240.932 288.045 235.89C288.597 233.133 289.936 229.272 289.936 229.272L302.541 228.484C302.541 228.484 305.299 232.03 305.85 236.993C306.323 241.326 305.772 243.689 305.456 246.289C305.141 248.416 304.196 253.774 304.117 255.507Z" fill="#292B37"/>
<path d="M294.977 188.703C294.268 189.175 291.668 189.806 290.88 195.636C290.25 200.756 291.353 202.096 292.377 202.568C292.928 202.805 294.977 202.805 294.977 202.805L294.898 207.138C294.898 207.138 297.419 208.162 299.861 207.138C302.304 206.114 302.304 206.114 302.304 206.114C302.304 206.114 301.358 204.459 301.516 201.623C301.752 198.078 302.934 193.036 302.067 191.224C300.57 187.757 296.946 187.363 294.977 188.703Z" fill="#FFC3B1"/>
<path d="M304.121 230.536C302.939 231.875 298.448 233.057 296.636 233.293C293.879 233.608 290.885 232.427 289.625 230.378C291.279 225.179 289.861 219.979 289.861 219.979C289.861 219.979 288.207 213.755 289.94 210.21C291.673 206.665 293.406 206.428 295.061 205.877C296.873 205.247 303.096 205.404 303.096 205.404C303.096 205.404 306.799 209.422 305.618 214.622C303.806 222.579 303.569 225.888 304.121 230.536Z" fill="#FFCA00"/>
<path d="M301.526 206.428C301.526 206.428 299.635 208.791 297.114 208.082C294.593 207.452 293.254 206.506 293.254 206.506C293.254 206.506 293.648 205.561 295.223 205.403C297.745 205.167 300.975 204.222 300.975 204.222L301.526 206.428Z" fill="#EA9611"/>
<path d="M302.533 205.484C302.612 204.933 303.715 205.012 305.448 206.745C307.181 208.478 307.102 211.866 306.472 213.835C306.078 215.017 303.163 217.065 303.163 217.065C303.163 217.065 302.297 207.06 302.533 205.484Z" fill="#EA9611"/>
<path d="M290.73 193.586C290.888 195.556 292.542 196.186 294.039 197.683C295.457 199.18 296.245 200.676 299.475 202.961C300.657 203.828 300.342 210.209 302.548 214.779C304.911 219.663 303.572 220.53 303.572 220.53C303.572 220.53 310.269 218.324 307.59 210.839C306.566 208.082 302.784 205.876 302.627 202.961C302.548 201.622 304.36 200.283 304.911 197.762C306.723 189.804 303.021 187.599 299.554 186.889C293.252 185.55 290.337 189.489 290.73 193.586Z" fill="#292B37"/>
<path d="M292.457 196.42C292.457 196.42 293.954 193.82 294.663 196.42C295.293 198.862 293.166 199.65 293.166 199.65L292.457 196.42Z" fill="#FFC3B1"/>
<path d="M294.745 217.852C294.745 217.852 292.46 225.415 291.121 229.669C290.176 232.82 287.733 237.311 288.127 241.171C288.521 244.795 288.364 246.844 288.127 247.947C287.182 251.886 284.976 248.735 284.582 245.898C284.188 243.141 285.134 235.105 285.606 231.245C286.236 225.021 288.206 215.725 288.206 215.725L294.745 217.852Z" fill="#FFC3B1"/>
<path d="M303.104 201.386C303.104 201.386 303.183 203.04 302.868 203.434C302.395 203.907 300.662 204.537 300.031 204.222C299.48 203.986 298.692 202.883 298.613 202.331C300.819 202.174 303.104 201.386 303.104 201.386Z" fill="#EA9611"/>
<path d="M291.198 207.765C292.38 207.292 294.507 207.292 295.768 209.892C297.58 213.831 296.319 216.037 295.689 218.164C295.453 218.873 294.507 220.685 294.507 220.685C294.507 220.685 291.986 220.528 290.253 219.74C288.52 218.952 287.259 218.243 287.259 218.243C287.259 218.243 286.235 209.813 291.198 207.765Z" fill="#EA9611"/>
<path d="M287.105 217.143V218.797C287.105 218.797 288.208 219.9 290.572 220.53C292.935 221.082 294.196 221.082 294.196 221.082L295.141 219.427C295.141 219.427 292.463 219.506 290.336 218.718C288.051 217.93 287.105 217.143 287.105 217.143Z" fill="#FFCA00"/>
<path d="M271.739 189.488C271.739 189.488 273.393 197.051 269.769 201.227C266.145 205.481 263.703 199.809 263.703 199.809L271.739 189.488Z" fill="#FFC3B1"/>
<path d="M245.818 202.725L255.351 197.211L253.775 179.248L244.242 184.763L245.818 202.725Z" fill="white"/>
<path d="M256.455 184.837C256.455 184.837 253.383 184.444 252.831 184.995C252.28 185.547 254.171 186.098 254.171 186.098L256.455 184.837Z" fill="#FFC3B1"/>
<path d="M250.857 185.078C250.857 184.763 250.699 184.605 250.463 184.763L246.051 187.284V196.896L250.463 194.375C250.699 194.217 250.857 193.902 250.857 193.587V185.078Z" fill="#368DCA"/>
<path d="M250.782 184.765L251.018 184.922L250.861 185.001L250.703 184.843L250.782 184.765Z" fill="#368DCA"/>
<path d="M251.251 185.229C251.251 184.914 251.094 184.757 250.857 184.914L246.445 187.435V197.047L250.857 194.526C251.094 194.368 251.251 194.053 251.251 193.738V185.229Z" fill="#2EABE3"/>
<path d="M248.809 188.935C248.022 189.408 247.312 190.669 247.312 191.772C247.312 192.875 247.943 193.347 248.809 192.875C249.597 192.402 250.306 191.141 250.306 190.038C250.306 188.935 249.597 188.463 248.809 188.935ZM249.597 190.354C249.597 190.038 249.518 189.802 249.44 189.566C249.518 189.408 249.597 189.329 249.755 189.172C249.991 189.329 250.07 189.645 250.149 190.038L249.597 190.354ZM248.337 192.087C248.494 191.929 248.652 191.772 248.809 191.614C248.967 191.535 249.203 191.456 249.361 191.456C249.203 191.85 249.046 192.244 248.809 192.559C248.573 192.559 248.415 192.402 248.337 192.087ZM248.809 191.535C248.652 191.614 248.415 191.772 248.258 192.008C248.179 191.772 248.179 191.535 248.179 191.299L249.518 190.511C249.518 190.826 249.44 191.141 249.361 191.378C249.203 191.378 249.046 191.457 248.809 191.535ZM248.179 191.141C248.179 190.826 248.258 190.59 248.258 190.275C248.415 190.275 248.573 190.196 248.809 190.117C249.046 189.96 249.203 189.802 249.361 189.645C249.44 189.881 249.44 190.117 249.44 190.354L248.179 191.141ZM248.809 189.172C248.809 189.172 248.888 189.093 248.809 189.172C249.046 189.172 249.282 189.329 249.361 189.566C249.203 189.802 249.046 189.96 248.809 190.038C248.652 190.117 248.415 190.196 248.258 190.196C248.415 189.802 248.573 189.408 248.809 189.172ZM249.44 189.487C249.361 189.251 249.203 189.093 249.046 189.014C249.282 188.935 249.518 188.935 249.676 189.093C249.597 189.251 249.518 189.329 249.44 189.487ZM248.258 190.196C248.179 190.196 248.022 190.117 247.943 190.117C248.1 189.802 248.337 189.487 248.652 189.329C248.415 189.566 248.337 189.881 248.258 190.196ZM248.179 190.354C248.1 190.669 248.1 190.984 248.022 191.22L247.47 191.535C247.47 191.063 247.628 190.59 247.864 190.196C247.943 190.275 248.1 190.275 248.179 190.354ZM248.1 191.299C248.1 191.614 248.179 191.85 248.258 192.087C248.1 192.244 248.022 192.402 247.943 192.638C247.706 192.481 247.628 192.087 247.628 191.693L248.1 191.299ZM248.258 192.166C248.337 192.481 248.573 192.638 248.731 192.638C248.415 192.796 248.1 192.796 247.943 192.638C248.022 192.481 248.1 192.323 248.258 192.166ZM248.967 192.559C249.203 192.244 249.361 191.929 249.44 191.535C249.518 191.535 249.676 191.614 249.755 191.614C249.518 192.008 249.282 192.323 248.967 192.559ZM249.44 191.378C249.518 191.063 249.597 190.747 249.597 190.432L250.149 190.117C250.149 190.59 249.991 191.063 249.834 191.456C249.676 191.456 249.597 191.378 249.44 191.378Z" fill="white"/>
<path d="M250.461 193.662L247.152 195.553V195.237L250.461 193.347V193.662Z" fill="white"/>
<path d="M250.786 192.803L246.926 195.088V194.773L250.786 192.488V192.803Z" fill="white"/>
<path d="M250.786 186.177L246.926 188.383V188.068L250.786 185.862V186.177Z" fill="white"/>
<path d="M250.786 186.892L246.926 189.177V188.783L250.786 186.577V186.892Z" fill="white"/>
<path d="M246.051 196.892L246.366 197.128V187.517L246.051 187.28V196.892Z" fill="#275FAD"/>
<path d="M252.355 271.188C252.355 271.188 247.155 268.824 244.555 268.746C241.955 268.667 241.719 271.661 244.555 274.024C247.391 276.388 249.597 276.703 251.882 277.648C254.009 278.515 254.718 278.594 256.373 277.491C258.578 276.072 256.845 272.212 256.845 272.212L252.355 271.188Z" fill="#383C48"/>
<path d="M267.48 262.203C267.48 262.203 263.305 260.47 260.705 260.391C258.105 260.312 257.16 262.518 259.996 264.881C262.832 267.245 264.644 267.796 266.929 268.742C269.056 269.608 269.765 269.687 271.419 268.584C273.704 267.166 271.892 263.306 271.892 263.306L267.48 262.203Z" fill="#383C48"/>
<path d="M252.042 210.521C252.042 210.521 247.473 235.259 247.473 242.979C247.473 256.688 247.63 271.105 247.63 271.105C247.63 271.105 249.915 273.468 252.121 273.468C257.084 273.468 257.557 270.947 257.557 270.947C257.557 270.947 257.636 254.639 258.03 247.234C258.345 242.113 258.66 234.786 260.708 228.799C260.787 234.944 260.787 236.913 261.26 243.61C261.654 248.573 263.702 261.809 263.781 262.675C265.356 264.566 270.241 265.905 272.683 263.069C272.526 260.863 271.108 245.579 271.265 237.622C271.423 230.295 273.313 213.042 269.138 209.654C265.593 206.897 252.042 210.521 252.042 210.521Z" fill="#136FBA"/>
<path d="M266.137 193.269C268.816 193.978 271.415 191.93 273.149 190.197C271.652 187.124 269.997 183.815 269.052 182.712C266.767 179.955 263.301 181.688 263.301 181.688L265.743 189.409C265.743 189.409 266.216 192.009 266.137 193.269Z" fill="#D2DCE6"/>
<path d="M257.871 166.168C259.683 164.908 263.229 165.302 264.725 168.532C265.592 170.344 264.41 175.071 264.174 178.459C264.016 181.137 264.962 182.713 264.962 182.713C264.962 182.713 264.962 182.713 262.677 183.658C260.392 184.604 257.95 183.658 257.95 183.658L258.029 179.562C258.029 179.562 255.508 179.168 255.114 178.774C254.09 177.828 253.538 174.913 254.011 171.211C254.641 165.696 257.241 166.641 257.871 166.168Z" fill="#FFC3B1"/>
<path d="M252.037 197.676C250.698 194.761 252.825 188.773 253.77 186.883C254.637 184.992 257.946 183.022 257.946 183.022C257.946 183.022 262.673 183.574 264.485 181.289C265.666 181.919 269.684 183.81 270.945 193.5C271.339 196.179 271.023 201.142 270.866 207.996C270.787 212.645 271.811 214.457 272.126 217.372C269.133 220.444 261.727 222.65 257.946 221.626C255.661 220.996 251.879 219.262 250.382 217.372C250.067 214.535 254.794 203.663 252.037 197.676Z" fill="white"/>
<path d="M252.832 167.901C253.541 167.979 254.093 167.664 254.408 167.428C253.462 167.034 252.753 165.931 253.147 164.986C254.486 165.379 255.905 164.434 256.456 164.198C258.426 163.331 262.916 161.755 265.043 164.513C266.777 165.537 269.376 167.034 268.037 173.021C267.013 177.827 265.359 178.379 263.94 179.56C262.05 179.245 261.498 178.851 260.395 177.827C259.292 176.724 259.213 175.306 259.213 175.306C259.213 175.306 260.474 172.785 259.529 171.918C258.504 170.973 257.559 172.549 257.165 173.1C253.62 170.5 253.305 169.397 252.832 167.901Z" fill="#7D3C05"/>
<path d="M250.541 194.926C250.384 195.162 248.887 199.101 247.784 202.095C246.681 205.089 247.233 207.216 248.572 208.949C249.911 210.682 250.935 209.894 252.196 208.082C253.456 206.27 255.19 202.095 256.056 197.998C256.844 194.059 250.541 194.926 250.541 194.926Z" fill="#FFC3B1"/>
<path d="M253.853 198.55C255.113 198.471 256.295 197.92 257.24 197.132C257.634 195.162 257.949 193.665 258.107 192.956C258.58 189.411 257.083 184.054 254.562 184.921C252.119 185.787 250.307 190.829 249.047 195.95C249.756 197.762 251.962 198.708 253.853 198.55Z" fill="#D2DCE6"/>
<path d="M257.88 183.027L256.855 183.737C256.855 183.737 260.164 184.918 263.001 183.815C265.6 182.791 265.758 181.767 265.758 181.767L264.497 181.373C264.497 181.373 262.764 182.712 261.819 182.87C260.795 183.027 257.88 183.027 257.88 183.027Z" fill="#D2DCE6"/>
<path d="M244.952 193.186C244.952 193.186 245.74 192.556 246.055 191.689C246.37 190.822 247.237 191.531 246.764 192.634C246.291 193.659 246.291 196.652 246.528 197.361C246.764 198.149 250.309 205.791 250.309 205.791L249.837 209.967C249.837 209.967 246.764 209.967 245.031 205.161C243.691 201.537 243.298 195.077 243.14 193.422C242.982 191.768 244.558 189.404 244.558 189.404L244.952 193.186Z" fill="#FFC3B1"/>
<path d="M222.866 280.801C228.957 280.801 233.895 278.015 233.895 274.577C233.895 271.14 228.957 268.354 222.866 268.354C216.774 268.354 211.836 271.14 211.836 274.577C211.836 278.015 216.774 280.801 222.866 280.801Z" fill="#EA9611"/>
<path d="M233.895 272.691H211.836V274.582H233.895V272.691Z" fill="#EA9611"/>
<path d="M233.895 272.689C233.895 276.076 228.932 278.913 222.866 278.913C216.799 278.913 211.836 276.155 211.836 272.689C211.836 269.301 216.799 266.465 222.866 266.465C229.011 266.465 233.895 269.222 233.895 272.689Z" fill="#FFCA00"/>
<path d="M225.092 271.903C225.092 272.612 224.146 273.164 222.886 273.164C221.704 273.164 220.68 272.612 220.68 271.903C220.68 271.194 221.625 270.643 222.886 270.643C224.146 270.721 225.092 271.273 225.092 271.903Z" fill="#EA9611"/>
<path d="M225.092 268.509H220.68V271.975H225.092V268.509Z" fill="#EA9611"/>
<path d="M225.092 268.512C225.092 269.222 224.146 269.773 222.886 269.773C221.704 269.773 220.68 269.222 220.68 268.512C220.68 267.803 221.625 267.252 222.886 267.252C224.146 267.252 225.092 267.803 225.092 268.512Z" fill="#FFDC81"/>
<path d="M224.062 219.504H221.777V268.428H224.062V219.504Z" fill="#626A77"/>
<path d="M222.873 269.059C223.526 269.059 224.055 268.777 224.055 268.429C224.055 268.081 223.526 267.799 222.873 267.799C222.22 267.799 221.691 268.081 221.691 268.429C221.691 268.777 222.22 269.059 222.873 269.059Z" fill="#626A77"/>
<path d="M219.805 220.535C219.805 221.48 221.223 222.268 222.877 222.268C224.61 222.268 225.95 221.48 225.95 220.535C225.95 219.59 224.532 218.802 222.877 218.802C221.144 218.802 219.805 219.59 219.805 220.535Z" fill="#EA9611"/>
<path d="M219.757 220.577H225.98V214.984H219.757V220.577Z" fill="#EA9611"/>
<path d="M219.805 214.939C219.805 215.885 221.223 216.672 222.877 216.672C224.61 216.672 225.95 215.885 225.95 214.939C225.95 213.994 224.532 213.206 222.877 213.206C221.144 213.206 219.805 213.994 219.805 214.939Z" fill="#FFCA00"/>
<path d="M225.09 217.459V221.477C225.09 221.477 230.841 236.682 248.725 246.766C264.954 255.905 278.189 249.996 278.189 249.996L277.165 248.263C277.165 248.263 261.645 251.572 251.64 245.821C231.708 234.319 225.09 217.459 225.09 217.459Z" fill="#F2352C"/>
<path d="M277.803 311.607C283.895 311.607 288.833 308.82 288.833 305.383C288.833 301.946 283.895 299.159 277.803 299.159C271.712 299.159 266.773 301.946 266.773 305.383C266.773 308.82 271.712 311.607 277.803 311.607Z" fill="#EA9611"/>
<path d="M288.833 303.493H266.773V305.384H288.833V303.493Z" fill="#EA9611"/>
<path d="M288.833 303.49C288.833 306.878 283.869 309.714 277.803 309.714C271.737 309.714 266.773 306.957 266.773 303.49C266.773 300.103 271.737 297.267 277.803 297.267C283.869 297.267 288.833 300.103 288.833 303.49Z" fill="#FFCA00"/>
<path d="M280.01 302.692C280.01 303.401 279.064 303.953 277.804 303.953C276.543 303.953 275.598 303.401 275.598 302.692C275.598 301.983 276.543 301.432 277.804 301.432C279.064 301.432 280.01 302.062 280.01 302.692Z" fill="#EA9611"/>
<path d="M280.01 299.303H275.598V302.769H280.01V299.303Z" fill="#EA9611"/>
<path d="M280.01 299.305C280.01 300.014 279.064 300.566 277.804 300.566C276.543 300.566 275.598 300.014 275.598 299.305C275.598 298.596 276.543 298.045 277.804 298.045C279.064 298.045 280.01 298.596 280.01 299.305Z" fill="#FFDC81"/>
<path d="M278.906 250.306H276.621V299.23H278.906V250.306Z" fill="#626A77"/>
<path d="M278.985 299.225C278.985 299.619 278.433 299.856 277.803 299.856C277.173 299.856 276.621 299.541 276.621 299.225C276.621 298.832 277.173 298.595 277.803 298.595C278.433 298.516 278.985 298.832 278.985 299.225Z" fill="#626A77"/>
<path d="M274.648 251.328C274.648 252.273 276.067 253.061 277.721 253.061C279.454 253.061 280.794 252.273 280.794 251.328C280.794 250.383 279.375 249.595 277.721 249.595C276.067 249.595 274.648 250.383 274.648 251.328Z" fill="#EA9611"/>
<path d="M274.702 251.396H280.926V245.802H274.702V251.396Z" fill="#EA9611"/>
<path d="M274.648 245.736C274.648 246.682 276.067 247.469 277.721 247.469C279.454 247.469 280.794 246.682 280.794 245.736C280.794 244.791 279.375 244.003 277.721 244.003C276.067 244.003 274.648 244.791 274.648 245.736Z" fill="#FFCA00"/>
</svg>
