<svg width="242" height="127" viewBox="0 0 242 127" fill="none" xmlns="http://www.w3.org/2000/svg">
<path d="M157.883 2.22465C154.431 0.21548 148.947 0.21548 145.494 2.22465L20.5884 74.1532C17.1357 76.1623 17.1357 79.1761 20.5884 81.1853L84.9709 117.953C88.4236 119.962 93.9072 119.962 97.3599 117.953L222.266 46.0247C225.719 44.0155 225.719 41.0018 222.266 38.9926L157.883 2.22465Z" fill="#E5E5E5"/>
<path d="M222.467 46.0283V53.0604L97.3577 124.989L97.5608 117.957L222.467 46.0283Z" fill="#A4A4A4"/>
<path d="M85.166 117.958V124.99L20.5805 88.2225L20.7836 81.1904L85.166 117.958Z" fill="#CFCFCF"/>
<path d="M222.264 46.2252L222.467 46.0243C222.873 45.8234 223.279 45.4215 223.483 45.2206C223.686 45.0197 223.889 44.8187 224.092 44.6178C224.295 44.4169 224.295 44.216 224.498 44.0151C224.498 43.8142 224.701 43.6132 224.701 43.6132C224.701 43.4123 224.904 43.2114 224.904 43.2114C224.904 43.0105 224.904 42.8096 224.904 42.8096V49.8417C224.904 50.0427 224.904 50.2436 224.904 50.2436C224.904 50.4445 224.904 50.6454 224.701 50.6454C224.701 50.8463 224.498 51.0473 224.498 51.0473C224.498 51.2482 224.295 51.4491 224.092 51.65C223.889 51.8509 223.686 52.0519 223.483 52.2528C223.076 52.4537 222.873 52.8555 222.467 53.0565L222.264 53.2574V46.2252Z" fill="#ABABAB"/>
<path d="M18.1469 77.5713C18.1469 78.7768 18.9592 80.1832 20.7871 81.1878V88.2199C19.1623 87.2153 18.1469 86.0098 18.1469 84.6034V77.5713Z" fill="#ABABAB"/>
<path d="M85.1734 117.95C85.5796 118.151 85.9858 118.352 86.392 118.552C86.7982 118.753 87.0013 118.753 87.4075 118.954C87.6106 118.954 88.0168 119.155 88.2199 119.155C88.423 119.155 88.8292 119.356 89.0323 119.356C89.2354 119.356 89.6416 119.356 89.8447 119.356C90.0478 119.356 90.454 119.356 90.6571 119.356C90.8602 119.356 91.2664 119.356 91.4695 119.356C91.8757 119.356 92.0788 119.356 92.485 119.356C92.8912 119.356 93.2974 119.356 93.5005 119.155C94.1097 118.954 94.719 118.954 95.1252 118.753C95.7345 118.552 96.5469 118.352 96.9531 117.95V124.982C96.3438 125.384 95.7345 125.585 95.1252 125.786C94.5159 125.986 94.1097 126.187 93.5005 126.187C93.0943 126.187 92.6881 126.388 92.485 126.388C92.0788 126.388 91.8757 126.388 91.4695 126.388C91.2664 126.388 90.8602 126.388 90.6571 126.388C90.454 126.388 90.0478 126.388 89.8447 126.388C89.6416 126.388 89.2354 126.388 89.0323 126.388C88.8292 126.388 88.423 126.388 88.2199 126.187C87.8137 126.187 87.6106 125.986 87.4075 125.986C87.0013 125.786 86.5951 125.786 86.392 125.585C85.9858 125.384 85.5796 125.183 85.1734 124.982V117.95Z" fill="#ABABAB"/>
<path d="M188.956 28.7403C189.971 29.3431 191.799 29.3431 192.815 28.7403C193.83 28.1376 193.83 27.133 192.815 26.5302C191.799 25.9274 190.174 25.9274 188.956 26.5302C187.737 27.133 187.737 28.1376 188.956 28.7403Z" fill="#313131"/>
<path d="M189.36 26.9311C188.547 27.3329 188.547 28.1366 189.36 28.5384C190.172 28.9402 191.391 28.9402 192.203 28.5384C193.016 28.1366 193.016 27.3329 192.203 26.9311C191.391 26.3283 190.172 26.3283 189.36 26.9311ZM189.766 28.1366C189.157 27.9357 189.157 27.3329 189.766 27.132C190.375 26.9311 191.188 26.7302 191.594 27.132C192.203 27.3329 192.203 27.9357 191.594 28.1366C191.188 28.5384 190.375 28.5384 189.766 28.1366Z" fill="#424242"/>
<path d="M186.111 24.7234L185.502 24.9244L172.301 17.4905L172.91 17.2896L186.111 24.7234Z" fill="#313131"/>
<path d="M58.967 108.31C58.967 108.711 59.3732 109.314 59.5763 109.515C59.9824 109.716 60.1855 109.515 60.1855 109.113C60.1855 108.711 59.7794 108.109 59.5763 107.908C59.3732 107.707 58.967 107.707 58.967 108.31Z" fill="#919191"/>
<path d="M58.967 106.299C58.967 106.7 59.3732 107.303 59.5763 107.504C59.9824 107.705 60.1855 107.504 60.1855 107.102C60.1855 106.7 59.7794 106.098 59.5763 105.897C59.3732 105.696 58.967 105.897 58.967 106.299Z" fill="#919191"/>
<path d="M60.7911 109.316C60.7911 109.717 61.1973 110.32 61.4004 110.521C61.8067 110.722 62.0098 110.521 62.0098 110.119C62.0098 109.717 61.6035 109.115 61.4004 108.914C60.9942 108.512 60.7911 108.713 60.7911 109.316Z" fill="#919191"/>
<path d="M60.7911 107.305C60.7911 107.707 61.1973 108.31 61.4004 108.511C61.8067 108.712 62.0098 108.511 62.0098 108.109C62.0098 107.707 61.6035 107.104 61.4004 106.904C60.9942 106.703 60.7911 106.904 60.7911 107.305Z" fill="#919191"/>
<path d="M62.6271 110.12C62.6271 110.522 63.0333 111.125 63.2364 111.326C63.6426 111.527 63.8457 111.326 63.8457 110.924C63.8457 110.522 63.4395 109.919 63.2364 109.718C62.8302 109.518 62.6271 109.718 62.6271 110.12Z" fill="#919191"/>
<path d="M62.6271 108.309C62.6271 108.711 63.0333 109.314 63.2364 109.515C63.6426 109.716 63.8457 109.515 63.8457 109.113C63.8457 108.711 63.4395 108.108 63.2364 107.907C62.8302 107.706 62.6271 107.706 62.6271 108.309Z" fill="#919191"/>
<path d="M64.256 111.126C64.256 111.528 64.6622 112.13 64.8653 112.331C65.2715 112.532 65.4746 112.331 65.4746 111.929C65.4746 111.528 65.0684 110.925 64.8653 110.724C64.6622 110.523 64.256 110.724 64.256 111.126Z" fill="#919191"/>
<path d="M64.256 109.312C64.256 109.713 64.6622 110.316 64.8653 110.517C65.2715 110.718 65.4746 110.517 65.4746 110.115C65.4746 109.713 65.0684 109.111 64.8653 108.91C64.6622 108.709 64.256 108.709 64.256 109.312Z" fill="#919191"/>
<path d="M66.0822 112.132C66.0822 112.534 66.4884 113.137 66.6915 113.338C67.0977 113.538 67.3008 113.338 67.3008 112.936C67.3008 112.534 66.8946 111.931 66.6915 111.73C66.2853 111.529 66.0822 111.73 66.0822 112.132Z" fill="#919191"/>
<path d="M66.0802 110.324C66.0802 110.726 66.4864 111.329 66.6895 111.53C67.0957 111.731 67.2988 111.53 67.2988 111.128C67.2988 110.726 66.8926 110.123 66.6895 109.922C66.2833 109.721 66.0802 109.722 66.0802 110.324Z" fill="#919191"/>
<path d="M36.2267 95.0461C36.2267 95.4479 36.6329 96.0507 36.836 96.2516C37.2422 96.4525 37.4453 96.2516 37.4453 95.8498C37.4453 95.4479 37.0391 94.8452 36.836 94.6442C36.6329 94.4433 36.2267 94.6443 36.2267 95.0461Z" fill="#919191"/>
<path d="M36.2267 93.0359C36.2267 93.4377 36.6329 94.0405 36.836 94.2414C37.2422 94.4423 37.4453 94.2413 37.4453 93.8395C37.4453 93.4377 37.0391 92.8349 36.836 92.634C36.6329 92.4331 36.2267 92.634 36.2267 93.0359Z" fill="#919191"/>
<path d="M38.047 96.0549C38.047 96.4567 38.4532 97.0595 38.6563 97.2604C39.0625 97.4613 39.2656 97.2604 39.2656 96.8586C39.2656 96.4567 39.0625 95.854 38.6563 95.653C38.4532 95.4521 38.047 95.6531 38.047 96.0549Z" fill="#919191"/>
<path d="M38.0471 94.0481C38.0471 94.4499 38.4532 95.0527 38.6563 95.2536C39.0625 95.4545 39.2656 95.2536 39.2656 94.8517C39.2656 94.4499 39.0625 93.8471 38.6563 93.6462C38.4532 93.4453 38.0471 93.6462 38.0471 94.0481Z" fill="#919191"/>
<path d="M39.879 97.0534C39.879 97.4553 40.2852 98.058 40.4883 98.259C40.8945 98.4599 41.0977 98.2589 41.0977 97.8571C41.0977 97.4553 40.6914 96.8525 40.4883 96.6516C40.0821 96.4507 39.879 96.6516 39.879 97.0534Z" fill="#919191"/>
<path d="M39.879 95.0437C39.879 95.4455 40.2852 96.0483 40.4883 96.2492C40.8945 96.4501 41.0977 96.2492 41.0977 95.8473C41.0977 95.4455 40.6914 94.8427 40.4883 94.6418C40.0821 94.4409 39.879 94.6418 39.879 95.0437Z" fill="#919191"/>
<path d="M41.508 98.0632C41.508 98.465 41.7111 99.0678 42.1173 99.2687C42.5235 99.4696 42.7266 99.2687 42.7266 98.8669C42.7266 98.465 42.3204 97.8623 42.1173 97.6613C41.9142 97.4604 41.508 97.6614 41.508 98.0632Z" fill="#919191"/>
<path d="M41.508 96.0515C41.508 96.4533 41.9142 97.0561 42.1173 97.257C42.5235 97.4579 42.7266 97.257 42.7266 96.8551C42.7266 96.4533 42.3204 95.8505 42.1173 95.6496C41.9142 95.4487 41.508 95.6496 41.508 96.0515Z" fill="#919191"/>
<path d="M43.3342 99.0642C43.3342 99.466 43.7404 100.069 43.9435 100.27C44.3496 100.471 44.5527 100.27 44.5527 99.8678C44.5527 99.466 44.1465 98.8632 43.9435 98.6623C43.5373 98.4614 43.3342 98.6623 43.3342 99.0642Z" fill="#919191"/>
<path d="M43.3342 97.0554C43.3342 97.4572 43.7404 98.06 43.9435 98.2609C44.3496 98.4618 44.5527 98.2609 44.5527 97.859C44.5527 97.4572 44.1465 96.8544 43.9435 96.6535C43.5373 96.4526 43.3342 96.6535 43.3342 97.0554Z" fill="#919191"/>
<path d="M47.1886 100.074C47.1886 100.878 47.7979 101.882 48.4072 102.284L54.5001 105.7C55.1094 106.102 55.7188 105.7 55.7188 104.896C55.7188 104.092 55.1094 103.088 54.5001 102.686L48.4072 99.2704C47.7979 98.8686 47.1886 99.2704 47.1886 100.074Z" fill="#919191"/>
<path d="M47.997 100.475C47.997 100.475 47.997 100.676 47.997 100.475C47.997 101.279 48.6063 101.881 49.0125 102.283L54.09 105.096C54.6993 105.297 55.1055 105.096 55.1055 104.694C55.1055 104.694 55.1055 104.694 55.1055 104.493C55.1055 104.493 55.1055 104.493 55.1055 104.292C55.1055 103.69 54.6993 102.886 54.09 102.685L49.0125 99.8722C48.4032 99.6713 47.997 99.8723 47.997 100.475Z" fill="#202020"/>
<path d="M47.997 100.677C47.997 101.28 48.4032 101.882 49.0125 102.284L54.09 105.097C54.6993 105.298 55.1055 105.097 55.1055 104.695C54.9024 104.494 54.6993 104.092 54.2931 103.891L49.0125 100.878C48.4032 100.677 48.2001 100.677 47.997 100.677Z" fill="#4A4A4A"/>
<path d="M213.939 47.4249L99.5946 113.125L29.1191 72.7405L143.464 7.04053L213.939 47.4249Z" fill="#313131"/>
<path d="M211.096 47.2207L99.5942 111.514L32.1652 72.9381L143.464 8.64453L211.096 47.2207Z" fill="#3692D3"/>
<path opacity="0.4" d="M211.096 47.2207L99.5942 111.514L143.464 8.64453L211.096 47.2207Z" fill="#3692D3"/>
<path d="M213.939 47.4249L99.5946 113.125L29.1191 72.7405L143.464 7.04053L213.939 47.4249Z" fill="#313131"/>
<path d="M211.096 47.2207L99.5942 111.514L32.1652 72.9381L143.464 8.64453L211.096 47.2207Z" fill="#3692D3"/>
<path d="M123.205 97.5498L99.595 111.514L32.166 72.9374L55.5729 58.9736L123.205 97.5498Z" fill="#1E5D89"/>
<path opacity="0.4" d="M211.096 47.2207L99.5942 111.514L143.464 8.64453L211.096 47.2207Z" fill="black" fill-opacity="0.08"/>
<path d="M18.5527 75.9537C18.1465 77.5611 18.9589 79.1684 20.9899 80.3739L85.1692 116.941C88.6219 118.95 94.1056 118.95 97.3552 116.941L221.855 45.4142C224.292 44.0078 224.902 41.9987 223.886 40.1904C225.714 41.9987 225.308 44.4097 222.464 46.218L97.5583 118.146C94.1056 120.156 88.6219 120.156 85.1692 118.146L20.7868 81.3785C18.1465 79.7712 17.5372 77.762 18.5527 75.9537Z" fill="#B5B5B5"/>
<g clip-path="url(#clip0)">
<path d="M158.195 43.9717V48.7149C158.195 49.1199 158.138 49.4669 158.08 49.8718V45.1286C158.138 44.7237 158.195 44.3766 158.195 43.9717Z" fill="#265493"/>
<path d="M158.077 45.1299V49.8731C158.02 50.2781 157.905 50.6251 157.732 51.03V46.2868C157.905 45.8819 158.02 45.5348 158.077 45.1299Z" fill="#275798"/>
<path d="M157.734 46.2871V51.0304C157.561 51.4353 157.389 51.7824 157.217 52.1873V47.444C157.447 47.0391 157.619 46.6342 157.734 46.2871Z" fill="#285A9D"/>
<path d="M157.218 47.3882V52.1315C156.988 52.5364 156.701 52.9413 156.414 53.3462V48.6029C156.701 48.2559 156.988 47.8509 157.218 47.3882Z" fill="#2A5CA2"/>
<path d="M156.416 48.6025V53.3458C156.071 53.8086 155.612 54.2713 155.152 54.6762V49.933C155.612 49.5281 156.071 49.0653 156.416 48.6025Z" fill="#2B5FA7"/>
<path d="M155.15 49.9907V54.734C154.404 55.4281 153.6 56.0644 152.623 56.6429V51.8996C153.6 51.2633 154.461 50.627 155.15 49.9907Z" fill="#2C62AB"/>
<path d="M152.62 51.8975V56.6407C152.562 56.6986 152.447 56.7564 152.39 56.8143C151.069 57.6241 149.575 58.2604 147.967 58.781V54.0377C149.518 53.5171 151.011 52.8808 152.39 52.071C152.447 51.9553 152.505 51.8975 152.62 51.8975Z" fill="#2D65B0"/>
<path d="M147.971 53.9814V58.7247C146.765 59.1296 145.501 59.4188 144.18 59.6502V54.907C145.443 54.6756 146.765 54.3864 147.971 53.9814Z" fill="#2C62AB"/>
<path d="M144.179 54.9048V59.6481C143.317 59.8216 142.455 59.9373 141.594 59.9951V55.2519C142.455 55.194 143.317 55.0783 144.179 54.9048Z" fill="#2B5FA7"/>
<path d="M141.592 55.3135V60.0567C140.845 60.1146 140.098 60.1724 139.352 60.2303V55.487C140.098 55.4292 140.845 55.3713 141.592 55.3135Z" fill="#2A5CA2"/>
<path d="M139.353 55.4263V60.1695C138.664 60.1695 137.974 60.1695 137.285 60.1695V55.4263C137.974 55.4841 138.664 55.4841 139.353 55.4263Z" fill="#285A9D"/>
<path d="M137.287 55.4292V60.1724C136.598 60.1724 135.966 60.1146 135.334 60.0567V55.3135C135.966 55.3713 136.655 55.4292 137.287 55.4292Z" fill="#275798"/>
<path d="M135.33 55.31V60.0533C134.698 59.9954 134.009 59.9376 133.377 59.8219V55.0786C134.009 55.1943 134.641 55.2521 135.33 55.31Z" fill="#265493"/>
<path d="M133.38 55.1386V59.8818C132.69 59.7662 132.058 59.6505 131.369 59.5348V54.7915C132.058 54.9072 132.69 55.0229 133.38 55.1386Z" fill="#25518E"/>
<path d="M131.368 54.7896V59.5329C130.678 59.3594 129.931 59.1859 129.242 59.0123V54.269C129.989 54.4426 130.678 54.6161 131.368 54.7896Z" fill="#234E89"/>
<path d="M129.3 54.2698V59.0131C128.438 58.7817 127.634 58.4925 126.83 58.2032V53.46C127.634 53.7492 128.438 53.9806 129.3 54.2698Z" fill="#224C84"/>
<path d="M126.83 53.4025V58.1457C125.797 57.7408 124.82 57.2781 123.901 56.7575C119.937 54.4437 117.984 51.4358 117.984 48.4278V43.6846C117.984 46.6925 119.937 49.7583 123.901 52.0142C124.82 52.5348 125.797 52.9976 126.83 53.4025Z" fill="#21497F"/>
<path d="M152.281 35.4117C160.15 39.9814 160.208 47.4434 152.396 52.0131C144.583 56.5828 131.831 56.5828 123.962 52.0131C116.092 47.4434 116.035 39.9814 123.847 35.4117C131.659 30.8419 144.411 30.8419 152.281 35.4117Z" fill="#3679D3"/>
<path d="M152.449 42.7588V45.1304C152.449 45.4196 152.391 45.7089 152.334 45.9981V43.6265C152.391 43.3372 152.449 43.048 152.449 42.7588Z" fill="#266593"/>
<path d="M152.335 43.625V45.9966C152.278 46.2859 152.22 46.5751 152.105 46.8643V44.4927C152.22 44.2034 152.278 43.9142 152.335 43.625Z" fill="#276998"/>
<path d="M152.103 44.4951V46.8668C151.988 47.156 151.873 47.4452 151.701 47.7344V45.3628C151.873 45.0736 151.988 44.7843 152.103 44.4951Z" fill="#286C9D"/>
<path d="M151.703 45.3042V47.6758C151.531 47.9651 151.359 48.2543 151.129 48.6013V46.2297C151.359 45.9405 151.531 45.6513 151.703 45.3042Z" fill="#2A70A2"/>
<path d="M151.128 46.2275V48.5992C150.841 48.9462 150.554 49.2933 150.209 49.5825V47.2109C150.554 46.9217 150.841 46.5746 151.128 46.2275Z" fill="#2B73A7"/>
<path d="M150.208 47.2104V49.5821C149.691 50.1027 149.059 50.5654 148.312 50.9704V48.5987C149.002 48.1938 149.634 47.7311 150.208 47.2104Z" fill="#2C76AB"/>
<path d="M148.316 48.6597V51.0313C148.258 51.0891 148.201 51.0891 148.143 51.147C147.167 51.7254 146.018 52.1882 144.869 52.5931V50.2215C146.018 49.8166 147.167 49.3538 148.143 48.7754C148.201 48.7175 148.258 48.6597 148.316 48.6597Z" fill="#2D7AB0"/>
<path d="M144.867 50.2183V52.5899C143.948 52.8791 143.029 53.1105 142.053 53.284V50.9124C142.972 50.7389 143.948 50.5075 144.867 50.2183Z" fill="#2C76AB"/>
<path d="M141.995 50.9146V53.2862C141.363 53.4019 140.731 53.5176 140.1 53.5754V51.2038C140.731 51.0881 141.421 51.0302 141.995 50.9146Z" fill="#2B73A7"/>
<path d="M140.099 51.2021V53.5738C139.525 53.6316 139.008 53.6895 138.434 53.6895V51.3178C139.008 51.26 139.582 51.2021 140.099 51.2021Z" fill="#2A70A2"/>
<path d="M138.434 51.2627V53.6343C137.917 53.6343 137.4 53.6343 136.883 53.6343V51.2627C137.457 51.3205 137.974 51.3205 138.434 51.2627Z" fill="#286C9D"/>
<path d="M136.939 51.3205V53.6922C136.422 53.6922 135.962 53.6343 135.445 53.6343V51.2627C135.962 51.2627 136.422 51.2627 136.939 51.3205Z" fill="#276998"/>
<path d="M135.446 51.2053V53.5769C134.986 53.5191 134.469 53.4612 134.01 53.4034V51.0317C134.469 51.1474 134.986 51.1474 135.446 51.2053Z" fill="#266593"/>
<path d="M134.011 51.0287V53.4004C133.494 53.3425 133.035 53.2268 132.518 53.169V50.7974C133.035 50.9131 133.494 50.9709 134.011 51.0287Z" fill="#25628E"/>
<path d="M132.516 50.7975V53.1691C131.999 53.0534 131.482 52.9377 130.965 52.7642V50.3926C131.482 50.5661 131.999 50.6818 132.516 50.7975Z" fill="#235F89"/>
<path d="M130.967 50.3931V52.7648C130.335 52.5912 129.761 52.3598 129.129 52.1285V49.7568C129.761 50.0461 130.335 50.2196 130.967 50.3931Z" fill="#225B84"/>
<path d="M129.127 49.8151V52.1867C128.381 51.8975 127.634 51.5504 126.945 51.1455C124.015 49.4101 122.521 47.2121 122.521 44.9561V42.5845C122.521 44.8404 123.958 47.0964 126.945 48.7739C127.691 49.1209 128.381 49.468 129.127 49.8151Z" fill="#21587F"/>
<path d="M152.455 42.6441C152.469 37.8202 145.793 33.8905 137.545 33.867C129.296 33.8434 122.599 37.7349 122.585 42.5589C122.572 47.3829 129.247 51.3125 137.496 51.3361C145.744 51.3596 152.442 47.4681 152.455 42.6441Z" fill="#3692D3"/>
<path d="M141.997 38.9978V41.3695C141.997 40.9067 141.652 40.5018 140.906 40.039C140.733 39.9234 140.561 39.8655 140.389 39.8077V37.436C140.561 37.4939 140.733 37.6096 140.906 37.6674C141.652 38.0723 141.997 38.5351 141.997 38.9978Z" fill="#858585"/>
<path d="M140.446 37.435V39.8067C140.331 39.7488 140.216 39.691 140.102 39.691V37.3193C140.159 37.3193 140.331 37.3772 140.446 37.435Z" fill="#8A8A8A"/>
<path d="M140.041 37.3205V39.6922C139.926 39.6922 139.869 39.6343 139.754 39.6343V37.2627C139.869 37.2627 139.984 37.2627 140.041 37.3205Z" fill="#8F8F8F"/>
<path d="M139.756 37.2029V39.5745C139.641 39.5745 139.584 39.5167 139.469 39.5167V37.145C139.584 37.2029 139.641 37.2029 139.756 37.2029Z" fill="#949494"/>
<path d="M139.469 37.1462V39.5179C139.354 39.5179 139.297 39.5179 139.182 39.46V37.0884C139.297 37.1462 139.354 37.1462 139.469 37.1462Z" fill="#999999"/>
<path d="M139.184 37.145V39.5167C139.069 39.5167 139.011 39.5167 138.896 39.5167V37.145C139.011 37.145 139.069 37.145 139.184 37.145Z" fill="#9E9E9E"/>
<path d="M138.893 37.1474V39.519C138.779 39.519 138.664 39.519 138.549 39.519V37.1474C138.664 37.0895 138.779 37.0895 138.893 37.1474Z" fill="#A3A3A3"/>
<path d="M138.551 37.145V39.5167C138.436 39.5167 138.263 39.5167 138.148 39.5167V37.145C138.263 37.145 138.378 37.145 138.551 37.145Z" fill="#A8A8A8"/>
<path d="M138.146 37.145V39.5167C137.974 39.5167 137.801 39.5745 137.629 39.5745V37.2029C137.801 37.2029 137.974 37.145 138.146 37.145C138.088 37.145 138.146 37.145 138.146 37.145Z" fill="#ADADAD"/>
<path d="M137.629 37.2061V39.5777C137.284 39.6355 136.997 39.6934 136.652 39.8091V37.4374C136.997 37.3796 137.284 37.2639 137.629 37.2061Z" fill="#B3B3B3"/>
<path d="M136.653 37.4932V39.8648C136.021 40.0962 135.389 40.3854 134.7 40.7325C134.642 40.7903 134.585 40.7903 134.527 40.8482V38.4765C134.585 38.4187 134.642 38.4187 134.7 38.3608C135.389 37.9559 136.021 37.6667 136.653 37.4932Z" fill="#B8B8B8"/>
<path d="M134.529 38.4766V40.8482C134.069 41.1374 133.725 41.3688 133.438 41.658V39.2864C133.725 38.9972 134.069 38.7079 134.529 38.4766Z" fill="#B3B3B3"/>
<path d="M133.436 39.2295V41.6011C133.322 41.7168 133.207 41.8325 133.092 41.9482V39.5766C133.207 39.5187 133.322 39.3452 133.436 39.2295Z" fill="#ADADAD"/>
<path d="M133.094 39.6343V42.0059C133.037 42.1216 132.979 42.1794 132.922 42.2951V39.9235C132.979 39.8078 133.037 39.6921 133.094 39.6343Z" fill="#A8A8A8"/>
<path d="M132.92 39.8652V42.2369C132.862 42.2947 132.862 42.4104 132.805 42.4682V40.0966C132.862 40.0388 132.92 39.9231 132.92 39.8652Z" fill="#A3A3A3"/>
<path d="M132.862 40.0957V42.4673C132.862 42.5252 132.805 42.583 132.805 42.6409V40.2692C132.805 40.2114 132.805 40.1535 132.862 40.0957Z" fill="#9E9E9E"/>
<path d="M132.807 40.2695V42.6412C132.807 42.6412 132.807 42.6412 132.807 42.699C132.807 42.7569 132.807 42.8147 132.807 42.8725V40.5009C132.749 40.4431 132.749 40.3852 132.807 40.2695C132.807 40.3274 132.807 40.2695 132.807 40.2695Z" fill="#999999"/>
<path d="M144.923 39.2852V41.6568C144.923 41.7725 144.923 41.8882 144.865 41.946V39.5744C144.923 39.4587 144.923 39.4008 144.923 39.2852Z" fill="#999999"/>
<path d="M144.869 39.5762V41.9478C144.869 42.0056 144.869 42.0635 144.811 42.1213C144.811 42.1792 144.754 42.237 144.754 42.237V39.8654C144.754 39.8076 144.811 39.8076 144.811 39.7497C144.869 39.6919 144.869 39.634 144.869 39.5762Z" fill="#9E9E9E"/>
<path d="M144.809 39.9214V42.293C144.752 42.4087 144.694 42.5822 144.637 42.6979V40.3263C144.694 40.1528 144.752 40.0371 144.809 39.9214Z" fill="#A3A3A3"/>
<path d="M144.636 40.269V42.6407C144.579 42.7564 144.464 42.8721 144.406 42.9877V40.6161C144.464 40.5583 144.579 40.4426 144.636 40.269Z" fill="#A8A8A8"/>
<path d="M144.408 40.6167V42.9883C144.293 43.104 144.236 43.2197 144.121 43.3354V40.9638C144.179 40.8481 144.293 40.7902 144.408 40.6167Z" fill="#ADADAD"/>
<path d="M144.063 40.9648V43.3365C143.948 43.4522 143.776 43.5679 143.604 43.6835V41.3119C143.776 41.2541 143.948 41.1384 144.063 40.9648Z" fill="#B3B3B3"/>
<path d="M143.605 41.3685V43.6823L141.422 42.4097V40.0381L143.605 41.3685Z" fill="#898989"/>
<path d="M140.156 43.3335V45.7051C139.869 45.8208 139.639 45.9365 139.352 45.9944V43.6227C139.639 43.5649 139.869 43.4492 140.156 43.3335Z" fill="#B8B8B8"/>
<path d="M139.354 43.625V45.9966C138.952 46.1123 138.493 46.228 138.033 46.3437V43.9721C138.493 43.8564 138.952 43.7985 139.354 43.625Z" fill="#B3B3B3"/>
<path d="M138.031 43.9692V46.3409C137.744 46.3987 137.514 46.3987 137.227 46.4566V44.0849C137.514 44.0271 137.801 44.0271 138.031 43.9692Z" fill="#ADADAD"/>
<path d="M137.23 44.0859V46.4576C137.001 46.4576 136.771 46.4576 136.541 46.4576V44.0859C136.771 44.0859 137.001 44.0859 137.23 44.0859Z" fill="#A8A8A8"/>
<path d="M136.541 44.1431V46.5147C136.311 46.5147 136.139 46.5147 135.909 46.5147C135.909 46.5147 135.909 46.5147 135.852 46.5147V44.1431C135.852 44.1431 135.852 44.1431 135.909 44.1431C136.139 44.1431 136.369 44.1431 136.541 44.1431Z" fill="#A3A3A3"/>
<path d="M135.908 44.1438V46.5154C135.735 46.5154 135.563 46.5154 135.391 46.4576V44.0859C135.506 44.0859 135.735 44.1438 135.908 44.1438Z" fill="#9E9E9E"/>
<path d="M135.331 44.0876V46.4593C135.159 46.4593 134.987 46.4014 134.814 46.4014V44.0298C134.987 44.0876 135.159 44.0876 135.331 44.0876Z" fill="#999999"/>
<path d="M134.814 44.0278V46.3994C134.642 46.3994 134.469 46.3416 134.297 46.2837V43.9121C134.469 43.97 134.642 44.0278 134.814 44.0278Z" fill="#949494"/>
<path d="M134.299 43.9685V46.3401C134.127 46.2822 133.897 46.2244 133.725 46.1666V43.7949C133.897 43.8528 134.069 43.9106 134.299 43.9685Z" fill="#8F8F8F"/>
<path d="M133.665 43.7958V46.1675C133.435 46.1096 133.148 45.9939 132.918 45.9361V43.5645C133.205 43.6223 133.435 43.738 133.665 43.7958Z" fill="#8A8A8A"/>
<path d="M132.92 43.5655V45.9371C132.575 45.7636 132.173 45.59 131.828 45.4165C130.45 44.6067 129.703 43.6812 129.703 42.6978V40.3262C129.703 41.3095 130.392 42.235 131.828 43.0449C132.231 43.2184 132.575 43.3919 132.92 43.5655Z" fill="#858585"/>
<path d="M136.196 42.468C136.713 42.4101 137.287 42.2944 137.977 42.063L140.159 43.3356C138.838 43.9141 137.402 44.1455 135.909 44.1455C134.415 44.0876 133.037 43.7405 131.83 43.0464C130.337 42.1787 129.647 41.1954 129.762 40.1542C129.877 39.113 130.796 38.0718 132.462 37.0884C134.3 35.9894 136.196 35.4688 138.149 35.4688C139.872 35.4688 141.366 35.8158 142.687 36.6256C144.468 37.6668 145.157 38.7081 144.812 39.8649C144.582 40.5012 144.18 41.0218 143.606 41.4268L141.423 40.1542C141.768 39.8071 141.997 39.46 141.997 39.1708C142.055 38.6502 141.71 38.1875 140.906 37.7247C140.102 37.2619 139.183 37.0884 138.091 37.2041C137 37.3198 135.851 37.7247 134.702 38.4188C133.553 39.113 132.864 39.7493 132.749 40.3856C132.634 41.0218 132.979 41.5424 133.668 41.9474C134.473 42.3523 135.334 42.5258 136.196 42.468Z" fill="#DCDCDC"/>
<path d="M95.3522 45.418V50.1612C95.1798 50.2769 94.8926 50.4505 94.4905 50.6818C94.1459 50.9132 93.8587 51.0867 93.6289 51.2024V46.4592C93.8587 46.3435 94.0884 46.1699 94.4905 45.9386C94.8926 45.7072 95.1798 45.5337 95.3522 45.418Z" fill="#B8B8B8"/>
<path d="M93.6298 46.4014V51.1446L86.5645 55.3095V50.5662L93.6298 46.4014Z" fill="#C5C5C5"/>
<path d="M86.564 50.5668V55.3101L84.4961 54.0953V49.3521L86.564 50.5668Z" fill="#898989"/>
<path d="M98.2257 45.1309L98.1682 49.8163L91.8496 55.7743L91.9071 51.031L98.2257 45.1309Z" fill="#BEBEBE"/>
<path d="M90.7004 52.9967L90.6429 57.6821L88.5176 56.4095V51.7241L90.7004 52.9967Z" fill="#898989"/>
<path d="M101.501 49.0044V53.6898L90.6445 57.6811L90.702 52.9957L101.501 49.0044Z" fill="#C4C4C4"/>
<path d="M105.233 49.1782L94.7208 55.3098L92.6529 54.095L99.7757 49.9302C100.005 49.8145 100.235 49.641 100.637 49.4096C101.039 49.1782 101.269 49.0047 101.499 48.889L90.6999 52.8803L88.517 51.7234L95.3527 45.4183C95.1803 45.534 94.8931 45.7075 94.491 45.9389C94.1464 46.1703 93.8592 46.3438 93.6294 46.4595L86.564 50.5665L84.4961 49.3518L95.008 43.2202L98.2248 45.0712L91.9061 51.0293L102.073 47.3272L105.233 49.1782Z" fill="#DCDCDC"/>
<path d="M94.7203 55.3104V60.0537L92.6523 58.839V54.0957L94.7203 55.3104Z" fill="#898989"/>
<path d="M105.233 49.1787L105.175 53.922L94.7207 60.0535V55.3102L105.233 49.1787Z" fill="#C5C5C5"/>
<path d="M103.512 54.3258V59.0113L101.559 57.9122V53.1689L103.512 54.3258Z" fill="#898989"/>
<path d="M106.786 55.3124V60.0557C106.786 59.9979 106.786 59.94 106.729 59.8822C106.614 59.7086 106.384 59.4772 105.924 59.188C105.752 59.0723 105.637 59.0145 105.465 58.9566V54.2134C105.637 54.2712 105.752 54.3291 105.924 54.4448C106.384 54.6761 106.614 54.9075 106.729 55.1389C106.786 55.1967 106.786 55.2546 106.786 55.3124Z" fill="#858585"/>
<path d="M105.464 54.2712V59.0145C105.407 58.9566 105.292 58.9566 105.234 58.9566V54.2134C105.292 54.2134 105.407 54.2134 105.464 54.2712Z" fill="#8A8A8A"/>
<path d="M105.233 54.1535V58.8968C105.175 58.8968 105.118 58.839 105.061 58.839V54.0957C105.118 54.1535 105.175 54.1535 105.233 54.1535Z" fill="#8F8F8F"/>
<path d="M105.062 54.0957V58.839C105.005 58.839 104.947 58.839 104.947 58.839V54.0957C104.947 54.0957 105.005 54.0957 105.062 54.0957Z" fill="#949494"/>
<path d="M104.888 54.0957V58.839C104.831 58.839 104.831 58.839 104.773 58.839V54.0957C104.831 54.0957 104.888 54.0957 104.888 54.0957Z" fill="#999999"/>
<path d="M104.777 54.0957V58.839C104.72 58.839 104.72 58.839 104.662 58.839V54.0957C104.72 54.0957 104.777 54.0957 104.777 54.0957Z" fill="#9E9E9E"/>
<path d="M104.66 54.0957V58.839C104.602 58.839 104.602 58.839 104.545 58.839V54.0957C104.602 54.0957 104.66 54.0957 104.66 54.0957Z" fill="#A3A3A3"/>
<path d="M104.547 54.0957V58.839C104.489 58.839 104.489 58.839 104.432 58.839V54.0957C104.489 54.0957 104.489 54.0957 104.547 54.0957Z" fill="#A8A8A8"/>
<path d="M104.431 54.0957V58.839C104.374 58.839 104.316 58.839 104.201 58.839V54.0957C104.316 54.0957 104.374 54.0957 104.431 54.0957Z" fill="#ADADAD"/>
<path d="M104.201 54.0957V58.839C104.086 58.839 103.971 58.8968 103.799 58.9547V54.2114C103.971 54.1535 104.086 54.1535 104.201 54.0957Z" fill="#B3B3B3"/>
<path d="M103.856 54.2134V58.9566C103.741 59.0145 103.683 59.0145 103.568 59.0723V54.3291C103.626 54.2712 103.741 54.2712 103.856 54.2134Z" fill="#B8B8B8"/>
<path d="M103.451 56.3537L103.394 61.097L102.877 60.8656V56.1802L103.451 56.3537Z" fill="#929292"/>
<path d="M102.881 56.1775V60.9207C102.824 60.9207 102.766 60.8629 102.709 60.8629V56.1196C102.766 56.1196 102.824 56.1196 102.881 56.1775Z" fill="#858585"/>
<path d="M102.706 56.0639V60.8072C102.476 60.6915 102.247 60.6336 102.074 60.5758V55.8325C102.247 55.8904 102.476 56.0061 102.706 56.0639Z" fill="#8A8A8A"/>
<path d="M102.076 55.8904V60.6336C101.961 60.6336 101.904 60.5758 101.789 60.5758V55.8325C101.904 55.8325 101.961 55.8325 102.076 55.8904Z" fill="#8F8F8F"/>
<path d="M101.791 55.7715V60.5147C101.733 60.5147 101.676 60.5147 101.676 60.5147V55.7715C101.733 55.7715 101.733 55.7715 101.791 55.7715Z" fill="#949494"/>
<path d="M101.618 55.7715V60.5147C101.56 60.5147 101.503 60.5147 101.445 60.5147V55.7715C101.56 55.7715 101.618 55.7715 101.618 55.7715Z" fill="#999999"/>
<path d="M101.5 55.7728V60.516C101.442 60.516 101.385 60.516 101.385 60.516V55.7728C101.385 55.7149 101.442 55.7728 101.5 55.7728Z" fill="#9E9E9E"/>
<path d="M101.33 55.7148V60.4581C101.272 60.4581 101.215 60.4581 101.215 60.4581V55.7148C101.272 55.7148 101.33 55.7148 101.33 55.7148Z" fill="#A3A3A3"/>
<path d="M101.213 55.7148V60.4581C101.155 60.4581 101.098 60.4581 101.098 60.4581V55.7148C101.098 55.7727 101.155 55.7148 101.213 55.7148Z" fill="#A8A8A8"/>
<path d="M101.102 55.7715V60.5147C101.045 60.5147 100.987 60.5147 100.93 60.5147V55.7715C100.987 55.7715 101.045 55.7715 101.102 55.7715Z" fill="#ADADAD"/>
<path d="M100.929 55.7715V60.5147C100.872 60.5147 100.757 60.5726 100.699 60.5726V55.8293C100.757 55.8293 100.872 55.7715 100.929 55.7715Z" fill="#B3B3B3"/>
<path d="M100.699 55.8325V60.5758C100.584 60.6336 100.469 60.6915 100.354 60.7493C100.354 60.7493 100.354 60.7493 100.297 60.7493V56.0061C100.297 56.0061 100.297 56.0061 100.354 56.0061C100.469 55.9482 100.584 55.8904 100.699 55.8325Z" fill="#B8B8B8"/>
<path d="M100.296 56.002V60.7452C100.181 60.8031 100.124 60.8609 100.066 60.9187V56.1755C100.124 56.1176 100.181 56.0598 100.296 56.002Z" fill="#B3B3B3"/>
<path d="M100.064 56.1763V60.9195C100.007 60.9774 100.007 60.9774 99.9492 61.0352V56.292C100.007 56.2341 100.007 56.2341 100.064 56.1763Z" fill="#ADADAD"/>
<path d="M99.95 56.2939V61.0372L99.8926 61.0951V56.3518C99.95 56.3518 99.95 56.2939 99.95 56.2939Z" fill="#A8A8A8"/>
<path d="M99.8927 56.4673V61.2105V61.2684V56.4673C99.8353 56.5251 99.8927 56.4673 99.8927 56.4673Z" fill="#999999"/>
<path d="M104.714 56.6982V61.4415H104.656L104.714 56.6982C104.656 56.6982 104.714 56.6982 104.714 56.6982Z" fill="#999999"/>
<path d="M104.659 56.6955V61.4388C104.544 61.4388 104.429 61.381 104.314 61.381V56.6377C104.429 56.6955 104.544 56.6955 104.659 56.6955Z" fill="#949494"/>
<path d="M104.371 56.6394V61.3827C104.314 61.3827 104.199 61.3248 104.141 61.3248H104.084V56.5815H104.141C104.199 56.6394 104.256 56.6394 104.371 56.6394Z" fill="#8F8F8F"/>
<path d="M104.026 56.582V61.3252C103.854 61.2674 103.682 61.2095 103.395 61.0939V56.3506C103.682 56.4663 103.854 56.5241 104.026 56.582Z" fill="#8A8A8A"/>
<path d="M109.544 55.7754V60.5187C109.544 60.5765 109.544 60.6343 109.486 60.6343V55.8911C109.486 55.8911 109.544 55.8332 109.544 55.7754Z" fill="#9E9E9E"/>
<path d="M109.487 55.9448V60.6881C109.487 60.7459 109.43 60.8038 109.43 60.8038V56.0605C109.43 56.0027 109.487 55.9448 109.487 55.9448Z" fill="#A3A3A3"/>
<path d="M109.427 56.0625V60.8058C109.37 60.8636 109.37 60.9215 109.312 60.9793V56.236C109.37 56.1782 109.37 56.1203 109.427 56.0625Z" fill="#A8A8A8"/>
<path d="M109.315 56.2368V60.9801C109.257 61.0379 109.2 61.0958 109.143 61.2115V56.4682C109.2 56.3525 109.257 56.2947 109.315 56.2368Z" fill="#ADADAD"/>
<path d="M109.14 56.4673V61.2105C109.025 61.3262 108.795 61.4998 108.623 61.6155V56.8722C108.795 56.6987 108.968 56.583 109.14 56.4673Z" fill="#B3B3B3"/>
<path d="M108.567 56.8159V61.5592L108.51 61.617V56.8738C108.51 56.8738 108.567 56.8738 108.567 56.8159Z" fill="#B8B8B8"/>
<path d="M101.902 58.4346V63.1778C101.729 63.1778 101.557 63.1778 101.385 63.1778V58.4346C101.615 58.4346 101.729 58.4346 101.902 58.4346Z" fill="#A3A3A3"/>
<path d="M101.444 58.4314V63.1746C101.271 63.1746 101.099 63.1746 100.869 63.1168V58.3735C101.041 58.4314 101.214 58.4314 101.444 58.4314Z" fill="#9E9E9E"/>
<path d="M100.865 58.4314V63.1746C100.693 63.1746 100.463 63.1168 100.291 63.1168V58.3735C100.463 58.3735 100.693 58.3735 100.865 58.4314Z" fill="#999999"/>
<path d="M100.295 58.3181V63.0614C100.237 63.0614 100.18 63.0614 100.18 63.0614C100.065 63.0614 100.007 63.0035 99.8926 63.0035V58.2603C100.007 58.2603 100.065 58.3181 100.18 58.3181C100.237 58.3181 100.237 58.3181 100.295 58.3181Z" fill="#949494"/>
<path d="M99.8904 58.2592V63.0025C99.7755 62.9447 99.6032 62.9447 99.4883 62.8868V58.1436C99.6032 58.2014 99.718 58.2592 99.8904 58.2592Z" fill="#8F8F8F"/>
<path d="M99.4291 58.1428V62.886C99.2568 62.8282 99.0844 62.7704 98.9121 62.7125V57.9692C99.0844 58.0849 99.2568 58.1428 99.4291 58.1428Z" fill="#8A8A8A"/>
<path d="M98.971 57.9702V62.7134C98.7412 62.5977 98.5114 62.5399 98.2817 62.3664C97.5923 61.9615 97.1903 61.4987 97.1328 60.9781C97.1328 60.9203 97.1328 60.9203 97.1328 60.8624V56.1191C97.1328 56.177 97.1328 56.177 97.1328 56.2348C97.1903 56.7554 97.5923 57.2182 98.2817 57.6231C98.5114 57.7966 98.7412 57.9123 98.971 57.9702Z" fill="#858585"/>
<path d="M108.509 56.8726V61.6158L104.947 63.6982V58.955L108.509 56.8726Z" fill="#C5C5C5"/>
<path d="M104.946 58.9565V63.6998C104.773 63.8155 104.601 63.9312 104.371 64.0469V59.3036C104.601 59.1879 104.773 59.0722 104.946 58.9565Z" fill="#B8B8B8"/>
<path d="M104.372 59.3042V64.0475C104.257 64.1053 104.142 64.1632 104.027 64.221V59.4777C104.2 59.4199 104.257 59.362 104.372 59.3042Z" fill="#B3B3B3"/>
<path d="M104.084 59.4751V64.2184C103.969 64.2762 103.854 64.3919 103.797 64.4497V59.7065C103.854 59.6486 103.912 59.5908 104.084 59.4751Z" fill="#B3B3B3"/>
<path d="M103.737 59.7061V64.4493C103.68 64.4493 103.68 64.5072 103.68 64.5072V59.7639C103.68 59.7639 103.737 59.7639 103.737 59.7061Z" fill="#ADADAD"/>
<path d="M103.68 59.8228V64.566C103.68 64.566 103.68 64.6239 103.623 64.6239L103.68 59.8228Z" fill="#A8A8A8"/>
<path d="M103.68 59.8228V64.566C103.68 64.566 103.68 64.566 103.68 64.6239V59.8228C103.622 59.8806 103.68 59.8806 103.68 59.8228Z" fill="#A3A3A3"/>
<path d="M103.626 59.8805C103.568 59.9962 103.626 60.054 103.683 60.1697L103.396 60.3432L101.156 59.0707C101.271 58.955 101.328 58.8393 101.443 58.7236C101.558 58.6079 101.673 58.5501 101.845 58.4344C101.271 58.4344 100.696 58.4344 100.064 58.3187C99.375 58.203 98.7431 57.9716 98.1687 57.6824C97.4794 57.2775 97.0773 56.8147 97.0198 56.2941C96.9624 55.7735 97.307 55.3108 98.0538 54.9058C99.0303 54.3274 100.064 54.1539 101.271 54.3274C101.902 54.4431 102.707 54.6745 103.568 55.0794L104.372 55.4264C104.775 55.6 105.119 55.7157 105.349 55.7735C105.751 55.8892 106.096 55.8314 106.383 55.7157C106.728 55.5421 106.785 55.3108 106.728 55.1372C106.613 54.9637 106.383 54.7323 105.923 54.4431C105.464 54.1539 104.947 54.0382 104.545 54.0382C104.2 54.0382 103.913 54.1539 103.568 54.2696L101.615 53.1127C102.362 52.7656 103.109 52.5342 103.855 52.4764C105.062 52.4185 106.325 52.7077 107.647 53.5176C108.508 54.0382 109.083 54.5588 109.427 55.1372C109.772 55.7157 109.427 56.2941 108.508 56.8147L104.947 58.8971C104.717 59.0707 104.43 59.2442 104.085 59.4177C103.798 59.6491 103.683 59.7648 103.626 59.8805ZM103.97 57.1618L104.717 56.699C104.487 56.699 104.315 56.6412 104.143 56.5833C103.97 56.5255 103.741 56.4677 103.453 56.352L102.879 56.1206C102.362 55.8892 101.96 55.7735 101.673 55.7157C101.156 55.6578 100.696 55.7157 100.351 55.9471C100.007 56.1784 99.8345 56.352 99.8919 56.5833C99.9494 56.8147 100.122 56.9883 100.351 57.1618C100.811 57.3932 101.328 57.5667 101.96 57.6245C102.592 57.7402 103.281 57.5667 103.97 57.1618Z" fill="#DCDCDC"/>
<path d="M103.396 60.3429V65.0862L101.156 63.8136L101.214 59.0703L103.396 60.3429Z" fill="#898989"/>
<path d="M103.682 60.1714V64.9147L103.395 65.0882V60.3449L103.682 60.1714Z" fill="#C5C5C5"/>
<path d="M116.659 59.8794V64.6227C116.659 64.6805 116.602 64.7383 116.602 64.854V60.1108C116.602 59.9951 116.602 59.9372 116.659 59.8794Z" fill="#9E9E9E"/>
<path d="M116.604 60.1099V64.8531C116.604 64.8531 116.604 64.8531 116.604 64.911V60.1099C116.546 60.1099 116.546 60.1099 116.604 60.1099Z" fill="#A3A3A3"/>
<path d="M114.938 60.3993V65.1426C114.938 65.0848 114.938 65.0848 114.938 65.0269C114.881 64.7377 114.651 64.4485 114.306 64.2171C114.192 64.1593 114.019 64.1014 113.904 64.0436V59.3003C114.019 59.3581 114.192 59.416 114.306 59.4738C114.708 59.7052 114.938 59.9944 114.938 60.2837C114.938 60.3415 114.938 60.3993 114.938 60.3993Z" fill="#858585"/>
<path d="M113.848 59.3027V64.046C113.733 63.9881 113.675 63.9881 113.561 63.9303V59.187C113.675 59.2449 113.79 59.2449 113.848 59.3027Z" fill="#8A8A8A"/>
<path d="M113.618 59.1838V63.9271C113.561 63.9271 113.504 63.8692 113.389 63.8692V59.126C113.446 59.1838 113.504 59.1838 113.618 59.1838Z" fill="#8F8F8F"/>
<path d="M113.387 59.1272V63.8704C113.33 63.8704 113.272 63.8705 113.215 63.8126V59.0693C113.272 59.1272 113.33 59.1272 113.387 59.1272Z" fill="#949494"/>
<path d="M113.217 59.1273V63.8705C113.16 63.8705 113.102 63.8705 113.045 63.8705V59.1273C113.102 59.0694 113.16 59.1273 113.217 59.1273Z" fill="#999999"/>
<path d="M113.043 59.0693V63.8126C112.986 63.8126 112.929 63.8126 112.871 63.8126V59.0693C112.871 59.0693 112.929 59.0693 113.043 59.0693Z" fill="#9E9E9E"/>
<path d="M112.813 59.0693V63.8126C112.756 63.8126 112.698 63.8126 112.641 63.8126V59.0693C112.698 59.0693 112.756 59.0693 112.813 59.0693Z" fill="#A3A3A3"/>
<path d="M112.642 59.0693V63.8126C112.584 63.8126 112.47 63.8126 112.412 63.8126V59.0693C112.47 59.0693 112.584 59.0693 112.642 59.0693Z" fill="#A8A8A8"/>
<path d="M112.409 59.0693V63.8126C112.352 63.8126 112.294 63.8126 112.294 63.8126C112.237 63.8126 112.122 63.8126 112.064 63.8704V59.1272C112.122 59.1272 112.237 59.1272 112.294 59.0693C112.294 59.1272 112.352 59.1272 112.409 59.0693Z" fill="#ADADAD"/>
<path d="M112.068 59.126V63.8692C111.838 63.9271 111.609 63.9849 111.379 64.0428V59.2995C111.551 59.2417 111.781 59.1838 112.068 59.126Z" fill="#B3B3B3"/>
<path d="M111.318 59.3003V64.0436C110.916 64.1592 110.514 64.3328 110.17 64.5642C110.112 64.5642 110.112 64.622 110.055 64.622V59.8787C110.112 59.8787 110.112 59.8209 110.17 59.8209C110.572 59.6474 110.974 59.4738 111.318 59.3003Z" fill="#B8B8B8"/>
<path d="M110.056 59.9355V64.6788C109.769 64.8523 109.54 65.0259 109.367 65.1994V60.4561C109.54 60.2826 109.769 60.1091 110.056 59.9355Z" fill="#B3B3B3"/>
<path d="M109.366 60.4575V65.2008C109.252 65.3165 109.194 65.3743 109.137 65.49V60.7467C109.194 60.6311 109.252 60.5154 109.366 60.4575Z" fill="#ADADAD"/>
<path d="M109.138 60.689V65.4322C109.081 65.4901 109.023 65.5479 109.023 65.6058V60.8625C109.023 60.8625 109.081 60.7468 109.138 60.689Z" fill="#A8A8A8"/>
<path d="M108.964 60.9194V65.6627C108.906 65.7205 108.906 65.7784 108.906 65.8362V61.093C108.906 61.0351 108.964 60.9773 108.964 60.9194Z" fill="#A3A3A3"/>
<path d="M108.907 61.0938V65.837C108.907 65.8949 108.907 65.8949 108.85 65.9527V61.2094C108.85 61.1516 108.907 61.1516 108.907 61.0938Z" fill="#9E9E9E"/>
<path d="M110.975 63.5225V68.2657C110.86 68.2657 110.802 68.2657 110.688 68.3236V63.5803C110.745 63.5225 110.86 63.5225 110.975 63.5225Z" fill="#ADADAD"/>
<path d="M110.633 63.5225V68.2657C110.461 68.2657 110.288 68.3236 110.059 68.3236V63.5803C110.288 63.5803 110.461 63.5803 110.633 63.5225Z" fill="#A8A8A8"/>
<path d="M110.115 63.5791V68.3224C110 68.3224 109.828 68.3224 109.713 68.3224V63.5791C109.828 63.5791 109.943 63.5791 110.115 63.5791Z" fill="#A3A3A3"/>
<path d="M109.714 63.5791V68.3224C109.599 68.3224 109.484 68.3224 109.369 68.3224V63.5791C109.484 63.5791 109.599 63.5791 109.714 63.5791Z" fill="#9E9E9E"/>
<path d="M109.369 63.5803V68.3236C109.254 68.3236 109.139 68.3236 109.082 68.2657V63.5225C109.139 63.5225 109.254 63.5225 109.369 63.5803Z" fill="#999999"/>
<path d="M109.08 63.5237V68.2669C109.023 68.2669 109.023 68.2669 108.965 68.2669C108.908 68.2669 108.85 68.2669 108.793 68.2091V63.4658C108.85 63.4658 108.908 63.4658 108.965 63.5237C108.965 63.5237 109.023 63.5237 109.08 63.5237Z" fill="#949494"/>
<path d="M108.737 63.4626V68.2059C108.622 68.2059 108.507 68.1481 108.393 68.1481V63.4048C108.507 63.4048 108.622 63.4626 108.737 63.4626Z" fill="#8F8F8F"/>
<path d="M108.393 63.4045V68.1478C108.221 68.0899 108.106 68.0321 107.934 67.9742V63.231C108.106 63.2888 108.278 63.3466 108.393 63.4045Z" fill="#8A8A8A"/>
<path d="M107.989 63.2328V67.9761C107.76 67.8604 107.53 67.7447 107.3 67.629C106.496 67.1662 106.094 66.5878 106.094 65.8937V61.1504C106.094 61.8445 106.496 62.423 107.3 62.8857C107.472 63.0014 107.702 63.1171 107.989 63.2328Z" fill="#858585"/>
<path d="M120.281 57.9693L122.349 59.184L111.837 65.2578L109.827 64.1009L110.918 63.4646C110.171 63.5803 109.482 63.5803 108.908 63.4646C108.333 63.3489 107.759 63.1753 107.184 62.8283C106.265 62.3077 105.863 61.6135 105.978 60.8615C106.093 60.0517 106.725 59.3576 107.874 58.6634C109.195 57.9115 110.516 57.4487 111.895 57.3909C113.273 57.2752 114.48 57.5644 115.514 58.1428C115.973 58.4321 116.318 58.7213 116.49 59.0684C116.662 59.4154 116.662 59.7625 116.547 60.1096L120.281 57.9693ZM111.493 62.5969C112.239 62.539 112.929 62.3077 113.618 61.9028C114.537 61.3243 114.997 60.8037 114.939 60.2831C114.882 59.9939 114.652 59.7047 114.307 59.4733C113.733 59.1262 113.044 59.0105 112.297 59.1262C111.55 59.2419 110.861 59.4733 110.229 59.8782C109.54 60.2831 109.08 60.688 108.965 61.1508C108.793 61.5557 109.023 61.9606 109.597 62.3077C110.114 62.539 110.803 62.7126 111.493 62.5969Z" fill="#DCDCDC"/>
<path d="M122.35 59.1265V63.8697L111.838 70.0013V65.258L122.35 59.1265Z" fill="#C5C5C5"/>
<path d="M111.838 65.258V70.0012L109.885 68.8443V64.1011L111.838 65.258Z" fill="#898989"/>
<path d="M123.384 62.9434V67.6866L122.062 68.4386V63.7532L123.384 62.9434Z" fill="#C5C5C5"/>
<path d="M123.787 65.3172V70.0605C123.672 70.0027 123.614 69.9448 123.557 69.887C123.385 69.7713 123.155 69.6556 122.982 69.5978V64.8545C123.155 64.9123 123.385 65.028 123.557 65.1437C123.614 65.2594 123.672 65.2594 123.787 65.3172Z" fill="#858585"/>
<path d="M122.923 64.9135V69.6568C122.808 69.599 122.693 69.5411 122.578 69.5411V64.7979C122.693 64.7979 122.808 64.8557 122.923 64.9135Z" fill="#8A8A8A"/>
<path d="M122.579 64.7947V69.5379C122.522 69.5379 122.407 69.4801 122.35 69.4801V64.7368C122.407 64.7368 122.464 64.7368 122.579 64.7947Z" fill="#8F8F8F"/>
<path d="M122.349 64.738V69.4813C122.291 69.4813 122.234 69.4813 122.119 69.4234V64.6802C122.177 64.6802 122.234 64.6802 122.349 64.738Z" fill="#949494"/>
<path d="M122.118 64.6802V69.4234C122.06 69.4234 122.003 69.4234 121.945 69.4234V64.6802C122.003 64.6802 122.06 64.6802 122.118 64.6802Z" fill="#999999"/>
<path d="M121.948 64.6802V69.4234C121.89 69.4234 121.833 69.4234 121.775 69.4234V64.6802C121.775 64.6802 121.833 64.6802 121.948 64.6802Z" fill="#9E9E9E"/>
<path d="M121.717 64.6802V69.4234C121.66 69.4234 121.602 69.4234 121.545 69.4234V64.6802C121.602 64.6802 121.66 64.6802 121.717 64.6802Z" fill="#A3A3A3"/>
<path d="M121.546 64.6802V69.4234C121.489 69.4234 121.431 69.4234 121.316 69.4234V64.6802C121.431 64.6802 121.489 64.6802 121.546 64.6802Z" fill="#A8A8A8"/>
<path d="M121.316 64.6802V69.4234C121.258 69.4234 121.143 69.4234 121.086 69.4813V64.738C121.143 64.6802 121.258 64.6802 121.316 64.6802Z" fill="#ADADAD"/>
<path d="M121.084 64.6802V69.4234C120.969 69.4234 120.797 69.4813 120.682 69.5391V64.7959C120.797 64.738 120.969 64.738 121.084 64.6802Z" fill="#B3B3B3"/>
<path d="M120.683 64.7979V69.5411C120.338 69.6568 119.936 69.8303 119.477 70.1196V65.3763C119.879 65.1449 120.281 64.9135 120.683 64.7979Z" fill="#B8B8B8"/>
<path d="M126.142 64.332V69.0753L124.074 70.29V65.5468L126.142 64.332Z" fill="#C5C5C5"/>
<path d="M124.07 65.5468V70.2901C123.956 70.2322 123.841 70.1165 123.783 70.0587V65.3154C123.841 65.4311 123.956 65.489 124.07 65.5468Z" fill="#858585"/>
<path d="M125.911 64.159C125.968 64.159 125.968 64.2168 126.026 64.2168C126.083 64.2168 126.083 64.2747 126.198 64.3325L124.073 65.5472C123.958 65.4894 123.843 65.3737 123.786 65.3159C123.671 65.258 123.613 65.2002 123.556 65.1423C122.752 64.6796 121.89 64.506 121.086 64.6217C120.626 64.6796 120.109 64.911 119.477 65.3159L115.744 67.4561L113.676 66.2414L121.43 61.7295L123.384 62.8864L122.005 63.6962C122.809 63.5805 123.441 63.5227 123.9 63.5805C124.647 63.6384 125.279 63.8119 125.911 64.159Z" fill="#DCDCDC"/>
<path d="M119.478 65.3726L119.42 70.1158L115.744 72.2561V67.5707L119.478 65.3726Z" fill="#C5C5C5"/>
<path d="M115.744 67.5702V72.2556L113.676 71.0409V66.3555L115.744 67.5702Z" fill="#898989"/>
<path d="M129.989 63.5229L132.056 64.7377L130.218 65.8367L128.15 64.622L129.989 63.5229Z" fill="#DCDCDC"/>
<path d="M132.059 64.7368V69.4222L130.221 70.5213V65.8359L132.059 64.7368Z" fill="#C5C5C5"/>
<path d="M130.219 65.8388V70.5242L128.094 69.3094L128.151 64.624L130.219 65.8388Z" fill="#898989"/>
<path d="M119.477 69.7113L127.231 65.1416L129.299 66.3563L121.544 70.9261L119.477 69.7113Z" fill="#DCDCDC"/>
<path d="M129.3 66.3555L129.243 71.0987L121.488 75.6106L121.546 70.9252L129.3 66.3555Z" fill="#C5C5C5"/>
<path d="M121.545 70.9257L121.488 75.6111L119.42 74.3964L119.477 69.7109L121.545 70.9257Z" fill="#898989"/>
<path d="M135.391 70.752V75.4952C135.391 75.5531 135.334 75.6688 135.334 75.7266V70.9833C135.334 70.9255 135.391 70.8676 135.391 70.752Z" fill="#9E9E9E"/>
<path d="M133.665 71.3324V76.0757C133.665 76.0179 133.665 76.0179 133.665 75.96C133.607 75.6708 133.378 75.3816 133.033 75.1502C132.918 75.0924 132.746 75.0345 132.631 74.9767V70.2334C132.746 70.2912 132.918 70.3491 133.033 70.4069C133.435 70.6383 133.665 70.9275 133.665 71.2168C133.665 71.2168 133.665 71.2746 133.665 71.3324Z" fill="#858585"/>
<path d="M132.631 70.1748V74.918C132.516 74.8602 132.459 74.8602 132.344 74.8024V70.0591C132.401 70.1169 132.516 70.1748 132.631 70.1748Z" fill="#8A8A8A"/>
<path d="M132.345 70.1169V74.8602C132.288 74.8602 132.23 74.8024 132.115 74.8024V70.0591C132.173 70.0591 132.288 70.0591 132.345 70.1169Z" fill="#8F8F8F"/>
<path d="M132.114 70.0603V74.8036C132.056 74.8036 131.999 74.8036 131.941 74.7457V70.0024C131.999 70.0024 132.056 70.0024 132.114 70.0603Z" fill="#949494"/>
<path d="M131.944 70.0024V74.7457C131.886 74.7457 131.829 74.7457 131.771 74.7457V70.0024C131.829 70.0024 131.886 70.0024 131.944 70.0024Z" fill="#999999"/>
<path d="M131.77 70.0024V74.7457C131.713 74.7457 131.655 74.7457 131.598 74.7457V70.0024C131.655 70.0024 131.713 70.0024 131.77 70.0024Z" fill="#9E9E9E"/>
<path d="M131.596 70.0024V74.7457C131.539 74.7457 131.481 74.7457 131.424 74.7457V70.0024C131.481 70.0024 131.539 70.0024 131.596 70.0024Z" fill="#A3A3A3"/>
<path d="M131.368 70.0024V74.7457C131.311 74.7457 131.196 74.7457 131.139 74.7457V70.0024C131.254 70.0024 131.311 70.0024 131.368 70.0024Z" fill="#A8A8A8"/>
<path d="M131.136 70.0024V74.7457C131.078 74.7457 131.021 74.7457 131.021 74.7457C130.963 74.7457 130.848 74.7457 130.791 74.8036V70.0603C130.848 70.0603 130.963 70.0603 131.021 70.0024C131.078 70.0024 131.136 70.0024 131.136 70.0024Z" fill="#ADADAD"/>
<path d="M130.795 70.0591V74.8023C130.565 74.8602 130.335 74.918 130.105 74.9759V70.2326C130.335 70.1748 130.565 70.1169 130.795 70.0591Z" fill="#B3B3B3"/>
<path d="M130.102 70.2334V74.9767C129.7 75.0924 129.355 75.2659 128.953 75.4973C128.895 75.4973 128.895 75.5551 128.838 75.5551V70.8118C128.895 70.8118 128.895 70.754 128.953 70.754C129.297 70.5226 129.7 70.3491 130.102 70.2334Z" fill="#B8B8B8"/>
<path d="M128.838 70.812V75.5553C128.551 75.7288 128.321 75.9024 128.148 76.0759V71.3326C128.321 71.1591 128.551 70.9855 128.838 70.812Z" fill="#B3B3B3"/>
<path d="M128.093 71.334V76.0773C127.978 76.1929 127.921 76.2508 127.863 76.3665V71.6232C127.921 71.5075 128.036 71.4497 128.093 71.334Z" fill="#ADADAD"/>
<path d="M127.865 71.6221V76.3653C127.807 76.4232 127.75 76.481 127.75 76.5389V71.7956C127.75 71.7378 127.807 71.6799 127.865 71.6221Z" fill="#A8A8A8"/>
<path d="M127.747 71.7954V76.5387C127.689 76.5965 127.689 76.6544 127.689 76.7122V71.9689C127.689 71.9111 127.689 71.8533 127.747 71.7954Z" fill="#A3A3A3"/>
<path d="M127.634 71.9697V76.713C127.634 76.7708 127.634 76.7708 127.576 76.8287V72.0854C127.634 72.0854 127.634 72.0276 127.634 71.9697Z" fill="#9E9E9E"/>
<path d="M127.635 72.083V76.8263C127.635 76.8841 127.635 76.8841 127.635 76.942V72.1987C127.577 72.1987 127.577 72.1409 127.635 72.083Z" fill="#999999"/>
<path d="M129.699 74.3989V79.1422C129.584 79.1422 129.47 79.1422 129.412 79.2V74.4568C129.47 74.4568 129.584 74.3989 129.699 74.3989Z" fill="#ADADAD"/>
<path d="M129.357 74.4556V79.1988C129.185 79.1988 129.012 79.2567 128.84 79.2567V74.5134C129.012 74.4556 129.185 74.4556 129.357 74.4556Z" fill="#A8A8A8"/>
<path d="M128.838 74.4556V79.1988C128.723 79.1988 128.55 79.1988 128.436 79.1988V74.4556C128.55 74.4556 128.723 74.4556 128.838 74.4556Z" fill="#A3A3A3"/>
<path d="M128.438 74.4556V79.1988C128.324 79.1988 128.209 79.1988 128.094 79.1988V74.4556C128.209 74.4556 128.324 74.4556 128.438 74.4556Z" fill="#9E9E9E"/>
<path d="M128.094 74.4568V79.2C127.979 79.2 127.864 79.2 127.807 79.1422V74.3989C127.864 74.4568 127.979 74.4568 128.094 74.4568Z" fill="#999999"/>
<path d="M127.809 74.4001V79.1434C127.751 79.1434 127.751 79.1434 127.694 79.1434C127.636 79.1434 127.579 79.1434 127.521 79.0856V74.3423C127.579 74.3423 127.636 74.3423 127.694 74.4001C127.751 74.4001 127.751 74.4001 127.809 74.4001Z" fill="#949494"/>
<path d="M127.518 74.4001V79.1434C127.404 79.1434 127.289 79.0856 127.174 79.0856V74.3423C127.289 74.3423 127.404 74.3423 127.518 74.4001Z" fill="#8F8F8F"/>
<path d="M127.174 74.281V79.0242C127.002 78.9664 126.887 78.9085 126.715 78.8507V74.1074C126.887 74.1653 127.002 74.2231 127.174 74.281Z" fill="#8A8A8A"/>
<path d="M126.715 74.1093V78.8525C126.485 78.7368 126.255 78.6212 125.968 78.5055C125.164 78.0427 124.762 77.4643 124.762 76.7701V72.0269C124.762 72.721 125.164 73.2994 125.968 73.7622C126.255 73.9357 126.485 74.0514 126.715 74.1093Z" fill="#858585"/>
<path d="M139.009 68.8446L141.077 70.0593L130.622 76.1908L128.612 75.034L129.703 74.3977C128.957 74.5134 128.267 74.5134 127.693 74.3977C127.118 74.282 126.544 74.1084 125.97 73.7614C125.05 73.2408 124.648 72.5466 124.763 71.7947C124.878 70.9848 125.51 70.2907 126.659 69.5966C127.98 68.8446 129.359 68.3818 130.68 68.324C132.058 68.2083 133.265 68.4975 134.299 69.0759C134.758 69.3652 135.103 69.6544 135.275 70.0015C135.448 70.3485 135.448 70.6956 135.333 71.0427L139.009 68.8446ZM130.278 73.53C131.024 73.4721 131.714 73.2408 132.403 72.8359C133.322 72.2574 133.782 71.7368 133.724 71.2162C133.667 70.927 133.437 70.6378 133.092 70.4064C132.518 70.0593 131.829 69.9436 131.082 70.0593C130.335 70.175 129.646 70.4064 129.014 70.8113C128.325 71.2162 127.865 71.6211 127.75 72.0839C127.578 72.4888 127.808 72.8937 128.382 73.2408C128.957 73.5878 129.531 73.5878 130.278 73.53Z" fill="#DCDCDC"/>
<path d="M141.078 70.0596V74.745L130.623 80.8765V76.1911L141.078 70.0596Z" fill="#C5C5C5"/>
<path d="M130.624 76.1911V80.8765L128.613 79.7196V75.0342L130.624 76.1911Z" fill="#898989"/>
</g>
<g clip-path="url(#clip1)">
<path d="M59.2084 68.59V71.3146C59.2084 71.0488 59.0064 70.783 58.6023 70.5836C58.4676 70.5172 58.333 70.4507 58.2656 70.3843V67.6597C58.333 67.7261 58.4676 67.7926 58.535 67.859C59.0064 68.0584 59.2084 68.3242 59.2084 68.59Z" fill="#858585"/>
<path d="M58.2626 67.6568V70.3814C58.1952 70.3814 58.1279 70.3149 58.0605 70.3149V67.5903C58.1279 67.6568 58.1952 67.6568 58.2626 67.6568Z" fill="#8A8A8A"/>
<path d="M58.0633 67.5918V70.3164C57.996 70.3164 57.9287 70.3164 57.8613 70.25V67.5254C57.9287 67.5918 57.996 67.5918 58.0633 67.5918Z" fill="#8F8F8F"/>
<path d="M57.8612 67.593V70.3176C57.7939 70.3176 57.7266 70.3176 57.7266 70.3176V67.593C57.7266 67.5266 57.7939 67.593 57.8612 67.593Z" fill="#949494"/>
<path d="M57.7245 67.5254V70.25C57.6572 70.25 57.5898 70.25 57.5898 70.25V67.5254C57.5898 67.5254 57.6572 67.5254 57.7245 67.5254Z" fill="#999999"/>
<path d="M57.5223 67.5254V70.25C57.455 70.25 57.3877 70.25 57.3203 70.25V67.5254C57.455 67.5254 57.455 67.5254 57.5223 67.5254Z" fill="#9E9E9E"/>
<path d="M57.3876 67.5254V70.25C57.3202 70.25 57.2529 70.25 57.1855 70.25V67.5254C57.2529 67.5254 57.3202 67.5254 57.3876 67.5254Z" fill="#A3A3A3"/>
<path d="M57.1854 67.5254V70.25C57.118 70.25 57.0507 70.25 56.916 70.25V67.5254C56.9834 67.5254 57.0507 67.5254 57.1854 67.5254Z" fill="#A8A8A8"/>
<path d="M56.9158 67.5254V70.25C56.8485 70.25 56.7138 70.25 56.6465 70.3164V67.5918C56.7138 67.5918 56.7812 67.5254 56.9158 67.5254Z" fill="#ADADAD"/>
<path d="M56.5817 67.5903V70.3149C56.3797 70.3149 56.245 70.3814 56.043 70.4478V67.7232C56.245 67.6568 56.447 67.5903 56.5817 67.5903Z" fill="#B3B3B3"/>
<path d="M56.0422 67.7246V70.4492C55.6382 70.5157 55.3015 70.715 54.8974 70.9144C54.8301 70.9144 54.8301 70.9808 54.8301 70.9808V68.2562L54.8974 68.1898C55.3015 67.9904 55.6382 67.8575 56.0422 67.7246Z" fill="#B8B8B8"/>
<path d="M54.8297 68.2563V70.981C54.5603 71.1803 54.3583 71.3132 54.1562 71.4461V68.7215C54.3583 68.5886 54.5603 68.4557 54.8297 68.2563Z" fill="#B3B3B3"/>
<path d="M54.1551 68.7222V71.4468C54.0878 71.5132 54.0205 71.5797 53.9531 71.6461V68.9215C54.0205 68.8551 54.0878 68.7886 54.1551 68.7222Z" fill="#ADADAD"/>
<path d="M53.9541 68.9214V71.646C53.9541 71.7124 53.8867 71.7789 53.8867 71.8454V69.1207C53.8867 69.0543 53.9541 68.9878 53.9541 68.9214Z" fill="#A8A8A8"/>
<path d="M53.8857 69.1206V71.8452C53.8857 71.9117 53.8184 71.9117 53.8184 71.9781V69.2535C53.8184 69.1871 53.8184 69.1206 53.8857 69.1206Z" fill="#A3A3A3"/>
<path d="M60.8222 69.1162V71.8408C60.8222 71.9073 60.7548 71.9737 60.6875 72.0402V69.3156C60.7548 69.2491 60.8222 69.1827 60.8222 69.1162Z" fill="#A3A3A3"/>
<path d="M60.7538 69.3154V72.04C60.6865 72.1065 60.6865 72.1729 60.6191 72.2394V69.5148C60.6191 69.4483 60.6865 69.3819 60.7538 69.3154Z" fill="#A8A8A8"/>
<path d="M60.62 69.5181V72.2427C60.5527 72.3091 60.4853 72.3756 60.418 72.442V69.7174C60.4853 69.651 60.5527 69.5845 60.62 69.5181Z" fill="#ADADAD"/>
<path d="M60.4178 69.7173V72.4419C60.3505 72.5083 60.2158 72.5748 60.1484 72.6412V69.9166C60.2158 69.8502 60.3505 69.7837 60.4178 69.7173Z" fill="#B3B3B3"/>
<path d="M60.1476 69.9156V72.6402L58.8008 71.9092V69.1846L60.1476 69.9156Z" fill="#898989"/>
<path d="M58.1276 71.1123V73.8369C57.993 73.9034 57.7909 73.9698 57.6562 74.0363V71.3117C57.7909 71.2452 57.9256 71.1788 58.1276 71.1123Z" fill="#B8B8B8"/>
<path d="M57.6587 71.2461V73.9707C57.3894 74.0372 57.1873 74.1036 56.918 74.1701V71.4455C57.12 71.379 57.3894 71.3125 57.6587 71.2461Z" fill="#B3B3B3"/>
<path d="M56.8503 71.4453V74.1699C56.7156 74.1699 56.5136 74.2364 56.3789 74.2364V71.5118C56.5809 71.5118 56.7156 71.5118 56.8503 71.4453Z" fill="#ADADAD"/>
<path d="M56.3787 71.5107V74.2353C56.244 74.2353 56.1093 74.2353 55.9746 74.2353V71.5107C56.1093 71.5107 56.244 71.5107 56.3787 71.5107Z" fill="#A8A8A8"/>
<path d="M55.9715 71.5791V74.3037C55.8368 74.3037 55.7021 74.3037 55.6348 74.3037V71.5791C55.7694 71.5791 55.8368 71.5791 55.9715 71.5791Z" fill="#A3A3A3"/>
<path d="M55.6375 71.5806V74.3052C55.5028 74.3052 55.4355 74.3052 55.3008 74.3052V71.5806C55.3681 71.5141 55.5028 71.5141 55.6375 71.5806Z" fill="#9E9E9E"/>
<path d="M55.2976 71.5118V74.2364C55.163 74.2364 55.0956 74.2364 54.9609 74.1699V71.4453C55.0956 71.5118 55.163 71.5118 55.2976 71.5118Z" fill="#999999"/>
<path d="M54.9637 71.5118V74.2364C54.829 74.2364 54.7616 74.2364 54.627 74.1699V71.4453C54.7616 71.4453 54.8963 71.5118 54.9637 71.5118Z" fill="#949494"/>
<path d="M54.6922 71.4468V74.1714C54.5575 74.1714 54.4902 74.105 54.3555 74.105V71.3804C54.4228 71.3804 54.5575 71.4468 54.6922 71.4468Z" fill="#8F8F8F"/>
<path d="M54.2897 71.379V74.1036C54.1551 74.0371 54.0204 74.0372 53.8184 73.9707V71.2461C54.0204 71.2461 54.1551 71.3125 54.2897 71.379Z" fill="#8A8A8A"/>
<path d="M53.8855 71.1796V73.9042C53.6835 73.8377 53.4815 73.7048 53.2795 73.5719C52.404 73.1732 52 72.6415 52 72.0435V69.3188C52 69.9169 52.404 70.3821 53.2121 70.8473C53.4142 71.0466 53.6835 71.1131 53.8855 71.1796Z" fill="#858585"/>
<path d="M59.6089 67.1914C60.619 67.7895 61.023 68.3876 60.821 69.0521C60.6863 69.4508 60.4843 69.7166 60.0802 69.916L58.8008 69.185C59.0028 68.9856 59.1375 68.7863 59.1375 68.6534C59.1375 68.3876 58.9355 68.1217 58.5314 67.8559C58.1274 67.5901 57.5213 67.4572 56.9152 67.5237C56.2418 67.5901 55.6358 67.7895 54.895 68.1882C54.2216 68.5869 53.8176 68.9856 53.7502 69.3179C53.6829 69.6502 53.8849 69.9824 54.289 70.2483C54.7603 70.5141 55.2317 70.647 55.7705 70.5805C56.0398 70.5805 56.3765 70.5141 56.7806 70.3812L58.06 71.1122C57.3193 71.4444 56.5112 71.5773 55.6358 71.5773C54.7603 71.5773 53.9523 71.3115 53.2788 70.9128C52.3361 70.3812 51.932 69.8495 51.9994 69.2515C52.0667 68.6534 52.6054 68.0553 53.6156 67.4572C54.693 66.8591 55.7705 66.5269 56.9152 66.5269C57.9253 66.5269 58.8008 66.7262 59.6089 67.1914Z" fill="#DCDCDC"/>
<path d="M64.7975 72.5732V75.2978C64.7975 75.3643 64.7975 75.3643 64.7975 75.4308V72.7061C64.7302 72.7061 64.7975 72.6397 64.7975 72.5732Z" fill="#999999"/>
<path d="M63.1822 72.4395V75.1641C63.1822 74.9647 63.0475 74.7654 62.7108 74.566C62.6434 74.4996 62.5761 74.4996 62.4414 74.4331V71.7085C62.5087 71.7749 62.6434 71.7749 62.7108 71.8414C62.9801 72.0408 63.1822 72.2401 63.1822 72.4395Z" fill="#858585"/>
<path d="M62.4423 71.7749V74.4996C62.3749 74.4996 62.3076 74.4331 62.2402 74.4331V71.7085C62.3076 71.7085 62.3749 71.7085 62.4423 71.7749Z" fill="#8A8A8A"/>
<path d="M62.2402 71.71V74.4346C62.1728 74.4346 62.1728 74.4346 62.1055 74.3682V71.6436C62.1728 71.71 62.2402 71.71 62.2402 71.71Z" fill="#8F8F8F"/>
<path d="M62.1054 71.6436V74.3682C62.038 74.3682 62.038 74.3682 61.9707 74.3682V71.6436C62.038 71.6436 62.1054 71.6436 62.1054 71.6436Z" fill="#949494"/>
<path d="M62.0351 71.6436V74.3682C61.9677 74.3682 61.9677 74.3682 61.9004 74.3682V71.6436C61.9004 71.6436 61.9677 71.6436 62.0351 71.6436Z" fill="#999999"/>
<path d="M61.9003 71.6436V74.3682C61.833 74.3682 61.833 74.3682 61.7656 74.3682V71.6436C61.833 71.6436 61.833 71.6436 61.9003 71.6436Z" fill="#9E9E9E"/>
<path d="M61.7675 71.6436V74.3682C61.7002 74.3682 61.7002 74.3682 61.6328 74.3682V71.6436C61.7002 71.6436 61.7002 71.6436 61.7675 71.6436Z" fill="#A3A3A3"/>
<path d="M61.6308 71.6436V74.3682H61.5634C61.5634 74.3682 61.5634 74.3682 61.4961 74.3682V71.6436C61.4961 71.6436 61.4961 71.6436 61.5634 71.6436C61.5634 71.6436 61.5634 71.6436 61.6308 71.6436Z" fill="#A8A8A8"/>
<path d="M61.4989 71.6436V74.3682C61.4316 74.3682 61.3642 74.3682 61.2969 74.3682V71.6436C61.3642 71.6436 61.4316 71.6436 61.4989 71.6436Z" fill="#ADADAD"/>
<path d="M61.2957 71.6436V74.3682C61.161 74.3682 61.0263 74.4346 60.959 74.4346V71.71C61.0263 71.71 61.161 71.71 61.2957 71.6436Z" fill="#B3B3B3"/>
<path d="M60.8921 71.7778V74.5024C60.69 74.5689 60.4207 74.7018 60.1513 74.8347C60.1513 74.8347 60.084 74.8347 60.084 74.9012V72.1766C60.084 72.1766 60.1513 72.1766 60.1513 72.1101C60.4207 71.9107 60.69 71.8443 60.8921 71.7778Z" fill="#B8B8B8"/>
<path d="M60.1482 72.1099V74.8345C59.9462 74.9674 59.8115 75.0338 59.7441 75.1667V72.4421C59.8115 72.3092 59.9462 72.2428 60.1482 72.1099Z" fill="#B3B3B3"/>
<path d="M59.6796 72.4429V75.1675C59.6123 75.2339 59.5449 75.3004 59.5449 75.3004V72.5758C59.6123 72.5093 59.6796 72.4429 59.6796 72.4429Z" fill="#ADADAD"/>
<path d="M59.5439 72.5728V75.2974C59.5439 75.3638 59.4766 75.3638 59.4766 75.4303V72.7057C59.4766 72.6392 59.5439 72.5728 59.5439 72.5728Z" fill="#A8A8A8"/>
<path d="M59.4775 72.7061V75.4307C59.4775 75.4307 59.4775 75.4971 59.4102 75.4971V72.7725C59.4775 72.7725 59.4775 72.7061 59.4775 72.7061Z" fill="#A3A3A3"/>
<path d="M64.7295 72.7725V75.4971C64.7295 75.5635 64.6621 75.63 64.6621 75.6964V72.9718C64.7294 72.9054 64.7295 72.8389 64.7295 72.7725Z" fill="#9E9E9E"/>
<path d="M64.6611 72.9756V75.7002C64.6611 75.7666 64.5938 75.8331 64.5938 75.8995V73.1749C64.6611 73.1085 64.6611 73.042 64.6611 72.9756Z" fill="#A3A3A3"/>
<path d="M64.5937 73.1738V75.8984C64.5263 75.9649 64.5263 76.0313 64.459 76.0978V73.3732C64.5263 73.3067 64.5263 73.2403 64.5937 73.1738Z" fill="#A8A8A8"/>
<path d="M64.4598 73.373V76.0977C64.3925 76.1641 64.3252 76.2306 64.2578 76.3635V73.6389C64.3252 73.506 64.3925 73.4395 64.4598 73.373Z" fill="#ADADAD"/>
<path d="M64.1891 73.6367V76.3613C64.0544 76.4942 63.8524 76.6271 63.6504 76.76V74.0354C63.9198 73.9025 64.0544 73.7696 64.1891 73.6367Z" fill="#B3B3B3"/>
<path d="M63.721 73.9692V76.6938C63.721 76.6938 63.6537 76.6938 63.6537 76.7603C63.3843 76.9597 63.0476 77.0926 62.7109 77.159V74.4344C63.0476 74.368 63.317 74.2351 63.721 73.9692C63.6537 74.0357 63.6537 74.0357 63.721 73.9692Z" fill="#B8B8B8"/>
<path d="M62.7105 74.436V77.1606C62.5085 77.2271 62.2391 77.2935 62.0371 77.2935V74.5689C62.2391 74.5689 62.5085 74.5025 62.7105 74.436Z" fill="#B3B3B3"/>
<path d="M62.0339 74.6348V77.3594C61.8992 77.3594 61.6972 77.4258 61.5625 77.4258V74.7012C61.6972 74.6348 61.8992 74.6348 62.0339 74.6348Z" fill="#ADADAD"/>
<path d="M61.5633 74.7002V77.4248C61.4959 77.4248 61.4286 77.4248 61.3612 77.4248C61.2939 77.4248 61.2939 77.4248 61.2266 77.4248V74.7002C61.2939 74.7002 61.2939 74.7002 61.3612 74.7002C61.4286 74.7002 61.4959 74.7002 61.5633 74.7002Z" fill="#A8A8A8"/>
<path d="M61.2264 74.7002V77.4248C61.1591 77.4248 61.0244 77.4248 60.957 77.4248V74.7002C61.0244 74.7002 61.1591 74.7002 61.2264 74.7002Z" fill="#A3A3A3"/>
<path d="M60.9569 74.7002V77.4248C60.8895 77.4248 60.8222 77.4248 60.6875 77.4248V74.7002C60.8222 74.7002 60.8895 74.7002 60.9569 74.7002Z" fill="#9E9E9E"/>
<path d="M60.7576 74.7034V77.428C60.6903 77.428 60.623 77.428 60.4883 77.428V74.7034C60.5556 74.6369 60.623 74.7034 60.7576 74.7034Z" fill="#999999"/>
<path d="M60.4881 74.6363V77.3609C60.4208 77.3609 60.2861 77.3609 60.2188 77.2944V74.5698C60.2861 74.6363 60.4208 74.6363 60.4881 74.6363Z" fill="#949494"/>
<path d="M60.2186 74.6363V77.3609C60.0839 77.3609 60.0166 77.2944 59.9492 77.2944V74.5698C60.0166 74.5698 60.1512 74.5698 60.2186 74.6363Z" fill="#8F8F8F"/>
<path d="M59.949 74.5689V77.2935C59.8143 77.2271 59.6796 77.2271 59.5449 77.1606V74.436C59.6796 74.436 59.8143 74.5025 59.949 74.5689Z" fill="#8A8A8A"/>
<path d="M59.5438 74.3674V77.092C59.3418 77.0255 59.1398 76.8926 58.8704 76.7597C58.1297 76.361 57.793 75.9622 57.793 75.4971V72.7725C57.793 73.2376 58.1297 73.6364 58.8704 74.0351C59.0724 74.2344 59.2745 74.3009 59.5438 74.3674Z" fill="#858585"/>
<path d="M64.7297 72.7063C64.6623 73.1714 64.2583 73.6366 63.5849 74.0353C62.9115 74.4341 62.1707 74.6334 61.2953 74.6999C60.4199 74.7663 59.6118 74.567 58.8037 74.1018C58.0629 73.6366 57.7262 73.1714 57.7936 72.7063C57.8609 72.2411 58.265 71.7759 58.9384 71.3772C59.6118 70.9785 60.3525 70.7791 61.2279 70.7127C62.1034 70.6462 62.9115 70.8456 63.7195 71.3107C64.5276 71.7759 64.8643 72.2411 64.7297 72.7063ZM61.0259 73.7695C61.43 73.7031 61.9013 73.5702 62.3727 73.3044C62.8441 73.0385 63.1135 72.7727 63.1808 72.5069C63.2482 72.2411 63.1135 72.0417 62.7094 71.8424C62.3727 71.643 61.9687 71.5766 61.5646 71.5766C61.1606 71.643 60.6892 71.7759 60.2178 72.0417C59.7465 72.3075 59.4771 72.5734 59.4771 72.8392C59.4097 73.105 59.5444 73.3044 59.8811 73.5037C60.2178 73.7031 60.6219 73.7695 61.0259 73.7695Z" fill="#DCDCDC"/>
<path d="M67.896 73.8354V76.5601L67.0879 77.0252V74.3006L67.896 73.8354Z" fill="#C5C5C5"/>
<path d="M68.0925 75.2341V77.9587C68.0251 77.8922 67.9578 77.8922 67.9578 77.8922C67.8231 77.8258 67.6884 77.7593 67.6211 77.6929V74.9683C67.7558 75.0347 67.8905 75.1012 67.9578 75.1676C68.0251 75.1676 68.0251 75.2341 68.0925 75.2341Z" fill="#858585"/>
<path d="M67.6239 74.9654V77.69C67.5566 77.69 67.4892 77.6235 67.4219 77.6235V74.8989C67.4892 74.9654 67.5566 74.9654 67.6239 74.9654Z" fill="#8A8A8A"/>
<path d="M67.4218 74.9004V77.625C67.3545 77.625 67.3545 77.625 67.2871 77.5586V74.834C67.2871 74.9004 67.3545 74.9004 67.4218 74.9004Z" fill="#8F8F8F"/>
<path d="M67.2187 74.8989V77.6235C67.1513 77.6235 67.1513 77.6235 67.084 77.6235V74.8989C67.1513 74.8989 67.2187 74.8989 67.2187 74.8989Z" fill="#949494"/>
<path d="M67.1523 74.834V77.5586C67.0849 77.5586 67.0849 77.5586 67.0176 77.5586V74.834C67.0849 74.834 67.0849 74.834 67.1523 74.834Z" fill="#999999"/>
<path d="M67.0175 74.834V77.5586C66.9502 77.5586 66.9502 77.5586 66.8828 77.5586V74.834C66.9502 74.834 66.9502 74.834 67.0175 74.834Z" fill="#9E9E9E"/>
<path d="M66.8827 74.834V77.5586C66.8154 77.5586 66.8154 77.5586 66.748 77.5586V74.834C66.8154 74.834 66.8827 74.834 66.8827 74.834Z" fill="#A3A3A3"/>
<path d="M66.8144 74.834V77.5586C66.747 77.5586 66.747 77.5586 66.6797 77.5586V74.834C66.747 74.834 66.747 74.834 66.8144 74.834Z" fill="#A8A8A8"/>
<path d="M66.6777 74.834V77.5586C66.6103 77.5586 66.6103 77.5586 66.543 77.5586V74.834C66.6103 74.834 66.6103 74.834 66.6777 74.834Z" fill="#ADADAD"/>
<path d="M66.5458 74.8989V77.6235C66.4784 77.6235 66.4111 77.69 66.3438 77.69V74.9654C66.3438 74.8989 66.4784 74.8989 66.5458 74.8989Z" fill="#B3B3B3"/>
<path d="M66.2759 74.8989V77.6235C66.0739 77.69 65.8045 77.8229 65.5352 77.9558V75.2312C65.8719 75.0983 66.0739 74.9654 66.2759 74.8989Z" fill="#B8B8B8"/>
<path d="M69.509 74.6348V77.3594L68.2969 78.0904V75.3658L69.509 74.6348Z" fill="#C5C5C5"/>
<path d="M68.2977 75.3644V78.089C68.2304 78.0225 68.163 78.0225 68.0957 77.956V75.2314C68.163 75.2979 68.2304 75.2979 68.2977 75.3644Z" fill="#858585"/>
<path d="M69.4427 74.6343C69.4427 74.6343 69.51 74.6343 69.51 74.7008L68.2979 75.4317C68.2306 75.3653 68.1632 75.3653 68.0959 75.2988C68.0286 75.2324 67.9612 75.2324 67.9612 75.2324C67.4898 74.9666 67.0184 74.8337 66.5471 74.9666C66.2777 75.033 65.941 75.1659 65.6043 75.3653L63.3821 76.495L62.1699 75.8305L66.6817 73.2388L67.8265 73.9033L67.0184 74.3685C67.4898 74.302 67.8939 74.302 68.0959 74.302C68.6346 74.2356 68.9713 74.3685 69.4427 74.6343Z" fill="#DCDCDC"/>
<path d="M65.605 75.2314V77.956L63.3828 79.2187V76.4941L65.605 75.2314Z" fill="#C5C5C5"/>
<path d="M63.3821 76.4961V79.2207L62.1699 78.5561L62.2373 75.8315L63.3821 76.4961Z" fill="#898989"/>
<path d="M71.729 77.3575V80.0821C71.729 79.8827 71.5943 79.6833 71.2576 79.484C71.1903 79.4175 71.123 79.4175 70.9883 79.3511V76.6265C71.0556 76.6929 71.1903 76.6929 71.2576 76.7594C71.5943 76.9587 71.729 77.1581 71.729 77.3575Z" fill="#858585"/>
<path d="M71.0594 76.6929V79.4175C70.9921 79.4175 70.9248 79.3511 70.8574 79.3511V76.6265C70.9248 76.6265 70.9921 76.6265 71.0594 76.6929Z" fill="#8A8A8A"/>
<path d="M70.8573 76.628V79.3526C70.79 79.3526 70.79 79.3526 70.7227 79.2861V76.5615C70.79 76.5615 70.79 76.5615 70.8573 76.628Z" fill="#8F8F8F"/>
<path d="M70.7226 76.5615V79.2861C70.6552 79.2861 70.6552 79.2861 70.5879 79.2861V76.5615C70.6552 76.5615 70.6552 76.5615 70.7226 76.5615Z" fill="#949494"/>
<path d="M70.5878 76.5615V79.2861C70.5205 79.2861 70.5205 79.2861 70.4531 79.2861V76.5615C70.5205 76.5615 70.5878 76.5615 70.5878 76.5615Z" fill="#999999"/>
<path d="M70.453 76.5615V79.2861C70.3857 79.2861 70.3857 79.2861 70.3184 79.2861V76.5615C70.3857 76.5615 70.453 76.5615 70.453 76.5615Z" fill="#9E9E9E"/>
<path d="M70.3847 76.5615V79.2861C70.3173 79.2861 70.3173 79.2861 70.25 79.2861V76.5615C70.25 76.5615 70.3173 76.5615 70.3847 76.5615Z" fill="#A3A3A3"/>
<path d="M70.248 76.5615V79.2861H70.1806C70.1806 79.2861 70.1806 79.2861 70.1133 79.2861V76.5615C70.1133 76.5615 70.1133 76.5615 70.1806 76.5615C70.1806 76.5615 70.1806 76.5615 70.248 76.5615Z" fill="#A8A8A8"/>
<path d="M70.0477 76.5615V79.2861C69.9804 79.2861 69.913 79.2861 69.8457 79.2861V76.5615C69.913 76.5615 69.9804 76.5615 70.0477 76.5615Z" fill="#ADADAD"/>
<path d="M69.8465 76.5615V79.2861C69.7118 79.2861 69.5771 79.3526 69.5098 79.3526V76.628C69.6444 76.628 69.7791 76.5615 69.8465 76.5615Z" fill="#B3B3B3"/>
<path d="M69.5093 76.6265V79.3511C69.3072 79.4175 69.0379 79.5504 68.7685 79.6833C68.7685 79.6833 68.7012 79.6833 68.7012 79.7498V77.0252C68.7012 77.0252 68.7685 77.0252 68.7685 76.9587C69.0379 76.8258 69.2399 76.7594 69.5093 76.6265Z" fill="#B8B8B8"/>
<path d="M68.7009 77.0278V79.7524C68.4989 79.8853 68.3642 79.9518 68.2969 80.0847V77.3601C68.4316 77.2272 68.5662 77.0943 68.7009 77.0278Z" fill="#B3B3B3"/>
<path d="M68.2968 77.2925V80.0171C68.2295 80.0835 68.1621 80.15 68.1621 80.15V77.4254C68.2294 77.4254 68.2295 77.3589 68.2968 77.2925Z" fill="#ADADAD"/>
<path d="M68.1611 77.4907V80.2153C68.1611 80.2818 68.0938 80.2818 68.0938 80.3482V77.6236C68.0938 77.5572 68.1611 77.4907 68.1611 77.4907Z" fill="#A8A8A8"/>
<path d="M68.0947 77.5601V80.2847C68.0947 80.2847 68.0947 80.3511 68.0273 80.3511V77.6265C68.0273 77.6265 68.0947 77.6265 68.0947 77.5601Z" fill="#A3A3A3"/>
<path d="M73.3466 77.6255V80.3501C73.3466 80.4165 73.2793 80.483 73.2793 80.5495V77.8248C73.2793 77.7584 73.3466 77.6919 73.3466 77.6255Z" fill="#9E9E9E"/>
<path d="M73.2802 77.8247V80.5493C73.2802 80.6158 73.2129 80.6822 73.2129 80.7487V78.0241C73.2129 77.9576 73.2802 77.8912 73.2802 77.8247Z" fill="#A3A3A3"/>
<path d="M73.2128 78.0229V80.7476C73.1455 80.814 73.1455 80.8805 73.0781 80.9469V78.2223C73.0781 78.2223 73.1455 78.1559 73.2128 78.0229Z" fill="#A8A8A8"/>
<path d="M73.0106 78.291V81.0156C72.9433 81.0821 72.8759 81.1485 72.8086 81.2814V78.5568C72.8759 78.4239 72.9433 78.3575 73.0106 78.291Z" fill="#ADADAD"/>
<path d="M72.8083 78.4897V81.2144C72.6736 81.3473 72.4716 81.4802 72.2695 81.6131V78.8885C72.4716 78.7556 72.6736 78.6227 72.8083 78.4897Z" fill="#B3B3B3"/>
<path d="M72.2718 78.8872V81.6118C72.2718 81.6118 72.2045 81.6118 72.2045 81.6783C71.9351 81.8776 71.5984 82.0105 71.2617 82.077V79.3524C71.5984 79.2195 71.9351 79.0866 72.2718 78.8872C72.2718 78.9537 72.2718 78.8872 72.2718 78.8872Z" fill="#B8B8B8"/>
<path d="M71.2613 79.354V82.0786C71.0593 82.1451 70.7899 82.2115 70.5879 82.2115V79.4869C70.8573 79.4869 71.0593 79.4205 71.2613 79.354Z" fill="#B3B3B3"/>
<path d="M70.5847 79.4878V82.2124C70.45 82.2124 70.248 82.2788 70.1133 82.2788V79.5542C70.3153 79.5542 70.45 79.5542 70.5847 79.4878Z" fill="#ADADAD"/>
<path d="M70.1805 79.5527V82.2773C70.1131 82.2773 70.0458 82.2773 69.9784 82.2773C69.9111 82.2773 69.9111 82.2773 69.8438 82.2773V79.5527C69.9111 79.5527 69.9111 79.5527 69.9784 79.5527C69.9784 79.5527 70.1131 79.5527 70.1805 79.5527Z" fill="#A8A8A8"/>
<path d="M69.8436 79.6182V82.3428C69.7762 82.3428 69.6416 82.3428 69.5742 82.3428V79.6182C69.6416 79.6182 69.7089 79.6182 69.8436 79.6182Z" fill="#A3A3A3"/>
<path d="M69.574 79.6182V82.3428C69.5067 82.3428 69.4394 82.3428 69.3047 82.3428V79.6182C69.372 79.6182 69.5067 79.6182 69.574 79.6182Z" fill="#9E9E9E"/>
<path d="M69.3084 79.5527V82.2773C69.2411 82.2773 69.1737 82.2773 69.0391 82.2773V79.5527C69.1737 79.5527 69.2411 79.5527 69.3084 79.5527Z" fill="#999999"/>
<path d="M69.1033 79.5542V82.2788C69.036 82.2788 68.9013 82.2788 68.834 82.2124V79.4878C68.9013 79.5542 68.9687 79.5542 69.1033 79.5542Z" fill="#949494"/>
<path d="M68.8358 79.4854V82.21C68.7011 82.21 68.6337 82.1435 68.5664 82.1435V79.4189C68.6337 79.4854 68.7011 79.4854 68.8358 79.4854Z" fill="#8F8F8F"/>
<path d="M68.4997 79.4186V82.1432C68.3651 82.0767 68.2304 82.0767 68.0957 82.0102V79.2856C68.2304 79.3521 68.3651 79.4186 68.4997 79.4186Z" fill="#8A8A8A"/>
<path d="M68.0946 79.2853V82.0099C67.8926 81.9435 67.6906 81.8106 67.4212 81.6777C66.6805 81.2789 66.3438 80.8802 66.3438 80.415V77.6904C66.3438 78.1556 66.6805 78.5543 67.4212 78.9531C67.6906 79.086 67.8926 79.2189 68.0946 79.2853Z" fill="#858585"/>
<path d="M73.3477 77.6242C73.2804 78.0894 72.8764 78.5546 72.2029 78.9533C71.5295 79.352 70.7888 79.5514 69.9134 79.6178C69.0379 79.6843 68.2299 79.4849 67.4218 79.0198C66.6137 78.5546 66.277 78.0894 66.3443 77.6242C66.4117 77.1591 66.8157 76.6939 67.4891 76.2952C68.1625 75.8964 68.9033 75.6971 69.7787 75.6306C70.6541 75.5642 71.4622 75.7635 72.2703 76.2287C73.0784 76.6274 73.4151 77.1591 73.3477 77.6242ZM69.644 78.6875C70.0481 78.621 70.5194 78.4881 70.9908 78.2223C71.4622 77.9565 71.7316 77.6907 71.7989 77.4249C71.8662 77.1591 71.7316 76.9597 71.3275 76.7603C70.9908 76.561 70.5868 76.4945 70.1827 76.4945C69.7787 76.561 69.3073 76.6939 68.8359 76.9597C68.3645 77.2255 68.0952 77.4913 68.0952 77.7571C68.0278 78.023 68.1625 78.2223 68.4992 78.4217C68.8359 78.621 69.1726 78.6875 69.644 78.6875Z" fill="#DCDCDC"/>
<path d="M76.5132 78.7573V81.4819L75.8398 81.8806V79.156L76.5132 78.7573Z" fill="#C5C5C5"/>
<path d="M76.985 80.2841V83.0087C76.985 82.8758 76.8503 82.7429 76.6483 82.61C76.5809 82.5435 76.5136 82.5435 76.3789 82.477V79.7524C76.4462 79.7524 76.5136 79.8189 76.6483 79.8853C76.8503 80.0183 76.985 80.1512 76.985 80.2841Z" fill="#858585"/>
<path d="M76.3788 79.7496V82.4742C76.3115 82.4742 76.2441 82.4077 76.2441 82.4077V79.6831C76.3115 79.6831 76.3115 79.6831 76.3788 79.7496Z" fill="#8A8A8A"/>
<path d="M76.2441 79.6831V82.4077C76.1767 82.4077 76.1767 82.4077 76.1094 82.4077V79.6831C76.1767 79.6831 76.1767 79.6831 76.2441 79.6831Z" fill="#8F8F8F"/>
<path d="M76.1093 79.6182V82.3428C76.042 82.3428 76.0419 82.3428 75.9746 82.3428V79.6182C76.0419 79.6182 76.1093 79.6182 76.1093 79.6182Z" fill="#949494"/>
<path d="M75.9745 79.6182V82.3428C75.9745 82.3428 75.9072 82.3428 75.8398 82.3428V79.6182C75.9072 79.6182 75.9745 79.6182 75.9745 79.6182Z" fill="#999999"/>
<path d="M75.9042 79.6182V82.3428C75.8369 82.3428 75.8369 82.3428 75.7695 82.3428V79.6182C75.8369 79.6182 75.8369 79.6182 75.9042 79.6182Z" fill="#9E9E9E"/>
<path d="M75.7714 79.6182V82.3428C75.7041 82.3428 75.7041 82.3428 75.6367 82.3428V79.6182C75.7041 79.6182 75.7714 79.6182 75.7714 79.6182Z" fill="#A3A3A3"/>
<path d="M75.705 79.6182V82.3428C75.6377 82.3428 75.6377 82.3428 75.5703 82.3428V79.6182C75.6377 79.6182 75.6377 79.6182 75.705 79.6182Z" fill="#A8A8A8"/>
<path d="M75.5692 79.6182V82.3428C75.5019 82.3428 75.4345 82.3428 75.3672 82.3428V79.6182C75.4345 79.6182 75.5019 79.6182 75.5692 79.6182Z" fill="#ADADAD"/>
<path d="M75.368 79.6182V82.3428C75.3006 82.3428 75.3006 82.3428 75.2333 82.3428C75.1659 82.3428 75.0986 82.3428 75.0312 82.4092V79.6846C75.0986 79.6846 75.1659 79.6182 75.2333 79.6182C75.3006 79.6846 75.368 79.6846 75.368 79.6182Z" fill="#B3B3B3"/>
<path d="M75.0982 79.7524V82.477C74.8962 82.5435 74.6942 82.61 74.4922 82.7429V80.0183C74.6942 79.8853 74.8962 79.7524 75.0982 79.7524Z" fill="#B8B8B8"/>
<path d="M78.7334 80.6162V83.3408C78.7334 83.3408 78.7334 83.4073 78.666 83.4073V80.6827C78.7334 80.6827 78.7334 80.6827 78.7334 80.6162Z" fill="#A3A3A3"/>
<path d="M78.7334 80.75V83.4746C78.7334 83.5411 78.666 83.5411 78.666 83.6075V80.8829C78.666 80.8165 78.666 80.75 78.7334 80.75Z" fill="#A8A8A8"/>
<path d="M78.6659 80.8149V83.5395C78.5986 83.606 78.5986 83.606 78.5312 83.6725V80.9478C78.5312 80.9478 78.5986 80.8814 78.6659 80.8149Z" fill="#ADADAD"/>
<path d="M78.531 81.0137V83.7383C78.3963 83.8712 78.2616 83.9376 78.127 84.0705V81.3459C78.2616 81.213 78.3963 81.0801 78.531 81.0137Z" fill="#B3B3B3"/>
<path d="M78.0595 81.2812V84.0059C78.0595 84.0059 77.9922 84.0059 77.9922 84.0723L78.0595 81.2812C78.0595 81.3477 78.0595 81.2812 78.0595 81.2812Z" fill="#B8B8B8"/>
<path d="M74.4916 80.0195V82.6777L72 84.1397V81.4151L74.4916 80.0195Z" fill="#C5C5C5"/>
<path d="M71.9992 81.4145V84.1391L70.7871 83.4081V80.75L71.9992 81.4145Z" fill="#898989"/>
<path d="M77.9913 81.3462V84.0043L74.9609 85.7986V83.074L77.9913 81.3462Z" fill="#C5C5C5"/>
<path d="M74.9602 83.0737V85.7983L73.748 85.0673V82.4092L74.9602 83.0737Z" fill="#898989"/>
<path d="M77.9926 79.4864C78.4639 79.7523 78.7333 80.0181 78.8006 80.3503C78.868 80.6826 78.5986 80.9484 77.9926 81.2807L74.9622 83.0085L73.7501 82.2775L76.5111 80.6826C76.7804 80.5497 76.9151 80.4168 76.9824 80.2839C77.1171 80.0845 76.9824 79.8852 76.6457 79.6858C76.2417 79.4864 75.7703 79.42 75.2989 79.4864C75.0296 79.5529 74.7602 79.6858 74.4908 79.8187L71.9992 81.2142L70.7871 80.5497L75.2989 77.958L76.4437 78.6225L75.7703 79.0213C76.1744 78.9548 76.4437 78.9548 76.7131 78.9548C77.2518 79.1542 77.5885 79.2871 77.9926 79.4864Z" fill="#DCDCDC"/>
<path d="M82.2329 83.3394V86.064C82.2329 85.8646 82.0983 85.6653 81.7615 85.4659C81.6942 85.3995 81.5595 85.3995 81.4922 85.333V82.6084C81.5595 82.6749 81.6942 82.6749 81.7615 82.7413C82.0983 82.9407 82.2329 83.14 82.2329 83.3394Z" fill="#858585"/>
<path d="M81.5634 82.6749V85.3995C81.496 85.3995 81.4287 85.333 81.3613 85.333V82.6084C81.4287 82.6084 81.496 82.6084 81.5634 82.6749Z" fill="#8A8A8A"/>
<path d="M81.3612 82.6099V85.3345C81.2939 85.3345 81.2939 85.3345 81.2266 85.2681V82.5435C81.2939 82.5435 81.3612 82.6099 81.3612 82.6099Z" fill="#8F8F8F"/>
<path d="M81.2265 82.5435V85.2681C81.1591 85.2681 81.1591 85.2681 81.0918 85.2681V82.5435C81.1591 82.5435 81.2265 82.5435 81.2265 82.5435Z" fill="#949494"/>
<path d="M81.0917 82.5435V85.2681C81.0244 85.2681 81.0244 85.2681 80.957 85.2681V82.5435C81.0244 82.5435 81.0917 82.5435 81.0917 82.5435Z" fill="#999999"/>
<path d="M81.0214 82.5435V85.2681C80.9541 85.2681 80.9541 85.2681 80.8867 85.2681V82.5435C80.8867 82.5435 80.9541 82.5435 81.0214 82.5435Z" fill="#9E9E9E"/>
<path d="M80.8886 82.5435V85.2681C80.8212 85.2681 80.8212 85.2681 80.7539 85.2681V82.5435C80.7539 82.5435 80.8212 82.5435 80.8886 82.5435Z" fill="#A3A3A3"/>
<path d="M80.7519 82.5435V85.2681H80.6845H80.6172V82.5435H80.6845C80.6845 82.5435 80.6845 82.5435 80.7519 82.5435Z" fill="#A8A8A8"/>
<path d="M80.5516 82.5435V85.2681C80.4843 85.2681 80.4169 85.2681 80.3496 85.2681V82.5435C80.4169 82.5435 80.4843 82.5435 80.5516 82.5435Z" fill="#ADADAD"/>
<path d="M80.3504 82.5435V85.2681C80.2157 85.2681 80.081 85.3345 80.0137 85.3345V82.6099C80.1484 82.6099 80.283 82.6099 80.3504 82.5435Z" fill="#B3B3B3"/>
<path d="M80.0132 82.6777V85.4023C79.8111 85.4688 79.5418 85.6017 79.2724 85.7346C79.2724 85.7346 79.2051 85.7346 79.2051 85.8011V83.0765C79.2051 83.0765 79.2724 83.0765 79.2724 83.01C79.5418 82.8106 79.7438 82.7442 80.0132 82.6777Z" fill="#B8B8B8"/>
<path d="M79.2048 83.0098V85.7344C79.0028 85.8673 78.8681 85.9337 78.8008 86.0666V83.342C78.9355 83.2091 79.0701 83.0762 79.2048 83.0098Z" fill="#B3B3B3"/>
<path d="M78.8007 83.2744V85.999C78.7334 86.0655 78.666 86.1319 78.666 86.1319V83.4073C78.7334 83.4073 78.7334 83.3409 78.8007 83.2744Z" fill="#ADADAD"/>
<path d="M78.665 83.4727V86.1973C78.665 86.2637 78.5977 86.2637 78.5977 86.3302V83.6056C78.5977 83.5391 78.665 83.4727 78.665 83.4727Z" fill="#A8A8A8"/>
<path d="M78.5986 83.542V86.2666C78.5986 86.2666 78.5986 86.333 78.5312 86.333V83.6084C78.5312 83.6084 78.5986 83.6084 78.5986 83.542Z" fill="#A3A3A3"/>
<path d="M83.8505 83.6074V86.332C83.8505 86.3985 83.7832 86.4649 83.7832 86.5314V83.8068C83.7832 83.8068 83.8505 83.7403 83.8505 83.6074Z" fill="#9E9E9E"/>
<path d="M83.7841 83.8755V86.6001C83.7841 86.6665 83.7168 86.733 83.7168 86.7995V84.0748C83.7168 84.0084 83.7841 83.9419 83.7841 83.8755Z" fill="#A3A3A3"/>
<path d="M83.7167 84.0737V86.7983C83.6494 86.8648 83.6494 86.9312 83.582 86.9977V84.2731C83.582 84.2066 83.6494 84.1402 83.7167 84.0737Z" fill="#A8A8A8"/>
<path d="M83.5145 84.2729V86.9976C83.4472 87.064 83.3798 87.1305 83.3125 87.2634V84.5388C83.3798 84.4059 83.4472 84.3394 83.5145 84.2729Z" fill="#ADADAD"/>
<path d="M83.3122 84.5366V87.2612C83.1775 87.3941 82.9755 87.527 82.7734 87.6599V84.9353C82.9755 84.736 83.1775 84.6695 83.3122 84.5366Z" fill="#B3B3B3"/>
<path d="M82.7757 84.8691V87.5937C82.7757 87.5937 82.7084 87.5937 82.7084 87.6602C82.439 87.8596 82.1023 87.9925 81.7656 88.0589V85.3343C82.1023 85.2014 82.439 85.0685 82.7757 84.8691C82.7757 84.9356 82.7757 84.8691 82.7757 84.8691Z" fill="#B8B8B8"/>
<path d="M81.8297 85.3359V88.0605C81.6276 88.127 81.4256 88.1934 81.1562 88.1934V85.4688C81.3583 85.4688 81.5603 85.4024 81.8297 85.3359Z" fill="#B3B3B3"/>
<path d="M81.1569 85.4697V88.1943C81.0222 88.1943 80.8876 88.2608 80.6855 88.2608V85.5362C80.8202 85.5362 80.9549 85.5362 81.1569 85.4697Z" fill="#ADADAD"/>
<path d="M80.6853 85.5347V88.2593C80.618 88.2593 80.5506 88.2593 80.4159 88.2593C80.3486 88.2593 80.3486 88.2593 80.2812 88.2593V85.5347C80.3486 85.5347 80.3486 85.5347 80.4159 85.5347C80.5506 85.6011 80.618 85.5347 80.6853 85.5347Z" fill="#A8A8A8"/>
<path d="M80.3475 85.6001V88.3247C80.2801 88.3247 80.1455 88.3247 80.0781 88.3247V85.6001C80.1455 85.6001 80.2128 85.6001 80.3475 85.6001Z" fill="#A3A3A3"/>
<path d="M80.078 85.6001V88.3247C80.0106 88.3247 79.9433 88.3247 79.8086 88.3247V85.6001C79.8759 85.6001 80.0106 85.6001 80.078 85.6001Z" fill="#9E9E9E"/>
<path d="M79.8123 85.6011V88.3257C79.745 88.3257 79.6777 88.3257 79.543 88.3257V85.6011C79.6777 85.5347 79.745 85.5347 79.8123 85.6011Z" fill="#999999"/>
<path d="M79.6073 85.5362V88.2608C79.5399 88.2608 79.4052 88.2608 79.3379 88.1943V85.4697C79.4052 85.5362 79.4726 85.5362 79.6073 85.5362Z" fill="#949494"/>
<path d="M79.3397 85.4673V88.1919C79.205 88.1919 79.1377 88.1255 79.0703 88.1255V85.4009C79.1377 85.4673 79.205 85.4673 79.3397 85.4673Z" fill="#8F8F8F"/>
<path d="M79.0036 85.4005V88.1251C78.869 88.0586 78.7343 88.0586 78.5996 87.9922V85.2676C78.7343 85.334 78.869 85.4005 79.0036 85.4005Z" fill="#8A8A8A"/>
<path d="M78.5985 85.2673V87.9919C78.3965 87.9254 78.1945 87.7925 77.9251 87.6596C77.1844 87.2609 76.8477 86.8621 76.8477 86.397V83.6724C76.8477 84.1375 77.1844 84.5363 77.9251 84.935C78.1945 85.0679 78.3965 85.2008 78.5985 85.2673Z" fill="#858585"/>
<path d="M83.8516 83.6062C83.7843 84.0713 83.3803 84.5365 82.7069 84.9352C82.0335 85.334 81.2927 85.5333 80.4173 85.5998C79.5418 85.6662 78.7338 85.4669 77.9257 85.0017C77.1176 84.5365 76.7809 84.0713 76.8482 83.6062C76.9156 83.141 77.3196 82.6758 77.993 82.2771C78.6664 81.8784 79.4072 81.679 80.2826 81.6126C81.158 81.5461 81.9661 81.7455 82.7742 82.2106C83.5823 82.6758 83.919 83.141 83.8516 83.6062ZM80.1479 84.6694C80.552 84.603 81.0233 84.4701 81.4947 84.2043C81.9661 83.9384 82.2355 83.6726 82.2355 83.4068C82.3028 83.141 82.1681 82.9416 81.8314 82.7423C81.4947 82.5429 81.0907 82.4765 80.6866 82.4765C80.2826 82.5429 79.8112 82.6758 79.3398 82.9416C78.8684 83.2074 78.5991 83.4733 78.5991 83.7391C78.5317 84.0049 78.6664 84.2043 79.0031 84.4036C79.3398 84.603 79.6765 84.6694 80.1479 84.6694Z" fill="#DCDCDC"/>
<path d="M90.7206 86.6616V89.3198L87.4883 90.2501V87.592L90.7206 86.6616Z" fill="#C3C3C3"/>
<path d="M86.0761 87.9927V90.7173L84.3926 91.1825V88.4579L86.0761 87.9927Z" fill="#C3C3C3"/>
<path d="M84.3917 88.4561V91.1807L83.0449 90.3833V87.7251L84.3917 88.4561Z" fill="#898989"/>
<path d="M88.3658 89.2553V91.9799L86.0762 90.7173V87.9927L88.3658 89.2553Z" fill="#898989"/>
<path d="M92.8766 86.2638L88.9036 91.0485L87.4894 90.251L88.3648 89.3207L86.0752 87.9916L84.3917 88.4568L83.0449 87.6593L91.3952 85.3999L92.8766 86.2638ZM87.4894 87.5929L89.0382 88.5232L90.6544 86.6625L87.4894 87.5929Z" fill="#DCDCDC"/>
<path d="M92.8754 86.2642V88.9888L88.9023 93.7734V91.0488L92.8754 86.2642Z" fill="#B8B8B8"/>
<path d="M88.9024 91.047V93.7716L87.4883 92.9741V90.2495L88.9024 91.047Z" fill="#898989"/>
<path d="M95.232 89.4541V92.1787L94.5586 92.5774V89.8528L95.232 89.4541Z" fill="#C5C5C5"/>
<path d="M95.7691 91.1172V93.8418C95.7691 93.6424 95.6344 93.5095 95.3651 93.3101C95.2977 93.2437 95.2304 93.2437 95.0957 93.1772V90.4526C95.163 90.4526 95.2304 90.5191 95.3651 90.5855C95.6344 90.7185 95.7691 90.9178 95.7691 91.1172Z" fill="#858585"/>
<path d="M95.0956 90.4498V93.1744C95.0283 93.1744 94.9609 93.1079 94.9609 93.1079V90.3833C94.9609 90.4498 95.0283 90.4498 95.0956 90.4498Z" fill="#8A8A8A"/>
<path d="M94.9628 90.3833V93.1079C94.8955 93.1079 94.8955 93.1079 94.8281 93.1079V90.3833C94.8281 90.3833 94.8955 90.3833 94.9628 90.3833Z" fill="#8F8F8F"/>
<path d="M94.8261 90.3833V93.1079C94.7587 93.1079 94.7587 93.1079 94.6914 93.1079V90.3833C94.7587 90.3833 94.7587 90.3833 94.8261 90.3833Z" fill="#949494"/>
<path d="M94.6913 90.386V93.1106C94.624 93.1106 94.624 93.1106 94.5566 93.1106V90.386C94.624 90.3195 94.624 90.386 94.6913 90.386Z" fill="#999999"/>
<path d="M94.5585 90.3184V93.043C94.4912 93.043 94.4912 93.043 94.4238 93.043V90.3184C94.4912 90.3184 94.5585 90.3184 94.5585 90.3184Z" fill="#9E9E9E"/>
<path d="M94.4921 90.3184V93.043C94.4248 93.043 94.4248 93.043 94.3574 93.043V90.3184C94.4248 90.3184 94.4248 90.3184 94.4921 90.3184Z" fill="#A3A3A3"/>
<path d="M94.3573 90.3184V93.043C94.29 93.043 94.29 93.043 94.2227 93.043V90.3184C94.2227 90.3184 94.29 90.3184 94.3573 90.3184Z" fill="#A8A8A8"/>
<path d="M94.2216 90.3184V93.043C94.1542 93.043 94.0869 93.043 94.0195 93.043V90.3184C94.0869 90.3848 94.1542 90.3848 94.2216 90.3184Z" fill="#ADADAD"/>
<path d="M94.0173 90.3833V93.1079C93.95 93.1079 93.8826 93.1079 93.8153 93.1744C93.748 93.1744 93.6806 93.1744 93.6133 93.2408V90.5162C93.6806 90.5162 93.748 90.4498 93.8153 90.4498C93.8826 90.3833 93.95 90.3833 94.0173 90.3833Z" fill="#B3B3B3"/>
<path d="M93.6801 90.4526V93.1772C93.4108 93.2437 93.1414 93.3766 92.872 93.5095H92.8047V90.7849H92.872C93.1414 90.652 93.4108 90.5191 93.6801 90.4526Z" fill="#B8B8B8"/>
<path d="M92.8064 90.8501V93.5747C92.6717 93.6412 92.537 93.7741 92.4023 93.8405V91.1159C92.537 91.0495 92.6717 90.9166 92.8064 90.8501Z" fill="#B3B3B3"/>
<path d="M92.4706 91.1177V93.8423C92.4033 93.9087 92.4033 93.9087 92.3359 93.9752V91.2506C92.3359 91.1841 92.4033 91.1841 92.4706 91.1177Z" fill="#ADADAD"/>
<path d="M92.3349 91.2476V93.9722C92.3349 94.0386 92.2676 94.0386 92.2676 94.1051V91.3805C92.2676 91.314 92.2676 91.314 92.3349 91.2476Z" fill="#A8A8A8"/>
<path d="M92.2685 91.3809V94.1055C92.2685 94.1055 92.2685 94.1719 92.2012 94.1719V91.4473C92.2012 91.3809 92.2685 91.3809 92.2685 91.3809Z" fill="#A3A3A3"/>
<path d="M91.3276 91.7793V94.4374L88.9707 95.833V93.1084L91.3276 91.7793Z" fill="#C5C5C5"/>
<path d="M88.9699 93.1099V95.8345L87.7578 95.1699V92.4453L88.9699 93.1099Z" fill="#898989"/>
<path d="M97.5223 91.3138C97.5223 91.779 97.1182 92.1777 96.3775 92.6429C95.5694 93.1081 94.7613 93.3739 94.0206 93.3739C93.2125 93.3739 92.5391 93.241 92.0004 92.9087C91.6636 92.7093 91.3943 92.4435 91.3943 92.2442C91.3269 92.1113 91.3943 91.9784 91.4616 91.779L89.1047 93.1081L87.8926 92.4435L94.2226 88.7886L95.3674 89.4531L94.694 89.8518C95.0307 89.7854 95.3 89.7854 95.5694 89.8518C96.0408 89.9183 96.4448 89.9847 96.8489 90.2506C97.2529 90.5164 97.5223 90.8486 97.5223 91.3138ZM93.7512 92.3771C94.1552 92.3106 94.6266 92.1777 95.0307 91.9119C95.3674 91.7125 95.6367 91.5132 95.7041 91.2474C95.8388 90.9815 95.7041 90.7822 95.3 90.5828C94.8287 90.317 94.3573 90.2506 93.8185 90.4499C93.4818 90.5164 93.2125 90.6493 92.8758 90.8486C92.3371 91.1809 92.135 91.4467 92.2024 91.7125C92.2697 91.9119 92.4044 92.0448 92.6064 92.1777C92.9431 92.3106 93.3472 92.4435 93.7512 92.3771Z" fill="#DCDCDC"/>
<path d="M97.5205 91.4468V94.1714C97.5205 94.2378 97.5205 94.2378 97.4531 94.3043V91.5797C97.4531 91.5132 97.4531 91.4468 97.5205 91.4468Z" fill="#9E9E9E"/>
<path d="M97.4541 91.5806V94.3052C97.4541 94.3716 97.3867 94.3716 97.3867 94.4381V91.7135C97.3867 91.647 97.4541 91.5806 97.4541 91.5806Z" fill="#A3A3A3"/>
<path d="M97.3866 91.71V94.4346C97.3866 94.501 97.3193 94.5675 97.252 94.6339V91.9093C97.3193 91.8429 97.3193 91.7764 97.3866 91.71Z" fill="#A8A8A8"/>
<path d="M97.2509 91.8442V94.5688C97.1835 94.6353 97.1162 94.7018 97.0488 94.7682V92.0436C97.1162 92.0436 97.1835 91.9771 97.2509 91.8442Z" fill="#ADADAD"/>
<path d="M97.0494 92.1118V94.8364C96.9147 94.9693 96.7127 95.1022 96.4434 95.3016V92.577C96.7127 92.3776 96.9147 92.2447 97.0494 92.1118Z" fill="#B3B3B3"/>
<path d="M96.4426 92.5742V95.2988L96.3753 95.3653C95.9712 95.5646 95.5672 95.764 95.2305 95.8969V93.1723C95.6345 93.0394 96.0386 92.9065 96.3753 92.6407C96.3753 92.5742 96.3753 92.5742 96.4426 92.5742Z" fill="#B8B8B8"/>
<path d="M95.1627 93.106V95.8306C94.9607 95.897 94.7587 95.9635 94.5566 95.9635V93.2389C94.7587 93.2389 94.9607 93.1724 95.1627 93.106Z" fill="#B3B3B3"/>
<path d="M94.5574 93.3052V96.0298C94.4227 96.0298 94.3554 96.0962 94.2207 96.0962V93.3716C94.3554 93.3052 94.4227 93.3052 94.5574 93.3052Z" fill="#ADADAD"/>
<path d="M94.2234 93.3052V96.0298C94.1561 96.0298 94.0887 96.0298 93.9541 96.0298C93.9541 96.0298 93.9541 96.0298 93.8867 96.0298V93.3052C93.8867 93.3052 93.8867 93.3052 93.9541 93.3052C94.0214 93.3052 94.1561 93.3052 94.2234 93.3052Z" fill="#A8A8A8"/>
<path d="M93.951 93.374V96.0986C93.8837 96.0986 93.749 96.0986 93.6816 96.0986V93.374C93.749 93.374 93.8163 93.374 93.951 93.374Z" fill="#A3A3A3"/>
<path d="M93.617 93.3728V96.0974C93.5497 96.0974 93.415 96.0974 93.3477 96.0974V93.3728C93.4823 93.3063 93.5497 93.3728 93.617 93.3728Z" fill="#9E9E9E"/>
<path d="M93.3475 93.3052V96.0298C93.2802 96.0298 93.2128 96.0298 93.0781 96.0298V93.3052C93.2128 93.3052 93.2802 93.3052 93.3475 93.3052Z" fill="#999999"/>
<path d="M93.1444 93.3062V96.0308C93.077 96.0308 93.0097 96.0308 92.875 95.9643V93.2397C93.0097 93.3062 93.077 93.3062 93.1444 93.3062Z" fill="#949494"/>
<path d="M92.8729 93.2413V95.9659C92.8055 95.9659 92.6709 95.8994 92.6035 95.8994V93.1748C92.7382 93.2413 92.8055 93.2413 92.8729 93.2413Z" fill="#8F8F8F"/>
<path d="M92.6707 93.1739V95.8985C92.536 95.8985 92.4687 95.8321 92.334 95.7656V93.041C92.4687 93.1075 92.536 93.1739 92.6707 93.1739Z" fill="#8A8A8A"/>
<path d="M92.3363 93.1086V95.8332C92.2016 95.7668 92.0669 95.7003 91.9322 95.6339C91.5955 95.4345 91.3262 95.1687 91.3262 94.9693C91.3262 94.9029 91.3262 94.9029 91.3262 94.8364V92.1118C91.3262 92.1783 91.3262 92.2447 91.3262 92.2447C91.3935 92.5105 91.5955 92.7099 91.9322 92.9093C92.0669 92.9757 92.2016 93.0422 92.3363 93.1086Z" fill="#858585"/>
<path d="M100.484 92.4448V95.1694L99.8105 95.5682V92.8435L100.484 92.4448Z" fill="#C5C5C5"/>
<path d="M101.021 94.1079V96.8325C101.021 96.6331 100.886 96.5002 100.617 96.3009C100.55 96.2344 100.482 96.2344 100.348 96.168V93.4434C100.415 93.4434 100.482 93.5098 100.617 93.5763C100.886 93.7092 101.021 93.9085 101.021 94.1079Z" fill="#858585"/>
<path d="M100.348 93.4405V96.1651C100.28 96.1651 100.213 96.0986 100.213 96.0986V93.374C100.213 93.4405 100.28 93.4405 100.348 93.4405Z" fill="#8A8A8A"/>
<path d="M100.215 93.374V96.0986C100.147 96.0986 100.147 96.0986 100.08 96.0986V93.374C100.08 93.374 100.147 93.374 100.215 93.374Z" fill="#8F8F8F"/>
<path d="M100.078 93.374V96.0986C100.011 96.0986 100.011 96.0986 99.9434 96.0986V93.374C100.011 93.374 100.011 93.374 100.078 93.374Z" fill="#949494"/>
<path d="M99.9433 93.374V96.0986C99.8759 96.0986 99.8759 96.0986 99.8086 96.0986V93.374C99.8759 93.374 99.9433 93.374 99.9433 93.374Z" fill="#999999"/>
<path d="M99.8105 93.3091V96.0337C99.7431 96.0337 99.7431 96.0337 99.6758 96.0337V93.3091C99.7431 93.3091 99.8105 93.3091 99.8105 93.3091Z" fill="#9E9E9E"/>
<path d="M99.7441 93.3091V96.0337C99.6767 96.0337 99.6767 96.0337 99.6094 96.0337V93.3091C99.6767 93.3091 99.6767 93.3091 99.7441 93.3091Z" fill="#A3A3A3"/>
<path d="M99.6093 93.3091V96.0337C99.5419 96.0337 99.5419 96.0337 99.4746 96.0337V93.3091C99.5419 93.3091 99.5419 93.3091 99.6093 93.3091Z" fill="#A8A8A8"/>
<path d="M99.4735 93.374V96.0986C99.4062 96.0986 99.3388 96.0986 99.2715 96.0986V93.374C99.3388 93.374 99.4062 93.374 99.4735 93.374Z" fill="#ADADAD"/>
<path d="M99.2693 93.374V96.0986C99.2019 96.0986 99.1346 96.0986 99.0673 96.1651C98.9999 96.1651 98.9326 96.1651 98.8652 96.2315V93.5069C98.9326 93.5069 98.9999 93.4405 99.0673 93.4405C99.1346 93.374 99.2019 93.374 99.2693 93.374Z" fill="#B3B3B3"/>
<path d="M98.9321 93.4434V96.168C98.6627 96.2344 98.3933 96.3673 98.124 96.5002H98.0566V93.7756H98.124C98.3933 93.6427 98.6627 93.5098 98.9321 93.4434Z" fill="#B8B8B8"/>
<path d="M98.0583 93.8408V96.5654C97.9237 96.6319 97.789 96.7648 97.6543 96.8312V94.1066C97.789 94.0402 97.9237 93.9073 98.0583 93.8408Z" fill="#B3B3B3"/>
<path d="M97.7226 94.1084V96.833C97.6552 96.8995 97.6552 96.8995 97.5879 96.9659V94.2413C97.5879 94.1749 97.6552 94.1749 97.7226 94.1084Z" fill="#ADADAD"/>
<path d="M97.5869 94.2383V96.9629L97.5195 97.0293V94.3047C97.5195 94.3047 97.5195 94.3047 97.5869 94.2383Z" fill="#A8A8A8"/>
<path d="M97.5205 94.3716V97.0962C97.5205 97.0962 97.5205 97.1626 97.4531 97.1626V94.438C97.4531 94.3716 97.4531 94.3716 97.5205 94.3716Z" fill="#A3A3A3"/>
<path d="M96.5796 94.77V97.4282L94.2227 98.8237V96.0991L96.5796 94.77Z" fill="#C5C5C5"/>
<path d="M94.2219 96.1006V98.8252L93.0098 98.1606V95.436L94.2219 96.1006Z" fill="#898989"/>
<path d="M102.773 94.3045C102.773 94.7697 102.369 95.1684 101.628 95.6336C100.82 96.0988 100.012 96.3646 99.2715 96.3646C98.4634 96.4311 97.79 96.2317 97.2513 95.8994C96.9146 95.7001 96.6452 95.4343 96.5779 95.2349C96.5779 95.102 96.5779 94.9691 96.6452 94.7697L94.2883 96.0988L93.0762 95.4343L99.4062 91.7793L100.551 92.4438L99.8776 92.8426C100.214 92.7761 100.484 92.7761 100.753 92.8426C101.224 92.909 101.628 92.9755 102.032 93.2413C102.504 93.5071 102.773 93.8394 102.773 94.3045ZM99.0021 95.3678C99.4062 95.3013 99.8776 95.1684 100.282 94.9026C100.618 94.7033 100.888 94.5039 100.955 94.2381C101.09 93.9723 100.955 93.7729 100.551 93.5735C100.08 93.3077 99.6082 93.2413 99.0695 93.4406C98.7328 93.5071 98.4634 93.64 98.1267 93.8394C97.588 94.1716 97.386 94.4374 97.4533 94.7033C97.5207 94.9026 97.6553 95.0355 97.8574 95.1684C98.1941 95.3013 98.5981 95.4343 99.0021 95.3678Z" fill="#DCDCDC"/>
<path d="M102.772 94.4375V97.1621C102.772 97.2286 102.772 97.2286 102.705 97.295V94.5704C102.705 94.504 102.705 94.4375 102.772 94.4375Z" fill="#9E9E9E"/>
<path d="M102.704 94.5713V97.2959C102.704 97.3623 102.637 97.4288 102.637 97.4288V94.7042C102.637 94.6377 102.704 94.5713 102.704 94.5713Z" fill="#A3A3A3"/>
<path d="M102.637 94.7007V97.4253C102.637 97.4917 102.569 97.5582 102.502 97.6246V94.9C102.569 94.8336 102.569 94.7671 102.637 94.7007Z" fill="#A8A8A8"/>
<path d="M102.503 94.8999V97.6245C102.435 97.691 102.368 97.7574 102.301 97.8239V95.0993C102.368 95.0328 102.435 94.9664 102.503 94.8999Z" fill="#ADADAD"/>
<path d="M102.303 95.1025V97.8271C102.169 97.9601 101.967 98.093 101.697 98.2923V95.5677C101.899 95.3684 102.101 95.2354 102.303 95.1025Z" fill="#B3B3B3"/>
<path d="M101.697 95.5649V98.2896L101.629 98.356C101.225 98.5554 100.821 98.7547 100.484 98.8876V96.163C100.888 96.0301 101.225 95.8972 101.629 95.6314C101.629 95.5649 101.629 95.5649 101.697 95.5649Z" fill="#B8B8B8"/>
<path d="M100.417 96.0967V98.8213C100.215 98.8877 100.013 98.9542 99.8105 98.9542V96.2296C100.013 96.2296 100.215 96.1631 100.417 96.0967Z" fill="#B3B3B3"/>
<path d="M99.8074 96.2959V99.0205C99.6727 99.0205 99.6054 99.087 99.4707 99.087V96.3624C99.6054 96.2959 99.6727 96.2959 99.8074 96.2959Z" fill="#ADADAD"/>
<path d="M99.4734 96.2959V99.0205C99.4061 99.0205 99.3387 99.0205 99.2041 99.0205H99.1367V96.2959H99.2041C99.2714 96.2959 99.4061 96.2959 99.4734 96.2959Z" fill="#A8A8A8"/>
<path d="M99.1346 96.3647V99.0893C99.0673 99.0893 98.9326 99.0893 98.8652 99.0893V96.3647C98.9999 96.3647 99.0673 96.3647 99.1346 96.3647Z" fill="#A3A3A3"/>
<path d="M98.8651 96.3635V99.0881C98.7977 99.0881 98.663 99.0881 98.5957 99.0881V96.3635C98.7304 96.2971 98.7977 96.3635 98.8651 96.3635Z" fill="#9E9E9E"/>
<path d="M98.5975 96.2959V99.0205C98.5301 99.0205 98.4628 99.0205 98.3281 99.0205V96.2959C98.4628 96.2959 98.5301 96.2959 98.5975 96.2959Z" fill="#999999"/>
<path d="M98.3963 96.2969V99.0215C98.329 99.0215 98.2616 99.0215 98.127 98.9551V96.2305C98.2616 96.2969 98.329 96.2969 98.3963 96.2969Z" fill="#949494"/>
<path d="M98.1268 96.232V98.9566C98.0595 98.9566 97.9248 98.8901 97.8574 98.8901V96.1655C97.9921 96.232 98.0595 96.232 98.1268 96.232Z" fill="#8F8F8F"/>
<path d="M97.9246 96.1646V98.8893C97.7899 98.8893 97.7226 98.8228 97.5879 98.7563V96.0317C97.7226 96.1646 97.7899 96.1646 97.9246 96.1646Z" fill="#8A8A8A"/>
<path d="M97.5872 96.0963V98.8209C97.4525 98.7545 97.3179 98.688 97.1832 98.6216C96.8465 98.4222 96.5771 98.1564 96.5098 97.957V95.2324C96.5771 95.4982 96.7791 95.6976 97.1832 95.897C97.3179 95.9634 97.4525 96.0299 97.5872 96.0963Z" fill="#858585"/>
</g>
<defs>
<clipPath id="clip0">
<rect x="84.4961" y="32" width="85.3017" height="54.8368" fill="white"/>
</clipPath>
<clipPath id="clip1">
<rect x="52" y="66.5269" width="50.7748" height="32.4959" fill="white"/>
</clipPath>
</defs>
</svg>
