<svg width="146" height="110" viewBox="0 0 146 110" fill="none" xmlns="http://www.w3.org/2000/svg">
<path d="M16.6234 69.8378C16.6995 69.8378 16.7445 70.2621 16.6683 70.2621C15.7796 70.321 15.5394 70.4899 15.4945 70.8828C15.4339 71.3817 15.4339 72.7312 15.4339 73.7762C15.4339 74.776 15.4652 76.2885 15.5101 76.7894C15.555 77.1842 15.8714 77.3806 16.7132 77.4415C16.7894 77.4415 16.7445 77.8638 16.6683 77.8638C16.1429 77.8501 15.3734 77.8187 14.8011 77.8187C13.8519 77.8187 13.4906 77.8501 12.9652 77.8638C12.889 77.8638 12.8441 77.4415 12.9202 77.4415C13.762 77.3806 14.0784 77.1842 14.1234 76.7894C14.1683 76.2885 14.1995 74.776 14.1995 73.7762C14.1995 72.7312 14.1683 71.3974 14.1097 70.8985C14.0628 70.5037 13.8519 70.321 12.9652 70.2621C12.889 70.2621 12.9339 69.8378 13.0101 69.8378C13.5374 69.8535 14.2288 69.8672 14.8011 69.8672C15.3734 69.8672 16.096 69.8535 16.6234 69.8378" fill="#706D6E"/>
<path d="M26.5761 75.5624V73.714C26.5761 72.4117 26.5468 71.8813 26.4706 71.0485C26.4257 70.6242 26.2147 70.2765 25.2811 70.2451C25.1894 70.2451 25.2362 69.8365 25.3261 69.8365H28.6698C28.7753 69.8365 28.8183 70.2451 28.7304 70.2451C27.6757 70.306 27.4804 70.6713 27.3886 71.3824C27.3144 71.9874 27.2987 72.4726 27.2987 73.714C27.2987 74.926 27.3144 76.1379 27.3886 77.6819C27.3886 77.8488 27.164 77.9412 27.0429 77.8037C25.5526 76.1988 22.5097 73.0481 20.8983 71.2606V73.9713C20.8983 75.2756 20.9296 75.804 21.0058 76.6369C21.0487 77.0612 21.2597 77.4108 22.1933 77.4403C22.2851 77.4403 22.2382 77.8488 22.1483 77.8488H18.8046C18.7011 77.8488 18.6561 77.4403 18.744 77.4403C19.7987 77.3794 19.996 77.016 20.0858 76.3049C20.162 75.6979 20.1757 75.2128 20.1757 73.9713C20.1757 72.7594 20.162 71.5631 20.0702 70.9129C20.0097 70.4278 19.7089 70.2313 18.8515 70.2628C18.7304 70.2628 18.6561 69.8365 18.9101 69.8365H21.0351C21.2753 69.8365 21.3651 69.8994 21.4706 70.0644C21.5311 70.1567 21.5604 70.2156 21.6522 70.306L26.5761 75.5624Z" fill="#706D6E"/>
<path d="M36.2461 77.44C36.3203 77.44 36.3066 77.8643 36.2305 77.8643C35.7031 77.8485 34.9062 77.8171 34.334 77.8171C33.3848 77.8171 32.9785 77.8485 32.4512 77.8643C32.375 77.8643 32.375 77.44 32.4512 77.44C33.293 77.3791 33.6113 77.1827 33.6562 76.7878C33.7012 76.2889 33.7305 75.0318 33.7305 73.7432V70.398C33.293 70.398 32.9922 70.398 32.6152 70.4275C31.0957 70.5178 30.9746 70.6082 30.7793 71.5019C30.7656 71.5628 30.4336 71.5785 30.4336 71.443C30.4473 71.3212 30.4473 71.0776 30.4473 70.8832V69.9737C30.4473 69.8225 30.4473 69.8225 30.6582 69.8225H30.9004C31.502 69.8225 32.8574 69.8519 33.3086 69.8519H37.5098C37.752 69.8519 37.8574 69.7616 37.8867 69.6398C37.9023 69.5632 38.3086 69.5946 38.3086 69.7164V71.3664C38.3242 71.4882 37.9473 71.4587 37.9316 71.4116C37.7812 70.6239 37.4648 70.4884 35.9902 70.398C35.7344 70.398 35.4023 70.3823 34.9512 70.3823C34.9355 71.3212 34.9648 72.7453 34.9648 73.7903C34.9648 74.7901 34.9961 76.2889 35.041 76.7878C35.0859 77.1827 35.4023 77.3791 36.2461 77.44Z" fill="#706D6E"/>
<path d="M40.3477 77.4265C41.1914 77.3657 41.4629 77.1692 41.5078 76.7744C41.5528 76.2755 41.5821 74.7767 41.5821 73.7769C41.5821 72.7319 41.5528 71.3824 41.4922 70.8835C41.4473 70.4907 41.2364 70.3532 40.3477 70.2923C40.2735 70.2923 40.3477 69.868 40.4239 69.868H45.9942C46.2207 69.868 46.3418 69.8542 46.3711 69.7462C46.416 69.6107 46.6719 69.5812 46.6719 69.8542V71.1566C46.7188 71.3824 46.4004 71.3824 46.3711 71.2764C46.2364 70.581 45.8594 70.5201 44.4141 70.4455H42.877C42.877 70.4455 42.8477 70.5201 42.8477 70.6714C42.8321 71.1723 42.8028 72.3057 42.8028 73.3212H42.9219C43.9922 73.3212 44.6387 73.3212 44.8653 73.3074C45.377 73.2465 45.4981 73.0953 45.543 72.9578C45.6172 72.838 45.8594 72.8517 45.8594 73.0639C45.8594 73.0639 45.8438 73.6846 45.8438 73.7769C45.8438 74.154 45.8594 74.3505 45.875 74.6098C45.875 74.8357 45.6172 74.8219 45.5723 74.7001C45.4532 74.0499 45.2715 74.0637 43.42 73.9733C43.2246 73.9576 42.8028 73.9576 42.8028 73.9576C42.8028 75.0183 42.8614 76.138 42.9668 76.6389C43.0586 77.0317 43.7364 77.2439 44.3223 77.2439C44.3985 77.2439 44.8946 77.2596 45.166 77.2596C46.3868 77.2596 46.627 76.9865 46.8067 76.079C46.8379 76.0024 47.1387 76.0476 47.1543 76.1242C47.0938 76.5485 47.0645 77.2596 47.0645 77.6544C47.0645 77.8351 47.0645 77.8508 46.7618 77.8508H40.3789C40.3028 77.8508 40.2735 77.4265 40.3477 77.4265Z" fill="#706D6E"/>
<path d="M54.1387 74.0324C54.6055 74.6217 55.7364 76.0163 55.9453 76.2285C56.5332 76.8787 57.2715 77.3344 57.8887 77.5308C57.92 77.5603 57.9493 77.9099 57.6641 77.8942C56.4571 77.8333 55.6446 77.4405 54.8614 76.7588C54.4102 76.364 52.6485 73.9558 52.6485 73.9558L52.6934 73.7142C54.0489 73.8046 55.0586 73.2899 55.0586 72.1094C55.0586 71.1253 54.4258 70.4437 53.1914 70.4437H52.7989C52.5567 70.4437 52.1973 70.4574 52.0313 70.5183C51.9395 70.5478 51.836 70.7462 51.8203 71.1096C51.8047 71.5024 51.7754 72.3667 51.7754 73.7437C51.7754 74.8653 51.8203 76.3346 51.9258 76.8335C52.0157 77.2283 52.1817 77.3953 53.1914 77.4542C53.2813 77.4542 53.2969 77.8785 53.1914 77.8785C52.6621 77.8785 51.6543 77.8333 51.2012 77.8333C50.6309 77.8333 49.8477 77.8785 49.3203 77.8785C49.2442 77.8785 49.2149 77.4542 49.2891 77.4542C50.1328 77.3953 50.4493 77.1517 50.4942 76.7588C50.541 76.2579 50.5703 74.7749 50.5703 73.7751C50.5703 72.7301 50.541 71.3826 50.4805 70.8817C50.4356 70.4888 50.2227 70.3062 49.334 70.2453C49.2598 70.2453 49.3203 69.8229 49.3946 69.8229C49.9219 69.8367 50.6895 69.8662 51.127 69.8662C51.8047 69.8662 52.7676 69.8229 53.2657 69.8229C55.4493 69.8229 56.6543 70.5792 56.6543 71.8206C56.6543 72.9874 55.8262 73.6238 54.1387 74.0324Z" fill="#706D6E"/>
<path d="M67.3001 75.5624V73.714C67.3001 72.4117 67.2708 71.8813 67.1946 71.0485C67.1497 70.6242 66.9388 70.2765 66.0052 70.2451C65.9153 70.2451 65.9602 69.8365 66.0501 69.8365H69.3938C69.4993 69.8365 69.5442 70.2451 69.4544 70.2451C68.3997 70.306 68.2044 70.6713 68.1145 71.3824C68.0384 71.9874 68.0227 72.4726 68.0227 73.714C68.0227 74.926 68.0384 76.1379 68.1145 77.6819C68.1145 77.8488 67.888 77.9412 67.7669 77.8037C66.2766 76.1988 63.2337 73.0481 61.6243 71.2606V73.9713C61.6243 75.2756 61.6536 75.804 61.7298 76.6369C61.7727 77.0612 61.9837 77.4108 62.9192 77.4403C63.0091 77.4403 62.9622 77.8488 62.8724 77.8488H59.5306C59.4251 77.8488 59.3802 77.4403 59.47 77.4403C60.5227 77.3794 60.72 77.016 60.8099 76.3049C60.886 75.6979 60.8997 75.2128 60.8997 73.9713C60.8997 72.7594 60.886 71.5631 60.7942 70.9129C60.7337 70.4278 60.4329 70.2313 59.5755 70.2628C59.4544 70.2628 59.3802 69.8365 59.6341 69.8365H61.7591C61.9993 69.8365 62.0892 69.8994 62.1946 70.0644C62.2552 70.1567 62.2864 70.2156 62.3763 70.306L67.3001 75.5624Z" fill="#706D6E"/>
<path d="M73.1579 74.6368C73.7145 74.6368 74.8297 74.6525 75.7633 74.6525L74.484 71.4566L73.1579 74.6368ZM75.0563 69.9579C75.7477 71.5018 77.7965 76.273 78.0836 76.7425C78.3375 77.1668 79.0465 77.3632 79.6188 77.4241C79.693 77.4241 79.6793 77.8464 79.6032 77.8464C78.2184 77.8464 77.0582 77.8464 77.0289 77.817L75.9743 75.1966C75.0563 75.2123 73.609 75.2438 72.902 75.2438C72.6618 75.8488 72.4352 76.4086 72.2536 76.8918C72.1344 77.1982 73.1422 77.4398 73.445 77.4536C73.5661 77.4536 73.4899 77.8464 73.3688 77.8464H70.0856C69.9665 77.8464 69.9665 77.4536 70.0563 77.4398C70.8239 77.3023 71.3063 77.1059 71.5622 76.5304C72.525 74.3343 73.8512 71.7591 74.5895 69.9579C74.7243 69.6082 74.9039 69.6082 75.0563 69.9579" fill="#706D6E"/>
<path d="M85.8828 77.44C85.959 77.44 85.9434 77.8643 85.8672 77.8643C85.3418 77.8485 84.543 77.8171 83.9707 77.8171C83.0234 77.8171 82.6152 77.8485 82.0898 77.8643C82.0137 77.8643 82.0137 77.44 82.0898 77.44C82.9316 77.3791 83.2481 77.1827 83.293 76.7878C83.3379 76.2889 83.3672 75.0318 83.3672 73.7432V70.398C82.9316 70.398 82.6309 70.398 82.2539 70.4275C80.7344 70.5178 80.6133 70.6082 80.418 71.5019C80.4023 71.5628 80.0703 71.5785 80.0703 71.443C80.0859 71.3212 80.0859 71.0776 80.0859 70.8832V69.9737C80.0859 69.8225 80.0859 69.8225 80.2969 69.8225H80.5391C81.1406 69.8225 82.4961 69.8519 82.9473 69.8519H87.1465C87.3887 69.8519 87.4942 69.7616 87.5254 69.6398C87.5391 69.5632 87.9473 69.5946 87.9473 69.7164V71.3664C87.9609 71.4882 87.584 71.4587 87.5703 71.4116C87.418 70.6239 87.1035 70.4884 85.627 70.398C85.3711 70.398 85.0391 70.3823 84.5879 70.3823C84.5723 71.3212 84.6035 72.7453 84.6035 73.7903C84.6035 74.7901 84.6328 76.2889 84.6777 76.7878C84.7246 77.1827 85.0391 77.3791 85.8828 77.44Z" fill="#706D6E"/>
<path d="M93.7914 69.8378C93.8676 69.8378 93.9125 70.2621 93.8363 70.2621C92.9477 70.321 92.7074 70.4899 92.6625 70.8828C92.602 71.3817 92.602 72.7312 92.602 73.7762C92.602 74.776 92.6332 76.2885 92.6762 76.7894C92.7231 77.1842 93.0375 77.3806 93.8813 77.4415C93.9574 77.4415 93.9125 77.8638 93.8363 77.8638C93.3109 77.8501 92.5414 77.8187 91.9692 77.8187C91.0199 77.8187 90.6586 77.8501 90.1313 77.8638C90.0571 77.8638 90.0121 77.4415 90.0883 77.4415C90.9301 77.3806 91.2465 77.1842 91.2914 76.7894C91.3363 76.2885 91.3676 74.776 91.3676 73.7762C91.3676 72.7312 91.3363 71.3974 91.2758 70.8985C91.2309 70.5037 91.0199 70.321 90.1313 70.2621C90.0571 70.2621 90.102 69.8378 90.1781 69.8378C90.7055 69.8535 91.3969 69.8672 91.9692 69.8672C92.5414 69.8672 93.2641 69.8535 93.7914 69.8378" fill="#706D6E"/>
<path d="M100.033 70.2157C98.3613 70.2157 97.0508 71.8814 97.0508 73.7298C97.0508 75.8944 98.3027 77.4403 100.35 77.4403C101.961 77.4403 103.33 75.7274 103.33 73.9576C103.33 71.8362 102.006 70.2157 100.033 70.2157ZM100.199 69.701C102.971 69.701 104.777 71.4571 104.777 73.6983C104.777 75.971 102.818 77.9687 100.154 77.9687C97.457 77.9687 95.6055 76.1674 95.6055 73.9399C95.6055 71.6398 97.5332 69.701 100.199 69.701" fill="#706D6E"/>
<path d="M113.99 75.5624V73.714C113.99 72.4117 113.958 71.8813 113.884 71.0485C113.839 70.6242 113.628 70.2765 112.695 70.2451C112.605 70.2451 112.652 69.8365 112.741 69.8365H116.083C116.189 69.8365 116.232 70.2451 116.144 70.2451C115.089 70.306 114.894 70.6713 114.802 71.3824C114.728 71.9874 114.712 72.4726 114.712 73.714C114.712 74.926 114.728 76.1379 114.802 77.6819C114.802 77.8488 114.577 77.9412 114.456 77.8037C112.966 76.1988 109.925 73.0481 108.314 71.2606V73.9713C108.314 75.2756 108.343 75.804 108.419 76.6369C108.464 77.0612 108.675 77.4108 109.609 77.4403C109.7 77.4403 109.654 77.8488 109.564 77.8488H106.22C106.115 77.8488 106.07 77.4403 106.159 77.4403C107.214 77.3794 107.409 77.016 107.501 76.3049C107.575 75.6979 107.591 75.2128 107.591 73.9713C107.591 72.7594 107.575 71.5631 107.486 70.9129C107.425 70.4278 107.124 70.2313 106.265 70.2628C106.144 70.2628 106.07 69.8365 106.325 69.8365H108.449C108.691 69.8365 108.781 69.8994 108.886 70.0644C108.947 70.1567 108.976 70.2156 109.066 70.306L113.99 75.5624Z" fill="#706D6E"/>
<path d="M119.845 74.6368C120.402 74.6368 121.517 74.6525 122.45 74.6525L121.169 71.4566L119.845 74.6368ZM121.741 69.9579C122.435 71.5018 124.484 76.273 124.769 76.7425C125.025 77.1668 125.734 77.3632 126.306 77.4241C126.38 77.4241 126.364 77.8464 126.29 77.8464C124.905 77.8464 123.745 77.8464 123.714 77.817L122.659 75.1966C121.741 75.2123 120.296 75.2438 119.589 75.2438C119.347 75.8488 119.122 76.4086 118.941 76.8918C118.819 77.1982 119.829 77.4398 120.13 77.4536C120.251 77.4536 120.177 77.8464 120.056 77.8464H116.773C116.652 77.8464 116.652 77.4536 116.743 77.4398C117.511 77.3023 117.993 77.1059 118.249 76.5304C119.212 74.3343 120.538 71.7591 121.275 69.9579C121.411 69.6082 121.591 69.6082 121.741 69.9579" fill="#706D6E"/>
<path d="M129.603 77.8484C128.91 77.8484 128.187 77.8484 127.66 77.8641C127.586 77.8641 127.57 77.4398 127.644 77.4398C128.488 77.379 128.804 77.1825 128.849 76.7897C128.894 76.2888 128.925 74.7743 128.925 73.7745C128.925 72.7295 128.894 71.382 128.836 70.8831C128.789 70.4882 128.578 70.3056 127.691 70.2447C127.615 70.2447 127.644 69.8223 127.72 69.8223C128.248 69.8361 128.941 69.8675 129.513 69.8675C129.964 69.8675 130.838 69.8361 131.365 69.8223C131.439 69.8223 131.47 70.2447 131.396 70.2447C130.507 70.3056 130.265 70.4882 130.22 70.8831C130.16 71.382 130.144 72.3661 130.144 73.745C130.144 74.8647 130.189 75.8645 130.22 76.2731C130.31 77.0313 130.326 77.2572 131.048 77.2572C131.228 77.2572 131.5 77.2434 131.726 77.2277L132.164 77.1982C133.578 77.1059 133.699 76.7288 133.879 75.8193C133.91 75.6975 134.3 75.7898 134.287 75.9254C134.226 76.334 134.166 77.0313 134.166 77.4398V77.6068C134.166 77.8032 134.076 77.8484 133.836 77.8484H129.603Z" fill="#706D6E"/>
<path d="M44.25 84.3498C42.5781 84.3498 41.2676 86.0155 41.2676 87.8639C41.2676 90.0285 42.5195 91.5744 44.5664 91.5744C46.1777 91.5744 47.5469 89.8635 47.5469 88.0918C47.5469 85.9703 46.2227 84.3498 44.25 84.3498ZM44.416 83.8352C47.1875 83.8352 48.9941 85.5912 48.9941 87.8325C48.9941 90.1052 47.0371 92.1048 44.3711 92.1048C41.6758 92.1048 39.8223 90.3016 39.8223 88.076C39.8223 85.7739 41.75 83.8352 44.416 83.8352" fill="#706D6E"/>
<path d="M52.6266 91.9803C51.9332 91.9803 51.2106 91.9803 50.6832 91.996C50.609 91.996 50.5934 91.5717 50.6676 91.5717C51.5114 91.5109 51.8278 91.3144 51.8727 90.9216C51.9176 90.4207 51.9489 88.9062 51.9489 87.9064C51.9489 86.8614 51.9176 85.5139 51.859 85.015C51.8121 84.6201 51.6012 84.4375 50.7145 84.3766C50.6383 84.3766 50.6676 83.9542 50.7438 83.9542C51.2711 83.968 51.9645 83.9994 52.5367 83.9994C52.9879 83.9994 53.861 83.968 54.3883 83.9542C54.4625 83.9542 54.4938 84.3766 54.4176 84.3766C53.5309 84.4375 53.2887 84.6201 53.2438 85.015C53.1832 85.5139 53.1676 86.498 53.1676 87.8769C53.1676 88.9966 53.2145 89.9964 53.2438 90.4069C53.3336 91.1632 53.3492 91.391 54.0719 91.391C54.2516 91.391 54.5231 91.3753 54.7496 91.3596L55.1871 91.3301C56.6012 91.2378 56.7223 90.8607 56.902 89.9512C56.9332 89.8294 57.3258 89.9217 57.3102 90.0573C57.2496 90.4659 57.1891 91.1632 57.1891 91.5717V91.7387C57.1891 91.9351 57.0992 91.9803 56.859 91.9803H52.6266Z" fill="#706D6E"/>
<path d="M64.1171 91.5755C64.1932 91.5755 64.1932 91.9998 64.1171 91.9998C63.5897 91.9841 62.7772 91.9527 62.2049 91.9527C61.2557 91.9527 60.8495 91.9841 60.3221 91.9998C60.2479 91.9998 60.2479 91.5755 60.3221 91.5755C61.1659 91.5146 61.4823 91.3182 61.5272 90.9234C61.5565 90.4834 61.5878 89.2577 61.6034 88.4405C60.7284 87.1677 59.2831 84.9559 59.0428 84.6986C58.787 84.4275 58.5604 84.3961 57.9882 84.3666C57.869 84.3509 57.8983 83.9423 58.0175 83.9423C59.3592 83.9423 60.2772 83.9718 60.2772 83.9718C61.2714 85.5786 62.3553 87.6077 62.5214 87.8945C62.9432 87.2129 63.8905 85.6846 64.4784 84.6986C64.5995 84.5021 64.4042 84.3961 64.1014 84.3961C63.9374 84.3961 63.996 83.9423 64.162 83.9423C64.7499 83.9423 66.2401 83.958 66.7381 83.958C66.8417 83.958 66.8885 84.3352 66.7831 84.3509C66.0155 84.4412 65.6385 84.4275 65.2928 84.9264C64.5077 86.0775 63.5604 87.3052 62.8378 88.3502C62.8378 89.1516 62.8671 90.4539 62.912 90.9234C62.9589 91.3182 63.2733 91.5146 64.1171 91.5755Z" fill="#706D6E"/>
<path d="M76.3874 91.9957C76.2975 91.9957 76.2526 91.5714 76.3425 91.5714C77.0651 91.5263 77.3503 91.2847 77.4264 90.3143C77.4264 90.0432 77.3952 88.9825 77.3503 87.908C77.321 87.1184 77.2761 86.0597 77.2018 85.1797C76.0104 87.6193 74.7311 90.2239 73.9636 91.8307C73.8581 92.0272 73.6315 92.0114 73.5573 91.815L73.0593 90.7091C72.3073 89.0591 71.1471 86.3622 70.6042 85.0304L70.53 87.908C70.5143 89.2084 70.53 89.9214 70.5886 90.7543C70.6198 91.1786 70.9811 91.542 71.9147 91.5714C72.0065 91.5714 72.0065 91.98 71.9147 91.98H68.3913C68.2858 91.98 68.2253 91.5714 68.3151 91.5714C69.3698 91.5125 69.5807 91.1334 69.6862 90.4204C69.7761 89.8291 69.7917 89.1495 69.8073 87.908C69.821 86.6961 69.8522 85.5882 69.7917 85.0441C69.7311 84.5747 69.5046 84.333 68.5417 84.392C68.4675 84.392 68.4362 83.9697 68.5866 83.9697H69.7917C70.319 83.9697 70.905 83.9539 71.1471 83.9539C71.5085 83.9539 71.6432 84.1052 71.7643 84.4529L74.1276 89.9961L76.7194 84.5609V84.5747C76.7487 84.4843 76.7487 84.333 76.7487 84.2722C76.7487 84.1366 76.7487 83.9834 77.0046 83.9834C77.276 83.9834 77.7878 83.9991 77.7878 83.9991C78.4206 83.9991 79.2038 83.9697 79.7311 83.9539C79.8053 83.9539 79.8366 84.3782 79.7604 84.3782C78.8268 84.4391 78.6159 84.6964 78.6003 84.9832C78.5553 85.7414 78.6296 86.755 78.6764 87.908C78.6921 88.9825 78.901 90.937 78.901 90.937C78.9167 91.2689 79.2175 91.542 79.9714 91.5557C80.0612 91.5557 80.0319 91.98 79.9421 91.98C79.444 91.98 78.6159 91.9505 78.1178 91.9505C77.5319 91.9505 76.8835 91.9957 76.3874 91.9957Z" fill="#706D6E"/>
<path d="M89.4131 86.167C89.4131 87.4694 88.2998 88.4849 86.417 88.4849L85.7549 88.4554L85.7237 88.1058L86.1612 88.0449C87.4405 87.8485 87.9073 87.2278 87.9073 86.2888C87.9073 85.1515 87.1846 84.576 85.7393 84.576H85.71C85.4678 84.576 85.1807 84.5937 85.0166 84.6526C84.9268 84.682 84.8057 84.8804 84.7901 85.2438C84.7744 85.6367 84.7451 86.501 84.7451 87.8779C84.7451 88.9995 84.7901 90.4688 84.8955 90.9678C84.9854 91.3606 85.1514 91.5276 86.1612 91.5904C86.251 91.5904 86.2666 92.0128 86.1612 92.0128C85.6338 92.0128 84.626 91.9676 84.1729 91.9676C83.6006 91.9676 82.8174 92.0128 82.2901 92.0128C82.2158 92.0128 82.1846 91.5904 82.2608 91.5904C83.1026 91.5276 83.419 91.286 83.4658 90.8931C83.5108 90.3922 83.5401 88.9092 83.5401 87.9094C83.5401 86.8644 83.5108 85.5169 83.4502 85.016C83.4033 84.6231 83.1944 84.4404 82.3057 84.3795C82.2295 84.3795 82.2901 83.9553 82.3662 83.9553C82.8936 83.971 83.6612 84.0004 84.0967 84.0004C84.7744 84.0004 85.4834 83.9553 86.1006 83.9553C88.1787 83.9553 89.4131 84.8962 89.4131 86.167Z" fill="#706D6E"/>
<path d="M95.0307 83.9695C95.1049 83.9695 95.1518 84.3938 95.0756 84.3938C94.1869 84.4528 93.9448 84.6197 93.9018 85.0145C93.8412 85.5154 93.8412 86.8629 93.8412 87.9079C93.8412 88.9077 93.8705 90.4202 93.9155 90.9211C93.9623 91.314 94.2768 91.5124 95.1205 91.5733C95.1948 91.5733 95.1518 91.9956 95.0756 91.9956C94.5483 91.9819 93.7807 91.9504 93.2084 91.9504C92.2592 91.9504 91.8979 91.9819 91.3705 91.9956C91.2944 91.9956 91.2514 91.5733 91.3256 91.5733C92.1694 91.5124 92.4858 91.314 92.5307 90.9211C92.5756 90.4202 92.6069 88.9077 92.6069 87.9079C92.6069 86.8629 92.5756 85.5292 92.5151 85.0303C92.4702 84.6354 92.2592 84.4528 91.3705 84.3938C91.2944 84.3938 91.3413 83.9695 91.4174 83.9695C91.9428 83.9853 92.6362 83.999 93.2084 83.999C93.7807 83.999 94.5034 83.9853 95.0307 83.9695" fill="#706D6E"/>
<path d="M101.891 84.395C99.873 84.395 98.4277 85.7897 98.4277 87.9543C98.4277 89.9834 100.023 91.5588 101.861 91.5588C103.441 91.5588 104.195 90.9086 104.857 89.7418L104.902 89.7124C104.947 89.6966 105.188 89.7261 105.188 89.8165C105.188 90.1799 105.082 91.0284 105.008 91.1797C104.844 91.4979 103.594 92.1049 101.605 92.1049C98.8047 92.1049 97.0117 90.5 97.0117 88.1056C97.0117 85.5775 98.9238 83.8352 101.906 83.8352C103.051 83.8352 103.818 83.957 104.646 84.2438C104.844 84.5463 105.008 85.2731 104.934 85.6522C104.918 85.7425 104.721 85.7583 104.691 85.6974C104.166 85.0766 103.457 84.395 101.891 84.395Z" fill="#706D6E"/>
<path d="M33.1836 98.6304C31.166 98.6304 29.7207 100.023 29.7207 102.19C29.7207 104.219 31.3164 105.794 33.1523 105.794C34.7344 105.794 35.4883 105.142 36.1504 103.977L36.1953 103.946C36.2402 103.93 36.4805 103.962 36.4805 104.052C36.4805 104.415 36.375 105.264 36.3008 105.415C36.1348 105.733 34.8848 106.34 32.8984 106.34C30.0957 106.34 28.3047 104.733 28.3047 102.341C28.3047 99.8129 30.2168 98.0706 33.1992 98.0706C34.3437 98.0706 35.1113 98.1904 35.9395 98.4792C36.1348 98.7817 36.3008 99.5085 36.2266 99.8876C36.209 99.9779 36.0137 99.9937 35.9844 99.9328C35.457 99.312 34.748 98.6304 33.1836 98.6304Z" fill="#706D6E"/>
<path d="M42.584 98.5863C40.9121 98.5863 39.6016 100.252 39.6016 102.1C39.6016 104.265 40.8516 105.811 42.9004 105.811C44.5117 105.811 45.8808 104.1 45.8808 102.328C45.8808 100.207 44.5566 98.5863 42.584 98.5863ZM42.75 98.0716C45.5215 98.0716 47.3281 99.8277 47.3281 102.069C47.3281 104.342 45.3691 106.339 42.7051 106.339C40.0078 106.339 38.1562 104.538 38.1562 102.311C38.1562 100.01 40.084 98.0716 42.75 98.0716" fill="#706D6E"/>
<path d="M56.6647 106.235C56.5749 106.235 56.528 105.811 56.6198 105.811C57.3425 105.765 57.6276 105.522 57.7038 104.553C57.7038 104.282 57.6745 103.222 57.6276 102.145C57.5983 101.357 57.5534 100.299 57.4772 99.4187C56.2878 101.858 55.0085 104.463 54.2409 106.068C54.1354 106.264 53.9089 106.251 53.8346 106.054L53.3366 104.948C52.5827 103.296 51.4245 100.601 50.8815 99.2694L50.8073 102.145C50.7917 103.447 50.8073 104.161 50.8659 104.993C50.8971 105.418 51.2585 105.781 52.1921 105.811C52.2819 105.811 52.2819 106.219 52.1921 106.219H48.6686C48.5632 106.219 48.5026 105.811 48.5925 105.811C49.6471 105.75 49.8581 105.372 49.9636 104.659C50.0534 104.068 50.069 103.389 50.0827 102.145C50.0983 100.935 50.1296 99.8273 50.069 99.2832C50.0085 98.8137 49.7819 98.5721 48.819 98.631C48.7448 98.631 48.7136 98.2087 48.8639 98.2087H50.069C50.5964 98.2087 51.1823 98.193 51.4245 98.193C51.7858 98.193 51.9206 98.3443 52.0417 98.6919L54.405 104.235L56.9948 98.798V98.8137C57.0261 98.7234 57.0261 98.5721 57.0261 98.5112C57.0261 98.3757 57.0261 98.2225 57.2819 98.2225C57.5534 98.2225 58.0651 98.2382 58.0651 98.2382C58.6979 98.2382 59.4811 98.2087 60.0085 98.193C60.0827 98.193 60.1139 98.6173 60.0378 98.6173C59.1042 98.6782 58.8932 98.9355 58.8776 99.2223C58.8327 99.9805 58.9069 100.994 58.9538 102.145C58.9694 103.222 59.1784 105.176 59.1784 105.176C59.194 105.508 59.4948 105.781 60.2487 105.797C60.3386 105.797 60.3093 106.219 60.2194 106.219C59.7214 106.219 58.8932 106.19 58.3952 106.19C57.8093 106.19 57.1608 106.235 56.6647 106.235Z" fill="#706D6E"/>
<path d="M70.2096 106.235C70.1198 106.235 70.0729 105.811 70.1647 105.811C70.8874 105.765 71.1725 105.522 71.2487 104.553C71.2487 104.282 71.2194 103.222 71.1725 102.145C71.1432 101.357 71.0983 100.299 71.0221 99.4187C69.8327 101.858 68.5534 104.463 67.7858 106.068C67.6803 106.264 67.4538 106.251 67.3796 106.054L66.8815 104.948C66.1296 103.296 64.9694 100.601 64.4264 99.2694L64.3522 102.145C64.3366 103.447 64.3522 104.161 64.4128 104.993C64.4421 105.418 64.8034 105.781 65.737 105.811C65.8268 105.811 65.8268 106.219 65.737 106.219H62.2136C62.1081 106.219 62.0475 105.811 62.1374 105.811C63.1921 105.75 63.403 105.372 63.5085 104.659C63.5983 104.068 63.6139 103.389 63.6296 102.145C63.6432 100.935 63.6745 99.8273 63.6139 99.2832C63.5534 98.8137 63.3268 98.5721 62.3639 98.631C62.2897 98.631 62.2585 98.2087 62.4089 98.2087H63.6139C64.1413 98.2087 64.7272 98.193 64.9694 98.193C65.3307 98.193 65.4655 98.3443 65.5866 98.6919L67.9499 104.235L70.5417 98.798V98.8137C70.571 98.7234 70.571 98.5721 70.571 98.5112C70.571 98.3757 70.571 98.2225 70.8268 98.2225C71.0983 98.2225 71.61 98.2382 71.61 98.2382C72.2428 98.2382 73.0261 98.2087 73.5534 98.193C73.6276 98.193 73.6589 98.6173 73.5827 98.6173C72.6491 98.6782 72.4382 98.9355 72.4225 99.2223C72.3776 99.9805 72.4538 100.994 72.4987 102.145C72.5143 103.222 72.7233 105.176 72.7233 105.176C72.7389 105.508 73.0397 105.781 73.7936 105.797C73.8835 105.797 73.8542 106.219 73.7643 106.219C73.2663 106.219 72.4382 106.19 71.9401 106.19C71.3542 106.19 70.7077 106.235 70.2096 106.235Z" fill="#706D6E"/>
<path d="M79.809 98.2046C79.8832 98.2046 79.9301 98.6289 79.8539 98.6289C78.9672 98.6879 78.725 98.8568 78.6801 99.2496C78.6196 99.7505 78.6196 101.098 78.6196 102.143C78.6196 103.143 78.6508 104.655 78.6957 105.156C78.7406 105.551 79.0571 105.747 79.8989 105.808C79.975 105.808 79.9301 106.231 79.8539 106.231C79.3266 106.217 78.559 106.186 77.9867 106.186C77.0375 106.186 76.6781 106.217 76.1488 106.231C76.0746 106.231 76.0297 105.808 76.1059 105.808C76.9477 105.747 77.2641 105.551 77.309 105.156C77.3539 104.655 77.3852 103.143 77.3852 102.143C77.3852 101.098 77.3539 99.7643 77.2953 99.2654C77.2485 98.8705 77.0375 98.6879 76.1488 98.6289C76.0746 98.6289 76.1196 98.2046 76.1957 98.2046C76.7231 98.2204 77.4145 98.2341 77.9867 98.2341C78.559 98.2341 79.2817 98.2204 79.809 98.2046" fill="#706D6E"/>
<path d="M87.8242 105.811C87.9004 105.811 87.8848 106.235 87.8086 106.235C87.2812 106.219 86.4844 106.188 85.9121 106.188C84.9629 106.188 84.5566 106.219 84.0293 106.235C83.9531 106.235 83.9531 105.811 84.0293 105.811C84.873 105.75 85.1895 105.553 85.2344 105.158C85.2793 104.66 85.3086 103.402 85.3086 102.116V98.7686C84.873 98.7686 84.5723 98.7686 84.1953 98.7981C82.6738 98.8884 82.5527 98.9788 82.3574 99.8725C82.3418 99.9334 82.0117 99.9492 82.0117 99.8136C82.0254 99.6918 82.0254 99.4502 82.0254 99.2538V98.3443C82.0254 98.1931 82.0254 98.1931 82.2363 98.1931H82.4785C83.0801 98.1931 84.4355 98.2225 84.8867 98.2225H89.0879C89.3301 98.2225 89.4355 98.1322 89.4648 98.0104C89.4805 97.9358 89.8867 97.9652 89.8867 98.087V99.737C89.9023 99.8588 89.5254 99.8293 89.5117 99.7822C89.3594 98.9945 89.0449 98.859 87.5684 98.7686C87.3125 98.7686 86.9805 98.7529 86.5293 98.7529C86.5137 99.6918 86.5449 101.116 86.5449 102.161C86.5449 103.161 86.5742 104.66 86.6191 105.158C86.666 105.553 86.9805 105.75 87.8242 105.811Z" fill="#706D6E"/>
<path d="M97.252 105.811C97.3281 105.811 97.3125 106.235 97.2363 106.235C96.7109 106.219 95.9121 106.188 95.3398 106.188C94.3906 106.188 93.9844 106.219 93.457 106.235C93.3828 106.235 93.3828 105.811 93.457 105.811C94.3008 105.75 94.6172 105.553 94.6621 105.158C94.707 104.66 94.7383 103.402 94.7383 102.116V98.7686C94.3008 98.7686 94 98.7686 93.623 98.7981C92.1016 98.8884 91.9824 98.9788 91.7852 99.8725C91.7695 99.9334 91.4395 99.9492 91.4395 99.8136C91.4551 99.6918 91.4551 99.4502 91.4551 99.2538V98.3443C91.4551 98.1931 91.4551 98.1931 91.6641 98.1931H91.9063C92.5078 98.1931 93.8633 98.2225 94.3145 98.2225H98.5176C98.7578 98.2225 98.8633 98.1322 98.8945 98.0104C98.9082 97.9358 99.3164 97.9652 99.3164 98.087V99.737C99.3301 99.8588 98.9551 99.8293 98.9395 99.7822C98.7871 98.9945 98.4727 98.859 96.9961 98.7686C96.7402 98.7686 96.4082 98.7529 95.957 98.7529C95.9414 99.6918 95.9727 101.116 95.9727 102.161C95.9727 103.161 96.002 104.66 96.0469 105.158C96.0938 105.553 96.4082 105.75 97.252 105.811Z" fill="#706D6E"/>
<path d="M101.139 105.794C101.983 105.733 102.254 105.536 102.299 105.142C102.344 104.643 102.373 103.144 102.373 102.142C102.373 101.099 102.344 99.7515 102.283 99.2506C102.238 98.8578 102.028 98.7203 101.139 98.6594C101.065 98.6594 101.139 98.2351 101.213 98.2351H106.785C107.012 98.2351 107.133 98.2214 107.162 98.1153C107.207 97.9778 107.463 97.9483 107.463 98.2214V99.5237C107.51 99.7515 107.192 99.7515 107.162 99.6435C107.028 98.9481 106.651 98.8873 105.205 98.8126H103.668C103.668 98.8126 103.639 98.8873 103.639 99.0385C103.623 99.5394 103.594 100.673 103.594 101.69H103.715C104.783 101.69 105.43 101.69 105.656 101.675C106.168 101.614 106.289 101.462 106.334 101.325C106.41 101.205 106.651 101.221 106.651 101.431C106.651 101.431 106.635 102.052 106.635 102.142C106.635 102.521 106.651 102.72 106.666 102.977C106.666 103.203 106.41 103.189 106.365 103.067C106.244 102.417 106.065 102.431 104.211 102.34C104.016 102.325 103.594 102.325 103.594 102.325C103.594 103.385 103.654 104.505 103.76 105.006C103.85 105.399 104.528 105.611 105.115 105.611C105.19 105.611 105.688 105.627 105.959 105.627C107.178 105.627 107.418 105.354 107.598 104.446C107.629 104.37 107.93 104.415 107.945 104.491C107.885 104.916 107.856 105.627 107.856 106.022C107.856 106.202 107.856 106.218 107.555 106.218H101.168C101.094 106.218 101.065 105.794 101.139 105.794Z" fill="#706D6E"/>
<path d="M109.902 105.794C110.746 105.733 111.018 105.536 111.063 105.142C111.107 104.643 111.137 103.144 111.137 102.142C111.137 101.099 111.107 99.7515 111.047 99.2506C111.002 98.8578 110.791 98.7203 109.902 98.6594C109.828 98.6594 109.902 98.2351 109.977 98.2351H115.549C115.777 98.2351 115.897 98.2214 115.926 98.1153C115.971 97.9778 116.227 97.9483 116.227 98.2214V99.5237C116.273 99.7515 115.955 99.7515 115.926 99.6435C115.791 98.9481 115.414 98.8873 113.969 98.8126H112.432C112.432 98.8126 112.402 98.8873 112.402 99.0385C112.387 99.5394 112.357 100.673 112.357 101.69H112.479C113.547 101.69 114.193 101.69 114.42 101.675C114.932 101.614 115.053 101.462 115.098 101.325C115.172 101.205 115.414 101.221 115.414 101.431C115.414 101.431 115.398 102.052 115.398 102.142C115.398 102.521 115.414 102.72 115.43 102.977C115.43 103.203 115.172 103.189 115.127 103.067C115.008 102.417 114.828 102.431 112.975 102.34C112.779 102.325 112.357 102.325 112.357 102.325C112.357 103.385 112.418 104.505 112.522 105.006C112.613 105.399 113.291 105.611 113.879 105.611C113.953 105.611 114.449 105.627 114.721 105.627C115.941 105.627 116.184 105.354 116.363 104.446C116.393 104.37 116.693 104.415 116.709 104.491C116.648 104.916 116.619 105.627 116.619 106.022C116.619 106.202 116.619 106.218 116.318 106.218H109.934C109.857 106.218 109.828 105.794 109.902 105.794Z" fill="#706D6E"/>
<path d="M105.314 36.9599C104.871 44.322 98.791 50.152 91.3652 50.152C83.6387 50.152 77.3867 43.8585 77.3867 36.0917C77.3867 29.8531 81.4199 24.5652 87.0117 22.7247C87.1133 22.0411 87.168 21.3399 87.168 20.6269C87.168 20.3322 87.1563 20.0454 87.1426 19.7586C79.9199 21.6424 74.5859 28.2404 74.5859 36.0917C74.5859 45.4102 82.0938 52.9669 91.3652 52.9669C100.176 52.9669 107.404 46.1272 108.086 37.4352C107.137 37.3547 106.211 37.1936 105.314 36.9599ZM91.3652 22.0313C98.3731 22.0313 104.182 27.2229 105.189 33.9958C106.111 34.2963 107.074 34.5045 108.074 34.6126C107.326 25.9854 100.129 19.2204 91.3652 19.2204C90.875 19.2204 90.3906 19.2401 89.9141 19.2833C89.9453 19.7252 89.9648 20.1731 89.9648 20.6269C89.9648 21.1258 89.9395 21.6208 89.9023 22.1079C90.3809 22.0569 90.8691 22.0313 91.3652 22.0313" fill="#00A650"/>
<path d="M71.7344 37.4351C71.0566 46.1271 63.8301 52.9667 55.0137 52.9667C45.7441 52.9667 38.2324 45.4101 38.2324 36.0916C38.2324 28.2403 43.5664 21.6423 50.793 19.7585C50.8047 20.0453 50.8145 20.3321 50.8145 20.6267C50.8145 21.3398 50.7617 22.041 50.6602 22.7246C45.0703 24.5651 41.0371 29.853 41.0371 36.0916C41.0371 43.8583 47.2871 50.1519 55.0137 50.1519C62.4414 50.1519 68.5215 44.3219 68.9648 36.9598C69.8574 37.1935 70.7871 37.3546 71.7344 37.4351ZM53.5488 22.1078C53.5879 21.6207 53.6133 21.1257 53.6133 20.6267C53.6133 20.173 53.5937 19.7251 53.5645 19.2832C54.041 19.2419 54.5234 19.2203 55.0137 19.2203C63.7773 19.2203 70.9824 25.9853 71.7285 34.6124C70.7266 34.5044 69.7578 34.2962 68.8398 33.9957C67.8301 27.2228 62.0195 22.0312 55.0137 22.0312C54.5176 22.0312 54.0293 22.0567 53.5488 22.1078Z" fill="#F9A91F"/>
<path d="M126.314 20.6251C126.314 29.9436 118.805 37.4983 109.535 37.4983C100.764 37.4983 93.5684 30.7313 92.8203 22.1061C93.8242 22.2122 94.7852 22.4224 95.7109 22.7249C96.7148 29.4938 102.52 34.6874 109.535 34.6874C117.256 34.6874 123.516 28.3899 123.516 20.6251C123.516 12.8603 117.256 6.56275 109.535 6.56275C102.102 6.56275 96.0254 12.3947 95.582 19.7569C94.6836 19.5251 93.7617 19.364 92.8066 19.2815C93.4941 10.5895 100.719 3.75186 109.535 3.75186C118.805 3.75186 126.314 11.3065 126.314 20.6251Z" fill="#EE2049"/>
<path d="M73.1855 34.6872C66.1777 34.6872 60.3691 29.4936 59.3594 22.7247C58.4375 22.4222 57.4766 22.212 56.4727 22.1059C57.2187 30.733 64.4141 37.498 73.1855 37.498C73.6777 37.498 74.1621 37.4784 74.6406 37.4352C74.6074 36.9952 74.5879 36.5454 74.5879 36.0916C74.5879 35.5947 74.6133 35.0977 74.6523 34.6125C74.1719 34.6616 73.6816 34.6872 73.1855 34.6872ZM73.1855 3.75162C64.3691 3.75162 57.1465 10.5893 56.4648 19.2813C57.4141 19.3638 58.334 19.5248 59.2363 19.7586C59.6758 12.3945 65.7559 6.56251 73.1855 6.56251C80.9102 6.56251 87.168 12.862 87.168 20.6248C87.168 26.8614 83.1309 32.1532 77.5391 33.9938C77.4395 34.6754 77.3887 35.3786 77.3887 36.0916C77.3887 36.3843 77.3906 36.673 77.4102 36.9598C84.6328 35.0761 89.9668 28.478 89.9668 20.6248C89.9668 11.3082 82.4551 3.75162 73.1855 3.75162Z" fill="#231F20"/>
<path d="M53.6133 20.6251C53.6133 11.3065 46.1035 3.75186 36.834 3.75186C27.5703 3.75186 20.0586 11.3065 20.0586 20.6251C20.0586 29.9436 27.5703 37.4983 36.834 37.4983C37.3242 37.4983 37.8066 37.4767 38.2852 37.4354C38.252 36.9935 38.2324 36.5436 38.2324 36.0919C38.2324 35.5929 38.2598 35.0979 38.2988 34.6128C37.8164 34.6599 37.3281 34.6874 36.834 34.6874C29.1133 34.6874 22.8516 28.3899 22.8516 20.6251C22.8516 12.8603 29.1133 6.56275 36.834 6.56275C44.5586 6.56275 50.8145 12.8603 50.8145 20.6251C50.8145 26.8617 46.7773 32.1535 41.1836 33.994C41.0859 34.6756 41.0352 35.3769 41.0352 36.0919C41.0352 36.3845 41.0371 36.6733 41.0566 36.9581C48.2813 35.0763 53.6133 28.4783 53.6133 20.6251Z" fill="#117FCD"/>
</svg>
