<svg width="173" height="129" viewBox="0 0 173 129" fill="none" xmlns="http://www.w3.org/2000/svg">
<path d="M43.5569 72.8038L7 51.9711V29.0376L43.5569 49.8703V72.8038Z" fill="#B0B0B0"/>
<path d="M14.0969 37.441V38.4914L12.3223 37.441V36.3906L14.0969 37.441Z" fill="#0C778F"/>
<path d="M14.0969 38.8416V40.5923L12.3223 39.5419V37.9663L14.0969 38.8416Z" fill="#0C778F"/>
<path opacity="0.2" d="M13.9216 38.8416L13.5667 38.6665L12.502 39.7169L12.8569 39.892L13.9216 38.8416Z" fill="white"/>
<path opacity="0.2" d="M13.387 38.4915L12.3223 39.3668V39.0166L13.0321 38.3164L13.387 38.4915Z" fill="white"/>
<path opacity="0.2" d="M13.7444 37.2661L13.0346 37.9664L12.6797 37.7913L13.3895 36.916L13.7444 37.2661Z" fill="white"/>
<path opacity="0.2" d="M14.0982 37.4412V37.6162L13.5659 38.1414L13.2109 37.9664L13.9208 37.2661L14.0982 37.4412Z" fill="white"/>
<path d="M11.9707 36.0405V39.7169L14.2777 40.9423V37.266L11.9707 36.0405ZM14.1002 40.5922L12.3256 39.5418V37.7912L14.1002 38.8416V40.5922ZM14.1002 38.4914L12.3256 37.441V36.3907L14.1002 37.441V38.4914Z" fill="#795547"/>
<path d="M14.1005 38.4907V38.6658L12.1484 37.6154V36.2148L12.3259 36.3899V37.4403L14.1005 38.4907Z" fill="#4F382E"/>
<path d="M14.1005 40.592V40.7671L12.1484 39.7167V37.791L12.3259 37.9661V39.5416L14.1005 40.592Z" fill="#4F382E"/>
<path d="M17.8215 39.5416V40.592L16.0469 39.7167V38.4912L17.8215 39.5416Z" fill="#0C778F"/>
<path d="M17.8215 40.9422V42.6929L16.0469 41.6425V40.0669L17.8215 40.9422Z" fill="#0C778F"/>
<path opacity="0.2" d="M17.6463 40.9422L17.2913 40.7671L16.2266 41.8175L16.5815 41.9926L17.6463 40.9422Z" fill="white"/>
<path opacity="0.2" d="M17.1116 40.5921L16.0469 41.6425V41.1173L16.7567 40.417L17.1116 40.5921Z" fill="white"/>
<path opacity="0.2" d="M17.4691 39.3665L16.7592 40.0668L16.4043 39.8917L17.1141 39.1914L17.4691 39.3665Z" fill="white"/>
<path opacity="0.2" d="M17.8229 39.5418V39.7168L17.2905 40.4171L16.9355 40.067L17.6454 39.3667L17.8229 39.5418Z" fill="white"/>
<path d="M15.6953 38.1411V41.8175L18.0023 43.0429V39.3666L15.6953 38.1411ZM17.8248 42.6928L16.0502 41.6424V39.8918L17.8248 40.9421V42.6928ZM17.8248 40.592L16.0502 39.5416V38.4912L17.8248 39.5416V40.592Z" fill="#795547"/>
<path d="M17.8251 40.592V40.767L15.873 39.7167V38.4912H16.0505V39.7167L17.8251 40.592Z" fill="#4F382E"/>
<path d="M17.8251 42.6926V42.8677L15.873 41.8173V39.8916L16.0505 40.0667V41.6422L17.8251 42.6926Z" fill="#4F382E"/>
<path d="M23.146 42.5179V43.7433L21.5488 42.693V41.6426L23.146 42.5179Z" fill="#0C778F"/>
<path d="M23.146 44.0936V45.8442L21.5488 44.7939V43.2183L23.146 44.0936Z" fill="#0C778F"/>
<path opacity="0.2" d="M23.1462 44.0933L22.7913 43.7432L21.7266 44.9686L22.0815 45.1437L23.1462 44.0933Z" fill="white"/>
<path opacity="0.2" d="M22.4361 43.7434L21.5488 44.6187V44.2686L22.2587 43.5684L22.4361 43.7434Z" fill="white"/>
<path opacity="0.2" d="M22.971 42.343L22.0837 43.0433L21.9062 42.8682L22.6161 42.168L22.971 42.343Z" fill="white"/>
<path opacity="0.2" d="M23.1454 42.5181V42.8682L22.7905 43.3934L22.4355 43.2183L23.1454 42.5181Z" fill="white"/>
<path d="M21.1953 41.2925V44.9688L23.5023 46.1942V42.5179L21.1953 41.2925ZM23.1474 45.8441L21.3728 44.7937V43.0431L23.1474 44.0935V45.8441ZM23.1474 43.7433L21.3728 42.693V41.6426L23.1474 42.693V43.7433Z" fill="#795547"/>
<path d="M23.1496 43.7427V43.9177L21.375 42.8673V41.4668L21.5525 41.6419V42.6923L23.1496 43.7427Z" fill="#4F382E"/>
<path d="M23.1496 45.844V46.0191L21.375 44.9687V43.043L21.5525 43.218V44.7936L23.1496 45.844Z" fill="#4F382E"/>
<path d="M27.0539 44.7936V45.8439L25.2793 44.9686V43.7432L27.0539 44.7936Z" fill="#0C778F"/>
<path d="M27.0539 46.1942V47.9448L25.2793 46.8944V45.3188L27.0539 46.1942Z" fill="#0C778F"/>
<path opacity="0.2" d="M26.8767 46.1941L26.5218 46.019L25.457 47.0694L25.812 47.2445L26.8767 46.1941Z" fill="white"/>
<path opacity="0.2" d="M26.1666 45.844L25.2793 46.7194V46.3692L25.9891 45.6689L26.1666 45.844Z" fill="white"/>
<path opacity="0.2" d="M26.6995 44.6184L25.9897 45.3187L25.6348 45.1436L26.3446 44.4434L26.6995 44.6184Z" fill="white"/>
<path opacity="0.2" d="M27.0533 44.7937V44.9688L26.5209 45.494L26.166 45.3189L26.8759 44.6187L27.0533 44.7937Z" fill="white"/>
<path d="M24.9258 43.3931V47.0695L27.2328 48.2949V44.6185L24.9258 43.3931ZM27.0553 47.9448L25.2807 46.8944V45.1437L27.0553 46.1941V47.9448ZM27.0553 45.844L25.2807 44.7936V43.7432L27.0553 44.7936V45.844Z" fill="#795547"/>
<path d="M27.0575 45.8432V46.0183L25.1055 44.9679V43.5674L25.2829 43.7424V44.9679L27.0575 45.8432Z" fill="#4F382E"/>
<path d="M27.0575 47.9446V48.1197L25.1055 47.0693V45.1436L25.2829 45.3186V46.8942L27.0575 47.9446Z" fill="#4F382E"/>
<path d="M32.726 48.1192V49.1696L31.1289 48.1192V47.0688L32.726 48.1192Z" fill="#0C778F"/>
<path d="M32.726 49.5199V51.2705L31.1289 50.2201V48.6445L32.726 49.5199Z" fill="#0C778F"/>
<path opacity="0.2" d="M32.726 49.5198L32.3711 49.3447L31.1289 50.3951L31.6613 50.5702L32.726 49.5198Z" fill="white"/>
<path opacity="0.2" d="M32.0162 49.1697L31.1289 50.045V49.6949L31.8387 48.9946L32.0162 49.1697Z" fill="white"/>
<path opacity="0.2" d="M32.5511 47.9441L31.6638 48.6443L31.4863 48.4693L32.1962 47.769L32.5511 47.9441Z" fill="white"/>
<path opacity="0.2" d="M32.7311 48.1194V48.2945L32.1987 48.8196L31.8438 48.6446L32.5536 47.9443L32.7311 48.1194Z" fill="white"/>
<path d="M30.7773 46.7188V50.3951L33.0843 51.6206V47.9442L30.7773 46.7188ZM32.7294 51.2705L30.9548 50.2201V48.4694L32.7294 49.5198V51.2705ZM32.7294 49.1697L30.9548 48.1193V47.0689L32.7294 48.1193V49.1697Z" fill="#795547"/>
<path d="M32.7297 49.1689V49.344L30.9551 48.2936V46.8931L31.1325 47.0681V48.1185L32.7297 49.1689Z" fill="#4F382E"/>
<path d="M32.7297 51.2707V51.4458L30.9551 50.3954V48.4697L31.1325 48.6448V50.2204L32.7297 51.2707Z" fill="#4F382E"/>
<path d="M36.4546 50.2203V51.2707L34.8574 50.3954V49.1699L36.4546 50.2203Z" fill="#0C778F"/>
<path d="M36.4546 51.6209V53.3715L34.8574 52.3212V50.7456L36.4546 51.6209Z" fill="#0C778F"/>
<path opacity="0.2" d="M36.4548 51.6209L36.0999 51.4458L35.0352 52.4962L35.3901 52.6713L36.4548 51.6209Z" fill="white"/>
<path opacity="0.2" d="M35.7447 51.2708L34.8574 52.3212V51.796L35.5673 51.0957L35.7447 51.2708Z" fill="white"/>
<path opacity="0.2" d="M36.2796 50.0452L35.3923 50.7455L35.2148 50.5704L35.9247 49.8701L36.2796 50.0452Z" fill="white"/>
<path opacity="0.2" d="M36.454 50.2205V50.3955L36.0991 51.0958L35.7441 50.7457L36.454 50.0454V50.2205Z" fill="white"/>
<path d="M34.5039 48.8198V52.4962L36.8109 53.7216V50.0453L34.5039 48.8198ZM36.456 53.3715L34.6814 52.3211V50.5705L36.456 51.6209V53.3715ZM36.456 51.2707L34.6814 50.2203V49.17L36.456 50.2203V51.2707Z" fill="#795547"/>
<path d="M36.4582 51.2707V51.4457L34.6836 50.3954V49.1699H34.8611V50.3954L36.4582 51.2707Z" fill="#4F382E"/>
<path d="M36.4582 53.3718V53.5469L34.6836 52.4965V50.5708L34.8611 50.7459V52.3214L36.4582 53.3718Z" fill="#4F382E"/>
<path d="M14.0969 43.743V44.9684L12.3223 43.9181V42.8677L14.0969 43.743Z" fill="#0C778F"/>
<path d="M14.0969 45.3185V46.894L12.3223 46.0187V44.2681L14.0969 45.3185Z" fill="#0C778F"/>
<path opacity="0.2" d="M13.9216 45.3184L13.5667 44.9683L12.502 46.0186L12.8569 46.3688L13.9216 45.3184Z" fill="white"/>
<path opacity="0.2" d="M13.387 44.7935L12.3223 45.8438V45.4937L13.0321 44.7935H13.387Z" fill="white"/>
<path opacity="0.2" d="M13.7444 43.5681L13.0346 44.2684L12.6797 44.0933L13.3895 43.3931L13.7444 43.5681Z" fill="white"/>
<path opacity="0.2" d="M14.0982 43.7432V44.0933L13.5659 44.6185L13.2109 44.4434L13.9208 43.7432H14.0982Z" fill="white"/>
<path d="M11.9707 42.5176V46.1939L14.2777 47.4194V43.743L11.9707 42.5176ZM14.1002 46.8942L12.3256 45.8438V44.0932L14.1002 45.1435V46.8942ZM14.1002 44.9685L12.3256 43.9181V42.8677L14.1002 43.9181V44.9685Z" fill="#795547"/>
<path d="M14.1005 44.9677V45.1428L12.1484 44.0924V42.6919L12.3259 42.867V43.9173L14.1005 44.9677Z" fill="#4F382E"/>
<path d="M14.1005 46.8941V47.2442L12.1484 46.1938V44.2681H12.3259V46.0187L14.1005 46.8941Z" fill="#4F382E"/>
<path d="M17.8215 45.8436V47.0691L16.0469 46.0187V44.9683L17.8215 45.8436Z" fill="#0C778F"/>
<path d="M17.8215 47.4195V49.1702L16.0469 48.1198V46.3691L17.8215 47.4195Z" fill="#0C778F"/>
<path opacity="0.2" d="M17.6463 47.4195L17.2913 47.0693L16.2266 48.2948L16.5815 48.4699L17.6463 47.4195Z" fill="white"/>
<path opacity="0.2" d="M17.1116 47.0691L16.0469 47.9445V47.5943L16.7567 46.894L17.1116 47.0691Z" fill="white"/>
<path opacity="0.2" d="M17.4691 45.6687L16.7592 46.369L16.4043 46.1939L17.1141 45.4937L17.4691 45.6687Z" fill="white"/>
<path opacity="0.2" d="M17.8229 45.8438V46.1939L17.2905 46.7191L16.9355 46.544L17.6454 45.8438H17.8229Z" fill="white"/>
<path d="M15.6953 44.6182V48.2946L18.0023 49.52V45.8436L15.6953 44.6182ZM17.8248 49.1699L16.0502 48.1195V46.3688L17.8248 47.4192V49.1699ZM17.8248 47.0691L16.0502 46.0187V44.9683L17.8248 46.0187V47.0691Z" fill="#795547"/>
<path d="M17.8251 47.0683V47.2434L15.873 46.193V44.7925L16.0505 44.9675V46.0179L17.8251 47.0683Z" fill="#4F382E"/>
<path d="M17.8251 49.1702V49.3453L15.873 48.2949V46.3691H16.0505V48.1198L17.8251 49.1702Z" fill="#4F382E"/>
<path d="M23.146 48.9943V50.2197L21.5488 49.1693V47.9438L23.146 48.9943Z" fill="#0C778F"/>
<path d="M23.146 50.5704V52.146L21.5488 51.2707V49.52L23.146 50.5704Z" fill="#0C778F"/>
<path opacity="0.2" d="M23.1462 50.3953L22.7913 50.2202L21.7266 51.2706L22.0815 51.6207L23.1462 50.3953Z" fill="white"/>
<path opacity="0.2" d="M22.4361 50.0454L21.5488 51.0958V50.7457L22.2587 50.0454H22.4361Z" fill="white"/>
<path opacity="0.2" d="M22.971 48.8201L22.0837 49.5204L21.9062 49.3453L22.6161 48.645L22.971 48.8201Z" fill="white"/>
<path opacity="0.2" d="M23.1454 48.9949V49.345L22.7905 49.8702L22.4355 49.6951L23.1454 48.8198V48.9949Z" fill="white"/>
<path d="M21.1953 47.7695V51.4459L23.5023 52.6714V48.995L21.1953 47.7695ZM23.1474 52.1462L21.3728 51.0958V49.3451L23.1474 50.3955V52.1462ZM23.1474 50.2205L21.3728 49.1701V47.9446L23.1474 48.995V50.2205Z" fill="#795547"/>
<path d="M23.1496 50.2197V50.3948L21.375 49.3444V47.9438H21.5525V49.1693L23.1496 50.2197Z" fill="#4F382E"/>
<path d="M23.1496 52.146V52.4961L21.375 51.2707V49.52H21.5525V51.2707L23.1496 52.146Z" fill="#4F382E"/>
<path d="M27.0539 51.096V52.3215L25.2793 51.2711V50.2207L27.0539 51.096Z" fill="#0C778F"/>
<path d="M27.0539 52.6715V54.4222L25.2793 53.3718V51.6211L27.0539 52.6715Z" fill="#0C778F"/>
<path opacity="0.2" d="M26.8767 52.6714L26.5218 52.3213L25.457 53.3717L25.812 53.7218L26.8767 52.6714Z" fill="white"/>
<path opacity="0.2" d="M26.1666 52.1465L25.2793 53.1969V52.8468L25.9891 52.1465H26.1666Z" fill="white"/>
<path opacity="0.2" d="M26.6995 50.9212L25.9897 51.6214L25.6348 51.4463L26.3446 50.7461L26.6995 50.9212Z" fill="white"/>
<path opacity="0.2" d="M27.0533 51.0962V51.4463L26.5209 51.9716L26.166 51.7965L26.8759 51.0962H27.0533Z" fill="white"/>
<path d="M24.9258 49.8706V53.547L27.2328 54.7724V51.0961L24.9258 49.8706ZM27.0553 54.4223L25.2807 53.3719V51.6212L27.0553 52.6716V54.4223ZM27.0553 52.3215L25.2807 51.2711V50.2207L27.0553 51.2711V52.3215Z" fill="#795547"/>
<path d="M27.0575 52.3208V52.4958L25.1055 51.4455V50.0449L25.2829 50.22V51.2704L27.0575 52.3208Z" fill="#4F382E"/>
<path d="M27.0575 54.4221V54.5972L25.1055 53.5468V51.6211H25.2829V53.3717L27.0575 54.4221Z" fill="#4F382E"/>
<path d="M32.726 54.4222V55.6477L31.1289 54.5973V53.5469L32.726 54.4222Z" fill="#0C778F"/>
<path d="M32.726 55.9977V57.5732L31.1289 56.6979V54.9473L32.726 55.9977Z" fill="#0C778F"/>
<path opacity="0.2" d="M32.726 55.9976L32.3711 55.6475L31.1289 56.6978L31.6613 57.0479L32.726 55.9976Z" fill="white"/>
<path opacity="0.2" d="M32.0162 55.4727L31.1289 56.5231V56.1729L31.8387 55.4727H32.0162Z" fill="white"/>
<path opacity="0.2" d="M32.5511 54.2473L31.6638 54.9476L31.4863 54.7725L32.1962 54.0723L32.5511 54.2473Z" fill="white"/>
<path opacity="0.2" d="M32.7311 54.4224V54.7725L32.1987 55.2977L31.8438 55.1226L32.5536 54.4224H32.7311Z" fill="white"/>
<path d="M30.7773 53.1968V56.8731L33.0843 58.0986V54.4222L30.7773 53.1968ZM32.7294 57.5734L30.9548 56.523V54.7724L32.7294 55.8227V57.5734ZM32.7294 55.6477L30.9548 54.5973V53.5469L32.7294 54.5973V55.6477Z" fill="#795547"/>
<path d="M32.7297 55.647V55.822L30.9551 54.7716V53.3711L31.1325 53.5462V54.5966L32.7297 55.647Z" fill="#4F382E"/>
<path d="M32.7297 57.5733V57.9234L30.9551 56.873V54.9473H31.1325V56.6979L32.7297 57.5733Z" fill="#4F382E"/>
<path d="M36.4546 56.5228V57.7482L34.8574 56.6978V55.6475L36.4546 56.5228Z" fill="#0C778F"/>
<path d="M36.4546 58.0983V59.8489L34.8574 58.7985V57.0479L36.4546 58.0983Z" fill="#0C778F"/>
<path opacity="0.2" d="M36.4548 58.0982L36.0999 57.748L35.0352 58.9735L35.3901 59.1486L36.4548 58.0982Z" fill="white"/>
<path opacity="0.2" d="M35.7447 57.7483L34.8574 58.6236V58.2735L35.5673 57.5732L35.7447 57.7483Z" fill="white"/>
<path opacity="0.2" d="M36.2796 56.3479L35.3923 57.0482L35.2148 56.8731L35.9247 56.1729L36.2796 56.3479Z" fill="white"/>
<path opacity="0.2" d="M36.454 56.5229V56.8731L36.0991 57.3983L35.7441 57.2232L36.454 56.5229Z" fill="white"/>
<path d="M34.5039 55.2974V58.9738L36.8109 60.1992V56.5228L34.5039 55.2974ZM36.456 59.8491L34.6814 58.7987V57.048L36.456 58.0984V59.8491ZM36.456 57.7483L34.6814 56.6979V55.6475L36.456 56.6979V57.7483Z" fill="#795547"/>
<path d="M36.4582 57.7475V57.9226L34.6836 56.8722V55.4717L34.8611 55.6467V56.6971L36.4582 57.7475Z" fill="#4F382E"/>
<path d="M36.4582 59.8489V60.024L34.6836 58.9736V57.0479H34.8611V58.7985L36.4582 59.8489Z" fill="#4F382E"/>
<path d="M14.0969 50.2208V51.2712L12.3223 50.3959V49.1704L14.0969 50.2208Z" fill="#0C778F"/>
<path d="M14.0969 51.6214V53.372L12.3223 52.4967V50.7461L14.0969 51.6214Z" fill="#0C778F"/>
<path opacity="0.2" d="M13.9216 51.6214L13.5667 51.4463L12.502 52.4967L12.8569 52.6718L13.9216 51.6214Z" fill="white"/>
<path opacity="0.2" d="M13.387 51.2713L12.3223 52.3217V51.7965L13.0321 51.0962L13.387 51.2713Z" fill="white"/>
<path opacity="0.2" d="M13.7444 50.0457L13.0346 50.746L12.6797 50.5709L13.3895 49.8706L13.7444 50.0457Z" fill="white"/>
<path opacity="0.2" d="M14.0982 50.221V50.396L13.5659 51.0963L13.2109 50.7461L13.9208 50.0459L14.0982 50.221Z" fill="white"/>
<path d="M11.9707 48.8203V52.4967L14.2777 53.7221V50.0458L11.9707 48.8203ZM14.1002 53.372L12.3256 52.3216V50.571L14.1002 51.6213V53.372ZM14.1002 51.2712L12.3256 50.2208V49.1704L14.1002 50.2208V51.2712Z" fill="#795547"/>
<path d="M14.1005 51.2712V51.4462L12.1484 50.3958V49.1704H12.3259V50.3958L14.1005 51.2712Z" fill="#4F382E"/>
<path d="M14.1005 53.3723V53.5474L12.1484 52.497V50.5713L12.3259 50.7464V52.497L14.1005 53.3723Z" fill="#4F382E"/>
<path d="M17.8215 52.3214V53.3718L16.0469 52.4965V51.271L17.8215 52.3214Z" fill="#0C778F"/>
<path d="M17.8215 53.8971V55.4727L16.0469 54.5973V52.8467L17.8215 53.8971Z" fill="#0C778F"/>
<path opacity="0.2" d="M17.6463 53.7219L17.2913 53.5469L16.2266 54.5972L16.5815 54.7723L17.6463 53.7219Z" fill="white"/>
<path opacity="0.2" d="M17.1116 53.3718L16.0469 54.4222V54.0721L16.7567 53.1968L17.1116 53.3718Z" fill="white"/>
<path opacity="0.2" d="M17.4691 52.1463L16.7592 52.8465L16.4043 52.6714L17.1141 51.9712L17.4691 52.1463Z" fill="white"/>
<path opacity="0.2" d="M17.8229 52.3215V52.6717L17.2905 53.1968L16.9355 53.0218L17.6454 52.1465L17.8229 52.3215Z" fill="white"/>
<path d="M15.6953 50.9209V54.5972L18.0023 55.8227V52.1463L15.6953 50.9209ZM17.8248 55.4726L16.0502 54.4222V52.6715L17.8248 53.7219V55.4726ZM17.8248 53.3718L16.0502 52.3214V51.271L17.8248 52.3214V53.3718Z" fill="#795547"/>
<path d="M17.8251 53.3718V53.7219L15.873 52.4965V51.271H16.0505V52.4965L17.8251 53.3718Z" fill="#4F382E"/>
<path d="M17.8251 55.4725V55.6475L15.873 54.5971V52.6714L16.0505 52.8465V54.5971L17.8251 55.4725Z" fill="#4F382E"/>
<path d="M23.146 55.4723V56.5226L21.5488 55.6473V54.4219L23.146 55.4723Z" fill="#0C778F"/>
<path d="M23.146 56.8729V58.6235L21.5488 57.5731V55.9976L23.146 56.8729Z" fill="#0C778F"/>
<path opacity="0.2" d="M23.1462 56.8728L22.7913 56.6978L21.7266 57.7482L22.0815 57.9232L23.1462 56.8728Z" fill="white"/>
<path opacity="0.2" d="M22.4361 56.5227L21.5488 57.398V57.0479L22.2587 56.3477L22.4361 56.5227Z" fill="white"/>
<path opacity="0.2" d="M22.971 55.2971L22.0837 55.9973L21.9062 55.8223L22.6161 55.1221L22.971 55.2971Z" fill="white"/>
<path opacity="0.2" d="M23.1454 55.4724V55.6475L22.7905 56.1727L22.4355 55.9976L23.1454 55.2974V55.4724Z" fill="white"/>
<path d="M21.1953 54.0718V57.7481L23.5023 58.9736V55.2972L21.1953 54.0718ZM23.1474 58.6234L21.3728 57.5731V55.8224L23.1474 56.8728V58.6234ZM23.1474 56.5227L21.3728 55.4723V54.4219L23.1474 55.4723V56.5227Z" fill="#795547"/>
<path d="M23.1496 56.522V56.697L21.375 55.6466V54.2461L21.5525 54.4212V55.6466L23.1496 56.522Z" fill="#4F382E"/>
<path d="M23.1496 58.6234V58.7985L21.375 57.748V55.8223L21.5525 55.9973V57.573L23.1496 58.6234Z" fill="#4F382E"/>
<path d="M27.0539 57.5733V58.6237L25.2793 57.7484V56.5229L27.0539 57.5733Z" fill="#0C778F"/>
<path d="M27.0539 58.974V60.7246L25.2793 59.8493V58.0986L27.0539 58.974Z" fill="#0C778F"/>
<path opacity="0.2" d="M26.8767 58.9739L26.5218 58.7988L25.457 59.8492L25.812 60.0243L26.8767 58.9739Z" fill="white"/>
<path opacity="0.2" d="M26.1666 58.6238L25.2793 59.6742V59.149L25.9891 58.4487L26.1666 58.6238Z" fill="white"/>
<path opacity="0.2" d="M26.6995 57.3982L25.9897 58.0985L25.6348 57.9234L26.3446 57.2231L26.6995 57.3982Z" fill="white"/>
<path opacity="0.2" d="M27.0533 57.5735V57.7486L26.5209 58.4489L26.166 58.0987L26.8759 57.3984L27.0533 57.5735Z" fill="white"/>
<path d="M24.9258 56.1729V59.8492L27.2328 61.0746V57.3983L24.9258 56.1729ZM27.0553 60.7245L25.2807 59.6741V57.9235L27.0553 58.9739V60.7245ZM27.0553 58.6237L25.2807 57.5734V56.523L27.0553 57.5734V58.6237Z" fill="#795547"/>
<path d="M27.0575 58.6237V58.9739L25.1055 57.7484V56.5229H25.2829V57.7484L27.0575 58.6237Z" fill="#4F382E"/>
<path d="M27.0575 60.7248V60.8999L25.1055 59.8495V57.9238L25.2829 58.0989V59.8495L27.0575 60.7248Z" fill="#4F382E"/>
<path d="M32.726 60.8995V61.9499L31.1289 61.0746V59.8491L32.726 60.8995Z" fill="#0C778F"/>
<path d="M32.726 62.3001V64.0508L31.1289 63.1755V61.4248L32.726 62.3001Z" fill="#0C778F"/>
<path opacity="0.2" d="M32.726 62.3001L32.3711 62.125L31.1289 63.1754L31.6613 63.3505L32.726 62.3001Z" fill="white"/>
<path opacity="0.2" d="M32.0162 61.95L31.1289 63.0004V62.4752L31.8387 61.7749L32.0162 61.95Z" fill="white"/>
<path opacity="0.2" d="M32.5511 60.7244L31.6638 61.4247L31.4863 61.2497L32.1962 60.5493L32.5511 60.7244Z" fill="white"/>
<path opacity="0.2" d="M32.7311 60.8997V61.0747L32.1987 61.775L31.8438 61.4248L32.5536 60.7246L32.7311 60.8997Z" fill="white"/>
<path d="M30.7773 59.499V63.1754L33.0843 64.4009V60.7245L30.7773 59.499ZM32.7294 64.0507L30.9548 63.0003V61.2497L32.7294 62.3001V64.0507ZM32.7294 61.95L30.9548 60.8996V59.8492L32.7294 60.8996V61.95Z" fill="#795547"/>
<path d="M32.7297 61.9499V62.125L30.9551 61.0746V59.8491H31.1325V61.0746L32.7297 61.9499Z" fill="#4F382E"/>
<path d="M32.7297 64.051V64.2261L30.9551 63.1757V61.25L31.1325 61.4251V63.1757L32.7297 64.051Z" fill="#4F382E"/>
<path d="M36.4546 63.0001V64.0505L34.8574 63.1752V61.9497L36.4546 63.0001Z" fill="#0C778F"/>
<path d="M36.4546 64.5758V66.1514L34.8574 65.276V63.5254L36.4546 64.5758Z" fill="#0C778F"/>
<path opacity="0.2" d="M36.4548 64.4007L36.0999 64.2256L35.0352 65.276L35.3901 65.451L36.4548 64.4007Z" fill="white"/>
<path opacity="0.2" d="M35.7447 64.0506L34.8574 65.101V64.7508L35.5673 63.8755L35.7447 64.0506Z" fill="white"/>
<path opacity="0.2" d="M36.2796 62.825L35.3923 63.5252L35.2148 63.3501L35.9247 62.6499L36.2796 62.825Z" fill="white"/>
<path opacity="0.2" d="M36.454 63.0003V63.3504L36.0991 63.8756L35.7441 63.7005L36.454 62.8252V63.0003Z" fill="white"/>
<path d="M34.5039 61.5996V65.451L36.8109 66.6765V63.0001L34.5039 61.5996ZM36.456 66.1513L34.6814 65.1009V63.3502L36.456 64.4006V66.1513ZM36.456 64.0505L34.6814 63.0001V61.9497L36.456 63.0001V64.0505Z" fill="#795547"/>
<path d="M36.4582 64.0505V64.4006L34.6836 63.1752V61.9497H34.8611V63.1752L36.4582 64.0505Z" fill="#4F382E"/>
<path d="M36.4582 66.1512V66.5013L34.6836 65.2758V63.3501L34.8611 63.5252V65.2758L36.4582 66.1512Z" fill="#4F382E"/>
<path d="M43.5569 82.0824L7 61.2496V51.9712L43.5569 72.8039V82.0824Z" fill="#7A7A7A"/>
<path d="M128.384 82.0827L76.9199 111.319V102.215L128.384 72.8042V82.0827Z" fill="#808080"/>
<path d="M86.1472 96.9631L43.5566 72.8041V49.8706L86.1472 73.8545V96.9631Z" fill="#8C8C8C"/>
<path d="M66.2717 85.2337V85.5838L60.0605 81.9074V74.5547L60.238 74.7298V81.7324L66.2717 85.2337Z" fill="#5E5E5E"/>
<path d="M63.2551 76.3046V83.4822L60.2383 81.7316V74.729L63.2551 76.3046Z" fill="#663F30"/>
<path d="M61.2994 81.7324V81.9075L60.4121 81.3823V79.4565L60.5896 79.6316V81.3823L61.2994 81.7324Z" fill="#472C22"/>
<path d="M61.3016 79.9815V81.7321L60.5918 81.382V79.6313L61.3016 79.9815Z" fill="#543427"/>
<path d="M62.9029 82.7825L62.0156 82.4323V80.3315L62.1931 80.5066V82.2573L62.9029 82.7825Z" fill="#472C22"/>
<path d="M62.8993 80.857V82.7827L62.1895 82.2575V80.5068L62.8993 80.857Z" fill="#543427"/>
<path d="M63.074 80.3318V80.5068L60.4121 79.1063V77.8809L60.5896 78.0559V78.9313L63.074 80.3318Z" fill="#472C22"/>
<path d="M63.0762 79.4562V80.3315L60.5918 78.931V78.0557L63.0762 79.4562Z" fill="#543427"/>
<path d="M61.2994 77.8808V78.0559L60.4121 77.5307V75.605H60.5896V77.3556L61.2994 77.8808Z" fill="#472C22"/>
<path d="M61.3016 75.9551V77.8808L60.5918 77.3556V75.605L61.3016 75.9551Z" fill="#543427"/>
<path d="M62.9029 78.7563V78.9314L62.0156 78.4062V76.4805H62.1931V78.4062L62.9029 78.7563Z" fill="#472C22"/>
<path d="M62.8993 77.0057V78.7563L62.1895 78.4062V76.4805L62.8993 77.0057Z" fill="#543427"/>
<path d="M66.2727 78.0558V85.2335L63.2559 83.4829V76.3052L66.2727 78.0558Z" fill="#663F30"/>
<path d="M64.3209 83.4829V83.658L63.4336 83.1328V81.207H63.6111V83.1328L64.3209 83.4829Z" fill="#472C22"/>
<path d="M64.3212 81.7322V83.4828L63.6113 83.1327V81.207L64.3212 81.7322Z" fill="#543427"/>
<path d="M65.9185 84.3584V84.5334L65.0312 84.0082V82.0825H65.2087V84.0082L65.9185 84.3584Z" fill="#472C22"/>
<path d="M65.9149 82.6077V84.3584L65.2051 84.0083V82.0825L65.9149 82.6077Z" fill="#543427"/>
<path d="M66.0955 82.0823V82.2573L63.4336 80.8568V79.6313L63.6111 79.8064V80.6817L66.0955 82.0823Z" fill="#472C22"/>
<path d="M66.0958 81.2072V82.0825L63.6113 80.682V79.8066L66.0958 81.2072Z" fill="#543427"/>
<path d="M64.3209 79.6316L63.4336 79.2815V77.1807L63.6111 77.3557V79.1064L64.3209 79.6316Z" fill="#472C22"/>
<path d="M64.3212 77.7056V79.6314L63.6113 79.1062V77.3555L64.3212 77.7056Z" fill="#543427"/>
<path d="M65.9185 80.5066V80.6816L65.0312 80.1564V78.0557L65.2087 78.2307V79.9814L65.9185 80.5066Z" fill="#472C22"/>
<path d="M65.9149 78.5811V80.5068L65.2051 79.9816V78.231L65.9149 78.5811Z" fill="#543427"/>
<path d="M63.4333 81.207C63.5313 81.207 63.6108 81.1287 63.6108 81.032C63.6108 80.9353 63.5313 80.8569 63.4333 80.8569C63.3353 80.8569 63.2559 80.9353 63.2559 81.032C63.2559 81.1287 63.3353 81.207 63.4333 81.207Z" fill="#91721A"/>
<path d="M63.0795 80.8569C63.0795 81.0319 63.0795 81.0319 62.9021 81.0319C62.7246 81.0319 62.7246 81.0319 62.7246 80.8569C62.7246 80.6819 62.7246 80.6819 62.9021 80.6819C63.0795 80.5068 63.0795 80.6819 63.0795 80.8569Z" fill="#91721A"/>
<path d="M122.885 117.971L86.1504 96.9629V74.0293L122.885 94.8621V117.971Z" fill="#B0B0B0"/>
<path d="M76.917 111.318L34.5039 87.1595V78.0562L76.917 102.215V111.318Z" fill="#636363"/>
<path d="M76.917 102.215L34.5039 78.0562L43.5544 72.8042L85.9675 96.9632L76.917 102.215Z" fill="#999999"/>
<path d="M78.34 99.4138L74.6133 97.3131L75.5006 96.2627L78.34 98.0133V99.4138Z" fill="#8C8C8C"/>
<path d="M78.3379 99.4138V98.0133L81.1773 96.2627L82.242 97.3131L78.3379 99.4138Z" fill="#A3A3A3"/>
<path d="M78.3413 98.0132L75.502 96.2626L78.3413 94.687L81.1807 96.2626L78.3413 98.0132Z" fill="#BDBDBD"/>
<path d="M79.9401 74.7295H76.5684V96.0875C76.5684 96.2626 76.7458 96.6127 77.1007 96.7878C77.8106 97.1379 78.8753 97.1379 79.4077 96.7878C79.7626 96.6127 79.9401 96.4376 79.9401 96.0875V74.7295Z" fill="#CFCFCF"/>
<path d="M72.3009 96.0876L68.5742 93.8118L69.4615 92.9365L72.3009 94.5121V96.0876Z" fill="#8C8C8C"/>
<path d="M72.2988 96.0876V94.5121L75.3157 92.9365L76.203 93.8118L72.2988 96.0876Z" fill="#A3A3A3"/>
<path d="M72.3023 94.5118L69.4629 92.9362L72.3023 91.1855L75.3191 92.9362L72.3023 94.5118Z" fill="#BDBDBD"/>
<path d="M74.0749 71.4033H70.7031V92.7613C70.7031 92.9363 70.8806 93.2865 71.2355 93.4615C71.9453 93.8117 73.0101 93.8117 73.5425 93.4615C73.8974 93.2865 74.0749 93.1114 74.0749 92.7613V71.4033Z" fill="#CFCFCF"/>
<path d="M66.2694 92.5858L62.3652 90.3099L63.43 89.4346L66.2694 91.0102V92.5858Z" fill="#8C8C8C"/>
<path d="M66.2695 92.5858V91.0102L69.1089 89.4346L69.9962 90.3099L66.2695 92.5858Z" fill="#A3A3A3"/>
<path d="M66.271 91.0103L63.4316 89.4347L66.271 87.6841L69.1104 89.4347L66.271 91.0103Z" fill="#BDBDBD"/>
<path d="M67.8659 67.9019H64.4941V89.2598C64.4941 89.4349 64.6716 89.785 65.0265 89.9601C65.7364 90.3102 66.8011 90.3102 67.3335 89.9601C67.6884 89.785 67.8659 89.6099 67.8659 89.2598V67.9019Z" fill="#CFCFCF"/>
<path d="M55.0877 86.1087L51.1836 84.0079L52.2484 82.9575L55.0877 84.7082V86.1087Z" fill="#8C8C8C"/>
<path d="M55.0879 86.1087V84.7082L57.9273 82.9575L58.8146 84.0079L55.0879 86.1087Z" fill="#A3A3A3"/>
<path d="M55.0894 84.7081L52.25 82.9574L55.0894 81.3818L57.9288 82.9574L55.0894 84.7081Z" fill="#BDBDBD"/>
<path d="M56.6842 61.5996H53.3125V82.9576C53.3125 83.1326 53.49 83.4827 53.8449 83.6578C54.5547 84.0079 55.6195 84.0079 56.1519 83.6578C56.5068 83.4827 56.6842 83.3077 56.6842 82.9576V61.5996Z" fill="#CFCFCF"/>
<path d="M49.0607 82.7825L45.334 80.5067L46.2213 79.6313L49.0607 81.2069V82.7825Z" fill="#8C8C8C"/>
<path d="M49.0586 82.7825V81.2069L52.0754 79.6313L52.9627 80.5067L49.0586 82.7825Z" fill="#A3A3A3"/>
<path d="M49.062 81.2073L46.2227 79.6317L49.062 78.0562L52.0789 79.6317L49.062 81.2073Z" fill="#BDBDBD"/>
<path d="M50.8346 58.0986H47.4629V79.4565C47.4629 79.6316 47.6404 79.9817 47.9953 80.1568C48.7051 80.5069 49.7699 80.5069 50.3023 80.1568C50.6572 79.9817 50.8346 79.8066 50.8346 79.4565V58.0986Z" fill="#CFCFCF"/>
<path d="M43.0272 79.2811L39.123 77.0052L40.1878 76.1299L43.0272 77.7055V79.2811Z" fill="#8C8C8C"/>
<path d="M43.0273 79.2811V77.7055L45.8667 76.1299L46.754 77.0052L43.0273 79.2811Z" fill="#A3A3A3"/>
<path d="M43.0288 77.7058L40.1895 76.1302L43.0288 74.5547L45.8682 76.1302L43.0288 77.7058Z" fill="#BDBDBD"/>
<path d="M44.6237 54.5972H41.252V75.9551C41.252 76.1302 41.4294 76.4803 41.7843 76.6554C42.4942 77.0055 43.5589 77.0055 44.0913 76.6554C44.4462 76.4803 44.6237 76.3052 44.6237 75.9551V54.5972Z" fill="#CFCFCF"/>
<path d="M165.117 70.8782L122.881 94.8621V93.2865L143.999 68.4272L165.117 69.1275V70.8782Z" fill="#BFBFBF"/>
<path d="M160.86 70.7031V72.1036L128.029 90.8356V89.6101L159.795 71.4034V70.7031H160.86Z" fill="#949494"/>
<path d="M159.795 70.7029V71.4032L128.029 89.61V89.4349L144.356 70.1777L159.795 70.7029Z" fill="#ADADAD"/>
<path d="M165.117 93.8115L122.881 117.971V94.8619L165.117 70.8779V93.8115Z" fill="#CCCCCC"/>
<path d="M165.117 102.915L122.881 127.074V117.971L165.117 93.812V102.915Z" fill="#808080"/>
<path d="M122.884 127.074L85.9727 106.241L86.1501 96.9629L122.884 117.971V127.074Z" fill="#636363"/>
<path d="M76.917 79.1062L34.5039 54.9472V53.3716L55.6217 52.6714L76.917 77.3556V79.1062Z" fill="#BDBDBD"/>
<path d="M34.5039 53.3719L86.145 23.961L107.263 23.2607L55.6217 52.6716L34.5039 53.3719Z" fill="#AD2626"/>
<path d="M86.1449 23.9608L84.5478 34.4647L28.1152 2.42773L49.4105 3.128L86.1449 23.9608Z" fill="#FF4F4F"/>
<path d="M72.484 74.3797V75.4301L38.0566 55.8229V54.4224H38.9439V55.2977L72.484 74.3797Z" fill="#808080"/>
<path d="M72.4834 74.0295V74.3796L38.9434 55.2975V54.4222L55.2698 53.897L72.4834 74.0295Z" fill="#919191"/>
<path d="M128.384 49.8703L76.9199 79.1061V77.3555L128.384 48.1196V49.8703Z" fill="#ABABAB"/>
<path d="M128.384 48.12L76.9203 77.3558L55.625 52.6717L107.266 23.2607L128.384 48.12Z" fill="#FF3838"/>
<path d="M165.115 69.1276L143.997 68.4273L87.5645 36.2153L128.38 48.1198L165.115 69.1276Z" fill="#FF4F4F"/>
<path d="M122.885 94.8622L86.1504 74.0295V72.2788L122.885 93.2867V94.8622Z" fill="#8C8C8C"/>
<path d="M122.885 93.2866L86.1504 72.2787L87.5701 36.2153L144.003 68.4273L122.885 93.2866Z" fill="#AD2626"/>
<path d="M42.1372 48.9952L7 29.0378V27.2871L43.5569 48.1199L42.1372 48.9952Z" fill="#8F8F8F"/>
<path d="M43.5569 48.1198L7 27.287L28.1178 2.42773L84.5504 34.4647L43.5569 48.1198Z" fill="#992222"/>
<path d="M93.2436 82.4324V83.6579L91.6465 82.6075V81.5571L93.2436 82.4324Z" fill="#0C778F"/>
<path d="M93.2436 84.0084V85.759L91.6465 84.7087V82.958L93.2436 84.0084Z" fill="#0C778F"/>
<path opacity="0.2" d="M93.2436 84.0079L92.7112 83.6577L91.6465 84.7081L92.1789 85.0583L93.2436 84.0079Z" fill="white"/>
<path opacity="0.2" d="M92.5338 83.658L91.6465 84.5334V84.1832L92.3563 83.4829L92.5338 83.658Z" fill="white"/>
<path opacity="0.2" d="M92.8909 82.2576L92.1811 82.9578L91.8262 82.7828L92.7135 82.0825L92.8909 82.2576Z" fill="white"/>
<path opacity="0.2" d="M93.2486 82.4326V82.7828L92.7162 83.308L92.3613 83.1329L93.0712 82.4326H93.2486Z" fill="white"/>
<path d="M91.2949 81.207V84.8834L93.6019 86.1088V82.4325L91.2949 81.207ZM93.247 85.7587L91.4724 84.7083V82.9577L93.247 84.0081V85.7587ZM93.247 83.6579L91.4724 82.6075V81.5572L93.247 82.6075V83.6579Z" fill="#795547"/>
<path d="M93.247 83.6572V83.8323L91.2949 82.7819V81.3813L91.6498 81.5564V82.6068L93.247 83.6572Z" fill="#4F382E"/>
<path d="M93.247 85.759V85.9341L91.2949 84.8837V82.958H91.6498V84.7086L93.247 85.759Z" fill="#4F382E"/>
<path d="M96.9682 84.5335V85.759L95.3711 84.7086V83.6582L96.9682 84.5335Z" fill="#0C778F"/>
<path d="M96.9682 86.1092V87.8599L95.3711 86.8095V85.2339L96.9682 86.1092Z" fill="#0C778F"/>
<path opacity="0.2" d="M96.9682 86.1089L96.4359 85.7588L95.3711 86.9842L95.9035 87.1593L96.9682 86.1089Z" fill="white"/>
<path opacity="0.2" d="M96.2584 85.7591L95.3711 86.6344V86.2843L96.0809 85.584L96.2584 85.7591Z" fill="white"/>
<path opacity="0.2" d="M96.6158 84.3586L95.906 85.0588L95.7285 84.8838L96.4384 84.1836L96.6158 84.3586Z" fill="white"/>
<path opacity="0.2" d="M96.9732 84.5337V84.8838L96.4409 85.409L96.0859 85.2339L96.7958 84.5337H96.9732Z" fill="white"/>
<path d="M95.0195 83.3081V86.9845L97.3265 88.21V84.5336L95.0195 83.3081ZM96.9716 87.8598L95.197 86.8094V85.0588L96.9716 86.1092V87.8598ZM96.9716 85.759L95.197 84.7086V83.6582L96.9716 84.7086V85.759Z" fill="#795547"/>
<path d="M96.9719 85.7582V85.9333L95.1973 84.8829V83.4824L95.3747 83.6575V84.7079L96.9719 85.7582Z" fill="#4F382E"/>
<path d="M96.9719 87.8597V88.0347L95.1973 86.9843V85.0586L95.3747 85.2337V86.8093L96.9719 87.8597Z" fill="#4F382E"/>
<path d="M102.472 87.6844V88.9099L100.697 87.8595V86.8091L102.472 87.6844Z" fill="#0C778F"/>
<path d="M102.472 89.2599V91.0106L100.697 89.9602V88.2095L102.472 89.2599Z" fill="#0C778F"/>
<path opacity="0.2" d="M102.295 89.2603L101.94 88.9102L100.875 89.9605L101.23 90.3107L102.295 89.2603Z" fill="white"/>
<path opacity="0.2" d="M101.762 88.7349L100.697 89.7852V89.4351L101.407 88.7349H101.762Z" fill="white"/>
<path opacity="0.2" d="M102.119 87.5095L101.41 88.2098L101.055 88.0347L101.765 87.3345L102.119 87.5095Z" fill="white"/>
<path opacity="0.2" d="M102.471 87.6846V88.0347L101.939 88.5599L101.584 88.3848L102.294 87.6846H102.471Z" fill="white"/>
<path d="M100.346 86.459V90.1354L102.653 91.3608V87.6844L100.346 86.459ZM102.475 91.0107L100.701 89.9603V88.2096L102.475 89.26V91.0107ZM102.475 88.9099L100.701 87.8595V86.8091L102.475 87.8595V88.9099Z" fill="#795547"/>
<path d="M102.476 88.9092V89.0842L100.523 88.0338V86.6333L100.701 86.8084V87.8588L102.476 88.9092Z" fill="#4F382E"/>
<path d="M102.476 91.0105V91.1856L100.523 90.1352V88.2095H100.701V89.9601L102.476 91.0105Z" fill="#4F382E"/>
<path d="M106.2 89.7855V91.0109L104.426 89.9605V88.9102L106.2 89.7855Z" fill="#0C778F"/>
<path d="M106.2 91.3609V93.1115L104.426 92.0612V90.3105L106.2 91.3609Z" fill="#0C778F"/>
<path opacity="0.2" d="M106.203 91.3609L105.67 91.0107L104.605 92.2362L104.96 92.4113L106.203 91.3609Z" fill="white"/>
<path opacity="0.2" d="M105.491 91.011L104.426 91.8864V91.5362L105.313 90.8359L105.491 91.011Z" fill="white"/>
<path opacity="0.2" d="M105.848 89.6106L105.138 90.3109L104.783 90.1358L105.493 89.4355L105.848 89.6106Z" fill="white"/>
<path opacity="0.2" d="M106.202 89.7856V90.1358L105.669 90.6609L105.314 90.4859L106.024 89.7856H106.202Z" fill="white"/>
<path d="M104.074 88.5601V92.2364L106.381 93.4619V89.7855L104.074 88.5601ZM106.204 93.1117L104.429 92.0613V90.3107L106.204 91.3611V93.1117ZM106.204 91.011L104.429 89.9606V88.9102L106.204 89.9606V91.011Z" fill="#795547"/>
<path d="M106.204 91.0102V91.1853L104.252 90.1349V88.7344L104.429 88.9094V89.9598L106.204 91.0102Z" fill="#4F382E"/>
<path d="M106.204 93.1116V93.2866L104.252 92.2362V90.3105H104.429V92.0612L106.204 93.1116Z" fill="#4F382E"/>
<path d="M112.052 93.1116V94.3371L110.277 93.2867V92.2363L112.052 93.1116Z" fill="#0C778F"/>
<path d="M112.052 94.6871V96.4378L110.277 95.3874V93.6367L112.052 94.6871Z" fill="#0C778F"/>
<path opacity="0.2" d="M111.875 94.687L111.52 94.3369L110.455 95.3873L110.81 95.7374L111.875 94.687Z" fill="white"/>
<path opacity="0.2" d="M111.342 94.3372L110.277 95.2125V94.8623L110.987 94.1621L111.342 94.3372Z" fill="white"/>
<path opacity="0.2" d="M111.7 92.9368L110.99 93.637L110.635 93.462L111.345 92.7617L111.7 92.9368Z" fill="white"/>
<path opacity="0.2" d="M112.053 93.1118V93.462L111.521 93.9872L111.166 93.8121L111.876 93.1118H112.053Z" fill="white"/>
<path d="M109.926 91.8862V95.5626L112.233 96.788V93.1117L109.926 91.8862ZM112.055 96.4379L110.281 95.3875V93.6369L112.055 94.6873V96.4379ZM112.055 94.3371L110.281 93.2867V92.2364L112.055 93.2867V94.3371Z" fill="#795547"/>
<path d="M112.056 94.3364V94.5114L110.104 93.461V92.0605L110.281 92.2356V93.286L112.056 94.3364Z" fill="#4F382E"/>
<path d="M112.056 96.4377V96.6128L110.104 95.5624V93.6367H110.281V95.3873L112.056 96.4377Z" fill="#4F382E"/>
<path d="M115.78 95.2123V96.4377L114.006 95.3873V94.3369L115.78 95.2123Z" fill="#0C778F"/>
<path d="M115.78 96.7879V98.5386L114.006 97.4882V95.9126L115.78 96.7879Z" fill="#0C778F"/>
<path opacity="0.2" d="M115.783 96.7879L115.25 96.6128L114.186 97.6632L114.54 97.8383L115.783 96.7879Z" fill="white"/>
<path opacity="0.2" d="M115.071 96.4378L114.006 97.3131V96.963L114.716 96.2627L115.071 96.4378Z" fill="white"/>
<path opacity="0.2" d="M115.428 95.0374L114.718 95.7376L114.363 95.5626L115.073 94.8623L115.428 95.0374Z" fill="white"/>
<path opacity="0.2" d="M115.782 95.2124V95.5625L115.249 96.0877L114.895 95.9126L115.604 95.2124H115.782Z" fill="white"/>
<path d="M113.654 93.9868V97.6632L115.961 98.8887V95.2123L113.654 93.9868ZM115.784 98.5385L114.009 97.4881V95.7375L115.784 96.7879V98.5385ZM115.784 96.4377L114.009 95.3873V94.337L115.784 95.3873V96.4377Z" fill="#795547"/>
<path d="M115.784 96.437V96.6121L113.832 95.5617V94.1611L114.009 94.3362V95.3866L115.784 96.437Z" fill="#4F382E"/>
<path d="M115.784 98.5384V98.7134L113.832 97.663V95.7373L114.009 95.9124V97.488L115.784 98.5384Z" fill="#4F382E"/>
<path d="M126.609 96.962V98.0124L128.384 97.1371V95.9116L126.609 96.962Z" fill="#11AACC"/>
<path d="M126.609 98.5382V100.114L128.384 99.2385V97.4878L126.609 98.5382Z" fill="#11AACC"/>
<path opacity="0.2" d="M126.783 98.3631L127.138 98.188L128.203 99.2384L127.848 99.4135L126.783 98.3631Z" fill="white"/>
<path opacity="0.2" d="M127.32 98.0134L128.385 99.0638V98.5386L127.675 97.8384L127.32 98.0134Z" fill="white"/>
<path opacity="0.2" d="M126.963 96.7879L127.673 97.4882L128.028 97.3131L127.318 96.6128L126.963 96.7879Z" fill="white"/>
<path opacity="0.2" d="M126.609 96.9627V97.1377L127.142 97.838L127.497 97.4879L126.787 96.7876L126.609 96.9627Z" fill="white"/>
<path d="M126.432 96.9628V100.639L128.739 99.4137V95.7373L126.432 96.9628ZM126.609 98.5383L128.384 97.4879V99.2386L126.609 100.289V98.5383ZM126.609 96.9628L128.384 95.9124V96.9628L126.609 98.0131V96.9628Z" fill="#795547"/>
<path d="M126.609 98.0124V98.3625L128.561 97.1371V95.9116H128.384V97.1371L126.609 98.0124Z" fill="#4F382E"/>
<path d="M126.609 100.114V100.289L128.561 99.2387V97.313L128.384 97.488V99.2387L126.609 100.114Z" fill="#4F382E"/>
<path d="M130.156 94.8621V96.0876L131.753 95.0372V93.9868L130.156 94.8621Z" fill="#11AACC"/>
<path d="M130.156 96.4378V98.1885L131.753 97.1381V95.5625L130.156 96.4378Z" fill="#11AACC"/>
<path opacity="0.2" d="M130.156 96.438L130.689 96.0879L131.753 97.3133L131.221 97.4884L130.156 96.438Z" fill="white"/>
<path opacity="0.2" d="M130.867 96.0877L131.754 96.963V96.6129L131.045 95.9126L130.867 96.0877Z" fill="white"/>
<path opacity="0.2" d="M130.51 94.6873L131.22 95.3875L131.575 95.2125L130.687 94.5122L130.51 94.6873Z" fill="white"/>
<path opacity="0.2" d="M130.156 94.8623V95.2124L130.689 95.7376L131.044 95.5626L130.334 94.8623H130.156Z" fill="white"/>
<path d="M129.979 94.8622V98.5386L132.285 97.3131V93.6367L129.979 94.8622ZM130.156 96.4378L131.931 95.3874V97.138L130.156 98.1884V96.4378ZM130.156 94.8622L131.931 93.8118V94.8622L130.156 95.9126V94.8622Z" fill="#795547"/>
<path d="M130.156 96.0869V96.262L132.108 95.2116V93.811L131.753 93.9861V95.0365L130.156 96.0869Z" fill="#4F382E"/>
<path d="M130.156 98.1887V98.3638L132.108 97.3134V95.3877L131.753 95.5628V97.1383L130.156 98.1887Z" fill="#4F382E"/>
<path d="M136.9 91.0106V92.236L138.675 91.1856V90.1353L136.9 91.0106Z" fill="#11AACC"/>
<path d="M136.9 92.5865V94.3371L138.675 93.2867V91.5361L136.9 92.5865Z" fill="#11AACC"/>
<path opacity="0.2" d="M137.074 92.586L137.429 92.2358L138.494 93.2863L138.139 93.6364L137.074 92.586Z" fill="white"/>
<path opacity="0.2" d="M137.611 92.2361L138.676 93.1114V92.7613L137.966 92.061L137.611 92.2361Z" fill="white"/>
<path opacity="0.2" d="M137.254 90.8357L137.964 91.536L138.319 91.3609L137.609 90.6606L137.254 90.8357Z" fill="white"/>
<path opacity="0.2" d="M136.9 91.0107V91.3609L137.433 91.886L137.788 91.711L137.078 91.0107H136.9Z" fill="white"/>
<path d="M136.723 91.0106V94.687L139.03 93.4615V89.7852L136.723 91.0106ZM136.9 92.5862L138.675 91.5358V93.2864L136.9 94.3368V92.5862ZM136.9 91.0106L138.675 89.9602V91.0106L136.9 92.061V91.0106Z" fill="#795547"/>
<path d="M136.9 92.2353V92.4104L138.852 91.36V89.9595L138.675 90.1345V91.1849L136.9 92.2353Z" fill="#4F382E"/>
<path d="M136.9 94.3371V94.5121L138.852 93.4618V91.5361H138.675V93.2867L136.9 94.3371Z" fill="#4F382E"/>
<path d="M140.447 89.0841V90.1345L142.222 89.2591V88.0337L140.447 89.0841Z" fill="#11AACC"/>
<path d="M140.447 90.6603V92.2358L142.222 91.3605V89.6099L140.447 90.6603Z" fill="#11AACC"/>
<path opacity="0.2" d="M140.447 90.4856L140.98 90.3105L142.044 91.3609L141.69 91.536L140.447 90.4856Z" fill="white"/>
<path opacity="0.2" d="M141.158 90.135L142.223 91.1854V90.6602L141.336 89.96L141.158 90.135Z" fill="white"/>
<path opacity="0.2" d="M140.801 88.9099L141.511 89.6101L141.866 89.4351L140.978 88.7349L140.801 88.9099Z" fill="white"/>
<path opacity="0.2" d="M140.447 89.0847V89.2598L140.98 89.9601L141.335 89.6099L140.625 88.9097L140.447 89.0847Z" fill="white"/>
<path d="M140.27 89.0848V92.7612L142.577 91.5358V87.8594L140.27 89.0848ZM140.447 90.6604L142.222 89.61V91.3607L140.447 92.4111V90.6604ZM140.447 89.0848L142.222 88.0344V89.0848L140.447 90.1352V89.0848Z" fill="#795547"/>
<path d="M140.447 90.1344V90.4846L142.399 89.2591V88.0337H142.222V89.2591L140.447 90.1344Z" fill="#4F382E"/>
<path d="M140.447 92.2361V92.4112L142.399 91.3608V89.4351L142.222 89.6101V91.3608L140.447 92.2361Z" fill="#4F382E"/>
<path d="M146.84 85.4085V86.634L148.614 85.5836V84.5332L146.84 85.4085Z" fill="#11AACC"/>
<path d="M146.84 86.984V88.5596L148.614 87.6842V85.9336L146.84 86.984Z" fill="#11AACC"/>
<path opacity="0.2" d="M146.84 86.9839L147.372 86.6338L148.437 87.6842L147.905 88.0343L146.84 86.9839Z" fill="white"/>
<path opacity="0.2" d="M147.549 86.459L148.614 87.5094V87.1593L147.726 86.459H147.549Z" fill="white"/>
<path opacity="0.2" d="M147.191 85.2337L147.901 85.934L148.256 85.7589L147.369 85.0586L147.191 85.2337Z" fill="white"/>
<path opacity="0.2" d="M146.84 85.4087V85.7588L147.372 86.2841L147.727 86.109L147.017 85.4087H146.84Z" fill="white"/>
<path d="M146.66 85.4086V89.0849L148.967 87.8594V84.1831L146.66 85.4086ZM146.838 86.9841L148.612 85.9337V87.6844L146.838 88.7348V86.9841ZM146.838 85.4086L148.612 84.3582V85.4086L146.838 86.4589V85.4086Z" fill="#795547"/>
<path d="M146.84 86.6333V86.8083L148.792 85.7579V84.3574L148.614 84.5325V85.5829L146.84 86.6333Z" fill="#4F382E"/>
<path d="M146.84 88.5596V88.9097L148.792 87.8593V85.9336H148.614V87.6843L146.84 88.5596Z" fill="#4F382E"/>
<path d="M150.391 83.483V84.5334L151.988 83.6581V82.4326L150.391 83.483Z" fill="#11AACC"/>
<path d="M150.391 84.8836V86.6343L151.988 85.5839V84.0083L150.391 84.8836Z" fill="#11AACC"/>
<path opacity="0.2" d="M150.391 84.8836L150.923 84.7085L151.988 85.7589L151.455 85.934L150.391 84.8836Z" fill="white"/>
<path opacity="0.2" d="M151.102 84.5335L151.989 85.4088V85.0586L151.279 84.3584L151.102 84.5335Z" fill="white"/>
<path opacity="0.2" d="M150.564 83.3079L151.452 84.0081L151.629 83.8331L150.919 83.1328L150.564 83.3079Z" fill="white"/>
<path opacity="0.2" d="M150.391 83.4832V83.6582L150.923 84.1834L151.278 84.0083L150.568 83.3081L150.391 83.4832Z" fill="white"/>
<path d="M150.213 83.308V86.9843L152.52 85.7589V82.0825L150.213 83.308ZM150.39 84.8835L152.165 83.8332V85.5838L150.39 86.6342V84.8835ZM150.39 83.483L152.165 82.4326V83.483L150.39 84.5334V83.483Z" fill="#795547"/>
<path d="M150.391 84.5327V84.7078L152.165 83.6574V82.2568L151.988 82.4319V83.6574L150.391 84.5327Z" fill="#4F382E"/>
<path d="M150.391 86.6341V86.8091L152.165 85.7587V83.833L151.988 84.0081V85.5837L150.391 86.6341Z" fill="#4F382E"/>
<path d="M156.953 79.6305V80.856L158.728 79.8056V78.5801L156.953 79.6305Z" fill="#11AACC"/>
<path d="M156.953 81.2066V82.7822L158.728 81.9069V80.1562L156.953 81.2066Z" fill="#11AACC"/>
<path opacity="0.2" d="M157.127 81.2066L157.482 80.8564L158.547 81.9068L158.192 82.2569L157.127 81.2066Z" fill="white"/>
<path opacity="0.2" d="M157.664 80.6816L158.729 81.732V81.3819L158.019 80.6816H157.664Z" fill="white"/>
<path opacity="0.2" d="M157.307 79.4563L158.016 80.1566L158.371 79.9815L157.662 79.2812L157.307 79.4563Z" fill="white"/>
<path opacity="0.2" d="M156.953 79.6313V79.9815L157.486 80.5067L157.84 80.3316L157.131 79.6313H156.953Z" fill="white"/>
<path d="M156.775 79.6312V83.3076L159.082 82.0822V78.4058L156.775 79.6312ZM156.953 81.2068L158.727 80.1564V81.9071L156.953 82.9575V81.2068ZM156.953 79.6312L158.727 78.5808V79.6312L156.953 80.6816V79.6312Z" fill="#795547"/>
<path d="M156.953 80.8559V81.031L158.905 79.9806V78.5801H158.728V79.8055L156.953 80.8559Z" fill="#4F382E"/>
<path d="M156.953 82.7823V83.1324L158.905 81.9069V80.1562H158.728V81.9069L156.953 82.7823Z" fill="#4F382E"/>
<path d="M160.506 77.7056V78.756L162.28 77.8807V76.6553L160.506 77.7056Z" fill="#11AACC"/>
<path d="M160.506 79.1063V80.8569L162.28 79.8065V78.231L160.506 79.1063Z" fill="#11AACC"/>
<path opacity="0.2" d="M160.506 79.1062L161.038 78.9312L162.103 79.9815L161.748 80.1566L160.506 79.1062Z" fill="white"/>
<path opacity="0.2" d="M161.217 78.7561L162.282 79.6314V79.2813L161.394 78.5811L161.217 78.7561Z" fill="white"/>
<path opacity="0.2" d="M160.859 77.5305L161.569 78.2308L161.924 78.0558L161.214 77.3555L160.859 77.5305Z" fill="white"/>
<path opacity="0.2" d="M160.506 77.7058V77.8809L161.038 78.4061L161.393 78.2311L160.683 77.5308L160.506 77.7058Z" fill="white"/>
<path d="M160.328 77.5306V81.207L162.635 79.9815V76.3052L160.328 77.5306ZM160.506 79.1062L162.28 78.0558V79.8065L160.506 80.8568V79.1062ZM160.506 77.7057L162.28 76.6553V77.7057L160.506 78.7561V77.7057Z" fill="#795547"/>
<path d="M160.506 78.7553V78.9304L162.458 77.88V76.4795L162.28 76.6546V77.88L160.506 78.7553Z" fill="#4F382E"/>
<path d="M160.506 80.8567V81.0317L162.458 79.9814V78.0557L162.28 78.2307V79.8063L160.506 80.8567Z" fill="#4F382E"/>
<path d="M126.609 103.265V104.491L128.384 103.441V102.39L126.609 103.265Z" fill="#11AACC"/>
<path d="M126.609 104.841V106.592L128.384 105.541V103.966L126.609 104.841Z" fill="#11AACC"/>
<path opacity="0.2" d="M126.783 104.841L127.138 104.491L128.203 105.717L127.848 105.892L126.783 104.841Z" fill="white"/>
<path opacity="0.2" d="M127.32 104.491L128.385 105.366V105.016L127.675 104.316L127.32 104.491Z" fill="white"/>
<path opacity="0.2" d="M126.963 103.091L127.673 103.791L128.028 103.616L127.318 102.916L126.963 103.091Z" fill="white"/>
<path opacity="0.2" d="M126.609 103.266V103.616L127.142 104.141L127.497 103.966L126.787 103.266H126.609Z" fill="white"/>
<path d="M126.432 103.265V106.942L128.739 105.716V102.04L126.432 103.265ZM126.609 104.841L128.384 103.791V105.541L126.609 106.592V104.841ZM126.609 103.265L128.384 102.215V103.265L126.609 104.316V103.265Z" fill="#795547"/>
<path d="M126.609 104.49V104.665L128.561 103.615V102.214L128.384 102.389V103.44L126.609 104.49Z" fill="#4F382E"/>
<path d="M126.609 106.592V106.767L128.561 105.716V103.791L128.384 103.966V105.541L126.609 106.592Z" fill="#4F382E"/>
<path d="M130.156 101.339V102.389L131.753 101.514V100.289L130.156 101.339Z" fill="#11AACC"/>
<path d="M130.156 102.915V104.491L131.753 103.615V101.865L130.156 102.915Z" fill="#11AACC"/>
<path opacity="0.2" d="M130.156 102.74L130.689 102.565L131.753 103.615L131.221 103.966L130.156 102.74Z" fill="white"/>
<path opacity="0.2" d="M130.867 102.39L131.754 103.44V103.09L131.045 102.39H130.867Z" fill="white"/>
<path opacity="0.2" d="M130.51 101.165L131.22 101.865L131.575 101.69L130.687 100.99L130.51 101.165Z" fill="white"/>
<path opacity="0.2" d="M130.156 101.34V101.69L130.689 102.215L131.044 102.04L130.334 101.165L130.156 101.34Z" fill="white"/>
<path d="M129.979 101.34V105.016L132.285 103.791V100.114L129.979 101.34ZM130.156 102.915L131.931 101.865V103.616L130.156 104.666V102.915ZM130.156 101.34L131.931 100.289V101.34L130.156 102.39V101.34Z" fill="#795547"/>
<path d="M130.156 102.389V102.74L132.108 101.689V100.289H131.753V101.514L130.156 102.389Z" fill="#4F382E"/>
<path d="M130.156 104.491V104.841L132.108 103.615V101.865H131.753V103.615L130.156 104.491Z" fill="#4F382E"/>
<path d="M136.9 97.4874V98.5378L138.675 97.6625V96.437L136.9 97.4874Z" fill="#11AACC"/>
<path d="M136.9 99.0636V100.639L138.675 99.7638V98.0132L136.9 99.0636Z" fill="#11AACC"/>
<path opacity="0.2" d="M137.074 98.8889L137.429 98.7139L138.494 99.7643L138.139 99.9393L137.074 98.8889Z" fill="white"/>
<path opacity="0.2" d="M137.611 98.5388L138.676 99.5892V99.2391L137.966 98.3638L137.611 98.5388Z" fill="white"/>
<path opacity="0.2" d="M137.254 97.3132L137.964 98.0135L138.319 97.8384L137.609 97.1382L137.254 97.3132Z" fill="white"/>
<path opacity="0.2" d="M136.9 97.488V97.6631L137.433 98.3633L137.788 98.0132L137.078 97.313L136.9 97.488Z" fill="white"/>
<path d="M136.723 97.4882V101.165L139.03 99.9391V96.2627L136.723 97.4882ZM136.9 99.0638L138.675 98.0134V99.764L136.9 100.814V99.0638ZM136.9 97.4882L138.675 96.4378V97.4882L136.9 98.5386V97.4882Z" fill="#795547"/>
<path d="M136.9 98.5378V98.8879L138.852 97.6624V96.437H138.675V97.6624L136.9 98.5378Z" fill="#4F382E"/>
<path d="M136.9 100.639V100.815L138.852 99.7641V97.8384L138.675 98.0134V99.7641L136.9 100.639Z" fill="#4F382E"/>
<path d="M140.447 95.3875V96.613L142.222 95.5626V94.5122L140.447 95.3875Z" fill="#11AACC"/>
<path d="M140.447 96.9632V98.7139L142.222 97.6635V96.0879L140.447 96.9632Z" fill="#11AACC"/>
<path opacity="0.2" d="M140.447 96.9629L140.98 96.6128L142.044 97.8383L141.69 98.0134L140.447 96.9629Z" fill="white"/>
<path opacity="0.2" d="M141.158 96.613L142.223 97.4883V97.1382L141.336 96.438L141.158 96.613Z" fill="white"/>
<path opacity="0.2" d="M140.801 95.2127L141.511 95.9129L141.866 95.7378L140.978 95.0376L140.801 95.2127Z" fill="white"/>
<path opacity="0.2" d="M140.447 95.3877V95.7378L140.98 96.263L141.335 96.0879L140.625 95.3877H140.447Z" fill="white"/>
<path d="M140.27 95.3875V99.0638L142.577 97.8384V94.1621L140.27 95.3875ZM140.447 96.9631L142.222 95.9127V97.6633L140.447 98.7137V96.9631ZM140.447 95.3875L142.222 94.3372V95.3875L140.447 96.4379V95.3875Z" fill="#795547"/>
<path d="M140.447 96.6123V96.7874L142.399 95.737V94.3364L142.222 94.5115V95.5619L140.447 96.6123Z" fill="#4F382E"/>
<path d="M140.447 98.7137V98.8887L142.399 97.8383V95.9126L142.222 96.0877V97.6633L140.447 98.7137Z" fill="#4F382E"/>
<path d="M146.84 91.8858V92.9362L148.614 92.0609V90.8354L146.84 91.8858Z" fill="#11AACC"/>
<path d="M146.84 93.2865V95.0371L148.614 93.9867V92.4111L146.84 93.2865Z" fill="#11AACC"/>
<path opacity="0.2" d="M146.84 93.2864L147.372 93.1113L148.437 94.1617L147.905 94.3368L146.84 93.2864Z" fill="white"/>
<path opacity="0.2" d="M147.549 92.9363L148.614 93.9867V93.4615L147.726 92.7612L147.549 92.9363Z" fill="white"/>
<path opacity="0.2" d="M147.191 91.7112L147.901 92.4114L148.256 92.2364L147.369 91.5361L147.191 91.7112Z" fill="white"/>
<path opacity="0.2" d="M146.84 91.886V92.0611L147.372 92.7614L147.727 92.4113L147.017 91.7109L146.84 91.886Z" fill="white"/>
<path d="M146.66 91.7108V95.3871L148.967 94.1617V90.4854L146.66 91.7108ZM146.838 93.2864L148.612 92.236V93.9866L146.838 95.037V93.2864ZM146.838 91.8859L148.612 90.8355V91.8859L146.838 92.9363V91.8859Z" fill="#795547"/>
<path d="M146.84 92.9362V93.1113L148.792 92.0609V90.8354H148.614V92.0609L146.84 92.9362Z" fill="#4F382E"/>
<path d="M146.84 95.0374V95.2125L148.792 94.1621V92.2363L148.614 92.4114V93.987L146.84 95.0374Z" fill="#4F382E"/>
<path d="M150.391 89.7855V91.0109L151.988 89.9605V88.9102L150.391 89.7855Z" fill="#11AACC"/>
<path d="M150.391 91.3609V93.1115L151.988 92.0612V90.3105L150.391 91.3609Z" fill="#11AACC"/>
<path opacity="0.2" d="M150.391 91.3609L150.923 91.0107L151.988 92.0611L151.455 92.4113L150.391 91.3609Z" fill="white"/>
<path opacity="0.2" d="M151.102 91.011L151.989 91.8864V91.5362L151.279 90.8359L151.102 91.011Z" fill="white"/>
<path opacity="0.2" d="M150.564 89.6106L151.452 90.3109L151.629 90.1358L150.919 89.4355L150.564 89.6106Z" fill="white"/>
<path opacity="0.2" d="M150.391 89.7856V90.1358L150.923 90.6609L151.278 90.4859L150.568 89.7856H150.391Z" fill="white"/>
<path d="M150.213 89.7855V93.4619L152.52 92.2364V88.5601L150.213 89.7855ZM150.39 91.3611L152.165 90.3107V92.0613L150.39 93.1117V91.3611ZM150.39 89.7855L152.165 88.7351V89.9606L150.39 91.011V89.7855Z" fill="#795547"/>
<path d="M150.391 91.0102V91.1853L152.165 90.1349V88.7344L151.988 88.9094V89.9598L150.391 91.0102Z" fill="#4F382E"/>
<path d="M150.391 93.1116V93.2866L152.165 92.2362V90.3105H151.988V92.0612L150.391 93.1116Z" fill="#4F382E"/>
<path d="M156.953 86.1085V87.1589L158.728 86.2836V85.0581L156.953 86.1085Z" fill="#11AACC"/>
<path d="M156.953 87.5091V89.2598L158.728 88.2094V86.6338L156.953 87.5091Z" fill="#11AACC"/>
<path opacity="0.2" d="M157.127 87.509L157.482 87.334L158.547 88.3844L158.192 88.5594L157.127 87.509Z" fill="white"/>
<path opacity="0.2" d="M157.664 87.159L158.729 88.0343V87.6842L158.019 86.9839L157.664 87.159Z" fill="white"/>
<path opacity="0.2" d="M157.307 85.9334L158.016 86.6337L158.371 86.4586L157.662 85.7583L157.307 85.9334Z" fill="white"/>
<path opacity="0.2" d="M156.953 86.1087V86.2837L157.486 86.809L157.84 86.6339L157.131 85.9336L156.953 86.1087Z" fill="white"/>
<path d="M156.775 85.9335V89.6098L159.082 88.3844V84.708L156.775 85.9335ZM156.953 87.509L158.727 86.4586V88.2093L156.953 89.2597V87.509ZM156.953 86.1085L158.727 85.0581V86.1085L156.953 87.1589V86.1085Z" fill="#795547"/>
<path d="M156.953 87.1582V87.3333L158.905 86.2829V84.8823L158.728 85.0574V86.2829L156.953 87.1582Z" fill="#4F382E"/>
<path d="M156.953 89.26V89.4351L158.905 88.3847V86.459L158.728 86.634V88.2096L156.953 89.26Z" fill="#4F382E"/>
<path d="M160.506 84.0081V85.2336L162.28 84.1832V83.1328L160.506 84.0081Z" fill="#11AACC"/>
<path d="M160.506 85.5836V87.3342L162.28 86.2838V84.5332L160.506 85.5836Z" fill="#11AACC"/>
<path opacity="0.2" d="M160.506 85.5835L161.038 85.2334L162.103 86.2838L161.748 86.6339L160.506 85.5835Z" fill="white"/>
<path opacity="0.2" d="M161.217 85.2337L162.282 86.1089V85.7588L161.394 85.0586L161.217 85.2337Z" fill="white"/>
<path opacity="0.2" d="M160.859 83.8333L161.569 84.5336L161.924 84.3585L161.214 83.6582L160.859 83.8333Z" fill="white"/>
<path opacity="0.2" d="M160.506 84.0083V84.3584L161.038 84.8836L161.393 84.7085L160.683 84.0083H160.506Z" fill="white"/>
<path d="M160.328 84.0082V87.6846L162.635 86.4591V82.7827L160.328 84.0082ZM160.506 85.5838L162.28 84.5334V86.284L160.506 87.3344V85.5838ZM160.506 84.0082L162.28 82.9578V84.0082L160.506 85.0586V84.0082Z" fill="#795547"/>
<path d="M160.506 85.2328V85.4079L162.458 84.3575V82.957L162.28 83.1321V84.1825L160.506 85.2328Z" fill="#4F382E"/>
<path d="M160.506 87.3342V87.5093L162.458 86.4589V84.5332H162.28V86.2838L160.506 87.3342Z" fill="#4F382E"/>
<path d="M126.609 109.742V110.968L128.384 109.917V108.692L126.609 109.742Z" fill="#11AACC"/>
<path d="M126.609 111.319V112.895L128.384 112.019V110.269L126.609 111.319Z" fill="#11AACC"/>
<path opacity="0.2" d="M126.783 111.143L127.138 110.968L128.203 112.019L127.848 112.369L126.783 111.143Z" fill="white"/>
<path opacity="0.2" d="M127.32 110.793L128.385 111.844V111.494L127.675 110.793H127.32Z" fill="white"/>
<path opacity="0.2" d="M126.963 109.568L127.673 110.268L128.028 110.093L127.318 109.393L126.963 109.568Z" fill="white"/>
<path opacity="0.2" d="M126.609 109.743V110.094L127.142 110.619L127.497 110.444L126.787 109.568L126.609 109.743Z" fill="white"/>
<path d="M126.432 109.743V113.419L128.739 112.194V108.518L126.432 109.743ZM126.609 111.319L128.384 110.268V112.019L126.609 113.069V111.319ZM126.609 109.743L128.384 108.693V109.743L126.609 110.793V109.743Z" fill="#795547"/>
<path d="M126.609 110.968V111.143L128.561 110.092V108.692H128.384V109.917L126.609 110.968Z" fill="#4F382E"/>
<path d="M126.609 112.895V113.245L128.561 112.019V110.269H128.384V112.019L126.609 112.895Z" fill="#4F382E"/>
<path d="M130.156 107.817V108.867L131.753 107.992V106.767L130.156 107.817Z" fill="#11AACC"/>
<path d="M130.156 109.218V110.968L131.753 109.918V108.342L130.156 109.218Z" fill="#11AACC"/>
<path opacity="0.2" d="M130.156 109.218L130.689 109.042L131.753 110.093L131.221 110.268L130.156 109.218Z" fill="white"/>
<path opacity="0.2" d="M130.867 108.867L131.754 109.743V109.393L131.045 108.692L130.867 108.867Z" fill="white"/>
<path opacity="0.2" d="M130.51 107.642L131.22 108.342L131.575 108.167L130.687 107.467L130.51 107.642Z" fill="white"/>
<path opacity="0.2" d="M130.156 107.817V107.992L130.689 108.517L131.044 108.342L130.334 107.642L130.156 107.817Z" fill="white"/>
<path d="M129.979 107.642V111.318L132.285 110.093V106.417L129.979 107.642ZM130.156 109.218L131.931 108.167V109.918L130.156 110.968V109.218ZM130.156 107.817L131.931 106.767V107.817L130.156 108.867V107.817Z" fill="#795547"/>
<path d="M130.156 108.867V109.042L132.108 107.991V106.591L131.753 106.766V107.991L130.156 108.867Z" fill="#4F382E"/>
<path d="M130.156 110.968V111.143L132.108 110.093V108.167L131.753 108.342V109.918L130.156 110.968Z" fill="#4F382E"/>
<path d="M136.9 103.79V105.016L138.675 103.965V102.915L136.9 103.79Z" fill="#11AACC"/>
<path d="M136.9 105.366V107.117L138.675 106.066V104.491L136.9 105.366Z" fill="#11AACC"/>
<path opacity="0.2" d="M137.074 105.366L137.429 105.191L138.494 106.241L138.139 106.416L137.074 105.366Z" fill="white"/>
<path opacity="0.2" d="M137.611 105.016L138.676 105.891V105.541L137.966 104.841L137.611 105.016Z" fill="white"/>
<path opacity="0.2" d="M137.254 103.615L137.964 104.316L138.319 104.141L137.609 103.44L137.254 103.615Z" fill="white"/>
<path opacity="0.2" d="M136.9 103.791V104.141L137.433 104.666L137.788 104.491L137.078 103.791H136.9Z" fill="white"/>
<path d="M136.723 103.79V107.467L139.03 106.241V102.565L136.723 103.79ZM136.9 105.366L138.675 104.316V106.066L136.9 107.117V105.366ZM136.9 103.79L138.675 102.74V103.965L136.9 105.016V103.79Z" fill="#795547"/>
<path d="M136.9 105.015V105.19L138.852 104.14V102.739L138.675 102.914V103.965L136.9 105.015Z" fill="#4F382E"/>
<path d="M136.9 107.116V107.292L138.852 106.241V104.315L138.675 104.49V106.066L136.9 107.116Z" fill="#4F382E"/>
<path d="M140.447 101.864V103.09L142.222 102.039V100.814L140.447 101.864Z" fill="#11AACC"/>
<path d="M140.447 103.441V105.016L142.222 104.141V102.39L140.447 103.441Z" fill="#11AACC"/>
<path opacity="0.2" d="M140.447 103.265L140.98 103.09L142.044 104.141L141.69 104.491L140.447 103.265Z" fill="white"/>
<path opacity="0.2" d="M141.158 102.916L142.223 103.966V103.616L141.336 102.916H141.158Z" fill="white"/>
<path opacity="0.2" d="M140.801 101.69L141.511 102.391L141.866 102.215L140.978 101.515L140.801 101.69Z" fill="white"/>
<path opacity="0.2" d="M140.447 101.865V102.215L140.98 102.74L141.335 102.565L140.625 101.69L140.447 101.865Z" fill="white"/>
<path d="M140.27 101.865V105.541L142.577 104.316V100.64L140.27 101.865ZM140.447 103.441L142.222 102.39V104.141L140.447 105.191V103.441ZM140.447 101.865L142.222 100.815V101.865L140.447 102.915V101.865Z" fill="#795547"/>
<path d="M140.447 103.09V103.265L142.399 102.214V100.814H142.222V102.039L140.447 103.09Z" fill="#4F382E"/>
<path d="M140.447 105.016V105.366L142.399 104.141V102.39H142.222V104.141L140.447 105.016Z" fill="#4F382E"/>
<path d="M146.84 98.1883V99.4138L148.614 98.3634V97.313L146.84 98.1883Z" fill="#11AACC"/>
<path d="M146.84 99.7643V101.515L148.614 100.465V98.7139L146.84 99.7643Z" fill="#11AACC"/>
<path opacity="0.2" d="M146.84 99.7642L147.372 99.4141L148.437 100.64L147.905 100.815L146.84 99.7642Z" fill="white"/>
<path opacity="0.2" d="M147.549 99.4138L148.614 100.289V99.939L147.726 99.2388L147.549 99.4138Z" fill="white"/>
<path opacity="0.2" d="M147.191 98.0134L147.901 98.7137L148.256 98.5387L147.369 97.8384L147.191 98.0134Z" fill="white"/>
<path opacity="0.2" d="M146.84 98.1885V98.5386L147.372 99.0638L147.727 98.8887L147.017 98.1885H146.84Z" fill="white"/>
<path d="M146.66 98.1883V101.865L148.967 100.639V96.9629L146.66 98.1883ZM146.838 99.7639L148.612 98.7135V100.464L146.838 101.515V99.7639ZM146.838 98.1883L148.612 97.138V98.1883L146.838 99.2387V98.1883Z" fill="#795547"/>
<path d="M146.84 99.413V99.5881L148.792 98.5377V97.1372L148.614 97.3123V98.3626L146.84 99.413Z" fill="#4F382E"/>
<path d="M146.84 101.515V101.69L148.792 100.64V98.7139H148.614V100.464L146.84 101.515Z" fill="#4F382E"/>
<path d="M150.391 96.2618V97.3122L151.988 96.4369V95.2114L150.391 96.2618Z" fill="#11AACC"/>
<path d="M150.391 97.838V99.4136L151.988 98.5382V96.7876L150.391 97.838Z" fill="#11AACC"/>
<path opacity="0.2" d="M150.391 97.6629L150.923 97.4878L151.988 98.5382L151.455 98.7133L150.391 97.6629Z" fill="white"/>
<path opacity="0.2" d="M151.102 97.3133L151.989 98.3636V98.0135L151.279 97.1382L151.102 97.3133Z" fill="white"/>
<path opacity="0.2" d="M150.564 96.0877L151.452 96.7879L151.629 96.6128L150.919 95.9126L150.564 96.0877Z" fill="white"/>
<path opacity="0.2" d="M150.391 96.2625V96.4375L150.923 97.1378L151.278 96.7876L150.568 96.0874L150.391 96.2625Z" fill="white"/>
<path d="M150.213 96.2626V99.9389L152.52 98.7135V95.0371L150.213 96.2626ZM150.39 97.8381L152.165 96.7878V98.5384L150.39 99.5888V97.8381ZM150.39 96.2626L152.165 95.2122V96.2626L150.39 97.3129V96.2626Z" fill="#795547"/>
<path d="M150.391 97.3122V97.6623L152.165 96.4369V95.2114H151.988V96.4369L150.391 97.3122Z" fill="#4F382E"/>
<path d="M150.391 99.4139V99.5889L152.165 98.5385V96.6128L151.988 96.7879V98.5385L150.391 99.4139Z" fill="#4F382E"/>
<path d="M156.953 92.411V93.6364L158.728 92.586V91.5356L156.953 92.411Z" fill="#11AACC"/>
<path d="M156.953 93.9869V95.7375L158.728 94.6872V92.9365L156.953 93.9869Z" fill="#11AACC"/>
<path opacity="0.2" d="M157.127 93.9869L157.482 93.6367L158.547 94.6871L158.192 95.0373L157.127 93.9869Z" fill="white"/>
<path opacity="0.2" d="M157.664 93.6365L158.729 94.5118V94.1617L158.019 93.4614L157.664 93.6365Z" fill="white"/>
<path opacity="0.2" d="M157.307 92.2361L158.016 92.9364L158.371 92.7613L157.662 92.061L157.307 92.2361Z" fill="white"/>
<path opacity="0.2" d="M156.953 92.4111V92.7612L157.486 93.2864L157.84 93.1114L157.131 92.4111H156.953Z" fill="white"/>
<path d="M156.775 92.411V96.0874L159.082 94.8619V91.1855L156.775 92.411ZM156.953 93.9866L158.727 92.9362V94.6869L156.953 95.7373V93.9866ZM156.953 92.411L158.727 91.3606V92.411L156.953 93.4614V92.411Z" fill="#795547"/>
<path d="M156.953 93.6357V93.8108L158.905 92.7604V91.3599L158.728 91.5349V92.5853L156.953 93.6357Z" fill="#4F382E"/>
<path d="M156.953 95.7375V95.9126L158.905 94.8622V92.9365H158.728V94.6872L156.953 95.7375Z" fill="#4F382E"/>
<path d="M160.506 90.485V91.5354L162.28 90.6601V89.4346L160.506 90.485Z" fill="#11AACC"/>
<path d="M160.506 92.0611V93.6367L162.28 92.7614V91.0107L160.506 92.0611Z" fill="#11AACC"/>
<path opacity="0.2" d="M160.506 91.886L161.038 91.7109L162.103 92.7613L161.748 92.9364L160.506 91.886Z" fill="white"/>
<path opacity="0.2" d="M161.217 91.5364L162.282 92.5868V92.0616L161.394 91.3613L161.217 91.5364Z" fill="white"/>
<path opacity="0.2" d="M160.859 90.3108L161.569 91.011L161.924 90.836L161.214 90.1357L160.859 90.3108Z" fill="white"/>
<path opacity="0.2" d="M160.506 90.4856V90.6607L161.038 91.3609L161.393 91.0108L160.683 90.3105L160.506 90.4856Z" fill="white"/>
<path d="M160.328 90.4857V94.162L162.635 92.9366V89.2603L160.328 90.4857ZM160.506 92.0612L162.28 91.0109V92.7615L160.506 93.8119V92.0612ZM160.506 90.4857L162.28 89.4353V90.4857L160.506 91.5361V90.4857Z" fill="#795547"/>
<path d="M160.506 91.5354V91.8855L162.458 90.66V89.4346H162.28V90.66L160.506 91.5354Z" fill="#4F382E"/>
<path d="M160.506 93.637V93.8121L162.458 92.7617V90.8359L162.28 91.011V92.7617L160.506 93.637Z" fill="#4F382E"/>
<path d="M93.2436 88.9098V89.9601L91.6465 89.0848V87.8594L93.2436 88.9098Z" fill="#0C778F"/>
<path d="M93.2436 90.4854V92.061L91.6465 91.1857V89.4351L93.2436 90.4854Z" fill="#0C778F"/>
<path opacity="0.2" d="M93.2436 90.3103L92.7112 90.1353L91.6465 91.1857L92.1789 91.3607L93.2436 90.3103Z" fill="white"/>
<path opacity="0.2" d="M92.5338 89.9602L91.6465 91.0106V90.6604L92.3563 89.7852L92.5338 89.9602Z" fill="white"/>
<path opacity="0.2" d="M92.8909 88.7346L92.1811 89.4349L91.8262 89.2598L92.7135 88.5596L92.8909 88.7346Z" fill="white"/>
<path opacity="0.2" d="M93.2486 88.9099V89.26L92.7162 89.7852L92.3613 89.4351L93.0712 88.7349L93.2486 88.9099Z" fill="white"/>
<path d="M91.2949 87.5093V91.1857L93.6019 92.4111V88.7347L91.2949 87.5093ZM93.247 92.061L91.4724 91.0106V89.2599L93.247 90.3103V92.061ZM93.247 89.9602L91.4724 88.9098V87.8594L93.247 88.9098V89.9602Z" fill="#795547"/>
<path d="M93.247 89.9602V90.3103L91.2949 89.0848V87.8594H91.6498V89.0848L93.247 89.9602Z" fill="#4F382E"/>
<path d="M93.247 92.0608V92.2358L91.2949 91.1855V89.2598L91.6498 89.4348V91.1855L93.247 92.0608Z" fill="#4F382E"/>
<path d="M96.9682 91.0099V92.2354L95.3711 91.1849V89.9595L96.9682 91.0099Z" fill="#0C778F"/>
<path d="M96.9682 92.5865V94.162L95.3711 93.2867V91.5361L96.9682 92.5865Z" fill="#0C778F"/>
<path opacity="0.2" d="M96.9682 92.5865L96.4359 92.2363L95.3711 93.2867L95.9035 93.6368L96.9682 92.5865Z" fill="white"/>
<path opacity="0.2" d="M96.2584 92.061L95.3711 93.1114V92.7613L96.0809 92.061H96.2584Z" fill="white"/>
<path opacity="0.2" d="M96.6158 90.8357L95.906 91.536L95.7285 91.3609L96.4384 90.6606L96.6158 90.8357Z" fill="white"/>
<path opacity="0.2" d="M96.9732 91.0107V91.3609L96.4409 91.886L96.0859 91.711L96.7958 91.0107H96.9732Z" fill="white"/>
<path d="M95.0195 89.7852V93.4615L97.3265 94.687V91.0106L95.0195 89.7852ZM96.9716 94.1618L95.197 93.1114V91.3607L96.9716 92.4112V94.1618ZM96.9716 92.2361L95.197 91.1857V89.9602L96.9716 91.0106V92.2361Z" fill="#795547"/>
<path d="M96.9719 92.2353V92.4104L95.1973 91.36V89.9595H95.3747V91.1849L96.9719 92.2353Z" fill="#4F382E"/>
<path d="M96.9719 94.162V94.5121L95.1973 93.2867V91.5361H95.3747V93.2867L96.9719 94.162Z" fill="#4F382E"/>
<path d="M102.472 94.1617V95.2122L100.697 94.3368V93.1113L102.472 94.1617Z" fill="#0C778F"/>
<path d="M102.472 95.5624V97.313L100.697 96.4377V94.687L102.472 95.5624Z" fill="#0C778F"/>
<path opacity="0.2" d="M102.295 95.5623L101.94 95.3872L100.875 96.4376L101.23 96.6127L102.295 95.5623Z" fill="white"/>
<path opacity="0.2" d="M101.762 95.2122L100.697 96.2626V95.7374L101.407 95.0371L101.762 95.2122Z" fill="white"/>
<path opacity="0.2" d="M102.119 93.9866L101.41 94.6868L101.055 94.5118L101.765 93.8115L102.119 93.9866Z" fill="white"/>
<path opacity="0.2" d="M102.471 94.1619V94.3369L101.939 95.0372L101.584 94.6871L102.294 93.9868L102.471 94.1619Z" fill="white"/>
<path d="M100.346 92.7612V96.4376L102.653 97.6631V93.9867L100.346 92.7612ZM102.475 97.313L100.701 96.2626V94.5119L102.475 95.5623V97.313ZM102.475 95.2122L100.701 94.1618V93.1114L102.475 94.1618V95.2122Z" fill="#795547"/>
<path d="M102.476 95.2121V95.3872L100.523 94.3368V93.1113H100.701V94.3368L102.476 95.2121Z" fill="#4F382E"/>
<path d="M102.476 97.3128V97.4879L100.523 96.4375V94.5117L100.701 94.6868V96.4375L102.476 97.3128Z" fill="#4F382E"/>
<path d="M106.2 96.2628V97.3132L104.426 96.4379V95.2124L106.2 96.2628Z" fill="#0C778F"/>
<path d="M106.2 97.8385V99.4141L104.426 98.5387V96.7881L106.2 97.8385Z" fill="#0C778F"/>
<path opacity="0.2" d="M106.203 97.6634L105.67 97.4883L104.605 98.5387L104.96 98.7137L106.203 97.6634Z" fill="white"/>
<path opacity="0.2" d="M105.491 97.3133L104.426 98.3636V98.0135L105.313 97.1382L105.491 97.3133Z" fill="white"/>
<path opacity="0.2" d="M105.848 96.0877L105.138 96.7879L104.783 96.6128L105.493 95.9126L105.848 96.0877Z" fill="white"/>
<path opacity="0.2" d="M106.202 96.263V96.6131L105.669 97.1383L105.314 96.9632L106.024 96.0879L106.202 96.263Z" fill="white"/>
<path d="M104.074 94.8623V98.7137L106.381 99.9392V96.2628L104.074 94.8623ZM106.204 99.414L104.429 98.3636V96.613L106.204 97.6634V99.414ZM106.204 97.3132L104.429 96.2628V95.2124L106.204 96.2628V97.3132Z" fill="#795547"/>
<path d="M106.204 97.3131V97.6633L104.252 96.4378V95.2124H104.429V96.4378L106.204 97.3131Z" fill="#4F382E"/>
<path d="M106.204 99.4139V99.764L104.252 98.5385V96.6128L104.429 96.7879V98.5385L106.204 99.4139Z" fill="#4F382E"/>
<path d="M112.052 99.589V100.639L110.277 99.764V98.5386L112.052 99.589Z" fill="#0C778F"/>
<path d="M112.052 101.165V102.74L110.277 101.865V100.114L112.052 101.165Z" fill="#0C778F"/>
<path opacity="0.2" d="M111.875 100.99L111.52 100.814L110.455 101.865L110.81 102.04L111.875 100.99Z" fill="white"/>
<path opacity="0.2" d="M111.342 100.639L110.277 101.69V101.34L110.987 100.464L111.342 100.639Z" fill="white"/>
<path opacity="0.2" d="M111.7 99.4138L110.99 100.114L110.635 99.939L111.345 99.2388L111.7 99.4138Z" fill="white"/>
<path opacity="0.2" d="M112.053 99.5891V99.9393L111.521 100.464L111.166 100.289L111.876 99.4141L112.053 99.5891Z" fill="white"/>
<path d="M109.926 98.1885V101.865L112.233 103.09V99.4139L109.926 98.1885ZM112.055 102.74L110.281 101.69V99.9391L112.055 100.99V102.74ZM112.055 100.639L110.281 99.589V98.5386L112.055 99.589V100.639Z" fill="#795547"/>
<path d="M112.056 100.639V100.99L110.104 99.764V98.5386H110.281V99.764L112.056 100.639Z" fill="#4F382E"/>
<path d="M112.056 102.74V102.916L110.104 101.865V99.9395L110.281 100.115V101.865L112.056 102.74Z" fill="#4F382E"/>
<path d="M115.78 101.689V102.914L114.006 101.864V100.639L115.78 101.689Z" fill="#0C778F"/>
<path d="M115.78 103.265V104.841L114.006 103.965V102.215L115.78 103.265Z" fill="#0C778F"/>
<path opacity="0.2" d="M115.783 103.265L115.25 102.915L114.186 103.965L114.54 104.316L115.783 103.265Z" fill="white"/>
<path opacity="0.2" d="M115.071 102.74L114.006 103.791V103.44L114.716 102.74H115.071Z" fill="white"/>
<path opacity="0.2" d="M115.428 101.515L114.718 102.215L114.363 102.04L115.073 101.34L115.428 101.515Z" fill="white"/>
<path opacity="0.2" d="M115.782 101.69V102.04L115.249 102.565L114.895 102.39L115.604 101.69H115.782Z" fill="white"/>
<path d="M113.654 100.464V104.141L115.961 105.366V101.69L113.654 100.464ZM115.784 104.841L114.009 103.791V102.04L115.784 103.09V104.841ZM115.784 102.915L114.009 101.865V100.814L115.784 101.865V102.915Z" fill="#795547"/>
<path d="M115.784 102.915V103.09L113.832 102.039V100.639H114.009V101.864L115.784 102.915Z" fill="#4F382E"/>
<path d="M115.784 104.841V105.191L113.832 103.965V102.215H114.009V103.965L115.784 104.841Z" fill="#4F382E"/>
<path d="M93.2436 95.2123V96.4377L91.6465 95.3873V94.3369L93.2436 95.2123Z" fill="#0C778F"/>
<path d="M93.2436 96.7879V98.5386L91.6465 97.4882V95.9126L93.2436 96.7879Z" fill="#0C778F"/>
<path opacity="0.2" d="M93.2436 96.7879L92.7112 96.6128L91.6465 97.6632L92.1789 97.8383L93.2436 96.7879Z" fill="white"/>
<path opacity="0.2" d="M92.5338 96.4378L91.6465 97.3131V96.963L92.3563 96.2627L92.5338 96.4378Z" fill="white"/>
<path opacity="0.2" d="M92.8909 95.0374L92.1811 95.7376L91.8262 95.5626L92.7135 94.8623L92.8909 95.0374Z" fill="white"/>
<path opacity="0.2" d="M93.2486 95.2124V95.5625L92.7162 96.0877L92.3613 95.9126L93.0712 95.2124H93.2486Z" fill="white"/>
<path d="M91.2949 93.9868V97.6632L93.6019 98.8887V95.2123L91.2949 93.9868ZM93.247 98.5385L91.4724 97.4881V95.7375L93.247 96.7879V98.5385ZM93.247 96.4377L91.4724 95.3873V94.337L93.247 95.3873V96.4377Z" fill="#795547"/>
<path d="M93.247 96.437V96.6121L91.2949 95.5617V94.1611L91.6498 94.3362V95.3866L93.247 96.437Z" fill="#4F382E"/>
<path d="M93.247 98.5384V98.7134L91.2949 97.663V95.7373L91.6498 95.9124V97.488L93.247 98.5384Z" fill="#4F382E"/>
<path d="M96.9682 97.4884V98.5388L95.3711 97.6634V96.438L96.9682 97.4884Z" fill="#0C778F"/>
<path d="M96.9682 98.889V100.64L95.3711 99.5893V98.0137L96.9682 98.889Z" fill="#0C778F"/>
<path opacity="0.2" d="M96.9682 98.8889L96.4359 98.7139L95.3711 99.7643L95.9035 99.9393L96.9682 98.8889Z" fill="white"/>
<path opacity="0.2" d="M96.2584 98.5388L95.3711 99.4141V99.064L96.0809 98.3638L96.2584 98.5388Z" fill="white"/>
<path opacity="0.2" d="M96.6158 97.3132L95.906 98.0135L95.7285 97.8384L96.4384 97.1382L96.6158 97.3132Z" fill="white"/>
<path opacity="0.2" d="M96.9732 97.4885V97.6636L96.4409 98.1888L96.0859 98.0137L96.7958 97.3135L96.9732 97.4885Z" fill="white"/>
<path d="M95.0195 96.0879V99.7643L97.3265 100.99V97.3134L95.0195 96.0879ZM96.9716 100.64L95.197 99.5892V97.8386L96.9716 98.8889V100.64ZM96.9716 98.5388L95.197 97.4884V96.438L96.9716 97.4884V98.5388Z" fill="#795547"/>
<path d="M96.9719 98.5381V98.7131L95.1973 97.6627V96.2622L95.3747 96.4373V97.6627L96.9719 98.5381Z" fill="#4F382E"/>
<path d="M96.9719 100.639V100.815L95.1973 99.7641V97.8384L95.3747 98.0134V99.589L96.9719 100.639Z" fill="#4F382E"/>
<path d="M102.472 100.464V101.69L100.697 100.639V99.5889L102.472 100.464Z" fill="#0C778F"/>
<path d="M102.472 102.04V103.79L100.697 102.74V100.989L102.472 102.04Z" fill="#0C778F"/>
<path opacity="0.2" d="M102.295 102.04L101.94 101.689L100.875 102.915L101.23 103.09L102.295 102.04Z" fill="white"/>
<path opacity="0.2" d="M101.762 101.69L100.697 102.565V102.215L101.407 101.515L101.762 101.69Z" fill="white"/>
<path opacity="0.2" d="M102.119 100.289L101.41 100.99L101.055 100.815L101.765 100.114L102.119 100.289Z" fill="white"/>
<path opacity="0.2" d="M102.471 100.464V100.814L101.939 101.34L101.584 101.165L102.294 100.464H102.471Z" fill="white"/>
<path d="M100.346 99.2388V102.915L102.653 104.141V100.464L100.346 99.2388ZM102.475 103.79L100.701 102.74V100.989L102.475 102.04V103.79ZM102.475 101.69L100.701 100.639V99.5889L102.475 100.639V101.69Z" fill="#795547"/>
<path d="M102.476 101.689V101.864L100.523 100.814V99.4131L100.701 99.5881V100.639L102.476 101.689Z" fill="#4F382E"/>
<path d="M102.476 103.79V103.965L100.523 102.915V100.989H100.701V102.74L102.476 103.79Z" fill="#4F382E"/>
<path d="M106.2 102.74V103.79L104.426 102.74V101.689L106.2 102.74Z" fill="#0C778F"/>
<path d="M106.2 104.14V105.891L104.426 104.841V103.265L106.2 104.14Z" fill="#0C778F"/>
<path opacity="0.2" d="M106.203 104.14L105.67 103.965L104.605 105.016L104.96 105.191L106.203 104.14Z" fill="white"/>
<path opacity="0.2" d="M105.491 103.79L104.426 104.666V104.315L105.313 103.615L105.491 103.79Z" fill="white"/>
<path opacity="0.2" d="M105.848 102.565L105.138 103.265L104.783 103.09L105.493 102.39L105.848 102.565Z" fill="white"/>
<path opacity="0.2" d="M106.202 102.74V102.915L105.669 103.44L105.314 103.265L106.024 102.565L106.202 102.74Z" fill="white"/>
<path d="M104.074 101.339V105.016L106.381 106.241V102.565L104.074 101.339ZM106.204 105.891L104.429 104.841V103.09L106.204 104.14V105.891ZM106.204 103.79L104.429 102.74V101.689L106.204 102.74V103.79Z" fill="#795547"/>
<path d="M106.204 103.79V103.965L104.252 102.914V101.514L104.429 101.689V102.739L106.204 103.79Z" fill="#4F382E"/>
<path d="M106.204 105.891V106.066L104.252 105.016V103.09L104.429 103.265V104.841L106.204 105.891Z" fill="#4F382E"/>
<path d="M112.052 105.891V107.116L110.277 106.066V105.016L112.052 105.891Z" fill="#0C778F"/>
<path d="M112.052 107.467V109.217L110.277 108.167V106.591L112.052 107.467Z" fill="#0C778F"/>
<path opacity="0.2" d="M111.875 107.467L111.52 107.292L110.455 108.342L110.81 108.517L111.875 107.467Z" fill="white"/>
<path opacity="0.2" d="M111.342 107.116L110.277 107.992V107.642L110.987 106.941L111.342 107.116Z" fill="white"/>
<path opacity="0.2" d="M111.7 105.716L110.99 106.416H110.635L111.345 105.541L111.7 105.716Z" fill="white"/>
<path opacity="0.2" d="M112.053 105.891V106.241L111.521 106.766L111.166 106.591L111.876 105.891H112.053Z" fill="white"/>
<path d="M109.926 104.666V108.342L112.233 109.567V105.891L109.926 104.666ZM112.055 109.217L110.281 108.167V106.416L112.055 107.467V109.217ZM112.055 107.116L110.281 106.066V105.016L112.055 106.066V107.116Z" fill="#795547"/>
<path d="M112.056 107.116V107.291L110.104 106.24V104.84L110.281 105.015V106.065L112.056 107.116Z" fill="#4F382E"/>
<path d="M112.056 109.217V109.392L110.104 108.342V106.416L110.281 106.591V108.167L112.056 109.217Z" fill="#4F382E"/>
<path d="M115.78 108.167V109.217L114.006 108.342V107.117L115.78 108.167Z" fill="#0C778F"/>
<path d="M115.78 109.568V111.318L114.006 110.268V108.692L115.78 109.568Z" fill="#0C778F"/>
<path opacity="0.2" d="M115.783 109.568L115.25 109.393L114.186 110.443L114.54 110.618L115.783 109.568Z" fill="white"/>
<path opacity="0.2" d="M115.071 109.218L114.006 110.093V109.743L114.716 109.042L115.071 109.218Z" fill="white"/>
<path opacity="0.2" d="M115.428 107.992L114.718 108.692L114.363 108.517L115.073 107.817L115.428 107.992Z" fill="white"/>
<path opacity="0.2" d="M115.782 108.167V108.342L115.249 108.868L114.895 108.692L115.604 107.992L115.782 108.167Z" fill="white"/>
<path d="M113.654 106.767V110.443L115.961 111.668V107.992L113.654 106.767ZM115.784 111.318L114.009 110.268V108.517L115.784 109.568V111.318ZM115.784 109.218L114.009 108.167V107.117L115.784 108.167V109.218Z" fill="#795547"/>
<path d="M115.784 109.217V109.392L113.832 108.341V106.941L114.009 107.116V108.341L115.784 109.217Z" fill="#4F382E"/>
<path d="M115.784 111.319V111.494L113.832 110.443V108.518L114.009 108.693V110.268L115.784 111.319Z" fill="#4F382E"/>
<path d="M66.2703 106.067L30.0684 85.4088L37.1668 81.3823L73.3688 102.04L66.2703 106.067Z" fill="#969696"/>
<path d="M62.5457 109.918L26.3438 89.26L30.0704 87.1592L66.2724 107.817L62.5457 109.918Z" fill="#969696"/>
<path d="M58.8153 113.769L22.6133 92.9365L26.34 91.0107L62.5419 111.668L58.8153 113.769Z" fill="#969696"/>
<path d="M55.0907 117.446L18.8887 96.788L22.6153 94.8623L58.8174 115.52L55.0907 117.446Z" fill="#969696"/>
<path d="M66.2704 107.817L30.0684 87.1593V85.4087L66.2704 106.066V107.817Z" fill="#757575"/>
<path d="M62.5457 111.669L26.3438 91.0109V89.2603L62.5457 109.918V111.669Z" fill="#757575"/>
<path d="M58.8153 115.52L22.6133 94.8622V92.9365L58.8153 113.769V115.52Z" fill="#757575"/>
<path d="M55.0907 119.897L18.8887 99.239V96.7881L55.0907 117.446V119.897Z" fill="#757575"/>
<path d="M73.3663 109.393L55.0879 119.897V117.446L58.8146 115.52V113.769L62.5412 111.669V109.918L66.2679 107.817V106.067L73.3663 102.04V109.393Z" fill="#C7C7C7"/>
</svg>
