<svg width="146" height="135" viewBox="0 0 146 135" fill="none" xmlns="http://www.w3.org/2000/svg">
<path d="M136.651 68.6872L136.376 69.0309C135.826 69.7183 135.414 70.8869 135.414 71.5744V75.3553C135.414 76.0427 135.826 76.1114 136.376 75.424L136.858 74.7366C137.408 74.0491 137.614 73.293 137.614 72.5368V68.7559C137.683 68.0685 137.201 67.9997 136.651 68.6872Z" fill="#1F150B"/>
<path d="M136.995 68.6872L136.72 69.0309C136.17 69.7183 135.758 70.8869 135.758 71.5744V75.3553C135.758 76.0427 136.17 76.1114 136.72 75.424L137.201 74.7366C137.751 74.0491 137.958 73.293 137.958 72.5368V68.7559C137.958 68.0685 137.545 67.9997 136.995 68.6872Z" fill="#484038"/>
<path d="M132.802 81.405L136.789 76.9367V66.3502L133.833 68.825L134.04 69.2374L136.583 67.0376V76.7304L132.527 81.0613L132.802 81.405Z" fill="#403932"/>
<path d="M94.1708 92.7471V94.6032L84.2718 88.8975L83.5156 89.2412V86.629C83.5156 83.2605 85.9216 81.8857 88.8088 83.6043C91.8335 85.2541 94.1708 89.3787 94.1708 92.7471Z" fill="#272629"/>
<path d="M86.678 86.6969C86.678 89.5154 88.6715 92.9526 91.1463 94.3962C92.1087 94.9461 91.0776 96.321 91.8337 96.1147C92.04 96.046 94.171 94.8086 94.3085 94.6711C95.1334 94.1899 95.6146 93.2275 95.6146 91.7839C95.6146 88.9654 93.6211 85.5283 91.1463 84.0847C89.9777 83.3973 88.9465 83.3285 88.1904 83.6722C88.1216 83.6722 86.128 84.8409 86.0593 84.9096C85.2344 85.4595 86.678 85.3221 86.678 86.6969Z" fill="#151B1F"/>
<path d="M92.034 95.939C93.7711 94.9235 93.7658 91.6823 92.0221 88.6997C90.2784 85.7171 87.4567 84.1225 85.7195 85.138C83.9824 86.1536 83.9878 89.3947 85.7314 92.3773C87.4751 95.3599 90.2969 96.9546 92.034 95.939Z" fill="#585B5D"/>
<path d="M84.5469 88.1403C84.5469 90.8901 86.4717 94.2585 88.8777 95.6333C91.2837 97.0082 93.2085 95.9083 93.2085 93.1586C93.2085 90.4088 91.2837 87.0404 88.8777 85.6656C86.4717 84.2907 84.5469 85.3906 84.5469 88.1403Z" fill="#3A3E40"/>
<path d="M85.7891 88.7587C85.7891 90.7523 87.1639 93.0895 88.8825 94.1207C90.6011 95.1518 91.9759 94.3269 91.9759 92.3334C91.9759 90.3398 90.6011 88.0025 88.8825 86.9714C87.1639 86.009 85.7891 86.7652 85.7891 88.7587Z" fill="#A5A9B2"/>
<path d="M91.6955 92.1957C91.6955 93.9831 90.3894 94.7392 88.8771 93.8456C87.296 92.9519 86.0586 90.7521 86.0586 88.8961C86.0586 87.1088 87.3647 86.3526 88.8771 87.2462C90.4582 88.1399 91.6955 90.3397 91.6955 92.1957Z" fill="#484B4D"/>
<path d="M91.6269 92.2647C91.6269 93.7083 90.5958 94.2582 89.3584 93.5708C88.121 92.8146 87.0898 91.096 87.0898 89.6524C87.0898 88.2088 88.121 87.6589 89.3584 88.3463C90.5958 89.0337 91.6269 90.8211 91.6269 92.2647Z" fill="#21272B"/>
<path d="M91.5566 91.6457C91.5566 93.0893 90.5254 93.6393 89.288 92.9519C88.0507 92.1957 87.0195 90.4771 87.0195 89.0335C87.0195 87.5899 88.0507 87.0399 89.288 87.7274C90.5254 88.4148 91.5566 90.2021 91.5566 91.6457Z" fill="#3D454B"/>
<path d="M87.1569 86.9022C86.7445 87.246 86.4695 87.7959 86.4695 88.6208C86.4695 90.4081 87.7756 92.6079 89.2879 93.5703C89.9066 93.914 90.4566 94.0515 90.9378 93.914C90.3879 94.3265 89.6317 94.3265 88.8067 93.7766C87.2256 92.8829 85.9883 90.6831 85.9883 88.827C85.9883 87.7959 86.4695 87.1085 87.1569 86.9022Z" fill="#666B70"/>
<path d="M91.1425 91.921C91.1425 93.3646 90.1114 93.9145 88.874 93.2271C87.6366 92.4709 86.6055 90.7523 86.6055 89.3087C86.6055 87.8651 87.6366 87.3152 88.874 88.0026C90.1114 88.69 91.1425 90.4773 91.1425 91.921Z" fill="#7E8386"/>
<path d="M89.4943 91.2334C89.4943 91.8521 89.0819 92.0583 88.6007 91.7833C88.1195 91.5083 87.707 90.7522 87.707 90.2022C87.707 89.6523 88.1195 89.3773 88.6007 89.6523C89.0819 89.9273 89.4943 90.6147 89.4943 91.2334Z" fill="#5C3E17"/>
<path d="M89.424 91.2336C89.424 91.8523 89.0116 92.0585 88.5304 91.7835C88.0492 91.5085 87.6367 90.7524 87.6367 90.2024C87.6367 89.5837 88.0492 89.3775 88.5304 89.6525C89.0116 89.9275 89.424 90.6836 89.424 91.2336Z" fill="#A5A9B2"/>
<path d="M45.0185 64.3563V66.2124L34.982 60.4379L34.3633 60.8504V58.2382C34.3633 54.8697 36.7693 53.4949 39.6565 55.2135C42.6125 56.8633 45.0185 60.9879 45.0185 64.3563Z" fill="#272629"/>
<path d="M37.459 58.4453C37.459 61.2637 39.4526 64.7009 41.9273 66.1445C42.8897 66.6945 41.8586 68.0693 42.6148 67.8631C42.821 67.7944 44.952 66.557 45.0895 66.4195C45.9144 65.9383 46.3956 64.9759 46.3956 63.5323C46.3956 60.7138 44.4021 57.2766 41.9273 55.833C40.7587 55.1456 39.7276 55.0769 38.9714 55.4206C38.9026 55.4206 36.9091 56.5892 36.8403 56.658C36.0842 57.1392 37.459 57.0017 37.459 58.4453Z" fill="#151B1F"/>
<path d="M35.1875 59.6828C35.1875 62.5012 37.1811 65.9384 39.6558 67.382C42.1306 68.8256 44.1241 67.657 44.1241 64.8385C44.1241 62.02 42.1306 58.5829 39.6558 57.1393C37.1811 55.7644 35.1875 56.8643 35.1875 59.6828Z" fill="#585B5D"/>
<path d="M35.3242 59.889C35.3242 62.6387 37.249 66.0071 39.6551 67.382C42.0611 68.7568 43.9859 67.6569 43.9859 64.9072C43.9859 62.1575 42.0611 58.7891 39.6551 57.4142C37.249 56.0393 35.3242 57.1392 35.3242 59.889Z" fill="#3A3E40"/>
<path d="M36.5625 60.508C36.5625 62.5015 37.9374 64.8388 39.6559 65.87C41.3745 66.8324 42.7494 66.0762 42.7494 64.0826C42.7494 62.0891 41.3745 59.7518 39.6559 58.7207C37.9374 57.7583 36.5625 58.5144 36.5625 60.508Z" fill="#A5A9B2"/>
<path d="M42.4729 63.9446C42.4729 64.7695 42.1979 65.3882 41.7855 65.6632C41.2355 66.0756 40.4793 66.0069 39.6544 65.5257C38.0733 64.632 36.8359 62.4322 36.8359 60.6449C36.8359 59.4763 37.3859 58.7201 38.2108 58.6514C38.6233 58.5826 39.1045 58.7201 39.6544 59.0638C41.2355 59.9575 42.4729 62.0885 42.4729 63.9446Z" fill="#666B70"/>
<path d="M42.469 63.9446C42.469 64.7695 42.1941 65.3882 41.7816 65.6632C41.3692 65.7319 40.888 65.5944 40.338 65.2507C38.7569 64.3571 37.5195 62.1573 37.5195 60.37C37.5195 59.545 37.7945 58.9263 38.207 58.6514C38.6194 58.5826 39.1006 58.7201 39.6506 59.0638C41.2317 59.9575 42.469 62.0885 42.469 63.9446Z" fill="#484B4D"/>
<path d="M42.1294 63.1884C42.1294 63.6696 41.9919 64.0133 41.7169 64.1508C41.4419 64.357 40.9607 64.357 40.4795 64.0821C39.5859 63.5321 38.8984 62.2947 38.8984 61.2636C38.8984 60.5762 39.2422 60.1637 39.6546 60.095C39.9296 60.095 40.2045 60.1637 40.4795 60.3012C41.4419 60.9199 42.1294 62.1573 42.1294 63.1884Z" fill="#21272B"/>
<path d="M41.9927 62.7078C41.9927 63.189 41.8552 63.5327 41.5802 63.6702C41.3052 63.8764 40.824 63.8764 40.3428 63.6014C39.4492 63.0515 38.7617 61.8141 38.7617 60.783C38.7617 60.0955 39.1054 59.6831 39.5179 59.6143C39.7929 59.6143 40.0679 59.6831 40.3428 59.8205C41.3052 60.4392 41.9927 61.6766 41.9927 62.7078Z" fill="#3D454B"/>
<path d="M41.5786 62.9139C41.5786 63.3951 41.4411 63.7388 41.1661 63.8763C40.8911 64.0825 40.4099 64.0825 39.9287 63.8075C39.0351 63.2576 38.3477 62.0202 38.3477 60.9891C38.3477 60.3016 38.6914 59.8892 39.1038 59.8204C39.3788 59.8204 39.6538 59.8892 39.9287 60.0267C40.8911 60.6454 41.5786 61.8827 41.5786 62.9139Z" fill="#7E8386"/>
<path d="M135.828 85.5294V95.1535L135.071 95.9784L115.961 105.327L113.692 83.3296L103.037 77.2115V77.9677L58.7664 52.3952V51.639L53.8856 48.8206V49.5767L35.9437 39.1965L27.1445 32.1847L28.4506 5.16863L29.2068 4L135.14 65.0439L134.315 69.5122L134.04 70.3372L134.728 85.5294H135.828Z" fill="#9D9D9C"/>
<path d="M115.279 96.7343L115.966 97.078V107.183L94.2431 95.3595V92.7472C94.2431 91.2349 93.7619 89.585 93.0057 88.1414C92.0433 86.2166 90.531 84.5668 88.9499 83.6044C87.3 82.642 85.8565 82.642 84.8941 83.4669C84.1379 84.0856 83.6566 85.1855 83.6566 86.6978V89.3101L45.0917 67.0373V64.425C45.0917 62.9127 44.6105 61.3316 43.8544 59.8192C42.892 57.8944 41.3796 56.2446 39.7985 55.2822C38.1487 54.3198 36.7051 54.3198 35.6739 55.1447C34.9177 55.7634 34.4365 56.8633 34.4365 58.3756V60.9879L16.4946 50.6076L9.07031 44.4208V16.5798L9.82649 15.4111L116.172 76.6613L114.385 77.1425V77.8299L114.316 79.3423L114.591 80.9921L115.279 96.7343Z" fill="#B2AEAA"/>
<path d="M112.873 87.5916V98.8655L92.9378 87.3854C91.9754 85.4606 90.4631 83.8107 88.882 82.8483C87.2321 81.8859 85.7885 81.8859 84.8261 82.7108L43.7864 59.0632C42.824 57.1384 41.3117 55.4885 39.7306 54.5261C38.0808 53.5637 36.6371 53.5637 35.606 54.3886L9.27734 39.1964V27.9225L112.873 87.5916Z" fill="#4A6FA8"/>
<path d="M9 16.4428L114.246 77.0055L116.033 76.5244L9.75618 15.2742L9 16.4428Z" fill="#E0DDDA"/>
<path d="M9.82493 40.9836L9 41.8085V35.3466L9.82493 35.8278V40.9836Z" fill="#A6310B"/>
<path d="M95.5479 86.6981C95.5479 86.2169 95.4791 85.8732 95.3416 85.5294C95.0666 84.9107 94.6542 84.3608 94.0355 84.0171L84.8239 78.7238C84.4114 78.4489 83.9302 78.5176 83.5865 78.7238C83.3116 78.8613 83.1053 79.1363 83.0366 79.48L46.1902 58.2384C46.1902 57.8259 46.1215 57.4822 45.984 57.1385C45.709 56.5198 45.2966 55.9699 44.6779 55.6261L35.535 50.3329C35.1226 50.0579 34.6414 50.1267 34.2977 50.3329C34.0227 50.4704 33.8852 50.7454 33.8165 51.0203L10.7188 37.6842V31.841V19.4672L111.221 77.4177V95.7034L95.5479 86.6981Z" fill="#292017"/>
<path d="M96.2384 70.2V84.7735L81.5273 76.3181V64.0818L91.3576 69.7188L93.0075 68.3439L96.2384 70.2Z" fill="#3E434A"/>
<path d="M70.9336 57.9634L80.2827 63.3254V77.2115L70.9336 71.7808V57.9634Z" fill="#3E434A"/>
<path d="M47.1548 44.2149V56.4512L32.375 47.9271V33.3535L41.5178 38.6467L43.1677 41.9464L47.1548 44.2149Z" fill="#3E434A"/>
<path d="M46.5363 56.9323V57.4135L46.0551 57.1385C45.7801 56.5198 45.3676 55.9699 44.7489 55.6262L35.6061 50.3329C35.1936 50.058 34.7124 50.1267 34.3687 50.3329L34.0938 50.1955V50.058C34.0938 49.0956 35.1249 48.5456 35.8811 49.0268L45.0239 54.32C45.9176 54.8012 46.5363 55.8324 46.5363 56.9323Z" fill="#322920"/>
<path d="M95.8199 85.3231V85.8043L95.3387 85.5293C95.0637 84.9106 94.6512 84.3607 94.0326 84.017L84.821 78.7237C84.4085 78.4487 83.9273 78.5175 83.5836 78.7237L83.3086 78.5862V78.4487C83.3086 77.4863 84.3398 76.9364 85.0959 77.4176L94.3075 82.7108C95.2012 83.192 95.8199 84.2232 95.8199 85.3231Z" fill="#322920"/>
<path d="M16.9034 26.7537L11.4727 23.6603V31.5657L16.9034 34.6592V26.7537Z" fill="#3E434A"/>
<path d="M55.4009 48.9581V62.8442L48.3203 58.7883V44.9022L49.0765 45.3147L51.2075 46.5521L54.7134 48.6143L55.4009 48.9581Z" fill="#3E434A"/>
<path d="M110.877 77.6926L97.2656 69.8559V96.3907L110.877 104.227V77.6926Z" fill="#292017"/>
<path d="M16.4219 49.7142L34.3639 60.0945V60.8506L16.4219 50.4704V49.7142Z" fill="#414141"/>
<path d="M45.0195 66.2126L83.5845 88.4854V89.2416L45.0195 66.9688V66.2126Z" fill="#414141"/>
<path d="M115.963 106.633V107.183L114.382 107.046L94.1719 95.3596V94.6034L112.87 105.396L115.963 106.633Z" fill="#414141"/>
<path d="M135.832 95.9784L132.876 98.2469L120.158 105.534L115.965 107.184V106.634L118.44 105.19L133.288 96.9408L135.832 95.4284V95.9784Z" fill="#414141"/>
<path d="M9 44.2835L16.4243 50.4704V49.7143L9 43.5274V44.2835Z" fill="#414141"/>
<path d="M103.521 74.5995V97.0786L97.7461 93.7101V71.2999L98.846 71.9186L101.802 73.6371L103.521 74.5995Z" fill="#3E434A"/>
<path d="M104.758 97.7656L110.326 100.997V78.5175L104.758 75.3553V97.7656Z" fill="#3E434A"/>
<path d="M69.9057 54.045L56.3633 46.2771V72.7432L69.9057 80.5799V54.045Z" fill="#292017"/>
<path d="M62.5494 51.0204V73.4306L56.8438 70.131V47.6519L62.5494 51.0204Z" fill="#3E434A"/>
<path d="M63.8555 74.1183L69.3549 77.3493V54.939L63.8555 51.7081V74.1183Z" fill="#3E434A"/>
<path d="M31.4096 31.8407L17.8672 24.004V50.5389L31.4096 58.3756V31.8407Z" fill="#292017"/>
<path d="M18.3477 47.8583L24.0533 51.158V28.7477L18.3477 25.448V47.8583Z" fill="#3E434A"/>
<path d="M25.293 51.9138L30.8612 55.1447V32.6657L25.293 29.5035V51.9138Z" fill="#3E434A"/>
<path d="M32.9249 53.9763L32.0312 53.4951V52.464L32.9249 52.9452V53.9763Z" fill="#2F2D31"/>
<path d="M55.9514 66.4878L54.5078 65.7317V64.0818L55.9514 64.9068V66.4878Z" fill="#68B8C2"/>
<path d="M96.6476 90.8227L95.7539 90.2727V89.2416L96.6476 89.7915V90.8227Z" fill="#2F2D31"/>
<path d="M69.9062 72.8804L70.3875 73.1554V53.7698L69.9062 53.5636V72.8804Z" fill="#848C7C"/>
<path d="M62.9609 76.5928L63.4421 76.8678V49.9205L62.9609 49.7142V76.5928Z" fill="#20160C"/>
<path d="M55.9492 64.2875L56.4304 64.5625V45.1769L55.9492 44.9707V64.2875Z" fill="#848C7C"/>
<path d="M31.4102 50.3331L31.8226 50.5393V31.2225L31.4102 30.9475V50.3331Z" fill="#848C7C"/>
<path d="M17.6602 42.771L18.0726 43.046V23.7292L17.6602 23.4542V42.771Z" fill="#848C7C"/>
<path d="M39.5195 44.4207L39.932 44.6957V37.6152L39.5195 37.4089V44.4207Z" fill="#322920"/>
<path d="M47.1548 48.8208L32.375 40.2967V39.678L47.1548 48.2021V48.8208Z" fill="#322920"/>
<path d="M116.031 76.5241L9.75391 15.2739L29.2082 4L135.141 65.0439L116.031 76.5241Z" fill="#E9E5E2"/>
<path d="M135.832 92.4726V95.1536L115.965 106.634V103.953L123.733 99.4844L128.889 96.4597L135.832 92.4726Z" fill="#8C8C8C"/>
<path d="M135.832 95.4287L132.876 97.6972L120.158 104.984L115.965 106.634V106.29L118.44 104.64L133.288 96.3911L135.832 95.0163V95.4287Z" fill="#8C8C8C"/>
<path d="M115.965 97.078L135.832 85.5292H134.732L115.277 96.7343L115.965 97.078Z" fill="#5E5E5E"/>
<path d="M135.832 85.5292V92.4722L126.964 99.5528L115.965 103.952V97.078L115.277 96.7343L115.965 96.3906L134.732 85.5292H135.832Z" fill="#CCC7C4"/>
<path d="M120.156 95.8412V104.984L132.874 97.6972V88.4857L120.156 95.8412Z" fill="#CCC7C4"/>
<path d="M135.832 85.5292V85.9416L115.965 97.4905V96.3906L134.732 85.5292H135.832Z" fill="#403932"/>
<path d="M135.83 85.5297L134.73 84.3611L134.799 85.461L116.788 95.8412C115.894 96.3224 114.863 96.1162 114.176 95.36L114.588 96.5974L115.001 97.2161L116.032 97.4223L116.101 97.0098L135.83 85.5297Z" fill="#403932"/>
<path d="M134.73 85.5292L116.651 96.1156C116.444 96.2531 116.169 96.2531 115.894 96.3218C115.276 96.3906 114.588 96.1156 114.176 95.5657L114.451 80.9921L115.482 80.5109L118.575 79.0673C120.775 78.0361 122.906 76.9363 124.968 75.7676C126.893 74.6677 128.749 73.4991 130.537 72.193C131.155 71.7805 131.705 71.3681 132.324 70.9556L133.974 69.7182L134.73 85.5292Z" fill="#5E6F72"/>
<path d="M131.637 81.7483L134.73 85.5292L133.974 69.7182L131.637 71.4368V81.7483Z" fill="#9FB8B9"/>
<path d="M130.603 72.1934V79.2052L125.035 75.9743V75.768C126.96 74.6682 128.816 73.4308 130.603 72.1934Z" fill="#9FB8B9"/>
<path d="M115.965 96.322C115.347 96.3907 114.659 96.1157 114.247 95.5658L114.178 95.4971L114.109 80.786L114.453 80.9923L115.484 80.511C115.484 80.5798 115.484 80.7173 115.553 80.786C115.553 80.786 115.965 95.3596 115.965 96.322Z" fill="#555A61"/>
<path d="M115.623 81.4048L119.748 79.9612L132.19 72.8119L134.047 71.0246V70.3372L132.259 71.9183L120.023 78.9301L114.523 80.9924L115.623 81.4048Z" fill="#555A61"/>
<path d="M32.3095 13.1433L26.2601 16.6492C25.7102 16.993 25.7102 17.8179 26.2601 18.1616L37.4652 24.6235C38.2902 25.1047 39.3901 25.1047 40.215 24.6235L46.2644 21.1176C46.8143 20.7738 46.8143 19.9489 46.2644 19.6052L35.0592 13.1433C34.2343 12.6621 33.1344 12.6621 32.3095 13.1433Z" fill="#96826E"/>
<path d="M32.926 13.8995L27.7703 16.8555C27.3578 17.0617 27.3578 17.6804 27.7703 17.9554L37.8755 23.7985C38.4942 24.1422 39.2504 24.1422 39.8691 23.7985L45.0248 20.8426C45.4373 20.6363 45.4373 20.0177 45.0248 19.7427L34.9196 13.8995C34.3009 13.5558 33.5447 13.5558 32.926 13.8995Z" fill="#9FB8B9"/>
<path d="M68.3908 40.8464L74.4402 37.3405C74.9901 36.9968 74.9901 36.1718 74.4402 35.8281L63.235 29.3663C62.4101 28.8851 61.3102 28.8851 60.4853 29.3663L54.4359 32.8722C53.886 33.2159 53.886 34.0408 54.4359 34.3845L65.641 40.8464C66.466 41.3276 67.5659 41.3276 68.3908 40.8464Z" fill="#96826E"/>
<path d="M67.7714 40.0898L72.9272 37.1338C73.3396 36.9276 73.3396 36.3089 72.9272 36.0339L62.8219 30.1908C62.2032 29.8471 61.4471 29.8471 60.8284 30.1908L55.6726 33.1467C55.2602 33.353 55.2602 33.9717 55.6726 34.2466L65.7779 40.0898C66.3966 40.4335 67.1527 40.4335 67.7714 40.0898Z" fill="#9FB8B9"/>
<path d="M99.0517 51.7078L93.0023 55.2137C92.4524 55.5574 92.4524 56.3823 93.0023 56.726L104.207 63.1879C105.032 63.6691 106.132 63.6691 106.957 63.1879L113.007 59.682C113.556 59.3383 113.556 58.5134 113.007 58.1697L101.801 51.7078C100.977 51.2266 99.8766 51.2266 99.0517 51.7078Z" fill="#96826E"/>
<path d="M99.6721 52.4638L94.5164 55.4197C94.1039 55.6259 94.1039 56.2446 94.5164 56.5196L104.622 62.3628C105.24 62.7065 105.996 62.7065 106.615 62.3628L111.771 59.4068C112.183 59.2006 112.183 58.5819 111.771 58.3069L101.666 52.4638C101.047 52.12 100.291 52.12 99.6721 52.4638Z" fill="#9FB8B9"/>
<path d="M9.75391 15.2742L116.031 75.8369L134.385 65.0442L125.517 59.5448L135.141 65.0442L116.031 76.5244L9.75391 15.2742Z" fill="#E9EDDC"/>
<path d="M134.732 85.5293V84.3607L130.813 82.5733L125.658 86.2855L125.176 88.8977L121.671 91.0975L115.965 93.2285V96.3907L134.732 85.5293Z" fill="#737F82"/>
<path d="M115.965 93.2287L114.109 93.0224V95.4284C114.109 95.4284 114.934 96.5283 115.897 96.3221C115.965 93.2287 115.965 93.2287 115.965 93.2287Z" fill="#637376"/>
<path d="M81.1788 86.0789L80.2852 85.5289V84.9102L81.1788 85.4602V86.0789Z" fill="#FD3D0E"/>
<path d="M81.3172 85.3916V86.0103L81.1797 86.079V85.4603L81.3172 85.3916Z" fill="#FD5C0E"/>
<path d="M80.4227 84.8417L81.3163 85.3917L81.1788 85.4604L80.2852 84.9105L80.4227 84.8417Z" fill="#FDB03B"/>
<path d="M55.8077 71.4367L54.9141 70.9554V70.3368L55.8077 70.818V71.4367Z" fill="#FD3D0E"/>
<path d="M55.95 70.7489V71.3676L55.8125 71.4364V70.8177L55.95 70.7489Z" fill="#FD5C0E"/>
<path d="M55.0516 70.1996L55.9452 70.7495L55.8077 70.8183L54.9141 70.3371L55.0516 70.1996Z" fill="#FDB03B"/>
<path d="M95.8921 94.603L94.9297 94.0531V93.4344L95.8921 93.9843V94.603Z" fill="#FD3D0E"/>
<path d="M96.0281 93.8473V94.466L95.8906 94.6035V93.9848L96.0281 93.8473Z" fill="#FD5C0E"/>
<path d="M95.1359 93.3659L96.0296 93.8471L95.8921 93.9846L94.9297 93.4347L95.1359 93.3659Z" fill="#FDB03B"/>
<path d="M96.6437 89.2416L95.75 88.6917V88.073L96.6437 88.6229V89.2416Z" fill="#FD3D0E"/>
<path d="M96.782 88.5543V89.173L96.6445 89.2417V88.6231L96.782 88.5543Z" fill="#FD5C0E"/>
<path d="M95.8875 88.0043L96.7811 88.5543L96.6437 88.623L95.75 88.0731L95.8875 88.0043Z" fill="#FDB03B"/>
<path d="M46.5991 66.1429L45.6367 65.5929V64.9742L46.5991 65.5242V66.1429Z" fill="#FD3D0E"/>
<path d="M46.7351 65.3871V66.0058L46.5977 66.1433V65.5246L46.7351 65.3871Z" fill="#FD5C0E"/>
<path d="M45.843 64.9057L46.7366 65.3869L46.5991 65.5244L45.6367 64.9745L45.843 64.9057Z" fill="#FDB03B"/>
<path d="M33.6749 58.6512L32.7812 58.17V57.5513L33.6749 58.0325V58.6512Z" fill="#FD3D0E"/>
<path d="M33.8133 57.9635V58.5822L33.6758 58.6509V58.0322L33.8133 57.9635Z" fill="#FD5C0E"/>
<path d="M32.9187 57.4136L33.8124 57.9636L33.6749 58.0323L32.7812 57.5511L32.9187 57.4136Z" fill="#FDB03B"/>
<path d="M14.2241 47.1019L13.2617 46.552V46.002L14.2241 46.4832V47.1019Z" fill="#FD3D0E"/>
<path d="M14.3601 46.4142V47.0329L14.2227 47.1016V46.483L14.3601 46.4142Z" fill="#FD5C0E"/>
<path d="M13.4679 45.8644L14.3616 46.4144L14.2241 46.4831L13.2617 46.0019L13.4679 45.8644Z" fill="#FDB03B"/>
<path d="M11.6124 19.2612L10.7188 18.7113V18.0926L11.6124 18.6425V19.2612Z" fill="#FD3D0E"/>
<path d="M11.7508 18.5739V19.1926L11.6133 19.2613V18.6426L11.7508 18.5739Z" fill="#FD5C0E"/>
<path d="M10.8562 18.0239L11.7499 18.5738L11.6124 18.6425L10.7188 18.0926L10.8562 18.0239Z" fill="#FDB03B"/>
<path d="M115.961 102.44L120.704 100.446V104.158L115.961 106.152V102.44Z" fill="#322920"/>
<path d="M136.312 90.8913L136.243 94.6034L133.356 96.9407V93.2286L120.707 100.447L133.356 93.2286L136.312 90.8913Z" fill="#3A3128"/>
<path d="M136.31 90.8915L133.354 93.2288L120.705 100.447L115.962 102.44L114.793 102.165L115.962 102.097L118.711 101.066L133.285 92.6789L135.828 90.8228V90.4103L136.31 90.8915Z" fill="#68615A"/>
<path d="M115.962 102.44V106.152L114.793 105.739V102.165L115.962 102.44Z" fill="#20160C"/>
<path d="M133.356 93.2282V96.9403L120.707 104.158V100.446L133.356 93.2282Z" fill="#403932"/>
<path d="M132.943 94.0532V94.3282L121.188 100.996V100.721L132.943 94.0532Z" fill="#20160C"/>
<path d="M132.943 94.603V94.878L121.188 101.546V101.271L132.943 94.603Z" fill="#20160C"/>
<path d="M132.943 95.1535V95.4285L121.188 102.097V101.89L132.943 95.1535Z" fill="#20160C"/>
<path d="M132.943 95.7033V95.9783L121.188 102.646V102.44L132.943 95.7033Z" fill="#20160C"/>
<path d="M132.943 96.2531V96.5281L121.188 103.196V102.99L132.943 96.2531Z" fill="#20160C"/>
<path d="M136.032 93.2288V93.985C136.032 94.1912 135.894 94.3974 135.757 94.5349L133.832 96.116C133.695 96.2535 133.488 96.1847 133.488 95.9785V95.2223C133.488 95.0161 133.626 94.8099 133.763 94.6724L135.138 93.5725L135.619 93.16C135.894 92.9538 136.101 93.0225 136.032 93.2288Z" fill="#20160C"/>
<path d="M135.694 93.0912V93.8474C135.694 94.0536 135.556 94.2598 135.419 94.3973L133.562 95.9097V95.1535C133.562 94.9473 133.7 94.741 133.837 94.6036L135.212 93.5037L135.694 93.0912Z" fill="#A29F9C"/>
<path d="M135.212 93.4349V93.7099C135.212 93.9161 135.075 94.1224 134.937 94.2598L133.562 95.4285V95.1535C133.562 94.9473 133.7 94.741 133.837 94.6036L135.212 93.4349Z" fill="#CBC9C7"/>
<path d="M119.055 104.571L116.58 105.533C116.374 105.602 116.168 105.465 116.168 105.258V104.571C116.168 104.365 116.305 104.227 116.512 104.158L118.918 103.265C119.124 103.196 119.33 103.334 119.33 103.54V104.227C119.399 104.296 119.261 104.433 119.055 104.571Z" fill="#20160C"/>
<path d="M118.986 104.021C118.986 104.159 118.917 104.296 118.711 104.365L116.648 105.121C116.511 105.19 116.305 105.053 116.305 104.915V104.365C116.305 104.228 116.442 104.09 116.58 104.021L118.504 103.265H118.573C118.711 103.196 118.917 103.334 118.917 103.471L118.986 104.021Z" fill="#A29F9C"/>
<path d="M118.573 103.746C118.573 103.883 118.504 104.021 118.298 104.09L116.305 104.846V104.433C116.305 104.296 116.442 104.158 116.58 104.09L118.504 103.334L118.573 103.746Z" fill="#CBC9C7"/>
<path d="M136.04 91.8541V92.2666C136.04 92.4728 135.902 92.679 135.765 92.8165L133.84 94.3976C133.702 94.5351 133.496 94.4663 133.496 94.2601V93.8476C133.496 93.6414 133.634 93.4352 133.771 93.2977L135.146 92.1978L135.627 91.7853C135.902 91.5791 136.108 91.6479 136.04 91.8541Z" fill="#20160C"/>
<path d="M135.694 91.7166V92.129C135.694 92.3352 135.556 92.5415 135.419 92.679L133.562 94.1913V93.7788C133.562 93.5726 133.7 93.3664 133.837 93.2289L135.212 92.129L135.694 91.7166Z" fill="#872F00"/>
<path d="M135.212 92.1287C135.212 92.335 135.075 92.4725 134.937 92.6099L133.562 93.7786V93.8473C133.562 93.6411 133.7 93.4349 133.837 93.2974L135.212 92.1287Z" fill="#FF7904"/>
<path d="M119.059 102.853L116.584 103.815C116.378 103.884 116.172 103.747 116.172 103.54V103.128C116.172 102.922 116.309 102.784 116.516 102.715L118.922 101.822C119.128 101.753 119.334 101.89 119.334 102.097V102.44C119.403 102.578 119.265 102.784 119.059 102.853Z" fill="#20160C"/>
<path d="M118.99 102.372C118.99 102.509 118.921 102.646 118.715 102.715L116.652 103.471C116.515 103.54 116.309 103.403 116.309 103.265V103.059C116.309 102.921 116.446 102.784 116.584 102.715L118.508 101.959H118.577C118.715 101.89 118.921 102.028 118.921 102.165L118.99 102.372Z" fill="#872F00"/>
<path d="M118.577 102.096C118.577 102.234 118.508 102.371 118.302 102.44L116.309 103.196V103.128C116.309 102.99 116.446 102.853 116.584 102.784L118.577 102.096Z" fill="#FF7904"/>
<path d="M135.143 65.4566L131.98 68.0688L120.294 74.7369L116.101 76.4555V76.1117L115.895 75.768L134.249 64.9753L135.143 65.0441V65.4566Z" fill="#E2E3D5"/>
<path d="M135.832 86.2856L132.876 88.4854L120.158 95.8409L115.965 97.4908V97.147L118.44 95.4972L133.288 87.248L135.832 85.8044V86.2856Z" fill="#403932"/>
<path d="M135.832 88.5543L132.876 90.7541L120.158 98.1096L115.965 99.7594V97.4909L120.158 95.8411L132.876 88.4855L135.832 86.2858V88.5543Z" fill="#3A3128"/>
<path d="M134.732 85.8047L132.876 87.4545L120.158 94.7413L115.965 96.4599V96.1162L118.44 94.4663L133.288 86.2171L134.732 85.3922V85.8047Z" fill="#737F82"/>
<path d="M134.253 70.1308L132.259 71.9182L120.023 78.93L114.523 80.9923L115.967 80.2361L118.373 78.655L132.603 70.6808L134.321 69.5121L134.253 70.1308Z" fill="#9D9D9C"/>
<path d="M131.911 68.8939L120.362 75.6307L115.069 77.6242L115 80.2365L120.156 78.1742L131.086 71.8498L133.698 69.7875L134.592 66.4878L131.911 68.8939Z" fill="#403932"/>
<path d="M115.07 77.6238V79.3424L119.539 77.5551L130.538 71.2307L133.081 69.0997L133.562 67.4498L131.912 68.8934L120.364 75.6303L115.07 77.6238Z" fill="#2C251E"/>
<path d="M114.936 97.2848L111.086 95.1537L111.223 77.4867L114.454 80.7177L114.523 80.9926L114.111 80.7177L114.179 95.4287L114.936 97.2848Z" fill="#322920"/>
<path d="M123.181 101.684L121.875 102.441V100.928L123.181 100.172V101.684Z" fill="#635E59"/>
<path d="M118.919 77.6241L115.895 78.7928V77.4866L118.919 76.318V77.6241Z" fill="#F59C00"/>
<path d="M110.742 94.741L110.88 95.7034L114.798 99.5531L115.967 99.7593V97.4908L114.936 97.2845L110.742 94.741Z" fill="#322920"/>
<path d="M26.7383 24.5538L27.0133 24.4163L40.8994 16.0296L85.7199 57.4817H83.8639C83.8639 57.413 27.0133 24.4163 26.7383 24.5538Z" fill="#CCC7C4"/>
<path d="M29.2812 21.804L29.5562 21.6665L43.4424 13.2799L99.468 45.3829L85.3069 53.9071C85.3757 53.8384 29.2812 21.7353 29.2812 21.804Z" fill="#F3F3F3"/>
<path d="M29.2811 21.8043L28.25 24.554L85.7193 57.4133L85.3756 53.8387L29.2811 21.8043Z" fill="#B2AEAA"/>
<path d="M28.8687 22.8354L28.25 24.554L85.7193 57.4133L85.5131 55.2822L28.8687 22.8354Z" fill="#4A6FA8"/>
<path d="M85.3789 53.8381L85.7226 57.4128L102.633 47.5825L99.54 45.314L85.3789 53.8381Z" fill="#CCC7C4"/>
<path d="M49.9698 19.7421L46.1201 17.5423L36.4961 23.3168C36.4961 23.3168 36.4961 23.3168 40.3457 25.4478L49.9698 19.7421Z" fill="#363636"/>
<path d="M38.9687 25.9289L38.625 25.6539L50.3113 18.6421L50.5176 18.7796L50.3801 18.8483L50.5863 18.9171C48.7302 20.0857 43.7807 23.1791 38.9687 25.9289Z" fill="#F3F3F3"/>
<path d="M38.0742 25.3791L37.7305 25.1041L49.4168 18.0923L49.6231 18.2298L49.4856 18.2985L49.6918 18.3673C47.8357 19.5359 42.8862 22.6294 38.0742 25.3791Z" fill="#F3F3F3"/>
<path d="M37.1797 24.8977L36.8359 24.6228L48.5223 17.611L48.7285 17.7485L48.591 17.8172L48.7972 17.8859C46.9412 18.9858 41.9917 22.0793 37.1797 24.8977Z" fill="#F3F3F3"/>
<path d="M36.289 24.3477L35.9453 24.0728L47.6317 17.061L47.8379 17.1985L47.7004 17.2672L47.9066 17.3359C46.0506 18.5046 41.1011 21.5293 36.289 24.3477Z" fill="#F3F3F3"/>
<path d="M110.744 83.8805L110.056 83.9492C109.506 84.0867 109.094 84.7054 109.094 85.4616V89.5862C109.094 90.2736 109.506 90.8236 110.056 90.6861L110.95 90.5486C111.5 90.4111 111.706 89.8612 111.706 89.1737V85.0491C111.706 84.2242 111.294 83.743 110.744 83.8805Z" fill="#322920"/>
<path d="M110.744 84.0873L110.056 84.156C109.506 84.2935 109.094 84.9122 109.094 85.6683V89.7929C109.094 90.4804 109.506 91.0303 110.056 90.8928L110.95 90.7553C111.5 90.6179 111.706 90.0679 111.706 89.3805V85.2559C111.706 84.4997 111.294 84.0185 110.744 84.0873Z" fill="#484038"/>
<path d="M110.469 91.9241L113.081 94.3989L113.218 93.9177L110.812 91.5804V83.8812L113.975 80.7877L113.837 80.444L110.469 83.6062V91.9241Z" fill="#403932"/>
<path d="M73.965 94.6525C73.965 94.6525 73.6981 94.5635 73.6981 94.4745C73.5202 94.4745 73.3423 94.3856 73.1643 94.3856C72.9864 94.3856 72.8974 94.4746 72.7195 94.5635C72.3637 94.7414 72.1857 94.9194 71.9188 95.0973C71.8299 95.0973 71.8299 95.1863 71.8299 95.1863C71.7409 95.2752 71.563 95.5421 71.563 95.987C71.563 96.0759 71.474 95.898 71.563 96.1649C71.563 96.3428 71.6519 97.3214 71.7409 97.4104C71.8299 97.4994 72.1857 97.6773 72.2747 97.7663C72.4526 97.8552 72.5416 97.8552 72.7195 97.7663C73.0754 97.5883 73.4312 97.3214 73.7871 97.1435C73.965 97.0545 74.054 94.7415 73.965 94.6525Z" fill="#7A848E"/>
<path d="M18.1868 99.6348L21.7454 97.3217C21.7454 97.3217 27.884 94.5638 24.5033 92.6955C21.1226 90.8273 20.5888 88.8701 18.7206 90.7383C16.9413 92.6066 17.475 98.6562 18.1868 99.6348Z" fill="#362725"/>
<path d="M19.707 96.5211L22.5539 101.503L22.9987 102.304L26.1125 106.93C26.1125 106.93 27.8029 105.951 29.0484 105.24C29.1373 105.151 29.3153 105.062 29.4042 105.062C30.116 104.617 30.5608 103.638 30.5608 102.393C30.5608 102.037 30.5608 101.681 30.4718 101.325C30.2939 100.169 29.7601 98.9232 29.0484 97.8556C28.2477 96.6101 27.2691 95.6314 26.2015 95.0087C25.1339 94.3859 24.1553 94.297 23.4436 94.5639C23.3546 94.6528 23.1767 94.7418 22.9987 94.8307C21.7532 95.3645 19.707 96.5211 19.707 96.5211Z" fill="#260E08"/>
<path d="M22.0234 101.77L22.9131 102.304L25.76 103.905L30.3861 101.236C30.2082 100.08 29.6745 98.8344 28.9627 97.7668L22.4683 101.503L22.0234 101.77Z" fill="#260E08"/>
<path d="M25.3112 95.3652C24.0657 94.6535 22.9092 94.5645 22.1085 95.1873L22.0195 95.2762C22.8202 94.9204 23.7988 95.0094 24.9554 95.6321C27.3575 96.9666 29.3147 100.347 29.3147 103.105C29.3147 104.351 28.8698 105.329 28.2471 105.774C28.3361 105.685 28.425 105.685 28.514 105.596C29.3147 105.151 29.7595 104.173 29.7595 102.838C29.6705 100.08 27.7133 96.6997 25.3112 95.3652Z" fill="#260E08"/>
<path d="M24.5105 95.8095C23.265 95.0978 22.1084 95.0089 21.3077 95.6316L21.2188 95.7206C22.0194 95.3647 22.998 95.4537 24.1546 96.0764C26.5566 97.4109 28.5139 100.792 28.5139 103.549C28.5139 104.795 28.0691 105.774 27.4463 106.218C27.5353 106.129 27.6242 106.129 27.7132 106.041C28.5139 105.596 28.9587 104.617 28.9587 103.283C28.8698 100.525 26.9125 97.144 24.5105 95.8095Z" fill="#260E08"/>
<path d="M23.7995 96.2543C22.554 95.5426 21.3974 95.4537 20.5968 96.0764L20.5078 96.1654C21.3085 95.8095 22.2871 95.8985 23.4436 96.5212C25.8457 97.8557 27.8029 101.236 27.8029 103.994C27.8029 105.24 27.3581 106.218 26.7354 106.663C26.8243 106.574 26.9133 106.574 27.0023 106.485C27.8029 106.04 28.2478 105.062 28.2478 103.727C28.0698 100.969 26.1126 97.6778 23.7995 96.2543Z" fill="#260E08"/>
<path d="M18.5469 99.1899C18.5469 101.948 20.5041 105.24 22.9062 106.663C25.3082 107.997 27.2654 106.93 27.2654 104.172C27.2654 101.414 25.3082 98.1223 22.9062 96.6989C20.5041 95.3644 18.5469 96.5209 18.5469 99.1899Z" fill="#3F261A"/>
<path d="M18.8984 99.4571C18.8984 101.948 20.6777 104.973 22.8129 106.218C24.9481 107.464 26.7274 106.485 26.7274 103.994C26.7274 101.503 24.9481 98.4784 22.8129 97.2329C20.6777 95.9874 18.8984 96.966 18.8984 99.4571Z" fill="#5B4A44"/>
<path d="M19.3398 99.7245C19.3398 101.949 20.9412 104.618 22.8095 105.774C24.7667 106.931 26.2791 106.041 26.2791 103.817C26.2791 101.593 24.6777 98.9238 22.8095 97.7672C20.9412 96.6107 19.3398 97.5003 19.3398 99.7245Z" fill="#3F261A"/>
<path d="M19.5195 99.8133C19.5195 101.948 21.0319 104.439 22.8112 105.507C24.6795 106.575 26.1029 105.685 26.1029 103.639C26.1029 101.504 24.5905 99.0126 22.8112 97.945C21.0319 96.8774 19.5195 97.6781 19.5195 99.8133Z" fill="#141B22"/>
<path d="M19.6953 99.9021C19.6953 100.347 19.7843 100.881 19.8733 101.326C19.9622 101.77 20.1401 102.126 20.3181 102.482C20.7629 103.461 21.4746 104.35 22.2753 104.884C22.4533 104.973 22.5422 105.062 22.7201 105.151C22.8981 105.24 23.076 105.329 23.165 105.418C23.9657 105.774 24.6774 105.685 25.1222 105.24C25.3001 105.062 25.478 104.884 25.567 104.617C25.7449 104.261 25.745 103.906 25.745 103.461C25.745 103.016 25.656 102.482 25.567 102.037C25.478 101.592 25.3001 101.237 25.1222 100.881C24.6774 99.9021 23.9657 99.0124 23.165 98.4786C22.987 98.3897 22.8981 98.3007 22.7201 98.2118C22.5422 98.1228 22.3643 98.0338 22.2753 97.9448C21.4746 97.589 20.7629 97.678 20.3181 98.1228C20.1401 98.3007 19.9622 98.4787 19.8733 98.7456C19.7843 99.1014 19.6953 99.4573 19.6953 99.9021Z" fill="#748388"/>
<path d="M19.875 99.9906C19.875 100.435 19.964 100.88 20.0529 101.325C20.1419 101.681 20.3198 102.126 20.4978 102.482C20.9426 103.371 21.6543 104.261 22.366 104.795C22.5439 104.884 22.6329 104.973 22.8108 105.062C22.9888 105.151 23.0777 105.24 23.2557 105.24C24.0563 105.506 24.6791 105.506 25.1239 105.062C25.3019 104.884 25.4798 104.706 25.5688 104.439C25.7467 104.083 25.7467 103.727 25.7467 103.282C25.7467 102.837 25.6577 102.393 25.5688 101.948C25.4798 101.592 25.3019 101.147 25.1239 100.791C24.6791 99.9017 23.9674 99.012 23.2557 98.4782C23.0777 98.3892 22.9888 98.3003 22.8108 98.2113C22.6329 98.1224 22.5439 98.0334 22.366 98.0334C21.5653 97.7665 20.9426 97.7665 20.4978 98.2113C20.3198 98.3893 20.1419 98.5672 20.0529 98.8341C19.875 99.1899 19.875 99.5458 19.875 99.9906Z" fill="#B8C0C2"/>
<path d="M25.6613 103.105C25.6613 104.528 24.8606 105.24 23.793 104.973C23.5261 104.884 23.2592 104.795 22.9923 104.617C21.9247 103.994 21.0351 102.838 20.5902 101.592C20.5013 101.414 20.5013 101.326 20.4123 101.148C20.3234 100.792 20.2344 100.347 20.2344 99.9911C20.2344 98.3007 21.3909 97.678 22.8144 98.3897C22.8144 98.3897 22.9033 98.3897 22.9033 98.4786C23.1702 98.6566 23.4371 98.8345 23.704 99.0124C24.2378 99.4573 24.6826 100.08 24.9495 100.703C25.1275 101.059 25.3054 101.415 25.3944 101.77C25.6613 102.304 25.6613 102.749 25.6613 103.105Z" fill="#131E24"/>
<path d="M23.7881 99.1013V103.905V105.062C23.6102 104.973 23.4322 105.329 23.2543 105.24C23.1653 105.151 23.0764 104.884 22.9874 104.706C22.9874 104.617 22.8984 104.617 22.8984 104.528V98.4785C22.8984 98.4785 22.9874 98.4785 22.9874 98.5675C23.3433 98.6565 23.5212 98.9234 23.7881 99.1013Z" fill="#3D5259"/>
<path d="M21.7461 100.524C21.7461 101.503 22.4578 102.749 23.3475 103.282C24.2371 103.816 24.9488 103.371 24.9488 102.393C24.9488 101.414 24.2371 100.169 23.3475 99.6348C22.4578 99.101 21.7461 99.5458 21.7461 100.524Z" fill="#3D5259"/>
<path d="M20.5859 98.3897L21.3866 99.6352L22.4542 100.97L22.899 101.503L23.3439 102.037L23.7887 102.571L24.8563 103.906L25.479 104.35C25.6569 104.172 25.568 104.083 25.657 103.817L25.3011 103.283L24.2335 101.948L23.7887 101.415L23.3439 100.881L22.899 100.347L21.8315 99.0125L21.2087 98.2118C21.1197 98.4787 20.6749 98.1228 20.5859 98.3897Z" fill="#3D5259"/>
<path d="M25.4833 101.859H25.3054L24.2378 101.948H23.793H23.3482H22.9033L21.8358 102.037L20.6792 101.414L20.2344 101.147C20.2344 101.058 20.4123 100.97 20.5902 100.97C20.6792 100.97 20.6792 100.97 20.7682 100.97L21.4799 100.881L22.5475 100.792H22.9923H23.4371H23.8819L24.9495 100.703H25.1275C25.3054 101.147 25.3943 101.503 25.4833 101.859Z" fill="#3D5259"/>
<path d="M22.457 98.2118V104.706C22.635 104.795 22.7239 104.884 22.9019 104.973C23.0798 105.062 23.1688 105.151 23.3467 105.151V98.5676C23.1688 98.4787 23.0798 98.4787 22.9019 98.3897C22.7239 98.3897 22.546 98.3008 22.457 98.2118Z" fill="#6C7C80"/>
<path d="M20.1406 99.0127L20.8524 99.9023L21.9199 101.237L22.3648 101.771L22.8096 102.304L23.2544 102.838L24.322 104.173L25.0337 105.062C25.2116 104.884 25.3896 104.706 25.4785 104.44L24.7668 103.55L23.6992 102.215L23.2544 101.682L22.8096 101.148L22.3648 100.614L21.2972 99.2796L20.5855 98.3899C20.4075 98.5678 20.3186 98.7458 20.1406 99.0127Z" fill="#95A1A4"/>
<path d="M20.1406 101.415C20.2296 101.771 20.4075 102.126 20.5855 102.482L21.2972 102.393L22.3648 102.304H22.8096H23.2544H23.6992L24.7668 102.215L25.5675 102.126C25.4785 101.771 25.3006 101.415 25.1227 101.059L24.322 101.148L23.2544 101.237H22.8096H22.3648H21.9199L20.8524 101.326L20.1406 101.415Z" fill="#95A1A4"/>
<path d="M21.3867 100.703C21.3867 101.681 22.0984 102.927 22.9881 103.461C23.8777 103.995 24.5894 103.55 24.5894 102.571C24.5894 101.593 23.8777 100.347 22.9881 99.8132C22.0984 99.2794 21.3867 99.6353 21.3867 100.703Z" fill="#95A1A4"/>
<path d="M21.2109 100.792C21.2109 101.771 21.9226 103.016 22.8123 103.55C23.7019 104.084 24.4137 103.639 24.4137 102.66C24.4137 101.682 23.7019 100.436 22.8123 99.9023C21.9226 99.3685 21.2109 99.8134 21.2109 100.792Z" fill="#D9DDDE"/>
<path d="M22.0129 101.236L20.9453 101.325C21.0343 101.681 21.2122 102.037 21.3901 102.393L22.4577 102.304V103.727C22.6356 103.816 22.7246 103.905 22.9025 103.994C23.0805 104.083 23.1694 104.172 23.3474 104.172V102.749L24.4149 104.083C24.5929 103.994 24.7708 103.727 24.8598 103.46L23.7922 102.126L24.8598 102.037C24.7708 101.681 24.5929 101.325 24.4149 100.969L23.3474 101.058V99.6349C23.1694 99.5459 23.0805 99.4569 22.9025 99.368C22.7246 99.279 22.6356 99.1901 22.4577 99.1901V100.613L21.3901 99.279C21.2122 99.368 21.0343 99.6349 20.9453 99.9018L22.0129 101.236Z" fill="#D1D6D7"/>
<path d="M21.5625 100.97C21.5625 101.77 22.1853 102.838 22.897 103.283C23.6087 103.728 24.2315 103.372 24.2315 102.571C24.2315 101.77 23.6087 100.703 22.897 100.258C22.0963 99.8132 21.5625 100.08 21.5625 100.97Z" fill="#56686E"/>
<path d="M21.6523 101.059C21.6523 101.77 22.1861 102.749 22.8089 103.105C23.4316 103.461 23.9654 103.194 23.9654 102.393C23.9654 101.682 23.4316 100.703 22.8089 100.347C22.1861 99.9912 21.6523 100.347 21.6523 101.059Z" fill="#B8C0C2"/>
<path d="M22.3633 101.503C22.3633 101.77 22.5412 102.126 22.8081 102.304C23.075 102.482 23.2529 102.304 23.2529 102.037C23.2529 101.77 23.075 101.414 22.8081 101.236C22.6302 101.059 22.3633 101.147 22.3633 101.503Z" fill="#586A70"/>
<path d="M22.457 101.504C22.457 101.682 22.635 101.948 22.8129 102.126C22.9908 102.215 23.1688 102.126 23.1688 101.948C23.1688 101.771 22.9908 101.504 22.8129 101.326C22.635 101.237 22.457 101.326 22.457 101.504Z" fill="#D9DDDE"/>
<path d="M23.7013 102.482C23.6123 102.304 23.4344 102.304 23.3454 102.393C23.2565 102.482 23.3454 102.749 23.4344 102.838C23.5234 103.015 23.7013 103.015 23.7903 102.926C23.8792 102.838 23.8792 102.571 23.7013 102.482Z" fill="#748388"/>
<path d="M22.9908 102.927C22.9908 102.749 22.9019 102.571 22.7239 102.482C22.546 102.393 22.457 102.482 22.457 102.66C22.457 102.838 22.546 103.016 22.7239 103.105C22.9019 103.105 22.9908 103.105 22.9908 102.927Z" fill="#88959A"/>
<path d="M23.6154 102.482C23.5264 102.304 23.3485 102.304 23.2595 102.393C23.1705 102.482 23.2595 102.749 23.3485 102.838C23.4374 103.015 23.6154 103.015 23.7043 102.926C23.7933 102.838 23.7933 102.66 23.6154 102.482Z" fill="#88959A"/>
<path d="M23.3485 101.415C23.2595 101.415 23.1705 101.593 23.2595 101.771C23.3485 101.949 23.5264 102.126 23.6154 102.126C23.7044 102.126 23.7933 101.949 23.7043 101.771C23.6154 101.504 23.5264 101.326 23.3485 101.415Z" fill="#88959A"/>
<path d="M22.457 100.614C22.457 100.792 22.546 100.97 22.7239 101.059C22.9019 101.148 22.9908 101.059 22.9908 100.881C22.9908 100.703 22.9019 100.525 22.7239 100.436C22.635 100.436 22.457 100.525 22.457 100.614Z" fill="#88959A"/>
<path d="M21.9208 101.058C22.0098 101.236 22.1877 101.236 22.2767 101.147C22.3657 101.058 22.2767 100.791 22.1877 100.702C22.0988 100.524 21.9208 100.524 21.8319 100.613C21.7429 100.702 21.7429 100.88 21.9208 101.058Z" fill="#88959A"/>
<path d="M22.1896 102.215C22.2785 102.215 22.3675 102.037 22.2786 101.86C22.1896 101.682 22.0116 101.504 21.9227 101.504C21.8337 101.504 21.7448 101.682 21.8337 101.86C21.8337 102.037 22.0117 102.215 22.1896 102.215Z" fill="#88959A"/>
<path d="M57.2411 123.477L60.7997 121.164C60.7997 121.164 66.9383 118.406 63.5577 116.538C60.177 114.67 59.6432 112.713 57.7749 114.581C56.0846 116.449 56.6184 122.499 57.2411 123.477Z" fill="#362725"/>
<path d="M59.1094 119.919L61.9562 124.901L62.4011 125.702L65.5148 130.328C65.5148 130.328 67.2052 129.349 68.4507 128.637C68.5397 128.548 68.7176 128.459 68.8066 128.459C69.5183 128.015 69.9631 127.036 69.9631 125.791C69.9631 125.435 69.9631 125.079 69.8742 124.723C69.6962 123.566 69.1624 122.321 68.4507 121.253C67.65 120.008 66.6714 119.029 65.6038 118.406C64.5362 117.784 63.5576 117.695 62.8459 117.962C62.7569 118.051 62.579 118.14 62.4011 118.228C61.1556 118.762 59.1094 119.919 59.1094 119.919Z" fill="#260E08"/>
<path d="M61.4219 125.168L62.3115 125.702L65.1584 127.303L69.7846 124.634C69.6067 123.477 69.0729 122.232 68.3611 121.164L61.8667 124.901L61.4219 125.168Z" fill="#260E08"/>
<path d="M64.7136 118.762C63.4681 118.05 62.3115 117.961 61.5108 118.584L61.4219 118.673C62.2226 118.317 63.2012 118.406 64.3577 119.029C66.7598 120.364 68.717 123.744 68.717 126.502C68.717 127.748 68.2722 128.726 67.6494 129.171C67.7384 129.082 67.8273 129.082 67.9163 128.993C68.717 128.548 69.1618 127.57 69.1618 126.235C69.0729 123.477 67.1156 120.097 64.7136 118.762Z" fill="#260E08"/>
<path d="M63.9128 119.207C62.6673 118.495 61.5107 118.406 60.7101 119.029L60.6211 119.118C61.4218 118.762 62.4004 118.851 63.557 119.474C65.959 120.808 67.9162 124.189 67.9162 126.947C67.9162 128.192 67.4714 129.171 66.8486 129.616C66.9376 129.527 67.0266 129.527 67.1156 129.438C67.9162 128.993 68.3611 128.015 68.3611 126.68C68.2721 123.922 66.3149 120.541 63.9128 119.207Z" fill="#260E08"/>
<path d="M63.2019 119.652C61.9564 118.941 60.7998 118.852 59.9991 119.474L59.9102 119.563C60.7108 119.208 61.6894 119.296 62.846 119.919C65.2481 121.254 67.2053 124.634 67.2053 127.392C67.2053 128.638 66.7605 129.616 66.1377 130.061C66.2267 129.972 66.3156 129.972 66.4046 129.883C67.2053 129.439 67.6501 128.46 67.6501 127.125C67.4722 124.367 65.515 121.076 63.2019 119.652Z" fill="#260E08"/>
<path d="M57.9531 122.677C57.9531 125.435 59.9104 128.727 62.3124 130.15C64.7145 131.485 66.6717 130.417 66.6717 127.659C66.6717 124.901 64.7145 121.609 62.3124 120.186C59.9104 118.763 57.9531 119.919 57.9531 122.677Z" fill="#3F261A"/>
<path d="M58.3086 122.854C58.3086 125.345 60.0879 128.37 62.2231 129.616C64.3582 130.861 66.1375 129.883 66.1375 127.392C66.1375 124.901 64.3582 121.876 62.2231 120.63C60.0879 119.385 58.3086 120.363 58.3086 122.854Z" fill="#5B4A44"/>
<path d="M58.7539 123.122C58.7539 125.346 60.3553 128.015 62.2235 129.171C64.1808 130.328 65.6932 129.438 65.6932 127.214C65.6932 124.99 64.0918 122.321 62.2235 121.164C60.3553 120.008 58.7539 120.898 58.7539 123.122Z" fill="#3F261A"/>
<path d="M58.9297 123.21C58.9297 125.346 60.4421 127.837 62.2214 128.904C64.0897 129.972 65.5131 129.082 65.5131 127.036C65.5131 124.901 64.0007 122.41 62.2214 121.342C60.4421 120.275 58.9297 121.075 58.9297 123.21Z" fill="#141B22"/>
<path d="M59.1094 123.299C59.1094 123.744 59.1983 124.278 59.2873 124.723C59.3763 125.167 59.5542 125.523 59.7321 125.879C60.1769 126.858 60.8887 127.747 61.6894 128.281C61.8673 128.37 61.9563 128.459 62.1342 128.548C62.3121 128.637 62.49 128.726 62.579 128.815C63.3797 129.171 64.0914 129.082 64.5362 128.637C64.7142 128.459 64.8921 128.281 64.9811 128.014C65.159 127.659 65.159 127.303 65.159 126.858C65.159 126.413 65.07 125.879 64.9811 125.434C64.8921 124.99 64.7142 124.634 64.5362 124.278C64.0914 123.299 63.3797 122.41 62.579 121.876C62.4011 121.787 62.3121 121.698 62.1342 121.609C61.9563 121.52 61.7783 121.431 61.6894 121.342C60.8887 120.986 60.1769 121.075 59.7321 121.52C59.5542 121.698 59.3763 121.876 59.2873 122.143C59.1983 122.499 59.1094 122.854 59.1094 123.299Z" fill="#748388"/>
<path d="M59.2891 123.388C59.2891 123.833 59.378 124.277 59.467 124.722C59.556 125.078 59.7339 125.523 59.9118 125.879C60.3567 126.768 61.0684 127.658 61.7801 128.192C61.958 128.281 62.047 128.37 62.2249 128.459C62.4029 128.548 62.4918 128.637 62.6698 128.637C63.4704 128.904 64.0932 128.904 64.538 128.459C64.716 128.281 64.8939 128.103 64.9828 127.836C65.1608 127.48 65.1608 127.124 65.1608 126.679C65.1608 126.235 65.0718 125.79 64.9828 125.345C64.8939 124.989 64.716 124.544 64.538 124.188C64.0932 123.299 63.3815 122.409 62.6698 121.875C62.4918 121.786 62.4029 121.697 62.2249 121.608C62.047 121.519 61.958 121.431 61.7801 121.431C60.9794 121.164 60.3567 121.164 59.9118 121.608C59.7339 121.786 59.556 121.964 59.467 122.231C59.2891 122.587 59.2891 122.943 59.2891 123.388Z" fill="#B8C0C2"/>
<path d="M65.0723 126.502C65.0723 127.925 64.2716 128.637 63.204 128.37C62.9371 128.281 62.6702 128.192 62.4033 128.014C61.3357 127.392 60.4461 126.235 60.0013 124.99C59.9123 124.812 59.9123 124.723 59.9123 124.545C59.8234 124.189 59.7344 123.744 59.7344 123.388C59.7344 121.698 60.8909 121.075 62.3144 121.787C62.3144 121.787 62.4033 121.787 62.4033 121.876C62.6702 122.054 62.9371 122.232 63.204 122.41C63.7378 122.854 64.1826 123.477 64.4495 124.1C64.6275 124.456 64.8054 124.812 64.8944 125.167C65.0723 125.701 65.0723 126.146 65.0723 126.502Z" fill="#131E24"/>
<path d="M63.2022 122.498V127.303V128.459C63.0242 128.37 62.8463 128.726 62.6684 128.637C62.5794 128.548 62.4904 128.281 62.4014 128.103C62.4014 128.014 62.3125 128.014 62.3125 127.925V121.876C62.3125 121.876 62.4014 121.876 62.4014 121.965C62.6683 122.143 62.9353 122.32 63.2022 122.498Z" fill="#3D5259"/>
<path d="M61.1562 123.922C61.1562 124.9 61.868 126.146 62.7576 126.679C63.6473 127.213 64.359 126.768 64.359 125.79C64.359 124.811 63.6473 123.566 62.7576 123.032C61.868 122.498 61.1562 122.943 61.1562 123.922Z" fill="#3D5259"/>
<path d="M59.9961 121.787L60.7968 123.032L61.8644 124.367L62.3092 124.901L62.754 125.434L63.1988 125.968L64.2664 127.303L64.8892 127.748C65.0671 127.57 64.9781 127.481 65.0671 127.214L64.7112 126.68L63.6437 125.345L63.1988 124.812L62.754 124.278L62.3092 123.744L61.2416 122.41L60.6188 121.609C60.4409 121.876 60.0851 121.52 59.9961 121.787Z" fill="#3D5259"/>
<path d="M64.8935 125.345H64.7155L63.648 125.434H63.2031H62.7583H62.3135L61.2459 125.523L60.0894 124.9L59.6445 124.633C59.6445 124.544 59.8225 124.455 60.0004 124.455C60.0894 124.455 60.0893 124.455 60.1783 124.455L60.89 124.366L61.9576 124.277H62.4024H62.8473H63.2921L64.3597 124.188H64.5376C64.6266 124.544 64.8045 124.9 64.8935 125.345Z" fill="#3D5259"/>
<path d="M61.8672 121.609V128.103C62.0451 128.192 62.1341 128.281 62.312 128.37C62.4899 128.459 62.5789 128.548 62.7568 128.548V121.965C62.5789 121.876 62.4899 121.876 62.312 121.787C62.1341 121.787 61.9562 121.698 61.8672 121.609Z" fill="#6C7C80"/>
<path d="M59.5547 122.41L60.2664 123.299L61.334 124.634L61.7788 125.168L62.2236 125.702L62.6685 126.235L63.736 127.57L64.4478 128.459C64.6257 128.281 64.8036 128.104 64.8926 127.837L64.1809 126.947L63.1133 125.613L62.6685 125.079L62.2236 124.545L61.7788 124.011L60.7112 122.677L59.9995 121.787C59.8216 121.965 59.7326 122.143 59.5547 122.41Z" fill="#95A1A4"/>
<path d="M59.5547 124.812C59.6437 125.168 59.8216 125.524 59.9995 125.879L60.7112 125.79L61.7788 125.702H62.2236H62.6685H63.1133L64.1809 125.613L64.9816 125.524C64.8926 125.168 64.7147 124.812 64.5367 124.456L63.736 124.545L62.6685 124.634H62.2236H61.7788H61.334L60.2664 124.723L59.5547 124.812Z" fill="#95A1A4"/>
<path d="M60.8008 124.1C60.8008 125.079 61.5125 126.324 62.4021 126.858C63.2918 127.392 64.0035 126.947 64.0035 125.968C64.0035 124.99 63.2918 123.744 62.4021 123.21C61.5125 122.677 60.8008 123.032 60.8008 124.1Z" fill="#95A1A4"/>
<path d="M60.6211 124.189C60.6211 125.168 61.3328 126.413 62.2225 126.947C63.1121 127.481 63.8238 127.036 63.8238 126.057C63.8238 125.079 63.1121 123.833 62.2225 123.299C61.3328 122.766 60.6211 123.211 60.6211 124.189Z" fill="#D9DDDE"/>
<path d="M61.4231 124.633L60.3555 124.722C60.4444 125.078 60.6224 125.434 60.8003 125.79L61.8679 125.701V127.124C62.0458 127.213 62.1348 127.302 62.3127 127.391C62.4906 127.48 62.5796 127.569 62.7575 127.569V126.146L63.8251 127.48C64.003 127.391 64.181 127.124 64.2699 126.858L63.2024 125.523L64.2699 125.434C64.181 125.078 64.003 124.722 63.8251 124.367L62.7575 124.455V123.032C62.5796 122.943 62.4906 122.854 62.3127 122.765C62.1348 122.676 62.0458 122.587 61.8679 122.587V124.011L60.8003 122.676C60.6224 122.765 60.4444 123.032 60.3555 123.299L61.4231 124.633Z" fill="#D1D6D7"/>
<path d="M60.8867 124.367C60.8867 125.167 61.5095 126.235 62.2212 126.68C62.9329 127.125 63.5557 126.769 63.5557 125.968C63.5557 125.167 62.9329 124.1 62.2212 123.655C61.5095 123.21 60.8867 123.566 60.8867 124.367Z" fill="#56686E"/>
<path d="M61.0703 124.456C61.0703 125.168 61.6041 126.146 62.2269 126.502C62.8496 126.858 63.3834 126.591 63.3834 125.791C63.3834 124.99 62.8496 124.1 62.2269 123.744C61.5152 123.477 61.0703 123.744 61.0703 124.456Z" fill="#B8C0C2"/>
<path d="M61.7773 124.9C61.7773 125.167 61.9553 125.523 62.2222 125.701C62.4891 125.879 62.667 125.701 62.667 125.434C62.667 125.167 62.4891 124.812 62.2222 124.634C61.9553 124.456 61.7773 124.545 61.7773 124.9Z" fill="#586A70"/>
<path d="M61.8672 124.901C61.8672 125.079 62.0451 125.346 62.223 125.524C62.401 125.613 62.5789 125.524 62.5789 125.346C62.5789 125.168 62.401 124.901 62.223 124.723C62.0451 124.634 61.8672 124.723 61.8672 124.901Z" fill="#D9DDDE"/>
<path d="M63.1115 125.879C63.0225 125.701 62.8446 125.701 62.7556 125.79C62.6666 125.879 62.7556 126.146 62.8445 126.235C62.9335 126.413 63.1115 126.413 63.2004 126.324C63.2894 126.235 63.2894 125.968 63.1115 125.879Z" fill="#748388"/>
<path d="M62.401 126.324C62.401 126.146 62.312 125.968 62.1341 125.879C61.9561 125.79 61.8672 125.879 61.8672 126.057C61.8672 126.235 61.9561 126.413 62.1341 126.502C62.312 126.591 62.401 126.502 62.401 126.324Z" fill="#88959A"/>
<path d="M63.0255 125.879C62.9366 125.701 62.7586 125.701 62.6697 125.79C62.5807 125.879 62.6697 126.146 62.7586 126.235C62.8476 126.413 63.0255 126.413 63.1145 126.324C63.2035 126.324 63.2034 126.057 63.0255 125.879Z" fill="#88959A"/>
<path d="M62.7586 124.811C62.6697 124.811 62.5807 124.989 62.6697 125.167C62.7586 125.345 62.9366 125.523 63.0255 125.523C63.1145 125.523 63.2035 125.345 63.1145 125.167C63.0255 124.9 62.9366 124.811 62.7586 124.811Z" fill="#88959A"/>
<path d="M61.8672 124.1C61.8672 124.278 61.9561 124.456 62.1341 124.545C62.312 124.634 62.401 124.545 62.401 124.367C62.401 124.189 62.312 124.011 62.1341 123.922C62.0451 123.833 61.8672 123.922 61.8672 124.1Z" fill="#88959A"/>
<path d="M61.3349 124.455C61.4239 124.633 61.6018 124.633 61.6908 124.544C61.7797 124.455 61.6908 124.188 61.6018 124.1C61.5128 123.922 61.3349 123.922 61.2459 124.011C61.157 124.1 61.157 124.277 61.3349 124.455Z" fill="#88959A"/>
<path d="M61.5997 125.613C61.6887 125.613 61.7777 125.435 61.6887 125.257C61.5997 125.079 61.4218 124.901 61.3329 124.901C61.2439 124.901 61.1549 125.079 61.2439 125.257C61.2439 125.435 61.4218 125.613 61.5997 125.613Z" fill="#88959A"/>
<path d="M31.7109 75.2581C31.7109 75.2581 39.095 78.6387 42.0309 80.7739C44.9667 82.9091 47.6357 84.5994 47.6357 84.5994C82.9548 106.841 84.1114 107.285 88.2038 110.132C88.2038 110.132 87.759 108.798 87.1362 108.264C86.1576 107.463 81.8873 104.172 72.5459 97.6773C71.3004 95.4531 63.5605 87.8911 63.5605 87.8911C61.7811 86.0228 49.504 79.1725 46.5681 78.105C43.6323 77.0374 41.0523 76.8594 41.0523 76.8594L32.6006 74.3684L31.7109 75.2581Z" fill="#414653"/>
<path d="M77.082 111.467C77.082 113.958 78.7724 116.893 80.9075 118.139C83.0427 119.384 84.733 118.406 84.733 115.915C84.733 113.424 83.0427 110.488 80.9075 109.242C78.7724 107.997 77.082 108.976 77.082 111.467Z" fill="#6B6B6B"/>
<path d="M78.0586 112.001C78.0586 113.78 79.3041 116.004 80.9055 116.983C82.5069 117.872 83.7524 117.16 83.7524 115.381C83.7524 113.602 82.5069 111.378 80.9055 110.399C79.3041 109.421 78.0586 110.221 78.0586 112.001Z" fill="#FFA312"/>
<path d="M39.0039 87.7133C39.0039 90.1153 44.6087 95.3642 42.8294 94.3856C44.9646 95.6311 46.6549 94.6525 46.6549 92.1615C46.6549 89.6705 43.1853 87.1795 41.0501 85.9339C39.0039 84.6884 39.0039 85.2222 39.0039 87.7133Z" fill="#6B6B6B"/>
<path d="M39.9825 88.2466C39.9825 90.0259 45.1425 94.4742 42.8294 93.2287C44.4308 94.1183 45.6763 93.4066 45.6763 91.6273C45.6763 89.848 42.6515 88.0687 41.1391 87.1791C39.5377 86.2005 39.9825 86.4673 39.9825 88.2466Z" fill="#FFA312"/>
<path d="M75.7438 112.802C75.7438 112.09 75.5659 105.596 80.9038 108.442C80.9038 108.442 84.4624 110.311 85.0852 113.78C85.441 115.738 85.441 117.25 85.2631 118.051C85.441 118.14 85.53 118.229 85.7079 118.229C85.8859 117.25 85.9748 115.649 85.53 113.247C84.8183 109.332 80.9038 107.286 80.9038 107.286C74.6763 103.994 75.2101 112.179 75.2101 112.179C75.2101 112.179 75.1211 112.179 75.1211 112.357C75.388 112.535 75.5659 112.624 75.7438 112.802Z" fill="#FFA312"/>
<path d="M37.8467 88.1578C38.0246 88.2467 38.1135 88.4247 38.2915 88.5136C38.2915 86.8233 37.046 82.7309 40.7825 85.044C40.7825 85.044 47.188 86.7343 47.188 94.4743C47.3659 94.5632 47.5438 94.6522 47.6328 94.7412C47.6328 94.6522 47.6328 94.4743 47.6328 94.3853C47.5438 85.7557 40.6935 83.7985 40.6935 83.7985C36.3342 81.1295 37.7577 86.7343 37.8467 88.1578Z" fill="#FFA312"/>
<path d="M75.2097 107.375C72.2738 105.506 46.207 88.7809 46.207 88.7809C46.8298 90.2044 47.2746 92.0726 47.2746 94.3857C47.4525 94.4747 47.6305 94.5637 47.7194 94.6526C47.8974 94.7416 47.9863 94.8306 48.1642 94.8306C50.1215 95.7202 72.0069 110.399 73.6083 111.378C73.8752 111.556 74.4979 111.912 75.2097 112.357C75.3876 112.446 75.5655 112.535 75.7434 112.713C75.7434 112.268 75.6545 109.599 76.9 108.353C76.1883 107.997 75.6545 107.642 75.2097 107.375Z" fill="#DE7F00"/>
<path d="M30.2852 79.4396V82.6424L31.0858 84.3327C31.0858 84.3327 35.623 86.2009 37.4913 87.8023C37.5803 87.8913 37.7582 88.0692 37.9361 88.1582C38.1141 88.2471 38.203 88.4251 38.381 88.5141C38.381 87.4465 36.8686 85.5782 38.0251 84.7775L30.2852 79.4396Z" fill="#DE7F00"/>
<path d="M31.2638 78.8167L33.221 79.9732L34.4665 82.2863L30.2852 79.4394L31.2638 78.8167Z" fill="#FFA312"/>
<path d="M57.6843 101.236L57.5064 101.058L48.6099 94.4745V94.3855C48.6099 94.3855 48.6989 93.5848 47.4533 89.5814C46.2968 85.578 42.1154 84.3325 42.0265 84.3325H41.9375L42.6492 77.927H42.7382C42.9161 77.838 44.6954 78.1939 46.1189 78.5497C49.2326 79.2614 55.4602 82.998 55.4602 82.998V83.0869L57.3285 90.471L57.5064 96.9655V101.236H57.6843ZM48.7878 94.3855L57.3285 100.791V96.9655L57.1505 90.471L55.2823 83.1759C54.7485 82.8201 48.9657 79.4394 46.0299 78.7277C43.8058 78.1939 43.094 78.1049 42.8272 78.1049L42.1154 84.1545C42.7382 84.4214 46.4747 85.8449 47.5423 89.5814C48.6989 93.051 48.7878 94.1186 48.7878 94.3855Z" fill="#B16D15"/>
<path d="M88.2026 110.044L87.6688 114.225L80.9075 120.008L69.1641 124.901L69.6979 120.72L88.2026 110.044Z" fill="#A5A9B2"/>
<path d="M88.1145 110.756C88.1145 110.756 85.9793 112.001 85.7125 112.802C85.4456 113.602 85.0007 115.738 85.7125 115.293C86.0683 115.026 87.7586 113.958 87.7586 113.691C87.7586 113.424 88.2035 111.378 88.1145 110.756Z" fill="#72889D"/>
<path d="M87.7582 111.378C87.7582 111.378 85.89 112.534 85.801 113.068C85.6231 113.602 85.8899 113.691 86.4237 113.246C86.9575 112.801 87.9361 112.09 87.9361 111.912C87.9361 111.734 88.1141 111.111 87.7582 111.378Z" fill="#DCDBDD"/>
<path d="M87.4027 112.802C87.4027 112.802 85.5345 113.958 85.4455 114.492C85.2676 115.026 85.5345 115.115 86.0683 114.67C86.6021 114.225 87.5807 113.514 87.5807 113.336C87.6696 113.158 87.7586 112.535 87.4027 112.802Z" fill="#FF7400"/>
<path d="M85.0903 113.246C85.0903 113.246 81.2648 116.182 80.642 116.449C80.0192 116.716 74.5034 119.029 74.3255 119.385C74.1476 119.652 74.0586 119.919 74.0586 120.453C74.0586 120.453 80.4641 117.784 80.642 117.695C80.8199 117.517 85.1792 114.314 85.1792 114.314L85.0903 113.246Z" fill="#23292D"/>
<path d="M85.0903 115.026C85.0903 115.026 80.8199 118.139 80.1972 118.406C79.5744 118.673 74.4145 120.808 74.3255 121.164C74.1476 121.431 74.0586 121.698 74.0586 122.232C74.0586 122.232 80.0192 119.741 80.1972 119.652C80.3751 119.474 85.1792 116.093 85.1792 116.093L85.0903 115.026Z" fill="#23292D"/>
<path d="M88.5619 114.848L81.5336 120.63L69.7013 125.256L68.7227 129.438L81.3557 123.744L87.1384 118.762C87.1384 118.762 87.5833 118.495 87.8501 117.428C88.206 116.36 88.5619 114.848 88.5619 114.848Z" fill="#979FA7"/>
<path d="M87.2198 117.25C87.2198 117.25 87.5756 116.093 86.508 116.805C85.4405 117.517 85.4405 117.784 85.1736 118.673C84.9956 119.563 86.2412 118.495 86.508 118.317C86.8639 118.139 87.1308 117.784 87.2198 117.25Z" fill="#4A5764"/>
<path d="M86.955 117.872C86.955 117.872 86.6881 117.605 86.4212 117.783C86.1543 117.872 85.2646 118.495 85.2646 118.495C85.2646 118.495 84.9088 119.385 85.4426 119.118C86.0653 118.851 86.955 118.05 86.955 117.872Z" fill="#E6E8EA"/>
<path d="M86.4222 117.695C86.4222 117.695 86.5111 117.161 86.0663 117.517C85.5325 117.873 85.4436 118.051 85.4436 118.051L85.2656 118.584V118.762L86.3332 118.051C86.2443 118.051 86.4222 117.962 86.4222 117.695Z" fill="#FEFDDD"/>
<path d="M87.9382 117.161L80.91 122.855L69.5225 127.57L68.6328 129.438C68.6328 129.438 75.6611 127.481 80.0204 125.079C85.8031 121.876 87.1376 118.763 87.1376 118.763C87.1376 118.763 87.5824 118.496 87.8493 117.428L87.9382 117.161Z" fill="#979FA7"/>
<path d="M69.7004 120.719L80.1093 115.915L88.2051 110.043C88.2051 110.043 87.6714 108.62 87.1376 108.175C86.4258 108.531 83.401 111.556 79.5755 113.691C74.5935 116.538 68.6328 118.851 68.6328 118.851L69.7004 120.719Z" fill="#E6E8EA"/>
<path d="M72.5438 97.6775L54.0391 108.353L68.6293 118.94L79.75 114.492L87.1341 108.264C87.1341 108.264 84.91 106.574 83.5755 105.595C82.241 104.528 74.2342 98.745 72.5438 97.6775Z" fill="#E6E8EA"/>
<path d="M72.011 98.1223C72.011 98.1223 71.2993 100.791 64.6269 104.706C58.3993 108.353 54.9297 107.997 54.9297 107.997L72.011 98.1223Z" fill="#12181D"/>
<path d="M72.5457 97.6775C72.5457 97.6775 67.3857 102.037 65.2505 103.282C62.6705 104.795 54.0409 108.353 54.0409 108.353L47.9023 97.0547L63.5602 87.8913C63.5602 87.8913 71.745 95.8982 72.5457 97.6775Z" fill="#665F55"/>
<path d="M63.2056 88.3365C63.2056 88.3365 70.6787 96.2544 71.0345 97.4109C58.1346 89.9379 51.4622 85.0448 51.4622 85.0448L45.8574 81.2193C45.8574 81.2193 43.3664 80.2407 43.6333 79.6179C43.9892 78.9062 49.416 80.1517 51.6401 81.3972C54.3981 82.8207 59.736 85.8455 63.2056 88.3365Z" fill="#999690"/>
<path d="M72.5403 97.6775C72.5403 97.6775 67.3803 102.037 65.2451 103.282C62.6652 104.795 54.0355 108.353 54.0355 108.353L53.6797 106.841L62.6652 102.66C62.6652 102.66 62.8431 101.325 63.5548 100.08C64.3555 98.834 69.1596 96.343 69.1596 96.343L72.5403 97.6775Z" fill="#78736A"/>
<path d="M32.6922 74.2798L23.5288 78.3722L14.1875 84.9556L22.6392 87.4466L41.1439 76.8598L32.6922 74.2798Z" fill="#E6E8EA"/>
<path d="M46.5683 78.1052L30.9994 87.1796L22.6367 87.4465C22.6367 87.4465 28.2415 82.9982 30.2877 81.6638C34.4691 78.9058 41.1414 76.7707 41.1414 76.7707C41.1414 76.7707 44.1663 76.9486 46.5683 78.1052Z" fill="#AFB5BB"/>
<path d="M46.568 78.1051C46.568 78.1051 39.8067 79.9734 37.2267 81.4858C35.0915 82.7313 30.9102 87.2685 30.9102 87.2685L47.9025 97.0547C47.9025 97.0547 55.5535 93.9409 58.3114 92.2506C60.1797 91.094 63.5603 87.9803 63.5603 87.9803C63.5603 87.9803 61.781 86.3789 57.5107 83.9768C53.3293 81.4858 48.9701 78.9058 46.568 78.1051Z" fill="#E6E8EA"/>
<path d="M66.6709 124.456C67.0268 126.413 67.0268 127.925 66.8489 128.726C66.9378 128.815 67.0268 128.815 67.1158 128.904C67.7385 127.481 68.6282 126.235 69.7847 125.167L69.162 124.99L69.6957 120.808C69.6957 120.808 69.2509 119.474 68.6282 118.94C67.6495 118.139 63.3792 114.848 54.0379 108.353C52.7924 106.129 47.8993 97.0545 47.8993 97.0545C46.12 95.1863 33.8428 88.3359 30.907 87.2684L22.5443 87.5353L14.0926 85.0442L13.114 85.9339L12.6691 89.4925L11.6016 90.1153V93.318L12.4022 95.0083C12.4022 95.0083 15.2491 97.4104 17.0284 99.0118C17.1174 99.1007 17.2953 99.2787 17.4732 99.3676C17.6512 99.4566 17.7401 99.6345 17.9181 99.7235C17.9181 98.6559 18.096 96.3428 19.2525 95.4532C19.8753 95.0083 20.765 94.9194 22.0994 95.72C22.0994 95.72 24.3236 96.7876 25.747 99.9904C26.3698 101.414 26.8146 103.282 26.8146 105.595C26.9925 105.684 27.1704 105.773 27.2594 105.862C27.4373 105.951 27.5263 106.04 27.7042 106.04C29.6615 106.93 53.2372 121.075 54.8386 122.143C55.1055 122.321 55.7282 122.676 56.44 123.121C56.6179 123.21 56.7958 123.299 56.9738 123.477C56.9738 123.032 56.8848 120.363 58.1303 119.118C58.842 118.317 60.0875 118.05 62.1337 119.118C62.1337 119.118 64.9806 120.63 66.0482 123.477C66.493 123.744 66.582 124.1 66.6709 124.456Z" fill="#95A1AD"/>
<path d="M11.7773 90.1154V93.3182L12.578 95.0085C12.578 95.0085 15.4249 97.4106 17.2042 99.0119C17.2932 99.1009 17.4711 99.2788 17.649 99.3678C17.827 99.4567 17.9159 99.6347 18.0939 99.7236C18.0939 98.6561 18.2718 96.343 19.4283 95.4533L11.7773 90.1154Z" fill="#7A848E"/>
<path d="M14.2724 92.696L12.582 91.5394V92.5181L14.1834 93.7636L14.2724 92.696Z" fill="#D4D6DA"/>
<path d="M14.1843 92.7851L12.6719 91.7175V92.4293L14.0953 93.4968L14.1843 92.7851Z" fill="#FF7400"/>
<path d="M56.7047 118.051C53.7688 116.183 26.0117 99.9911 26.0117 99.9911C26.6345 101.415 27.0793 103.283 27.0793 105.596C27.2572 105.685 27.4352 105.774 27.5241 105.863C27.7021 105.952 27.791 106.041 27.969 106.041C29.9262 106.93 53.5019 121.076 55.1033 122.143C55.3702 122.321 55.9929 122.677 56.7047 123.122C56.8826 123.211 57.0605 123.3 57.2385 123.478C57.2385 123.033 57.1495 120.364 58.395 119.119C57.6833 118.674 57.1495 118.318 56.7047 118.051Z" fill="#C8CCD0"/>
<path d="M23.9691 91.628L23.6133 94.9197C23.6133 94.9197 26.6381 97.4107 27.2608 100.347C27.7946 103.282 28.5064 105.596 28.5064 105.596L54.4841 120.631L55.2848 117.25L54.7511 110.489L23.9691 91.628Z" fill="#95A1AD"/>
<path d="M56.7047 118.051C53.7688 116.183 26.0117 99.9911 26.0117 99.9911C26.6345 101.415 27.0793 103.283 27.0793 105.596C27.2572 105.685 27.4352 105.774 27.5241 105.863C27.7021 105.952 27.791 106.041 27.969 106.041C29.9262 106.93 53.5019 121.076 55.1033 122.143C55.3702 122.321 55.9929 122.677 56.7047 123.122C56.8826 123.211 57.0605 123.3 57.2385 123.478C57.2385 123.033 57.1495 120.364 58.395 119.119C57.6833 118.674 57.1495 118.318 56.7047 118.051Z" fill="#7A848E"/>
<path d="M28.4166 104.884L28.5056 105.595L54.4834 120.63L54.6613 120.008L36.4235 109.154L29.2173 104.884L27.8828 102.571L28.4166 104.884Z" fill="#AFB5BB"/>
<path d="M69.1594 124.901C69.1594 124.901 68.0028 124.278 66.3125 123.389C66.4015 123.745 66.4904 124.011 66.5794 124.367C66.9352 126.325 66.9353 127.837 66.7573 128.638C66.9353 128.727 67.0242 128.816 67.2022 128.816C67.9139 129.171 68.4476 129.349 68.6256 129.349C69.3373 129.171 69.6042 125.346 69.6042 125.346L69.1594 124.901Z" fill="#7A848E"/>
<path d="M87.6665 114.225L80.9051 119.919L69.1617 124.901H67.7383L68.8059 125.257C69.5176 125.524 70.3183 125.524 71.03 125.168L81.261 120.898L88.3782 114.937L87.6665 114.225Z" fill="#E6E8EA"/>
<path d="M88.4695 115.026C88.4695 115.026 88.7364 114.848 88.3806 114.225C88.0247 113.602 87.8468 113.424 87.8468 113.424V113.691L87.7578 114.225L88.4695 115.026Z" fill="#2A3140"/>
<path d="M13.2023 85.8456L13.1133 86.5573L23.7891 93.0518L38.9132 102.838L55.0158 112.446L69.6061 121.699L69.6951 120.72C69.6951 120.72 62.9337 116.183 58.8413 113.781C54.9269 111.29 17.4726 85.5787 13.2023 85.8456Z" fill="#AFB5BB"/>
<path d="M13.2031 85.8453C13.2031 85.8453 20.5872 89.2259 23.5231 91.3611C26.4589 93.4963 29.1279 95.1866 29.1279 95.1866C64.447 117.428 65.6036 117.873 69.6959 120.72C69.6959 120.72 69.2511 119.385 68.6284 118.851C67.6497 118.051 63.3794 114.759 54.0381 108.264C52.7926 106.04 47.8995 96.9659 47.8995 96.9659C46.1202 95.0976 33.843 88.2473 30.9072 87.1798L22.5445 87.4466L14.0928 84.9556L13.2031 85.8453Z" fill="#D8DBDE"/>
<path d="M57.24 123.478C57.24 122.766 57.062 116.271 62.3999 119.118C62.3999 119.118 65.9585 120.986 66.5813 124.456C66.9371 126.413 66.9372 127.926 66.7592 128.726C66.9372 128.815 67.0261 128.904 67.2041 128.904C67.382 128.015 67.4709 126.324 67.0261 123.922C66.3144 120.008 62.3999 117.962 62.3999 117.962C56.1724 114.67 56.7062 122.855 56.7062 122.855C56.7062 122.855 56.6172 122.855 56.6172 123.033C56.8841 123.211 57.062 123.3 57.24 123.478Z" fill="#C8CCD0"/>
<path d="M17.6533 99.2787C17.8312 99.3676 17.9202 99.5456 18.0981 99.6345C18.0981 97.9442 18.543 93.407 22.2795 95.7201C22.2795 95.7201 26.9057 97.8552 26.9946 105.684C27.1726 105.773 27.3505 105.862 27.4395 105.951C27.4395 105.862 27.4395 105.684 27.4395 105.595C27.3505 96.9656 22.1905 94.5635 22.1905 94.5635C17.8312 91.8056 17.5643 97.9442 17.6533 99.2787Z" fill="#C8CCD0"/>
<path d="M12.8449 89.4928L15.158 91.1832L18.5387 94.8307L11.7773 90.1156L12.9339 88.5142L12.8449 89.4928Z" fill="#E6E8EA"/>
<path d="M47.5424 97.4995C47.5424 97.4995 52.1686 107.019 52.5245 108.086C39.6245 100.613 32.9522 95.7202 32.9522 95.7202L27.3473 91.8947C27.3473 91.8947 25.9239 89.8485 26.2798 89.2258C26.2798 89.2258 33.7528 89.3147 36.0659 90.5602C38.7349 91.9837 44.0728 94.9195 47.5424 97.4995Z" fill="#483F32"/>
<path d="M39.2703 91.8947L38.5586 98.7451L39.8041 99.6347L40.3379 92.5175L39.2703 91.8947Z" fill="#0E0600"/>
<path d="M35.4432 96.2545L29.8384 92.429C29.8384 92.429 28.4149 90.3828 28.7708 89.7601C29.0377 89.3153 32.2404 89.4932 34.9983 90.027C31.9735 88.7815 26.2798 89.1373 26.2798 89.1373C25.9239 89.6711 27.3473 91.8063 27.3473 91.8063L32.9522 95.6318C32.9522 95.6318 39.6245 100.525 52.5245 107.998C52.4355 107.82 52.2576 107.375 51.9907 106.841C41.1369 100.436 35.4432 96.2545 35.4432 96.2545Z" fill="#0E0600"/>
<path d="M54.9272 110.4C51.4576 104.261 49.8562 101.148 49.0555 99.3683C48.4328 98.0338 48.1659 97.5 47.721 97.0552C41.9383 93.0518 39.9811 92.1621 39.8921 92.0732C39.7142 91.9842 36.4225 89.849 34.9101 89.3152C30.9956 87.8918 27.6149 88.2477 25.9246 88.4256C25.035 88.5145 24.2343 88.8704 24.1453 89.7601L23.4336 94.8311V94.92H23.5226C23.5226 94.92 26.0136 96.6993 27.2591 100.703C28.4156 104.706 28.4156 105.418 28.4156 105.507V105.596L39.0025 111.734L39.1804 111.823L54.5714 120.72L55.461 117.161L54.9272 110.4ZM27.526 100.792C26.3694 97.0552 24.1453 95.2759 23.7894 94.92L24.5012 89.938C24.5902 89.1373 25.2129 88.8704 26.0136 88.7814C27.7039 88.6035 30.9956 88.3366 34.9101 89.6711C36.2446 90.1159 39.2694 92.0731 39.8032 92.34L38.8245 101.148L39.0025 107.642V111.468L28.6825 105.507C28.5936 105.24 28.5046 104.172 27.526 100.792ZM54.3934 120.453L39.0915 111.645V107.642L38.9135 101.148L39.8921 92.429C40.4259 92.6959 42.5611 93.9414 47.4542 97.2331C47.899 97.6779 48.1659 98.2117 48.7886 99.4572C49.5893 101.148 51.1907 104.35 54.6603 110.4L55.1941 117.161L54.3934 120.453Z" fill="#96A2AF"/>
<path d="M44.9675 78.1057C44.9675 78.1057 38.8289 79.885 36.6938 81.1305C34.5586 82.287 31 86.3794 31 86.3794C31 86.3794 27.4414 86.3794 25.929 86.4684C24.4166 86.5573 23.8828 86.8242 23.8828 86.8242C23.8828 86.8242 27.8863 83.9773 30.7331 81.9311C33.58 79.8849 40.8751 77.305 40.8751 77.305C40.8751 77.305 43.1882 77.4829 44.9675 78.1057Z" fill="#665F55"/>
<path d="M73.6968 122.588C73.6968 122.588 73.6968 120.631 72.7182 120.275C72.0954 120.008 69.9603 121.165 69.0706 121.165C68.4479 121.165 67.3803 123.3 68.181 123.834C69.2485 124.545 69.1596 124.367 69.6044 124.278C70.0492 124.189 72.1844 123.478 73.6968 122.588Z" fill="#72889D"/>
<path d="M73.6093 122.499C73.6093 122.499 72.7196 122.054 71.0293 122.588C69.8728 122.944 69.5169 122.944 69.339 123.656C69.25 124.011 69.25 124.278 69.25 124.278C69.25 124.278 69.9617 124.189 71.1183 123.745C72.2748 123.211 73.6093 122.677 73.6093 122.499Z" fill="#ACB9C5"/>
<path d="M69.3405 121.343C69.3405 121.343 68.7177 121.432 68.2729 122.143C67.8281 122.855 67.9171 123.3 68.095 123.656C68.2729 124.012 68.9847 124.19 68.9847 124.19C68.9847 124.19 69.6074 121.876 69.3405 121.343Z" fill="#FD3C1D"/>
<path d="M72.7223 121.698C72.7223 121.698 70.1424 122.41 69.8755 122.677C69.6975 122.855 69.6086 123.21 69.8755 123.388C70.2313 123.566 72.6334 122.588 72.9003 122.41C73.0782 122.143 73.2561 121.787 72.7223 121.698Z" fill="#FF7400"/>
<path d="M72.6315 120.72C72.6315 120.72 70.3184 121.343 69.8736 121.609C69.5177 121.876 69.6067 122.321 69.7846 122.41C70.2294 122.499 72.5425 121.698 72.8094 121.431C73.0763 121.165 73.0763 120.72 72.6315 120.72Z" fill="#DCDBDD"/>
<path d="M66.8505 122.855C66.8505 122.855 65.605 119.474 62.4912 118.05C59.4664 116.538 58.043 118.05 58.043 118.05C58.043 118.05 59.3775 115.47 63.025 117.517C66.7616 119.474 66.8505 122.855 66.8505 122.855Z" fill="#E6E8EA"/>
<path d="M26.7261 100.257C26.7261 100.257 25.8364 96.7878 23.0785 95.0085C20.3206 93.2292 19.1641 94.2079 19.1641 94.2079C19.1641 94.2079 20.7654 92.6065 23.0785 94.0299C25.3916 95.5423 26.8151 98.2113 26.7261 100.257Z" fill="#E6E8EA"/>
<path d="M76.0139 114.848L63.025 106.485L58.043 108.709L70.765 116.627L76.0139 114.848Z" fill="#EEF0F2"/>
<path d="M72.2791 99.3681L68.8984 102.571L81.6204 111.289L84.4673 108.709L72.2791 99.3681Z" fill="#EEF0F2"/>
<path d="M76.0166 114.848L62.6719 107.019L63.0277 106.485L76.0166 114.848Z" fill="#95A1AD"/>
<path d="M72.2808 99.3681L71.8359 99.813L84.469 108.709L72.2808 99.3681Z" fill="#95A1AD"/>
<path d="M62.6692 107.019L58.5768 109.065L58.043 108.709L63.025 106.485L62.6692 107.019Z" fill="#1B1A1A"/>
<path d="M68.8984 102.571L69.1653 102.749L72.2791 100.08V99.3681L68.8984 102.571Z" fill="#1B1A1A"/>
<path d="M29.3957 75.7029L33.1323 77.3043C33.1323 77.3043 28.4171 79.5284 27.5275 80.507C26.6378 81.4857 23.613 83.8877 23.613 83.8877L17.6523 82.5532C17.6523 82.5532 22.8123 78.7277 23.524 78.3719C24.3247 78.016 29.3957 75.7029 29.3957 75.7029Z" fill="#D8DBDE"/>
<path d="M72.6321 126.235C72.6321 126.235 72.9879 125.168 71.9204 125.613C70.8528 126.057 70.7638 126.235 70.5859 127.125C70.319 128.015 71.6535 127.303 71.9204 127.125C72.1872 127.036 72.5431 126.769 72.6321 126.235Z" fill="#4A5764"/>
<path d="M72.3651 126.769C72.3651 126.769 72.0982 126.414 71.8313 126.502C71.4755 126.591 70.6748 126.947 70.6748 126.947C70.6748 126.947 70.3189 127.748 70.8527 127.659C71.3865 127.481 72.3651 126.947 72.3651 126.769Z" fill="#E6E8EA"/>
<path d="M71.8314 126.503C71.8314 126.503 71.9204 126.058 71.3866 126.236C70.8528 126.414 70.7639 126.592 70.7639 126.592L70.5859 127.125V127.303L71.6535 126.858C71.6535 126.769 71.7425 126.681 71.8314 126.503Z" fill="#FEFDDD"/>
<path d="M82.506 123.388C82.7729 123.21 82.9509 122.943 82.9509 122.765L83.0398 120.808C83.0398 120.63 82.8619 120.541 82.595 120.63L79.3033 122.498C79.0364 122.676 78.8585 122.943 78.8585 123.121L78.7695 125.078C78.7695 125.256 78.9475 125.345 79.2144 125.256L82.506 123.388Z" fill="#D3D3D3"/>
<path d="M79.2153 125.167L82.5069 123.299C82.6849 123.21 82.8628 122.943 82.8628 122.765L82.9518 120.808C82.9518 120.63 82.7738 120.541 82.5959 120.719L79.3042 122.587C79.1263 122.676 78.9483 122.943 78.9483 123.121L78.8594 125.078C78.8594 125.256 79.0373 125.345 79.2153 125.167Z" fill="#EFDCA9"/>
<path d="M78.947 123.655C78.947 123.477 78.858 122.943 79.3918 122.676L82.6835 120.808C83.1283 120.452 83.0394 121.253 82.9504 121.431L78.947 123.655Z" fill="#5E6095"/>
<path d="M48.348 96.8773L54.9315 107.998L54.0418 108.354L47.9922 96.9663L48.348 96.8773Z" fill="#D8DBDE"/>
<path d="M63.5551 87.8913C63.2882 88.0692 63.1992 87.9803 63.1992 87.9803V88.2472L71.9178 98.2112L72.4516 97.7664C72.5405 97.6775 68.3592 92.2506 63.5551 87.8913Z" fill="#D8DBDE"/>
<path d="M53.0592 107.642C52.9702 107.642 52.9702 107.642 53.0592 107.642C52.8812 107.553 52.9702 107.642 52.9702 107.553C52.8812 107.464 52.7923 106.752 52.7033 106.663C52.7033 106.663 52.6143 106.663 52.6143 106.574C52.4364 106.574 52.2585 106.485 52.0806 106.485C51.9026 106.485 51.8137 106.574 51.6357 106.663C51.2799 106.841 51.013 107.108 50.6571 107.286C50.5681 107.286 50.5681 107.375 50.5681 107.375C50.4792 107.464 50.3013 107.464 50.3013 107.909C50.3013 107.998 50.2123 108.265 50.3013 108.532C50.3013 108.709 50.3902 109.154 50.4792 109.243C50.5681 109.332 50.924 109.51 51.013 109.599C51.1909 109.688 51.2799 109.688 51.4578 109.599C51.8137 109.421 52.1695 109.154 52.5254 108.976C52.6144 108.887 52.6143 108.709 52.7923 108.798C52.8812 108.798 52.9702 108.887 53.0592 108.798C53.1481 108.709 53.2371 108.621 53.3261 108.532C53.415 108.354 53.415 108.087 53.2371 107.998C53.2371 107.731 53.1481 107.731 53.0592 107.642Z" fill="#7A848E"/>
<path d="M58.3956 93.1404L58.6625 93.4962L59.5522 93.0514L59.997 92.9625L60.1749 93.5852L60.0859 93.9411L59.0184 94.7418L57.0611 95.6314L56.7942 95.5425L56.5273 94.9197L56.8832 94.4749L58.0397 93.8521L57.6839 93.5852L58.0397 93.2294L58.3956 93.1404Z" fill="#706D65"/>
<path d="M39.891 103.905L41.3145 104.706C41.4924 104.795 41.6703 104.706 41.6703 104.439V103.905C41.6703 103.638 41.4924 103.371 41.3145 103.193L39.891 102.393C39.7131 102.304 39.5352 102.393 39.5352 102.66V103.282C39.5352 103.549 39.7131 103.816 39.891 103.905Z" fill="#445970"/>
<path d="M39.2695 103.015L42.0275 104.617V104.172L39.2695 102.571V103.015Z" fill="#D8DBDE"/>
<path d="M25.482 94.5642L26.8164 95.5428C26.9944 95.6318 27.1723 95.5428 27.1723 95.2759L27.2613 94.6532C27.2613 94.3863 27.1723 94.1194 26.9944 93.9414L25.6599 92.9628C25.482 92.8739 25.304 92.9628 25.304 93.2297L25.2151 93.8525C25.1261 94.1194 25.304 94.4752 25.482 94.5642Z" fill="#445970"/>
<path d="M24.9453 93.5854L27.4363 95.3647L27.5253 94.9199L24.9453 93.1406V93.5854Z" fill="#D8DBDE"/>
<path d="M57.8645 115.292L58.0424 115.47V116.093L56.7969 115.381L57.8645 115.292Z" fill="#394F67"/>
<path d="M56.7083 114.581L57.8649 115.293V115.826L56.4414 114.759L56.7083 114.581Z" fill="#E07436"/>
<path d="M56.4414 114.759L57.6869 115.381V116.004L56.4414 115.292V114.759Z" fill="#FF9436"/>
<path d="M57.6875 115.381L57.8654 115.292V115.826L57.6875 116.004V115.381Z" fill="#DB5E16"/>
<path d="M80.1996 116.627L79.8438 119.741L80.1107 119.652L80.5555 119.296L80.7334 116.36L80.1996 116.627Z" fill="#A5A9B2"/>
</svg>
