<svg width="151" height="92" viewBox="0 0 151 92" fill="none" xmlns="http://www.w3.org/2000/svg">
<path d="M105.851 72.5657L98.7227 76.7698V70.9206L101.83 69.0928L105.851 72.5657Z" fill="black"/>
<path d="M50.6474 40.7602L43.3359 44.9643V39.1151L46.6261 37.1045L50.6474 40.7602Z" fill="black"/>
<path d="M52.6568 40.3961C51.1946 39.4821 49.915 39.4821 48.8183 40.0305L45.7109 41.8583C46.6249 41.31 54.3019 54.6534 53.388 55.2017L56.3126 53.5567C57.4093 53.0083 57.9576 51.7288 57.9576 49.9009C57.9576 46.2452 55.5814 42.0411 52.6568 40.3961Z" fill="#121214"/>
<path d="M49.55 42.2239C46.6254 40.5788 44.0664 41.8583 44.0664 45.3313C44.0664 48.8042 46.4426 53.0083 49.55 54.6534C52.4746 56.2984 55.0336 55.0189 55.0336 51.546C55.0336 48.0731 52.4746 43.869 49.55 42.2239Z" fill="#303033"/>
<path d="M49.5515 44.9657C47.9065 44.0518 46.627 44.7829 46.627 46.6108C46.627 48.4387 47.9065 50.8149 49.5515 51.7288C51.1966 52.6427 52.4761 51.9116 52.4761 50.0837C52.4761 48.2559 51.1966 45.8797 49.5515 44.9657Z" fill="#A7A9AC"/>
<path d="M49.5483 47.7074C49.1828 47.5247 49 47.7075 49 48.073C49 48.4386 49.1828 48.987 49.5483 49.1697C49.9139 49.3525 50.0967 49.1697 50.0967 48.8042C50.0967 48.4386 49.9139 47.8902 49.5483 47.7074Z" fill="#BCBEC0"/>
<path d="M108.042 72.3834C106.579 71.4694 105.3 71.4694 104.203 72.0178L101.096 73.8456C102.01 73.2973 109.687 86.6407 108.773 87.189L111.697 85.544C112.794 84.9956 113.342 83.7161 113.342 81.8882C113.342 78.2325 110.966 74.0284 108.042 72.3834Z" fill="#121214"/>
<path d="M104.935 74.2112C102.01 72.5661 99.4512 73.8456 99.4512 77.3186C99.4512 80.7915 101.827 84.9956 104.935 86.6407C107.859 88.2857 110.418 87.0062 110.418 83.5333C110.236 80.0604 107.859 75.8563 104.935 74.2112Z" fill="#303033"/>
<path d="M104.936 76.953C103.291 76.0391 102.012 76.7702 102.012 78.5981C102.012 80.426 103.291 82.8022 104.936 83.7161C106.581 84.63 107.861 83.8989 107.861 82.071C107.861 80.2432 106.581 77.867 104.936 76.953Z" fill="#A7A9AC"/>
<path d="M104.933 79.6948C104.568 79.512 104.385 79.6948 104.385 80.0603C104.385 80.4259 104.568 80.9743 104.933 81.157C105.299 81.3398 105.481 81.157 105.481 80.7915C105.481 80.4259 105.116 79.8775 104.933 79.6948Z" fill="#BCBEC0"/>
<path d="M124.312 43.5034V42.4067C124.312 42.2239 124.494 41.8583 124.86 41.6755L126.505 40.0304C126.688 40.0304 126.688 40.0304 126.871 40.0304L126.505 39.8477C126.505 39.8477 126.322 39.8477 126.139 39.8477L123.763 41.1272C123.58 41.3099 123.215 41.6755 123.215 41.8583V42.955C123.215 43.1378 123.215 43.1378 123.398 43.3206L124.494 43.869C124.312 43.6862 124.312 43.6862 124.312 43.5034Z" fill="#303033"/>
<path d="M126.322 42.0414L124.677 43.6865C124.495 43.8693 124.129 43.6865 124.129 43.5037V42.407C124.129 42.2242 124.312 41.8587 124.677 41.6759L126.322 40.0308C126.505 39.848 126.871 40.0308 126.871 40.2136V41.3103C126.688 41.4931 126.688 41.6759 126.322 42.0414Z" fill="#121214"/>
<path d="M124.127 43.1382C124.127 42.9554 123.944 42.7726 123.761 42.5898C123.578 42.5898 123.578 42.5898 123.578 42.5898L122.299 43.321L122.664 44.0521L123.944 43.321C124.127 43.321 124.127 43.1382 124.127 43.1382Z" fill="#121214"/>
<path d="M122.846 43.8692C122.846 44.052 122.664 44.2348 122.481 44.052C122.298 43.8692 122.115 43.6864 122.115 43.5036C122.115 43.3208 122.298 43.138 122.481 43.3208C122.664 43.3208 122.846 43.6864 122.846 43.8692Z" fill="#787878"/>
<path d="M123.03 42.9544L122.299 42.5889H122.116L121.934 42.7717C121.934 42.7717 121.934 42.7717 122.116 42.7717L122.848 43.1372C123.03 43.1372 123.03 43.32 123.03 43.5028V44.5995V44.7823L123.213 44.5995C123.213 44.5995 123.213 44.5995 123.213 44.4167V43.32C123.213 43.1372 123.213 42.9544 123.03 42.9544Z" fill="#3B3B3B"/>
<path d="M122.664 44.5995L121.933 44.2339C121.75 44.2339 121.75 44.0512 121.75 43.8684V42.7717C121.75 42.5889 121.933 42.5889 121.933 42.5889L122.664 42.9544C122.847 42.9544 122.847 43.1372 122.847 43.32V44.4167C123.03 44.5995 122.847 44.7823 122.664 44.5995Z" fill="#545454"/>
<path d="M59.9697 31.8056L89.3982 47.1596L88.6671 46.0629L34.928 14.9893L31.4551 25.2253L51.9271 36.9236C54.3033 32.7195 55.2173 31.0744 59.9697 31.8056Z" fill="#121214"/>
<path d="M118.096 76.9539L97.0751 62.5138L89.2154 47.1597L61.2491 31.0746C53.9376 26.8705 51.7442 37.1065 51.7442 37.1065L31.2721 25.4082L30.541 26.3221V33.0852L40.0459 38.5688V43.1385L43.1532 44.9663C43.1532 41.1278 45.895 39.4827 49.1852 41.4934C52.6581 43.504 55.2171 48.2565 55.2171 52.095L98.1719 76.9539C98.1719 73.1154 100.914 71.4703 104.204 73.4809C107.494 75.4916 110.236 80.244 110.236 84.0825L111.332 84.6309V79.6957L118.644 83.8997L118.096 76.9539Z" fill="#1D374E"/>
<path d="M39.1312 39.6642L28.1641 32.7183L30.9059 31.0732V32.9011L40.228 38.3847L39.1312 39.6642Z" fill="#535359"/>
<path d="M39.1312 43.6859L28.1641 37.4712V32.7188L39.1312 39.1163V43.6859Z" fill="#303033"/>
<path d="M40.2276 43.1372L39.1309 43.6856V39.1159L40.2276 38.3848V43.1372Z" fill="#121214"/>
<path d="M30.9062 31.4381L32.5514 32.352V28.6963L30.9062 27.5996V31.4381Z" fill="#FF8400"/>
<path d="M116.451 80.7915L119.01 82.2538L118.279 78.0497L116.451 77.1357V80.7915Z" fill="#FF8400"/>
<path d="M93.2355 57.3947L89.0314 48.2554L80.8061 43.5029L79.3438 52.0939L93.2355 60.1365V57.3947Z" fill="#2B5E85"/>
<path d="M78.0677 51.3628L73.498 48.8038L74.9603 40.2129L79.53 42.7719L78.0677 51.3628Z" fill="#2B5E85"/>
<path d="M61.6184 32.3519C56.5004 29.7929 53.9414 37.2871 53.9414 37.2871L60.1561 40.9429L61.6184 32.3519Z" fill="#2B5E85"/>
<path d="M62.1654 32.7178L60.7031 41.3087L72.0358 47.889L73.4981 39.2981L62.1654 32.7178Z" fill="#2B5E85"/>
<path d="M96.5258 74.3935L96.343 74.2108L56.4956 51.1797C56.4956 51.1797 56.3128 46.7928 52.8398 42.7715V37.1052C52.8398 35.8257 55.2161 31.0732 59.2374 31.0732C60.3341 31.0732 61.248 31.4388 62.3447 31.9872L89.0315 47.524L96.5258 62.5124V74.3935ZM56.8612 51.1797L96.343 74.028V62.5124L89.0315 47.7068L62.1619 32.17C61.0652 31.6216 60.1513 31.256 59.2374 31.256C55.3988 31.256 53.2054 35.8257 53.2054 37.1052V42.7715C56.4956 46.4273 56.8612 50.6314 56.8612 51.1797Z" fill="#0F2034"/>
<path d="M72.9495 60.5023H72.584V48.2557L74.0463 38.9336H74.4118L72.9495 48.4385V60.5023Z" fill="#0F2034"/>
<path d="M78.7953 63.976H78.4297V51.7293L79.892 42.4072H80.2575L78.7953 51.7293V63.976Z" fill="#0F2034"/>
<path d="M83.3663 55.7509C83.3663 55.5681 83.1835 55.3853 83.1835 55.3853L80.4417 53.7402H80.2589L80.0762 53.923L80.2589 54.1058L80.4417 54.2886L82.818 55.5681L83.1835 55.9337L83.3663 55.7509C83.3663 55.9337 83.3663 55.9337 83.3663 55.7509Z" fill="#939598"/>
<path d="M83.1835 55.9325C83.1835 56.1153 83.0007 56.1153 83.0007 56.1153L80.2589 54.4702C80.0761 54.4702 80.0762 54.1047 80.0762 54.1047C80.0762 53.9219 80.2589 53.9219 80.2589 53.9219L83.0007 55.5669C83.0007 55.5669 83.1835 55.7497 83.1835 55.9325Z" fill="#BCBEC0"/>
<path d="M101.1 67.0822C101.1 66.8994 100.917 66.5339 100.734 66.5339L99.4546 65.8027C99.2718 65.8027 99.2718 65.8027 99.2718 65.8027L98.9062 65.9855L99.2718 66.3511C99.2718 66.5339 99.4546 66.5339 99.4546 66.5339L100.551 67.4478L100.917 67.265C101.1 67.265 101.1 67.0822 101.1 67.0822Z" fill="#BA6000"/>
<path d="M100.733 67.2654C100.733 67.4482 100.551 67.6309 100.368 67.4482L99.0883 66.717C98.9055 66.5342 98.7227 66.3514 98.7227 66.1687C98.7227 65.9859 98.9055 65.8031 99.0883 65.9859L100.368 66.717C100.551 66.717 100.733 67.0826 100.733 67.2654Z" fill="#FF8400"/>
<path d="M118.824 89.7479L110.781 85.1782V80.4258L119.738 85.7266L118.824 89.7479Z" fill="#303033"/>
<path d="M118.095 76.9527L97.2578 62.3298L126.138 45.6963L146.976 60.3192L118.095 76.9527Z" fill="#2A4E68"/>
<path d="M126.136 45.6961L97.2563 62.3296L89.3965 46.9756L115.352 32.1699L126.136 45.6961Z" fill="#0F2034"/>
<path d="M124.674 45.3315L97.6216 61.0511L90.6758 47.3421L115.169 33.2676L124.674 45.3315Z" fill="#2B5E85"/>
<path d="M115.352 32.17L89.396 46.9756L88.8477 46.0617L114.621 31.0732L115.352 32.17Z" fill="black"/>
<path d="M88.8504 46.0621L35.1113 14.9885L61.0669 0L114.623 31.0736L88.8504 46.0621Z" fill="#303033"/>
<path d="M148.071 67.2652L119.19 83.8987L118.094 76.9529L146.974 60.3193L148.071 67.2652Z" fill="#0F2034"/>
<path d="M147.704 65.6191L140.758 69.6404L140.027 65.6191L147.156 61.415L147.704 65.6191Z" fill="#E6DAB0"/>
<path d="M125.956 78.2324L119.01 82.2537L118.279 78.0496L125.408 74.0283L125.956 78.2324Z" fill="#E6DAB0"/>
<path d="M139.299 71.8335L127.784 78.4138L127.053 72.5647L138.385 65.9844L139.299 71.8335Z" fill="#939598"/>
<path d="M149.902 71.8349L118.828 89.748L119.742 85.7267L150.998 67.6309L149.902 71.8349Z" fill="#121214"/>
<path d="M140.033 78.7808L130.894 83.8988L130.711 82.0709L130.894 79.3291L140.033 74.0283V78.7808Z" fill="#121214"/>
<path d="M138.75 78.4166L132.17 82.2551V79.5133L138.75 75.6748V78.4166Z" fill="#F5F5F5"/>
<path d="M130.892 83.8997L129.795 83.3514L130.892 79.3301V83.8997Z" fill="#303033"/>
<path d="M119.738 85.7264L110.781 80.4256L111.878 79.6945L119.189 83.8986L148.07 67.265L147.887 65.8027L150.994 67.6306L119.738 85.7264Z" fill="#535359"/>
<path d="M94.5147 59.223L93.7836 58.8574H93.6008L93.418 59.0402H93.6008L94.3319 59.4058C94.5147 59.4058 94.5147 59.5886 94.5147 59.7714V60.8681V61.0509L94.6975 60.8681C94.6975 60.8681 94.6975 60.8681 94.6975 60.6853V59.5886C94.6975 59.5886 94.6975 59.4058 94.5147 59.223Z" fill="#121214"/>
<path d="M94.1503 61.0507L93.4191 60.6851C93.2363 60.6851 93.2363 60.5023 93.2363 60.3195V59.2228C93.2363 59.04 93.4191 59.04 93.4191 59.04L94.1503 59.4056C94.333 59.4056 94.3331 59.5884 94.3331 59.7712V60.8679C94.5158 61.0507 94.333 61.0507 94.1503 61.0507Z" fill="#303033"/>
<path d="M94.1501 60.1372C94.1501 59.9544 93.9674 59.7717 93.7846 59.5889C93.6018 59.5889 93.6018 59.5889 93.6018 59.5889L92.3223 60.32L92.6879 61.0512L93.9673 60.32C94.1501 60.32 94.1501 60.32 94.1501 60.1372Z" fill="#121214"/>
<path d="M92.8699 60.8682C92.8699 61.051 92.6871 61.2338 92.5043 61.051C92.3215 60.8682 92.1387 60.6854 92.1387 60.5026C92.1387 60.3199 92.3215 60.1371 92.5043 60.3199C92.6871 60.5026 92.8699 60.6854 92.8699 60.8682Z" fill="#787878"/>
<path d="M89.0316 62.512V61.4153C89.0316 61.0497 89.2144 60.6841 89.5799 60.6841L92.6873 59.5874C92.8701 59.5874 92.8701 59.5874 93.0529 59.5874L91.9562 59.0391C91.9562 59.0391 91.7734 59.0391 91.5906 59.0391L89.2144 60.3186C89.0316 60.5014 88.666 60.8669 88.666 61.0497V62.1464C88.666 62.3292 88.666 62.3292 88.8488 62.512L89.2144 62.6948C89.0316 62.8776 89.0316 62.6948 89.0316 62.512Z" fill="#303033"/>
<path d="M92.5034 61.7807L89.396 62.8774C89.2132 63.0602 88.8477 62.8774 88.8477 62.6946V61.5979C88.8477 61.2323 89.0304 60.8668 89.396 60.8668L92.5034 59.77C92.6862 59.5873 93.0517 59.7701 93.0517 59.9528V61.0496C92.8689 61.2323 92.6862 61.5979 92.5034 61.7807Z" fill="#121214"/>
<path d="M120.651 41.6754L114.254 33.6328L108.039 37.2885L120.651 44.4172V41.6754Z" fill="#3576AB"/>
<path d="M111.879 57.3939L105.299 61.0496L103.471 59.7701L109.868 55.9316L111.879 57.3939Z" fill="#303033"/>
<path d="M123.215 50.8148L116.635 54.4705L114.807 53.191L121.204 49.3525L123.215 50.8148Z" fill="#303033"/>
<path d="M89.2153 22.8485L74.4096 31.4394L65.4531 26.1386L80.2588 17.7305L89.2153 22.8485Z" fill="black"/>
<path d="M87.7548 23.0306L74.5942 30.5248L66.7344 25.9552L79.895 18.4609L87.7548 23.0306Z" fill="#2B5E85"/>
<path d="M82.0858 19.7402L81.1719 21.5681L85.7415 24.3099L87.7522 23.0304L82.0858 19.7402Z" fill="#3576AB"/>
<path d="M58.1437 41.3095C58.1437 41.1267 57.9609 40.9439 57.9609 40.9439L55.2191 39.2988H55.0363L54.8535 39.4816L55.0363 39.6644L55.2191 39.8472L57.5953 41.3095L57.9609 41.675L58.1437 41.3095Z" fill="#939598"/>
<path d="M57.9609 41.3095C57.9609 41.4923 57.7781 41.4923 57.7781 41.4923L55.0363 39.8472C54.8535 39.8472 54.8535 39.4816 54.8535 39.4816C54.8535 39.2988 55.0363 39.2988 55.0363 39.2988L57.7781 40.9439L57.9609 41.3095Z" fill="#BCBEC0"/>
<path d="M0 62.0496L51.6054 91.8499L51.7871 90.5779L51.6054 89.8511L0 60.0508V62.0496Z" fill="#603913"/>
<path d="M51.6055 91.8495L70.1398 81.2195V79.1299L51.6055 89.8507V91.8495Z" fill="#4D2D0F"/>
<path d="M51.6054 89.8522L70.1397 79.1313L18.5343 49.3311L0 60.0519L51.6054 89.8522Z" fill="#754C29"/>
<path d="M50.6973 88.1249L67.4145 78.4943V70.2266L50.6973 79.8571V88.1249Z" fill="#4D2D0F"/>
<path d="M2.63477 60.3234L50.6968 88.1249V79.8571L2.63477 52.0557V60.3234Z" fill="#603913"/>
<path opacity="0.3" d="M2.63477 52.0557L50.6968 79.8571L67.414 70.2266V73.679L50.6968 83.3096L2.63477 55.5081V52.0557Z" fill="#121214"/>
<path d="M51.6055 81.6747L70.1398 70.9539V68.9551L51.6055 79.5851V81.6747Z" fill="#4D2D0F"/>
<path d="M0 51.783L51.6054 81.6741V79.5845L0 49.7842V51.783Z" fill="#603913"/>
<path d="M51.6054 79.5846L70.1397 68.9546L18.5343 39.0635L0 49.7843L51.6054 79.5846Z" fill="#754C29"/>
<path d="M10.5403 40.0628C13.811 38.1549 16.6275 37.7006 17.9903 38.6092L37.3423 49.7843L21.5337 61.1411L2.18164 49.966C2.2725 47.2403 5.99753 42.7885 10.5403 40.0628Z" fill="#603913"/>
<path d="M21.5332 61.1406L38.2504 51.5101C38.2504 48.6936 34.5254 48.5119 29.8918 51.2375C25.2582 53.8723 21.5332 58.3241 21.5332 61.1406Z" fill="#603913"/>
<path d="M29.8899 51.2376C33.1606 49.3297 35.9771 48.8754 37.3399 49.784L38.1576 50.2382L22.3489 61.6859L21.5312 61.2316C21.5312 58.3243 25.2563 53.8724 29.8899 51.2376Z" fill="#3C2415"/>
<path d="M22.3496 61.6856L39.0668 52.055C39.0668 49.2385 35.3418 49.0568 30.7082 51.7824C26.0747 54.4172 22.3496 58.8691 22.3496 61.6856Z" fill="#603913"/>
<path d="M30.7082 51.6917C33.979 49.7838 36.7955 49.3295 38.1583 50.2381L67.2317 67.0462L51.423 78.403L22.3496 61.6857C22.3496 58.8692 26.0747 54.4174 30.7082 51.6917Z" fill="#603913"/>
<path d="M51.4238 78.4033L68.141 68.7728C68.141 65.9563 64.416 65.7746 59.7825 68.5002C55.1489 71.135 51.4238 75.5868 51.4238 78.4033Z" fill="#4D2D0F"/>
<path d="M26.985 72.498C27.2575 72.2255 27.6209 72.1346 27.8935 72.2255L28.5295 72.5889L27.3484 74.5877L26.8032 74.2243C26.7124 74.1334 26.6215 74.1334 26.6215 73.9517C26.2581 73.6791 26.5307 72.9523 26.985 72.498Z" fill="#BA6000"/>
<path d="M27.076 74.4058C27.2577 74.8601 27.7119 74.7692 28.1662 74.4058C28.6205 73.9515 28.8022 73.3156 28.7113 72.8613C28.5296 72.407 28.0754 72.4979 27.6211 72.8613C27.076 73.3156 26.8942 73.9515 27.076 74.4058Z" fill="#FF9D26"/>
<path d="M44.6091 81.2209C44.6091 81.0392 44.5183 80.8575 44.3366 80.7666C44.2457 80.7666 44.2457 80.7666 44.1548 80.7666L42.7012 81.5843L43.0646 82.2203L44.5183 81.4026C44.6091 81.4026 44.6091 81.3117 44.6091 81.2209Z" fill="#BA6000"/>
<path d="M43.1565 82.1291C43.1565 82.3108 43.0656 82.3108 42.8839 82.3108C42.7022 82.2199 42.6113 82.0382 42.6113 81.8565C42.6113 81.6748 42.7022 81.6748 42.8839 81.6748C43.0656 81.7657 43.1565 81.9474 43.1565 82.1291Z" fill="#BA6000"/>
<path d="M31.2536 73.4982C31.2536 73.3165 31.1628 73.1348 30.9811 73.0439C30.8902 73.0439 30.7994 73.0439 30.7994 73.0439L29.3457 73.8616L29.7091 74.4976L31.1628 73.6799C31.1628 73.6799 31.2536 73.5891 31.2536 73.4982Z" fill="#BA6000"/>
<path d="M29.801 74.4064C29.801 74.5881 29.7101 74.5881 29.5284 74.5881C29.3467 74.4973 29.2559 74.3156 29.2559 74.1339C29.2559 73.9521 29.3467 73.9521 29.5284 73.9521C29.6193 74.043 29.801 74.2247 29.801 74.4064Z" fill="#BA6000"/>
<path d="M27.6202 73.2247C27.8019 73.043 27.9836 73.043 28.0745 73.043L45.3368 83.037L44.7009 84.0364L27.4385 74.0424L27.3477 73.9515C27.3477 73.7698 27.4385 73.4972 27.6202 73.2247Z" fill="#FF8400"/>
<path d="M44.702 83.9451C44.7929 84.1269 44.9746 84.1269 45.2472 83.9451C45.4289 83.7634 45.6106 83.4 45.5197 83.2183C45.4289 83.0366 45.2472 83.0366 44.9746 83.2183C44.702 83.4 44.6112 83.7634 44.702 83.9451Z" fill="#6D6E71"/>
<path d="M44.1545 82.4922C44.4271 82.2196 44.7905 82.1288 45.0631 82.2196L45.6991 82.583L44.4271 84.5818L43.7911 84.2184C43.7003 84.1276 43.6094 84.1276 43.6094 83.9459C43.5186 83.6733 43.7911 82.9465 44.1545 82.4922Z" fill="#BA6000"/>
<path d="M44.2464 84.4C44.4281 84.8542 44.8823 84.7634 45.3366 84.4C45.7909 83.9457 45.9726 83.3097 45.8817 82.8554C45.7 82.4012 45.2458 82.492 44.7915 82.8554C44.3372 83.3097 44.0647 83.9457 44.2464 84.4Z" fill="#FF9D26"/>
<path d="M4.08846 59.3242C4.36102 59.0516 4.72444 58.9608 4.99701 59.0516L5.633 59.4151L4.45189 61.4139L3.90675 61.0504C3.8159 60.9596 3.72505 60.9596 3.72505 60.7779C3.36163 60.4145 3.63419 59.7785 4.08846 59.3242Z" fill="#BA6000"/>
<path d="M4.17947 61.1412C4.36118 61.5954 4.81545 61.5046 5.26972 61.1412C5.72399 60.6869 5.90571 60.0509 5.81485 59.5966C5.63314 59.1424 5.17887 59.2332 4.7246 59.5966C4.17947 60.0509 3.99776 60.7777 4.17947 61.1412Z" fill="#FF9D26"/>
<path d="M21.7126 68.047C21.7126 67.8653 21.6218 67.6836 21.4401 67.5928C21.3492 67.5928 21.2584 67.5928 21.2584 67.5928L19.8047 68.4105L20.1681 69.0464L21.6218 68.2288C21.7126 68.2288 21.7126 68.1379 21.7126 68.047Z" fill="#BA6000"/>
<path d="M20.26 68.8654C20.26 69.0471 20.1691 69.0471 19.9874 69.0471C19.8057 68.9563 19.7148 68.7745 19.7148 68.5928C19.7148 68.4111 19.8057 68.4111 19.9874 68.4111C20.1691 68.5928 20.26 68.7746 20.26 68.8654Z" fill="#BA6000"/>
<path d="M8.35717 60.3244C8.35717 60.1427 8.26631 59.961 8.0846 59.8701C7.99375 59.8701 7.9029 59.8701 7.9029 59.8701L6.44922 60.6878L6.81263 61.3238L8.26631 60.5061C8.26631 60.5061 8.35717 60.4152 8.35717 60.3244Z" fill="#BA6000"/>
<path d="M6.90451 61.1427C6.90451 61.3245 6.81365 61.3245 6.63194 61.3245C6.45023 61.2336 6.35938 61.0519 6.35938 60.8702C6.35938 60.6885 6.45023 60.6885 6.63194 60.6885C6.7228 60.8702 6.90451 61.0519 6.90451 61.1427Z" fill="#BA6000"/>
<path d="M4.72517 60.0509C4.90688 59.8691 4.99774 59.8691 5.17945 59.8691L22.5326 69.8631L21.8967 70.8625L4.63431 60.8685L4.54345 60.7777C4.4526 60.596 4.54346 60.2326 4.72517 60.0509Z" fill="#FF8400"/>
<path d="M21.8056 70.7713C21.8964 70.953 22.0781 70.953 22.3507 70.7713C22.5324 70.5896 22.7141 70.2262 22.6233 70.0445C22.5324 69.8628 22.3507 69.8628 22.0781 70.0445C21.8056 70.2262 21.7147 70.5896 21.8056 70.7713Z" fill="#6D6E71"/>
<path d="M21.2582 69.3193C21.5308 69.0468 21.8942 68.9559 22.1667 69.0468L22.8027 69.4102L21.5308 71.409L20.9856 71.0456C20.8948 71.0456 20.8039 70.9547 20.8039 70.773C20.6222 70.4096 20.8948 69.7736 21.2582 69.3193Z" fill="#BA6000"/>
<path d="M21.3489 71.1353C21.5306 71.5896 21.9849 71.4987 22.4392 71.1353C22.8934 70.681 23.0751 70.0451 22.9843 69.5908C22.8026 69.1365 22.3483 69.2274 21.894 69.5908C21.4397 70.0451 21.258 70.7719 21.3489 71.1353Z" fill="#FF9D26"/>
<path d="M15.6191 69.5488V71.422C15.6191 72.1793 15.1409 72.9366 14.1445 73.4945C12.1517 74.6503 8.96325 74.6503 6.97047 73.4945C5.97408 72.9366 5.49581 72.1793 5.49581 71.422V69.5488H15.6191Z" fill="#BA6000"/>
<path d="M6.93101 71.8204C8.92379 72.9762 12.1122 72.9762 14.105 71.8204C16.0978 70.6646 16.0978 68.8313 14.105 67.6755C12.1122 66.5196 8.92379 66.5196 6.93101 67.6755C4.93823 68.8313 4.97808 70.7045 6.93101 71.8204Z" fill="#FF8400"/>
<path d="M14.6211 65.085V69.4691C14.6211 70.0669 14.2225 70.6648 13.4254 71.143C11.8312 72.0597 9.24058 72.0597 7.64636 71.143C6.84925 70.6648 6.45069 70.0669 6.45069 69.4691V65.085H14.6211Z" fill="#A7A9AC"/>
<path d="M7.64636 66.7602C9.24058 67.6769 11.8312 67.6769 13.4254 66.7602C15.0197 65.8435 15.0197 64.3688 13.4254 63.4522C11.8312 62.5355 9.24058 62.5355 7.64636 63.4522C6.05213 64.3688 6.05213 65.8435 7.64636 66.7602Z" fill="#BCBEC0"/>
<path d="M12.8262 66.7989C12.8262 66.7989 12.8262 70.8243 12.7066 70.7845C12.587 70.7446 12.587 66.5996 12.587 66.5996L12.8262 66.7989Z" fill="#BCBEC0"/>
<path d="M13.4668 66.7595C13.4668 66.7595 13.3074 69.9878 13.2277 69.9479C13.1479 69.9081 13.148 66.4805 13.148 66.4805L13.4668 66.7595Z" fill="#BCBEC0"/>
<path d="M8.52433 66.2411C9.64029 66.8788 11.4338 66.8788 12.5498 66.2411C13.6657 65.6034 13.6657 64.5671 12.5498 63.9294C11.4338 63.2917 9.64029 63.2917 8.52433 63.9294C7.40837 64.5671 7.40837 65.6034 8.52433 66.2411Z" fill="#A7A9AC"/>
<path d="M10.3956 65.1651C13.3449 63.2122 11.4318 61.0998 10.276 59.665C10.4354 61.2194 7.64552 64.0093 10.3956 65.1651Z" fill="#E31B25"/>
<path d="M10.3967 64.8864C12.2699 63.611 11.3931 61.7776 10.5561 60.7812C10.2771 62.3356 8.68288 63.7704 10.3967 64.8864Z" fill="#FF8400"/>
<path d="M10.478 65.5638C10.3983 64.8464 10.7968 64.2486 10.199 63.0928C10.5577 64.3682 10.199 65.0457 10.478 65.5638Z" fill="#121214"/>
<path d="M7.52734 66.5602L7.32807 66.4805L7.36792 67.3972C7.36792 67.716 7.04908 67.8754 7.04908 68.1544C7.04908 68.4334 7.24836 68.553 7.40778 68.3935C7.5672 68.2341 7.48749 67.6363 7.48749 67.6363L7.52734 66.5602Z" fill="#BCBEC0"/>
<path d="M24.4668 75.207V77.0803C24.4668 77.8375 23.9885 78.5948 22.9921 79.1527C20.9994 80.3086 17.7711 80.3086 15.7783 79.1527C14.7819 78.5948 14.3036 77.8375 14.2638 77.0803V75.207H24.4668Z" fill="#BA6000"/>
<path d="M15.7388 77.4794C17.7316 78.6352 20.9599 78.6352 22.9527 77.4794C24.9455 76.3236 24.9455 74.4504 22.9527 73.2946C20.9599 72.1388 17.7316 72.1388 15.7388 73.2946C13.746 74.4903 13.746 76.3236 15.7388 77.4794Z" fill="#FF8400"/>
<path d="M23.4297 53.1289V75.1292C23.4297 75.7271 23.0311 76.3249 22.234 76.8031C20.6398 77.7198 18.0492 77.7198 16.455 76.8031C15.6578 76.3249 15.2593 75.7271 15.2593 75.1292V53.1289H23.4297V53.1289Z" fill="#A7A9AC"/>
<path d="M16.455 54.802C18.0492 55.7187 20.6398 55.7187 22.234 54.802C23.8282 53.8853 23.8282 52.3708 22.234 51.4541C20.6398 50.5374 18.0492 50.5374 16.455 51.4541C14.8607 52.4106 14.8607 53.8853 16.455 54.802Z" fill="#BCBEC0"/>
<path d="M16.6543 54.842C16.6543 54.842 16.6543 57.1537 16.5347 57.1138C16.4152 57.074 16.4152 54.6826 16.4152 54.6826L16.6543 54.842Z" fill="#BCBEC0"/>
<path d="M16.2969 54.5632C16.2969 54.5632 16.1375 57.7915 16.0577 57.7516C15.978 57.7118 15.978 54.2842 15.978 54.2842L16.2969 54.5632Z" fill="#BCBEC0"/>
<path d="M17.3329 54.3239C18.4489 54.9616 20.2424 54.9616 21.3583 54.3239C22.4743 53.6862 22.4743 52.65 21.3583 51.9724C20.2424 51.3347 18.4489 51.3347 17.3329 51.9724C16.217 52.6101 16.217 53.6463 17.3329 54.3239Z" fill="#A7A9AC"/>
<path d="M19.2841 53.0088C23.8277 49.9798 19.4037 47.5884 19.1247 44.5195C17.7696 46.1138 15.0196 51.2551 19.2841 53.0088Z" fill="#E31B25"/>
<path d="M19.2444 52.5305C22.1538 50.5776 19.3241 49.0631 19.1248 47.0703C18.248 48.1464 16.4943 51.4146 19.2444 52.5305Z" fill="#FF8400"/>
<path d="M19.3631 53.6066C19.2436 52.4906 19.8813 51.6138 18.9646 49.8203C19.5226 51.7732 18.9247 52.7696 19.3631 53.6066Z" fill="#121214"/>
<path d="M21.9556 54.9612L22.2346 54.8018L22.1948 68.8309C22.2346 69.3491 22.7129 69.5882 22.7129 70.0665C22.673 70.5447 22.394 70.7041 22.1549 70.4252C21.9158 70.1462 22.0353 69.2295 22.0353 69.2295L21.9556 54.9612Z" fill="#BCBEC0"/>
<path d="M20.9571 55.2805L21.2361 55.1211L21.276 71.6213C21.3158 72.1394 21.5151 72.1395 21.4752 72.5779C21.4354 73.0561 21.1564 73.0561 21.0767 72.7373C21.0368 72.538 21.0368 71.9003 21.0368 71.9003L20.9571 55.2805Z" fill="#BCBEC0"/>
</svg>
