<svg width="39" height="43" viewBox="0 0 39 43" fill="none" xmlns="http://www.w3.org/2000/svg">
<rect x="17.9297" y="6.97266" width="2.65635" height="8.96519" fill="#FCFCFC"/>
<rect x="18.2617" y="26.0651" width="2.65635" height="8.96519" fill="#FCFCFC"/>
<rect x="14.0742" y="23.4088" width="1.99226" height="8.96519" transform="rotate(60 14.0742 23.4088)" fill="#FCFCFC"/>
<rect x="31.8359" y="26.8945" width="1.99226" height="8.96519" transform="rotate(120 31.8359 26.8945)" fill="#FCFCFC"/>
<rect x="6.14453" y="15.4154" width="2.65635" height="8.96519" transform="rotate(-60 6.14453 15.4154)" fill="#FCFCFC"/>
<rect x="23.7422" y="19.8978" width="2.65635" height="8.96519" transform="rotate(-120 23.7422 19.8978)" fill="#FCFCFC"/>
<path fill-rule="evenodd" clip-rule="evenodd" d="M4.89955 33.5387C6.77922 33.5387 8.303 32.0149 8.303 30.1352C8.303 28.2556 6.77922 26.7318 4.89955 26.7318C3.01987 26.7318 1.49609 28.2556 1.49609 30.1352C1.49609 32.0149 3.01987 33.5387 4.89955 33.5387ZM4.90125 31.2143C5.49724 31.2143 5.98039 30.7311 5.98039 30.1351C5.98039 29.5391 5.49724 29.056 4.90125 29.056C4.30525 29.056 3.8221 29.5391 3.8221 30.1351C3.8221 30.7311 4.30525 31.2143 4.90125 31.2143Z" fill="#FCFCFC"/>
<path fill-rule="evenodd" clip-rule="evenodd" d="M34.1144 32.7086C35.9941 32.7086 37.5178 31.1848 37.5178 29.3052C37.5178 27.4255 35.9941 25.9017 34.1144 25.9017C32.2347 25.9017 30.7109 27.4255 30.7109 29.3052C30.7109 31.1848 32.2347 32.7086 34.1144 32.7086ZM34.114 30.3842C34.71 30.3842 35.1931 29.9011 35.1931 29.3051C35.1931 28.7091 34.71 28.2259 34.114 28.2259C33.518 28.2259 33.0348 28.7091 33.0348 29.3051C33.0348 29.9011 33.518 30.3842 34.114 30.3842Z" fill="#FCFCFC"/>
<path fill-rule="evenodd" clip-rule="evenodd" d="M31.2119 21.5838C31.2119 28.1856 25.8601 33.5374 19.2583 33.5374C12.6565 33.5374 7.30469 28.1856 7.30469 21.5838C7.30469 14.982 12.6565 9.63022 19.2583 9.63022C25.8601 9.63022 31.2119 14.982 31.2119 21.5838ZM20.7562 19.3436C20.7562 21.59 18.9351 23.4111 16.6886 23.4111C14.4422 23.4111 12.6211 21.59 12.6211 19.3436C12.6211 17.0971 14.4422 15.276 16.6886 15.276C18.9351 15.276 20.7562 17.0971 20.7562 19.3436ZM16.6855 21.2513C17.74 21.2513 18.5948 20.3965 18.5948 19.342C18.5948 18.2876 17.74 17.4328 16.6855 17.4328C15.6311 17.4328 14.7763 18.2876 14.7763 19.342C14.7763 20.3965 15.6311 21.2513 16.6855 21.2513Z" fill="#FCFCFC"/>
<path fill-rule="evenodd" clip-rule="evenodd" d="M19.341 8.79917C21.7708 8.79917 23.7406 6.82941 23.7406 4.39958C23.7406 1.96976 21.7708 0 19.341 0C16.9112 0 14.9414 1.96976 14.9414 4.39958C14.9414 6.82941 16.9112 8.79917 19.341 8.79917ZM19.3386 6.97367C20.7599 6.97367 21.912 5.82155 21.912 4.40033C21.912 2.97911 20.7599 1.82699 19.3386 1.82699C17.9174 1.82699 16.7653 2.97911 16.7653 4.40033C16.7653 5.82155 17.9174 6.97367 19.3386 6.97367Z" fill="#FCFCFC"/>
<path fill-rule="evenodd" clip-rule="evenodd" d="M4.39958 17.5993C6.82941 17.5993 8.79917 15.6295 8.79917 13.1997C8.79917 10.7699 6.82941 8.80014 4.39958 8.80014C1.96976 8.80014 0 10.7699 0 13.1997C0 15.6295 1.96976 17.5993 4.39958 17.5993ZM4.39837 15.773C5.81959 15.773 6.97172 14.6209 6.97172 13.1997C6.97172 11.7784 5.81959 10.6263 4.39837 10.6263C2.97716 10.6263 1.82503 11.7784 1.82503 13.1997C1.82503 14.6209 2.97716 15.773 4.39837 15.773Z" fill="#FCFCFC"/>
<path fill-rule="evenodd" clip-rule="evenodd" d="M33.9465 17.1006C36.3763 17.1006 38.346 15.1308 38.346 12.701C38.346 10.2712 36.3763 8.30142 33.9465 8.30142C31.5166 8.30142 29.5469 10.2712 29.5469 12.701C29.5469 15.1308 31.5166 17.1006 33.9465 17.1006ZM33.9452 15.2728C35.3664 15.2728 36.5186 14.1207 36.5186 12.6995C36.5186 11.2783 35.3664 10.1261 33.9452 10.1261C32.524 10.1261 31.3719 11.2783 31.3719 12.6995C31.3719 14.1207 32.524 15.2728 33.9452 15.2728Z" fill="#FCFCFC"/>
<path fill-rule="evenodd" clip-rule="evenodd" d="M19.6691 42.6664C22.0989 42.6664 24.0687 40.6966 24.0687 38.2668C24.0687 35.8369 22.0989 33.8672 19.6691 33.8672C17.2393 33.8672 15.2695 35.8369 15.2695 38.2668C15.2695 40.6966 17.2393 42.6664 19.6691 42.6664ZM19.6678 40.8409C21.0891 40.8409 22.2412 39.6887 22.2412 38.2675C22.2412 36.8463 21.0891 35.6942 19.6678 35.6942C18.2466 35.6942 17.0945 36.8463 17.0945 38.2675C17.0945 39.6887 18.2466 40.8409 19.6678 40.8409Z" fill="#FCFCFC"/>
</svg>
