<svg width="237" height="146" viewBox="0 0 237 146" fill="none" xmlns="http://www.w3.org/2000/svg">
<path d="M159.674 1.73867C155.733 -0.579557 149.473 -0.579557 145.532 1.73867L2.96153 84.7312C-0.979453 87.0495 -0.979453 90.5268 2.96153 92.845L76.4493 135.269C80.3903 137.587 86.6495 137.587 90.5905 135.269L233.161 52.2761C237.102 49.9578 237.102 46.4805 233.161 44.1623L159.674 1.73867Z" fill="#E5E5E5"/>
<path d="M233.391 52.2812V60.395L90.5879 143.388L90.8197 135.274L233.391 52.2812Z" fill="#A4A4A4"/>
<path d="M76.6719 135.275V143.389L2.95226 100.965L3.1841 92.8516L76.6719 135.275Z" fill="#CFCFCF"/>
<path d="M233.158 52.5074L233.39 52.2756C233.854 52.0438 234.317 51.5801 234.549 51.3483C234.781 51.1165 235.013 50.8846 235.245 50.6528C235.476 50.421 235.476 50.1892 235.708 49.9574C235.708 49.7255 235.94 49.4937 235.94 49.4937C235.94 49.2619 236.172 49.0301 236.172 49.0301C236.172 48.7983 236.172 48.5664 236.172 48.5664V56.6802C236.172 56.912 236.172 57.1439 236.172 57.1439C236.172 57.3757 236.172 57.6075 235.94 57.6075C235.94 57.8393 235.708 58.0712 235.708 58.0712C235.708 58.303 235.476 58.5348 235.245 58.7666C235.013 58.9984 234.781 59.2303 234.549 59.4621C234.085 59.6939 233.854 60.1576 233.39 60.3894L233.158 60.6212V52.5074Z" fill="#ABABAB"/>
<path d="M0.173798 88.6758C0.173798 90.0667 1.1011 91.6895 3.1875 92.8486V100.962C1.33292 99.8033 0.173798 98.4123 0.173798 96.7896V88.6758Z" fill="#ABABAB"/>
<path d="M76.6793 135.266C77.1429 135.497 77.6066 135.729 78.0702 135.961C78.5339 136.193 78.7657 136.193 79.2293 136.425C79.4612 136.425 79.9248 136.657 80.1566 136.657C80.3885 136.657 80.8521 136.888 81.0839 136.888C81.3157 136.888 81.7794 136.888 82.0112 136.888C82.243 136.888 82.7067 136.888 82.9385 136.888C83.1703 136.888 83.634 136.888 83.8658 136.888C84.3294 136.888 84.5613 136.888 85.0249 136.888C85.4886 136.888 85.9522 136.888 86.184 136.657C86.8795 136.425 87.5749 136.425 88.0386 136.193C88.7341 135.961 89.6614 135.729 90.125 135.266V143.379C89.4295 143.843 88.7341 144.075 88.0386 144.307C87.3431 144.539 86.8795 144.77 86.184 144.77C85.7204 144.77 85.2567 145.002 85.0249 145.002C84.5613 145.002 84.3294 145.002 83.8658 145.002C83.634 145.002 83.1703 145.002 82.9385 145.002C82.7067 145.002 82.243 145.002 82.0112 145.002C81.7794 145.002 81.3157 145.002 81.0839 145.002C80.8521 145.002 80.3885 145.002 80.1566 144.77C79.693 144.77 79.4612 144.539 79.2293 144.539C78.7657 144.307 78.3021 144.307 78.0702 144.075C77.6066 143.843 77.1429 143.611 76.6793 143.379V135.266Z" fill="#ABABAB"/>
<path d="M195.132 32.3373C196.291 33.0328 198.378 33.0328 199.537 32.3373C200.696 31.6418 200.696 30.4827 199.537 29.7872C198.378 29.0918 196.523 29.0918 195.132 29.7872C193.741 30.4827 193.741 31.6418 195.132 32.3373Z" fill="#313131"/>
<path d="M195.594 30.2482C194.667 30.7118 194.667 31.6391 195.594 32.1027C196.521 32.5664 197.912 32.5664 198.84 32.1027C199.767 31.6391 199.767 30.7118 198.84 30.2482C197.912 29.5527 196.521 29.5527 195.594 30.2482ZM196.058 31.6391C195.362 31.4073 195.362 30.7118 196.058 30.48C196.753 30.2482 197.681 30.0164 198.144 30.48C198.84 30.7118 198.84 31.4073 198.144 31.6391C197.681 32.1028 196.753 32.1028 196.058 31.6391Z" fill="#424242"/>
<path d="M191.887 27.7025L191.191 27.9343L176.123 19.3568L176.818 19.125L191.887 27.7025Z" fill="#313131"/>
<path d="M46.7653 124.149C46.7653 124.613 47.229 125.308 47.4608 125.54C47.9244 125.772 48.1562 125.54 48.1562 125.076C48.1562 124.613 47.6926 123.917 47.4608 123.686C47.229 123.454 46.7653 123.454 46.7653 124.149Z" fill="#919191"/>
<path d="M46.7653 121.828C46.7653 122.292 47.229 122.987 47.4608 123.219C47.9244 123.451 48.1562 123.219 48.1562 122.755C48.1562 122.292 47.6926 121.596 47.4608 121.364C47.229 121.133 46.7653 121.364 46.7653 121.828Z" fill="#919191"/>
<path d="M48.8473 125.306C48.8473 125.77 49.311 126.466 49.5428 126.697C50.0065 126.929 50.2383 126.697 50.2383 126.234C50.2383 125.77 49.7746 125.075 49.5428 124.843C49.0792 124.379 48.8473 124.611 48.8473 125.306Z" fill="#919191"/>
<path d="M48.8473 122.988C48.8473 123.452 49.311 124.147 49.5428 124.379C50.0065 124.611 50.2383 124.379 50.2383 123.915C50.2383 123.452 49.7746 122.756 49.5428 122.525C49.0792 122.293 48.8473 122.525 48.8473 122.988Z" fill="#919191"/>
<path d="M50.9372 126.238C50.9372 126.702 51.4008 127.397 51.6326 127.629C52.0963 127.861 52.3281 127.629 52.3281 127.165C52.3281 126.702 51.8645 126.006 51.6326 125.775C51.169 125.543 50.9372 125.775 50.9372 126.238Z" fill="#919191"/>
<path d="M50.9372 124.149C50.9372 124.613 51.4008 125.308 51.6326 125.54C52.0963 125.772 52.3281 125.54 52.3281 125.076C52.3281 124.613 51.8645 123.917 51.6326 123.686C51.169 123.454 50.9372 123.454 50.9372 124.149Z" fill="#919191"/>
<path d="M52.7966 127.394C52.7966 127.858 53.2602 128.554 53.492 128.785C53.9557 129.017 54.1875 128.785 54.1875 128.322C54.1875 127.858 53.7239 127.163 53.492 126.931C53.2602 126.699 52.7966 126.931 52.7966 127.394Z" fill="#919191"/>
<path d="M52.7966 125.302C52.7966 125.765 53.2602 126.461 53.492 126.692C53.9557 126.924 54.1875 126.692 54.1875 126.229C54.1875 125.765 53.7239 125.07 53.492 124.838C53.2602 124.606 52.7966 124.606 52.7966 125.302Z" fill="#919191"/>
<path d="M54.8825 128.555C54.8825 129.018 55.3461 129.714 55.578 129.946C56.0416 130.177 56.2734 129.946 56.2734 129.482C56.2734 129.018 55.8098 128.323 55.578 128.091C55.1143 127.859 54.8825 128.091 54.8825 128.555Z" fill="#919191"/>
<path d="M54.8825 126.47C54.8825 126.933 55.3461 127.629 55.578 127.86C56.0416 128.092 56.2734 127.86 56.2734 127.397C56.2734 126.933 55.8098 126.238 55.578 126.006C55.1143 125.774 54.8825 125.774 54.8825 126.47Z" fill="#919191"/>
<path d="M20.8083 108.84C20.8083 109.303 21.2719 109.999 21.5037 110.231C21.9674 110.463 22.1992 110.231 22.1992 109.767C22.1992 109.303 21.7356 108.608 21.5037 108.376C21.2719 108.144 20.8083 108.376 20.8083 108.84Z" fill="#919191"/>
<path d="M20.8083 106.519C20.8083 106.983 21.2719 107.679 21.5037 107.91C21.9674 108.142 22.1992 107.91 22.1992 107.447C22.1992 106.983 21.7356 106.288 21.5037 106.056C21.2719 105.824 20.8083 106.056 20.8083 106.519Z" fill="#919191"/>
<path d="M22.8864 110.004C22.8864 110.467 23.35 111.163 23.5819 111.395C24.0455 111.627 24.2773 111.395 24.2773 110.931C24.2773 110.467 24.0455 109.772 23.5819 109.54C23.35 109.308 22.8864 109.54 22.8864 110.004Z" fill="#919191"/>
<path d="M22.8864 107.687C22.8864 108.151 23.35 108.847 23.5819 109.078C24.0455 109.31 24.2773 109.078 24.2773 108.615C24.2773 108.151 24.0455 107.456 23.5819 107.224C23.35 106.992 22.8864 107.224 22.8864 107.687Z" fill="#919191"/>
<path d="M24.9801 111.156C24.9801 111.62 25.4438 112.315 25.6756 112.547C26.1393 112.779 26.3711 112.547 26.3711 112.083C26.3711 111.62 25.9074 110.924 25.6756 110.693C25.212 110.461 24.9801 110.693 24.9801 111.156Z" fill="#919191"/>
<path d="M24.9801 108.84C24.9801 109.303 25.4438 109.999 25.6756 110.231C26.1393 110.463 26.3711 110.231 26.3711 109.767C26.3711 109.303 25.9074 108.608 25.6756 108.376C25.212 108.144 24.9801 108.376 24.9801 108.84Z" fill="#919191"/>
<path d="M26.8396 112.32C26.8396 112.784 27.0714 113.479 27.535 113.711C27.9987 113.943 28.2305 113.711 28.2305 113.248C28.2305 112.784 27.7669 112.088 27.535 111.857C27.3032 111.625 26.8396 111.857 26.8396 112.32Z" fill="#919191"/>
<path d="M26.8396 110C26.8396 110.464 27.3032 111.159 27.535 111.391C27.9987 111.623 28.2305 111.391 28.2305 110.927C28.2305 110.464 27.7669 109.768 27.535 109.536C27.3032 109.304 26.8396 109.536 26.8396 110Z" fill="#919191"/>
<path d="M28.9255 113.476C28.9255 113.94 29.3891 114.636 29.6209 114.867C30.0846 115.099 30.3164 114.867 30.3164 114.404C30.3164 113.94 29.8528 113.245 29.6209 113.013C29.1573 112.781 28.9255 113.013 28.9255 113.476Z" fill="#919191"/>
<path d="M28.9255 111.156C28.9255 111.62 29.3891 112.315 29.6209 112.547C30.0846 112.779 30.3164 112.547 30.3164 112.083C30.3164 111.62 29.8528 110.924 29.6209 110.693C29.1573 110.461 28.9255 110.693 28.9255 111.156Z" fill="#919191"/>
<path d="M33.3181 114.64C33.3181 115.568 34.0136 116.727 34.7091 117.19L41.6637 121.131C42.3592 121.595 43.0547 121.131 43.0547 120.204C43.0547 119.277 42.3592 118.118 41.6637 117.654L34.7091 113.713C34.0136 113.249 33.3181 113.713 33.3181 114.64Z" fill="#919191"/>
<path d="M34.2417 115.103C34.2417 115.103 34.2417 115.335 34.2417 115.103C34.2417 116.03 34.9371 116.725 35.4008 117.189L41.1964 120.435C41.8918 120.666 42.3555 120.435 42.3555 119.971C42.3555 119.971 42.3555 119.971 42.3555 119.739C42.3555 119.739 42.3555 119.739 42.3555 119.507C42.3555 118.812 41.8918 117.885 41.1964 117.653L35.4008 114.407C34.7053 114.175 34.2417 114.407 34.2417 115.103Z" fill="#202020"/>
<path d="M34.2417 115.336C34.2417 116.031 34.7053 116.727 35.4008 117.191L41.1964 120.436C41.8918 120.668 42.3555 120.436 42.3555 119.972C42.1236 119.741 41.8918 119.277 41.4282 119.045L35.4008 115.568C34.7053 115.336 34.4735 115.336 34.2417 115.336Z" fill="#4A4A4A"/>
<path d="M223.656 53.8932L93.1401 129.699L12.6976 83.1028L143.214 7.29688L223.656 53.8932Z" fill="#313131"/>
<path d="M220.41 53.6584L93.1395 127.842L16.1744 83.3317L143.213 9.14844L220.41 53.6584Z" fill="#3692D3"/>
<path opacity="0.4" d="M220.41 53.6584L93.1395 127.842L143.213 9.14844L220.41 53.6584Z" fill="#3692D3"/>
<path d="M223.656 53.8932L93.1401 129.699L12.6976 83.1028L143.214 7.29688L223.656 53.8932Z" fill="#313131"/>
<path d="M220.41 53.6584L93.1395 127.842L16.1744 83.3317L143.213 9.14844L220.41 53.6584Z" fill="#3692D3"/>
<path d="M120.09 111.729L93.1407 127.84L16.1756 83.3305L42.8928 67.2188L120.09 111.729Z" fill="#1E5D89"/>
<path opacity="0.4" d="M220.41 53.6584L93.1395 127.842L143.213 9.14844L220.41 53.6584Z" fill="black" fill-opacity="0.08"/>
<path d="M0.63589 86.8113C0.172245 88.6659 1.09953 90.5205 3.41775 91.9114L76.6737 134.103C80.6147 136.421 86.8739 136.421 90.5831 134.103L232.69 51.5742C235.472 49.9514 236.168 47.6333 235.009 45.5469C237.095 47.6333 236.631 50.4152 233.386 52.5016L90.8149 135.494C86.8739 137.812 80.6147 137.812 76.6737 135.494L3.18595 93.0705C0.172259 91.2159 -0.523223 88.8977 0.63589 86.8113Z" fill="#B5B5B5"/>
<g clip-path="url(#clip0)">
<path d="M160.623 50.7578V56.1719C160.623 56.6341 160.558 57.0302 160.492 57.4924V52.0783C160.558 51.6161 160.623 51.22 160.623 50.7578Z" fill="#265493"/>
<path d="M160.491 52.0781V57.4922C160.425 57.9544 160.294 58.3505 160.098 58.8127V53.3986C160.294 52.9365 160.425 52.5403 160.491 52.0781Z" fill="#275798"/>
<path d="M160.098 53.4023V58.8164C159.901 59.2786 159.705 59.6748 159.508 60.1369V54.7229C159.77 54.2607 159.967 53.7985 160.098 53.4023Z" fill="#285A9D"/>
<path d="M159.508 54.6562V60.0703C159.246 60.5325 158.918 60.9947 158.59 61.4569V56.0428C158.918 55.6466 159.246 55.1845 159.508 54.6562Z" fill="#2A5CA2"/>
<path d="M158.591 56.043V61.4571C158.197 61.9853 157.673 62.5135 157.148 62.9756V57.5616C157.673 57.0994 158.197 56.5712 158.591 56.043Z" fill="#2B5FA7"/>
<path d="M157.147 57.6289V63.043C156.294 63.8353 155.376 64.5616 154.262 65.2218V59.8077C155.376 59.0815 156.36 58.3552 157.147 57.6289Z" fill="#2C62AB"/>
<path d="M154.26 59.8047V65.2188C154.194 65.2848 154.063 65.3508 153.998 65.4169C152.49 66.3412 150.785 67.0675 148.949 67.6617V62.2476C150.72 61.6534 152.424 60.9271 153.998 60.0028C154.063 59.8707 154.129 59.8047 154.26 59.8047Z" fill="#2D65B0"/>
<path d="M148.952 62.1836V67.5977C147.575 68.0599 146.133 68.39 144.625 68.6541V63.24C146.067 62.9759 147.575 62.6458 148.952 62.1836Z" fill="#2C62AB"/>
<path d="M144.626 63.2383V68.6524C143.643 68.8504 142.659 68.9825 141.676 69.0485V63.6344C142.659 63.5684 143.643 63.4364 144.626 63.2383Z" fill="#2B5FA7"/>
<path d="M141.67 63.7031V69.1172C140.818 69.1832 139.966 69.2493 139.113 69.3153V63.9012C139.966 63.8352 140.818 63.7692 141.67 63.7031Z" fill="#2A5CA2"/>
<path d="M139.118 63.832V69.2461C138.331 69.2461 137.545 69.2461 136.758 69.2461V63.832C137.545 63.8981 138.331 63.8981 139.118 63.832Z" fill="#285A9D"/>
<path d="M136.757 63.8352V69.2493C135.97 69.2493 135.249 69.1832 134.527 69.1172V63.7031C135.249 63.7692 136.035 63.8352 136.757 63.8352Z" fill="#275798"/>
<path d="M134.526 63.6977V69.1118C133.805 69.0458 133.018 68.9797 132.297 68.8477V63.4336C133.018 63.5656 133.739 63.6317 134.526 63.6977Z" fill="#265493"/>
<path d="M132.299 63.5016V68.9157C131.512 68.7837 130.791 68.6516 130.004 68.5196V63.1055C130.791 63.2375 131.512 63.3696 132.299 63.5016Z" fill="#25518E"/>
<path d="M130.004 63.1059V68.52C129.217 68.322 128.365 68.1239 127.578 67.9258V62.5117C128.43 62.7098 129.217 62.9079 130.004 63.1059Z" fill="#234E89"/>
<path d="M127.644 62.5103V67.9244C126.66 67.6603 125.742 67.3301 124.824 67V61.5859C125.742 61.9161 126.66 62.1802 127.644 62.5103Z" fill="#224C84"/>
<path d="M124.824 61.522V66.936C123.644 66.4739 122.529 65.9457 121.48 65.3514C116.956 62.7104 114.727 59.2771 114.727 55.8438V50.4297C114.727 53.863 116.956 57.3624 121.48 59.9373C122.529 60.5316 123.644 61.0598 124.824 61.522Z" fill="#21497F"/>
<path d="M153.872 40.9862C162.854 46.2022 162.92 54.7195 154.003 59.9355C145.086 65.1515 130.53 65.1515 121.548 59.9355C112.565 54.7195 112.5 46.2022 121.416 40.9862C130.333 35.7702 144.889 35.7702 153.872 40.9862Z" fill="#3679D3"/>
<path d="M154.065 49.3711V52.0781C154.065 52.4083 153.999 52.7384 153.934 53.0685V50.3615C153.999 50.0313 154.065 49.7012 154.065 49.3711Z" fill="#266593"/>
<path d="M153.93 50.3594V53.0664C153.865 53.3965 153.799 53.7267 153.668 54.0568V51.3498C153.799 51.0196 153.865 50.6895 153.93 50.3594Z" fill="#276998"/>
<path d="M153.67 51.3516V54.0586C153.539 54.3887 153.408 54.7189 153.211 55.049V52.3419C153.408 52.0118 153.539 51.6817 153.67 51.3516Z" fill="#286C9D"/>
<path d="M153.21 52.2773V54.9844C153.014 55.3145 152.817 55.6446 152.555 56.0408V53.3338C152.817 53.0036 153.014 52.6735 153.21 52.2773Z" fill="#2A70A2"/>
<path d="M152.557 53.3281V56.0352C152.229 56.4313 151.901 56.8275 151.508 57.1576V54.4506C151.901 54.1204 152.229 53.7243 152.557 53.3281Z" fill="#2B73A7"/>
<path d="M151.504 54.4531V57.1602C150.913 57.7544 150.192 58.2826 149.34 58.7448V56.0377C150.127 55.5756 150.848 55.0474 151.504 54.4531Z" fill="#2C76AB"/>
<path d="M149.344 56.1055V58.8125C149.279 58.8785 149.213 58.8785 149.147 58.9446C148.033 59.6048 146.721 60.133 145.41 60.5952V57.8882C146.721 57.426 148.033 56.8978 149.147 56.2375C149.213 56.1715 149.279 56.1055 149.344 56.1055Z" fill="#2D7AB0"/>
<path d="M145.408 57.8867V60.5938C144.359 60.9239 143.31 61.188 142.195 61.3861V58.679C143.244 58.4809 144.359 58.2168 145.408 57.8867Z" fill="#2C76AB"/>
<path d="M142.132 58.6797V61.3867C141.411 61.5188 140.69 61.6508 139.969 61.7169V59.0098C140.69 58.8778 141.477 58.8117 142.132 58.6797Z" fill="#2B73A7"/>
<path d="M139.968 59.0078V61.7149C139.312 61.7809 138.722 61.8469 138.066 61.8469V59.1399C138.722 59.0738 139.378 59.0078 139.968 59.0078Z" fill="#2A70A2"/>
<path d="M138.063 59.0781V61.7852C137.473 61.7852 136.883 61.7852 136.293 61.7852V59.0781C136.949 59.1442 137.539 59.1442 138.063 59.0781Z" fill="#286C9D"/>
<path d="M136.357 59.1442V61.8512C135.767 61.8512 135.242 61.7852 134.652 61.7852V59.0781C135.242 59.0781 135.767 59.0781 136.357 59.1442Z" fill="#276998"/>
<path d="M134.655 59.0106V61.7176C134.13 61.6516 133.54 61.5856 133.016 61.5195V58.8125C133.54 58.9446 134.13 58.9446 134.655 59.0106Z" fill="#266593"/>
<path d="M133.017 58.811V61.518C132.427 61.452 131.903 61.3199 131.312 61.2539V58.5469C131.903 58.6789 132.427 58.745 133.017 58.811Z" fill="#25628E"/>
<path d="M131.309 58.5481V61.2552C130.719 61.1231 130.129 60.9911 129.539 60.793V58.0859C130.129 58.284 130.719 58.4161 131.309 58.5481Z" fill="#235F89"/>
<path d="M129.543 58.0857V60.7927C128.822 60.5946 128.167 60.3305 127.445 60.0664V57.3594C128.167 57.6895 128.822 57.8876 129.543 58.0857Z" fill="#225B84"/>
<path d="M127.442 57.4251V60.1321C126.59 59.802 125.738 59.4058 124.951 58.9436C121.607 56.9629 119.902 54.4539 119.902 51.8789V49.1719C119.902 51.7469 121.541 54.3219 124.951 56.2366C125.803 56.6327 126.59 57.0289 127.442 57.4251Z" fill="#21587F"/>
<path d="M154.068 49.2407C154.083 43.7345 146.463 39.2491 137.049 39.2222C127.634 39.1954 119.989 43.6372 119.973 49.1434C119.958 54.6496 127.578 59.1351 136.992 59.1619C146.407 59.1888 154.052 54.7469 154.068 49.2407Z" fill="#3692D3"/>
<path d="M142.133 45.0796V47.7866C142.133 47.2584 141.739 46.7962 140.887 46.268C140.69 46.136 140.494 46.0699 140.297 46.0039V43.2969C140.494 43.3629 140.69 43.495 140.887 43.561C141.739 44.0232 142.133 44.5514 142.133 45.0796Z" fill="#858585"/>
<path d="M140.362 43.2961V46.0032C140.231 45.9371 140.1 45.8711 139.969 45.8711V43.1641C140.034 43.1641 140.231 43.2301 140.362 43.2961Z" fill="#8A8A8A"/>
<path d="M139.898 43.1637V45.8707C139.767 45.8707 139.701 45.8047 139.57 45.8047V43.0977C139.701 43.0977 139.833 43.0977 139.898 43.1637Z" fill="#8F8F8F"/>
<path d="M139.574 43.0309V45.7379C139.443 45.7379 139.377 45.6719 139.246 45.6719V42.9648C139.377 43.0309 139.443 43.0309 139.574 43.0309Z" fill="#949494"/>
<path d="M139.246 42.9645V45.6715C139.115 45.6715 139.049 45.6715 138.918 45.6055V42.8984C139.049 42.9645 139.115 42.9645 139.246 42.9645Z" fill="#999999"/>
<path d="M138.918 42.9648V45.6719C138.787 45.6719 138.721 45.6719 138.59 45.6719V42.9648C138.721 42.9648 138.787 42.9648 138.918 42.9648Z" fill="#9E9E9E"/>
<path d="M138.589 42.9636V45.6706C138.458 45.6706 138.326 45.6706 138.195 45.6706V42.9636C138.326 42.8976 138.458 42.8976 138.589 42.9636Z" fill="#A3A3A3"/>
<path d="M138.197 42.9648V45.6719C138.066 45.6719 137.869 45.6719 137.738 45.6719V42.9648C137.869 42.9648 138.001 42.9648 138.197 42.9648Z" fill="#A8A8A8"/>
<path d="M137.735 42.9648V45.6719C137.538 45.6719 137.341 45.7379 137.145 45.7379V43.0309C137.341 43.0309 137.538 42.9648 137.735 42.9648C137.735 42.9648 137.669 42.9648 137.735 42.9648Z" fill="#ADADAD"/>
<path d="M137.146 43.0312V45.7383C136.752 45.8043 136.425 45.8703 136.031 46.0024V43.2954C136.425 43.2293 136.752 43.0973 137.146 43.0312Z" fill="#B3B3B3"/>
<path d="M136.031 43.3594V46.0664C135.31 46.3305 134.589 46.6606 133.802 47.0568C133.737 47.1228 133.671 47.1228 133.605 47.1889V44.4818C133.671 44.4158 133.737 44.4158 133.802 44.3498C134.589 43.8876 135.31 43.5575 136.031 43.3594Z" fill="#B8B8B8"/>
<path d="M133.609 44.4844V47.1914C133.085 47.5215 132.691 47.7856 132.363 48.1158V45.4087C132.691 45.0786 133.085 44.7485 133.609 44.4844Z" fill="#B3B3B3"/>
<path d="M132.358 45.3438V48.0508C132.227 48.1828 132.096 48.3149 131.965 48.4469V45.7399C132.096 45.6739 132.227 45.4758 132.358 45.3438Z" fill="#ADADAD"/>
<path d="M131.97 45.8047V48.5117C131.905 48.6438 131.839 48.7098 131.773 48.8419V46.1348C131.839 46.0028 131.905 45.8707 131.97 45.8047Z" fill="#A8A8A8"/>
<path d="M131.772 46.0664V48.7734C131.706 48.8395 131.706 48.9715 131.641 49.0376V46.3305C131.706 46.2645 131.772 46.1324 131.772 46.0664Z" fill="#A3A3A3"/>
<path d="M131.706 46.332V49.0391C131.706 49.1051 131.641 49.1711 131.641 49.2372V46.5301C131.641 46.4641 131.641 46.3981 131.706 46.332Z" fill="#9E9E9E"/>
<path d="M131.639 46.5312V49.2383C131.639 49.2383 131.639 49.2383 131.639 49.3043C131.639 49.3703 131.639 49.4364 131.639 49.5024V46.7954C131.573 46.7293 131.573 46.6633 131.639 46.5312C131.639 46.5312 131.639 46.5973 131.639 46.5312Z" fill="#999999"/>
<path d="M145.472 45.4102V48.1172C145.472 48.2493 145.472 48.3813 145.406 48.4473V45.7403C145.472 45.6082 145.472 45.5422 145.472 45.4102Z" fill="#999999"/>
<path d="M145.408 45.7422V48.4492C145.408 48.5153 145.408 48.5813 145.343 48.6473C145.343 48.7133 145.277 48.7794 145.277 48.7794V46.0723C145.277 46.0063 145.343 46.0063 145.343 45.9403C145.408 45.8742 145.408 45.8082 145.408 45.7422Z" fill="#9E9E9E"/>
<path d="M145.341 46.1328V48.8399C145.276 48.9719 145.21 49.17 145.145 49.302V46.595C145.21 46.3969 145.276 46.2649 145.341 46.1328Z" fill="#A3A3A3"/>
<path d="M145.145 46.5312V49.2383C145.08 49.3703 144.948 49.5024 144.883 49.6344V46.9274C144.948 46.8614 145.08 46.7293 145.145 46.5312Z" fill="#A8A8A8"/>
<path d="M144.882 46.9297V49.6367C144.751 49.7688 144.686 49.9008 144.555 50.0329V47.3258C144.62 47.1938 144.751 47.1278 144.882 46.9297Z" fill="#ADADAD"/>
<path d="M144.489 47.3242V50.0313C144.358 50.1633 144.162 50.2954 143.965 50.4274V47.7204C144.162 47.6543 144.358 47.5223 144.489 47.3242Z" fill="#B3B3B3"/>
<path d="M143.964 47.7842V50.4252L141.473 48.9727V46.2656L143.964 47.7842Z" fill="#898989"/>
<path d="M140.027 50.0273V52.7344C139.699 52.8664 139.437 52.9985 139.109 53.0645V50.3575C139.437 50.2914 139.699 50.1594 140.027 50.0273Z" fill="#B8B8B8"/>
<path d="M139.113 50.3594V53.0664C138.655 53.1985 138.13 53.3305 137.605 53.4626V50.7555C138.13 50.6235 138.655 50.5575 139.113 50.3594Z" fill="#B3B3B3"/>
<path d="M137.602 50.75V53.457C137.274 53.5231 137.011 53.5231 136.684 53.5891V50.8821C137.011 50.816 137.339 50.816 137.602 50.75Z" fill="#ADADAD"/>
<path d="M136.689 50.8867V53.5938C136.427 53.5938 136.165 53.5938 135.902 53.5938V50.8867C136.165 50.8867 136.427 50.8867 136.689 50.8867Z" fill="#A8A8A8"/>
<path d="M135.9 50.9492V53.6563C135.638 53.6563 135.441 53.6563 135.179 53.6563C135.179 53.6563 135.179 53.6563 135.113 53.6563V50.9492C135.113 50.9492 135.113 50.9492 135.179 50.9492C135.441 50.9492 135.703 50.9492 135.9 50.9492Z" fill="#A3A3A3"/>
<path d="M135.18 50.9527V53.6598C134.983 53.6598 134.787 53.6598 134.59 53.5938V50.8867C134.721 50.8867 134.983 50.9527 135.18 50.9527Z" fill="#9E9E9E"/>
<path d="M134.52 50.8863V53.5934C134.323 53.5934 134.126 53.5274 133.93 53.5274V50.8203C134.126 50.8863 134.323 50.8863 134.52 50.8863Z" fill="#999999"/>
<path d="M133.934 50.8196V53.5266C133.737 53.5266 133.54 53.4606 133.344 53.3945V50.6875C133.54 50.7535 133.737 50.8196 133.934 50.8196Z" fill="#949494"/>
<path d="M133.343 50.7528V53.4598C133.146 53.3938 132.884 53.3278 132.688 53.2617V50.5547C132.884 50.6207 133.081 50.6867 133.343 50.7528Z" fill="#8F8F8F"/>
<path d="M132.622 50.5532V53.2602C132.36 53.1942 132.032 53.0621 131.77 52.9961V50.2891C132.097 50.3551 132.36 50.4871 132.622 50.5532Z" fill="#8A8A8A"/>
<path d="M131.769 50.2912V52.9982C131.376 52.8001 130.917 52.6021 130.524 52.404C128.95 51.4796 128.098 50.4232 128.098 49.3008V46.5938C128.098 47.7162 128.884 48.7726 130.524 49.6969C130.983 49.895 131.376 50.0931 131.769 50.2912Z" fill="#858585"/>
<path d="M135.51 49.0399C136.1 48.9738 136.756 48.8418 137.542 48.5777L140.034 50.0302C138.526 50.6905 136.887 50.9546 135.182 50.9546C133.477 50.8886 131.904 50.4924 130.527 49.7001C128.822 48.7097 128.035 47.5873 128.166 46.3988C128.298 45.2104 129.347 44.0219 131.248 42.8995C133.346 41.645 135.51 41.0508 137.739 41.0508C139.706 41.0508 141.411 41.4469 142.919 42.3713C144.951 43.5597 145.738 44.7482 145.345 46.0687C145.082 46.795 144.623 47.3892 143.968 47.8514L141.476 46.3988C141.87 46.0027 142.132 45.6065 142.132 45.2764C142.198 44.6822 141.804 44.154 140.886 43.6258C139.968 43.0976 138.919 42.8995 137.673 43.0315C136.428 43.1636 135.116 43.6258 133.805 44.4181C132.494 45.2104 131.707 45.9367 131.576 46.6629C131.445 47.3892 131.838 47.9835 132.625 48.4456C133.543 48.9078 134.526 49.1059 135.51 49.0399Z" fill="#DCDCDC"/>
<path d="M88.8928 52.4062V57.8203C88.6961 57.9524 88.3682 58.1505 87.9093 58.4146C87.5159 58.6787 87.188 58.8767 86.9258 59.0088V53.5947C87.188 53.4627 87.4503 53.2646 87.9093 53.0005C88.3682 52.7364 88.6961 52.5383 88.8928 52.4062Z" fill="#B8B8B8"/>
<path d="M86.9279 53.5312V58.9453L78.8633 63.6992V58.2851L86.9279 53.5312Z" fill="#C5C5C5"/>
<path d="M78.8604 58.285V63.6991L76.5 62.3125V56.8984L78.8604 58.285Z" fill="#898989"/>
<path d="M92.1724 52.0781L92.1068 57.4262L84.8945 64.2268L84.9601 58.8127L92.1724 52.0781Z" fill="#BEBEBE"/>
<path d="M83.5814 61.058L83.5158 66.4061L81.0898 64.9535V59.6055L83.5814 61.058Z" fill="#898989"/>
<path d="M95.9076 56.5V61.8481L83.5156 66.4038L83.5812 61.0558L95.9076 56.5Z" fill="#C4C4C4"/>
<path d="M100.169 56.6991L88.1707 63.6978L85.8104 62.3112L93.9406 57.5574C94.2028 57.4253 94.4651 57.2273 94.924 56.9632C95.383 56.6991 95.6453 56.501 95.9075 56.3689L83.5811 60.9247L81.0896 59.6042L88.892 52.4074C88.6953 52.5395 88.3674 52.7375 87.9085 53.0016C87.5151 53.2657 87.1873 53.4638 86.925 53.5959L78.8604 58.2837L76.5 56.8971L88.4986 49.8984L92.1703 52.0113L84.958 58.8119L96.5632 54.5862L100.169 56.6991Z" fill="#DCDCDC"/>
<path d="M88.169 63.699V69.1131L85.8086 67.7266V62.3125L88.169 63.699Z" fill="#898989"/>
<path d="M100.17 56.6992L100.105 62.1133L88.1719 69.112V63.6979L100.17 56.6992Z" fill="#C5C5C5"/>
<path d="M98.2058 62.5744V67.9225L95.9766 66.668V61.2539L98.2058 62.5744Z" fill="#898989"/>
<path d="M101.942 63.6998V69.1139C101.942 69.0479 101.942 68.9818 101.876 68.9158C101.745 68.7177 101.483 68.4536 100.958 68.1235C100.761 67.9915 100.63 67.9254 100.434 67.8594V62.4453C100.63 62.5113 100.761 62.5774 100.958 62.7094C101.483 62.9735 101.745 63.2376 101.876 63.5017C101.942 63.5677 101.942 63.6338 101.942 63.6998Z" fill="#858585"/>
<path d="M100.434 62.5113V67.9254C100.369 67.8594 100.237 67.8594 100.172 67.8594V62.4453C100.237 62.4453 100.369 62.4453 100.434 62.5113Z" fill="#8A8A8A"/>
<path d="M100.169 62.3785V67.7926C100.104 67.7926 100.038 67.7266 99.9727 67.7266V62.3125C100.038 62.3785 100.104 62.3785 100.169 62.3785Z" fill="#8F8F8F"/>
<path d="M99.9749 62.3125V67.7266C99.9093 67.7266 99.8438 67.7266 99.8438 67.7266V62.3125C99.8438 62.3125 99.9093 62.3125 99.9749 62.3125Z" fill="#949494"/>
<path d="M99.7757 62.3125V67.7266C99.7101 67.7266 99.7101 67.7266 99.6445 67.7266V62.3125C99.7101 62.3125 99.7757 62.3125 99.7757 62.3125Z" fill="#999999"/>
<path d="M99.6468 62.3125V67.7266C99.5812 67.7266 99.5812 67.7266 99.5156 67.7266V62.3125C99.5812 62.3125 99.6468 62.3125 99.6468 62.3125Z" fill="#9E9E9E"/>
<path d="M99.5139 62.3125V67.7266C99.4484 67.7266 99.4484 67.7266 99.3828 67.7266V62.3125C99.4484 62.3125 99.5139 62.3125 99.5139 62.3125Z" fill="#A3A3A3"/>
<path d="M99.385 62.3125V67.7266C99.3195 67.7266 99.3195 67.7266 99.2539 67.7266V62.3125C99.3195 62.3125 99.3195 62.3125 99.385 62.3125Z" fill="#A8A8A8"/>
<path d="M99.2545 62.3125V67.7266C99.1889 67.7266 99.1233 67.7266 98.9922 67.7266V62.3125C99.1233 62.3125 99.1889 62.3125 99.2545 62.3125Z" fill="#ADADAD"/>
<path d="M98.9902 62.3125V67.7266C98.8591 67.7266 98.7279 67.7926 98.5312 67.8586V62.4446C98.7279 62.3785 98.8591 62.3785 98.9902 62.3125Z" fill="#B3B3B3"/>
<path d="M98.5974 62.4453V67.8594C98.4662 67.9254 98.4007 67.9254 98.2695 67.9914V62.5774C98.3351 62.5113 98.4662 62.5113 98.5974 62.4453Z" fill="#B8B8B8"/>
<path d="M98.14 64.8895L98.0745 70.3036L97.4844 70.0395V64.6914L98.14 64.8895Z" fill="#929292"/>
<path d="M97.4858 64.6871V70.1012C97.4202 70.1012 97.3546 70.0352 97.2891 70.0352V64.6211C97.3546 64.6211 97.4202 64.6211 97.4858 64.6871Z" fill="#858585"/>
<path d="M97.2876 64.5571V69.9712C97.0254 69.8391 96.7631 69.7731 96.5664 69.7071V64.293C96.7631 64.359 97.0254 64.491 97.2876 64.5571Z" fill="#8A8A8A"/>
<path d="M96.5661 64.359V69.7731C96.435 69.7731 96.3694 69.7071 96.2383 69.7071V64.293C96.3694 64.293 96.435 64.293 96.5661 64.359Z" fill="#8F8F8F"/>
<path d="M96.2444 64.2266V69.6406C96.1788 69.6406 96.1133 69.6406 96.1133 69.6406V64.2266C96.1788 64.2266 96.1788 64.2266 96.2444 64.2266Z" fill="#949494"/>
<path d="M96.0444 64.2266V69.6406C95.9788 69.6406 95.9132 69.6406 95.8477 69.6406V64.2266C95.9788 64.2266 96.0444 64.2266 96.0444 64.2266Z" fill="#999999"/>
<path d="M95.9124 64.2247V69.6387C95.8468 69.6387 95.7812 69.6387 95.7812 69.6387V64.2247C95.7812 64.1586 95.8468 64.2247 95.9124 64.2247Z" fill="#9E9E9E"/>
<path d="M95.7171 64.1602V69.5742C95.6515 69.5742 95.5859 69.5742 95.5859 69.5742V64.1602C95.6515 64.1602 95.7171 64.1602 95.7171 64.1602Z" fill="#A3A3A3"/>
<path d="M95.5843 64.1602V69.5742C95.5187 69.5742 95.4531 69.5742 95.4531 69.5742V64.1602C95.4531 64.2262 95.5187 64.1602 95.5843 64.1602Z" fill="#A8A8A8"/>
<path d="M95.4545 64.2266V69.6406C95.3889 69.6406 95.3234 69.6406 95.2578 69.6406V64.2266C95.3234 64.2266 95.3889 64.2266 95.4545 64.2266Z" fill="#ADADAD"/>
<path d="M95.2584 64.2266V69.6406C95.1928 69.6406 95.0617 69.7067 94.9961 69.7067V64.2926C95.0617 64.2926 95.1928 64.2266 95.2584 64.2266Z" fill="#B3B3B3"/>
<path d="M94.9941 64.293V69.7071C94.863 69.7731 94.7319 69.8391 94.6007 69.9051C94.6007 69.9051 94.6007 69.9051 94.5352 69.9051V64.491C94.5352 64.491 94.5352 64.491 94.6007 64.491C94.7319 64.425 94.863 64.359 94.9941 64.293Z" fill="#B8B8B8"/>
<path d="M94.5357 64.4883V69.9024C94.4046 69.9684 94.339 70.0344 94.2734 70.1004V64.6864C94.339 64.6203 94.4046 64.5543 94.5357 64.4883Z" fill="#B3B3B3"/>
<path d="M94.2718 64.6875V70.1016C94.2062 70.1676 94.2062 70.1676 94.1406 70.2336V64.8196C94.2062 64.7535 94.2062 64.7535 94.2718 64.6875Z" fill="#ADADAD"/>
<path d="M94.1437 64.8203V70.2344L94.0781 70.3004V64.8863C94.1437 64.8863 94.1437 64.8203 94.1437 64.8203Z" fill="#A8A8A8"/>
<path d="M94.076 65.0195V70.4336V70.4996V65.0195C94.076 65.0195 94.0105 65.0856 94.076 65.0195Z" fill="#999999"/>
<path d="M99.5773 65.2852V70.6992H99.5117L99.5773 65.2852C99.5773 65.2852 99.5117 65.2852 99.5773 65.2852Z" fill="#999999"/>
<path d="M99.5145 65.2809V70.695C99.3834 70.695 99.2522 70.6289 99.1211 70.6289V65.2148C99.2522 65.2809 99.3834 65.2809 99.5145 65.2809Z" fill="#949494"/>
<path d="M99.1872 65.2184V70.6325C99.1216 70.6325 98.9905 70.5664 98.9249 70.5664H98.8594V65.1523H98.9249C98.9905 65.2184 99.0561 65.2184 99.1872 65.2184Z" fill="#8F8F8F"/>
<path d="M98.7915 65.1508V70.5649C98.5948 70.4989 98.3981 70.4329 98.0703 70.3008V64.8867C98.3981 65.0188 98.5948 65.0848 98.7915 65.1508Z" fill="#8A8A8A"/>
<path d="M105.089 64.2305V69.6446C105.089 69.7106 105.089 69.7766 105.023 69.7766V64.3625C105.023 64.3625 105.089 64.2965 105.089 64.2305Z" fill="#9E9E9E"/>
<path d="M105.027 64.4258V69.8399C105.027 69.9059 104.961 69.9719 104.961 69.9719V64.5578C104.961 64.4918 105.027 64.4258 105.027 64.4258Z" fill="#A3A3A3"/>
<path d="M104.959 64.5586V69.9727C104.894 70.0387 104.894 70.1047 104.828 70.1708V64.7567C104.894 64.6906 104.894 64.6246 104.959 64.5586Z" fill="#A8A8A8"/>
<path d="M104.83 64.7578V70.1719C104.764 70.2379 104.698 70.304 104.633 70.436V65.0219C104.698 64.8899 104.764 64.8238 104.83 64.7578Z" fill="#ADADAD"/>
<path d="M104.629 65.0195V70.4336C104.498 70.5657 104.236 70.7637 104.039 70.8958V65.4817C104.236 65.2836 104.432 65.1516 104.629 65.0195Z" fill="#B3B3B3"/>
<path d="M103.976 65.418V70.8321L103.91 70.8981V65.484C103.91 65.484 103.976 65.484 103.976 65.418Z" fill="#B8B8B8"/>
<path d="M96.3674 67.2656V72.6797C96.1707 72.6797 95.974 72.6797 95.7773 72.6797V67.2656C96.0396 67.2656 96.1707 67.2656 96.3674 67.2656Z" fill="#A3A3A3"/>
<path d="M95.8432 67.2652V72.6793C95.6465 72.6793 95.4498 72.6793 95.1875 72.6133V67.1992C95.3842 67.2652 95.5809 67.2652 95.8432 67.2652Z" fill="#9E9E9E"/>
<path d="M95.1869 67.2652V72.6793C94.9902 72.6793 94.7279 72.6133 94.5312 72.6133V67.1992C94.7279 67.1992 94.9902 67.1992 95.1869 67.2652Z" fill="#999999"/>
<path d="M94.5332 67.1363V72.5504C94.4676 72.5504 94.402 72.5504 94.402 72.5504C94.2709 72.5504 94.2054 72.4844 94.0742 72.4844V67.0703C94.2054 67.0703 94.2709 67.1363 94.402 67.1363C94.4676 67.1363 94.4676 67.1363 94.5332 67.1363Z" fill="#949494"/>
<path d="M94.0722 67.0656V72.4797C93.9411 72.4137 93.7444 72.4137 93.6133 72.3477V66.9336C93.7444 66.9996 93.8755 67.0656 94.0722 67.0656Z" fill="#8F8F8F"/>
<path d="M93.5471 66.9325V72.3465C93.3504 72.2805 93.1537 72.2145 92.957 72.1485V66.7344C93.1537 66.8664 93.3504 66.9325 93.5471 66.9325Z" fill="#8A8A8A"/>
<path d="M93.0239 66.7378V72.1519C92.7616 72.0198 92.4994 71.9538 92.2371 71.7557C91.4503 71.2936 90.9913 70.7654 90.9258 70.1711C90.9258 70.1051 90.9258 70.1051 90.9258 70.0391V64.625C90.9258 64.691 90.9258 64.691 90.9258 64.7571C90.9913 65.3513 91.4503 65.8795 92.2371 66.3417C92.4994 66.5397 92.7616 66.6718 93.0239 66.7378Z" fill="#858585"/>
<path d="M103.909 65.4844V70.8985L99.8438 73.2754V67.8613L103.909 65.4844Z" fill="#C5C5C5"/>
<path d="M99.8393 67.8633V73.2774C99.6426 73.4094 99.4459 73.5415 99.1836 73.6735V68.2594C99.4459 68.1274 99.6426 67.9953 99.8393 67.8633Z" fill="#B8B8B8"/>
<path d="M99.1864 68.2617V73.6758C99.0552 73.7418 98.9241 73.8078 98.793 73.8739V68.4598C98.9897 68.3938 99.0552 68.3277 99.1864 68.2617Z" fill="#B3B3B3"/>
<path d="M98.863 68.4531V73.8672C98.7319 73.9332 98.6007 74.0653 98.5352 74.1313V68.7172C98.6007 68.6512 98.6663 68.5852 98.863 68.4531Z" fill="#B3B3B3"/>
<path d="M98.4679 68.7188V74.1328C98.4023 74.1328 98.4023 74.1989 98.4023 74.1989V68.7848C98.4023 68.7848 98.4679 68.7848 98.4679 68.7188Z" fill="#ADADAD"/>
<path d="M98.4015 68.8516V74.2656C98.4015 74.2656 98.4015 74.3317 98.3359 74.3317L98.4015 68.8516Z" fill="#A8A8A8"/>
<path d="M98.4002 68.8516V74.2656C98.4002 74.2656 98.4002 74.2656 98.4002 74.3317V68.8516C98.4002 68.9176 98.3347 68.9176 98.4002 68.8516Z" fill="#A3A3A3"/>
<path d="M98.3362 68.9164C98.2706 69.0485 98.3362 69.1145 98.4017 69.2465L98.0739 69.4446L95.5168 67.9921C95.648 67.86 95.7135 67.728 95.8447 67.5959C95.9758 67.4639 96.1069 67.3978 96.3036 67.2658C95.648 67.2658 94.9923 67.2658 94.2711 67.1337C93.4843 67.0017 92.7631 66.7376 92.1074 66.4075C91.3206 65.9453 90.8617 65.4171 90.7961 64.8228C90.7305 64.2286 91.1239 63.7004 91.9763 63.2382C93.0909 62.578 94.2711 62.3799 95.648 62.578C96.3692 62.71 97.2871 62.9741 98.2706 63.4363L99.1885 63.8325C99.6475 64.0305 100.041 64.1626 100.303 64.2286C100.762 64.3607 101.156 64.2946 101.483 64.1626C101.877 63.9645 101.942 63.7004 101.877 63.5023C101.746 63.3043 101.483 63.0402 100.959 62.71C100.434 62.3799 99.8442 62.2479 99.3852 62.2479C98.9918 62.2479 98.664 62.3799 98.2706 62.512L96.0414 61.1915C96.8937 60.7953 97.7461 60.5312 98.5984 60.4652C99.9753 60.3991 101.418 60.7293 102.926 61.6536C103.909 62.2479 104.565 62.8421 104.958 63.5023C105.352 64.1626 104.958 64.8228 103.909 65.4171L99.8442 67.794C99.5819 67.9921 99.2541 68.1901 98.8607 68.3882C98.5329 68.6523 98.4017 68.7844 98.3362 68.9164ZM98.7296 65.8132L99.5819 65.285C99.3197 65.285 99.123 65.219 98.9263 65.153C98.7296 65.0869 98.4673 65.0209 98.1395 64.8889L97.4838 64.6248C96.8937 64.3607 96.4348 64.2286 96.1069 64.1626C95.5168 64.0966 94.9923 64.1626 94.5989 64.4267C94.2055 64.6908 94.0088 64.8889 94.0744 65.153C94.14 65.4171 94.3367 65.6152 94.5989 65.8132C95.1234 66.0773 95.7135 66.2754 96.4348 66.3414C97.156 66.4735 97.9428 66.2754 98.7296 65.8132Z" fill="#DCDCDC"/>
<path d="M98.0727 69.4447V74.8588L95.5156 73.4063L95.5812 67.9922L98.0727 69.4447Z" fill="#898989"/>
<path d="M98.3981 69.25V74.6641L98.0703 74.8622V69.4481L98.3981 69.25Z" fill="#C5C5C5"/>
<path d="M113.21 68.918V74.3321C113.21 74.3981 113.145 74.4641 113.145 74.5962V69.1821C113.145 69.05 113.145 68.984 113.21 68.918Z" fill="#9E9E9E"/>
<path d="M113.147 69.1797V74.5938C113.147 74.5938 113.147 74.5938 113.147 74.6598V69.1797C113.081 69.1797 113.081 69.1797 113.147 69.1797Z" fill="#A3A3A3"/>
<path d="M111.243 69.5123V74.9264C111.243 74.8604 111.243 74.8604 111.243 74.7943C111.177 74.4642 110.915 74.1341 110.521 73.87C110.39 73.804 110.194 73.7379 110.062 73.6719V68.2578C110.194 68.3238 110.39 68.3899 110.521 68.4559C110.98 68.72 111.243 69.0501 111.243 69.3802C111.243 69.4463 111.243 69.5123 111.243 69.5123Z" fill="#858585"/>
<path d="M110 68.2571V73.6711C109.869 73.6051 109.803 73.6051 109.672 73.5391V68.125C109.803 68.191 109.934 68.191 110 68.2571Z" fill="#8A8A8A"/>
<path d="M109.735 68.1246V73.5387C109.669 73.5387 109.604 73.4727 109.473 73.4727V68.0586C109.538 68.1246 109.604 68.1246 109.735 68.1246Z" fill="#8F8F8F"/>
<path d="M109.47 68.0582V73.4723C109.405 73.4723 109.339 73.4723 109.273 73.4063V67.9922C109.339 68.0582 109.405 68.0582 109.47 68.0582Z" fill="#949494"/>
<path d="M109.279 68.0567V73.4708C109.213 73.4708 109.148 73.4708 109.082 73.4708V68.0567C109.148 67.9907 109.213 68.0567 109.279 68.0567Z" fill="#999999"/>
<path d="M109.08 67.9922V73.4063C109.014 73.4063 108.948 73.4063 108.883 73.4063V67.9922C108.883 67.9922 108.948 67.9922 109.08 67.9922Z" fill="#9E9E9E"/>
<path d="M108.818 67.9922V73.4063C108.752 73.4063 108.687 73.4063 108.621 73.4063V67.9922C108.687 67.9922 108.752 67.9922 108.818 67.9922Z" fill="#A3A3A3"/>
<path d="M108.622 67.9922V73.4063C108.556 73.4063 108.425 73.4063 108.359 73.4063V67.9922C108.425 67.9922 108.556 67.9922 108.622 67.9922Z" fill="#A8A8A8"/>
<path d="M108.358 67.9922V73.4063C108.293 73.4063 108.227 73.4063 108.227 73.4063C108.162 73.4063 108.03 73.4063 107.965 73.4723V68.0582C108.03 68.0582 108.162 68.0582 108.227 67.9922C108.227 68.0582 108.293 68.0582 108.358 67.9922Z" fill="#ADADAD"/>
<path d="M107.966 68.0586V73.4727C107.704 73.5387 107.442 73.6047 107.18 73.6707V68.2567C107.376 68.1906 107.639 68.1246 107.966 68.0586Z" fill="#B3B3B3"/>
<path d="M107.11 68.2578V73.6719C106.651 73.804 106.192 74.002 105.799 74.2661C105.734 74.2661 105.734 74.3322 105.668 74.3322V68.9181C105.734 68.9181 105.734 68.852 105.799 68.852C106.258 68.654 106.717 68.4559 107.11 68.2578Z" fill="#B8B8B8"/>
<path d="M105.67 68.9805V74.3946C105.342 74.5926 105.08 74.7907 104.883 74.9888V69.5747C105.08 69.3766 105.342 69.1785 105.67 68.9805Z" fill="#B3B3B3"/>
<path d="M104.883 69.5781V74.9922C104.752 75.1243 104.687 75.1903 104.621 75.3223V69.9083C104.687 69.7762 104.752 69.6442 104.883 69.5781Z" fill="#ADADAD"/>
<path d="M104.623 69.8398V75.2539C104.558 75.32 104.492 75.386 104.492 75.452V70.0379C104.492 70.0379 104.558 69.9059 104.623 69.8398Z" fill="#A8A8A8"/>
<path d="M104.425 70.1016V75.5157C104.359 75.5817 104.359 75.6477 104.359 75.7137V70.2996C104.359 70.2336 104.425 70.1676 104.425 70.1016Z" fill="#A3A3A3"/>
<path d="M104.359 70.3008V75.7149C104.359 75.7809 104.359 75.7809 104.293 75.8469V70.4328C104.293 70.3668 104.359 70.3668 104.359 70.3008Z" fill="#9E9E9E"/>
<path d="M106.722 73.0742V78.4883C106.591 78.4883 106.526 78.4883 106.395 78.5543V73.1402C106.46 73.0742 106.591 73.0742 106.722 73.0742Z" fill="#ADADAD"/>
<path d="M106.331 73.0742V78.4883C106.135 78.4883 105.938 78.5543 105.676 78.5543V73.1402C105.938 73.1402 106.135 73.1402 106.331 73.0742Z" fill="#A8A8A8"/>
<path d="M105.736 73.1406V78.5547C105.605 78.5547 105.408 78.5547 105.277 78.5547V73.1406C105.408 73.1406 105.54 73.1406 105.736 73.1406Z" fill="#A3A3A3"/>
<path d="M105.28 73.1406V78.5547C105.149 78.5547 105.018 78.5547 104.887 78.5547V73.1406C105.018 73.1406 105.149 73.1406 105.28 73.1406Z" fill="#9E9E9E"/>
<path d="M104.886 73.1402V78.5543C104.755 78.5543 104.624 78.5543 104.559 78.4883V73.0742C104.624 73.0742 104.755 73.0742 104.886 73.1402Z" fill="#999999"/>
<path d="M104.558 73.0738V78.4879C104.493 78.4879 104.493 78.4879 104.427 78.4879C104.362 78.4879 104.296 78.4879 104.23 78.4219V73.0078C104.296 73.0078 104.362 73.0078 104.427 73.0738C104.427 73.0738 104.493 73.0738 104.558 73.0738Z" fill="#949494"/>
<path d="M104.167 73.0074V78.4215C104.036 78.4215 103.905 78.3555 103.773 78.3555V72.9414C103.905 72.9414 104.036 73.0074 104.167 73.0074Z" fill="#8F8F8F"/>
<path d="M103.775 72.9403V78.3543C103.578 78.2883 103.447 78.2223 103.25 78.1563V72.7422C103.447 72.8082 103.643 72.8742 103.775 72.9403Z" fill="#8A8A8A"/>
<path d="M103.312 72.7441V78.1582C103.05 78.0261 102.788 77.8941 102.525 77.762C101.607 77.2338 101.148 76.5736 101.148 75.7813V70.3672C101.148 71.1595 101.607 71.8197 102.525 72.3479C102.722 72.48 102.984 72.6121 103.312 72.7441Z" fill="#858585"/>
<path d="M117.344 66.7358L119.704 68.1224L107.706 75.055L105.411 73.7345L106.657 73.0082C105.804 73.1403 105.017 73.1403 104.362 73.0082C103.706 72.8762 103.05 72.6781 102.395 72.282C101.346 71.6877 100.887 70.8954 101.018 70.0371C101.149 69.1127 101.87 68.3204 103.182 67.5281C104.69 66.6698 106.198 66.1416 107.771 66.0756C109.345 65.9435 110.722 66.2736 111.902 66.9339C112.426 67.264 112.82 67.5942 113.017 67.9903C113.213 68.3865 113.213 68.7826 113.082 69.1788L117.344 66.7358ZM107.312 72.0179C108.165 71.9518 108.951 71.6877 109.738 71.2256C110.787 70.5653 111.312 69.9711 111.246 69.3768C111.181 69.0467 110.918 68.7166 110.525 68.4525C109.869 68.0563 109.083 67.9243 108.23 68.0563C107.378 68.1884 106.591 68.4525 105.87 68.9147C105.083 69.3768 104.559 69.839 104.427 70.3672C104.231 70.8294 104.493 71.2916 105.149 71.6877C105.739 71.9518 106.525 72.1499 107.312 72.0179Z" fill="#DCDCDC"/>
<path d="M119.706 68.0547V73.4688L107.707 80.4675V75.0534L119.706 68.0547Z" fill="#C5C5C5"/>
<path d="M107.706 75.0549V80.469L105.477 79.1485V73.7344L107.706 75.0549Z" fill="#898989"/>
<path d="M120.887 72.4141V77.8282L119.379 78.6865V73.3384L120.887 72.4141Z" fill="#C5C5C5"/>
<path d="M121.348 75.122V80.536C121.216 80.47 121.151 80.404 121.085 80.338C120.889 80.2059 120.626 80.0739 120.43 80.0078V74.5938C120.626 74.6598 120.889 74.7918 121.085 74.9239C121.151 75.0559 121.216 75.0559 121.348 75.122Z" fill="#858585"/>
<path d="M120.362 74.6594V80.0735C120.231 80.0074 120.1 79.9414 119.969 79.9414V74.5273C120.1 74.5273 120.231 74.5934 120.362 74.6594Z" fill="#8A8A8A"/>
<path d="M119.969 74.527V79.9411C119.904 79.9411 119.773 79.875 119.707 79.875V74.4609C119.773 74.4609 119.838 74.4609 119.969 74.527Z" fill="#8F8F8F"/>
<path d="M119.708 74.4606V79.8746C119.642 79.8746 119.576 79.8746 119.445 79.8086V74.3945C119.511 74.3945 119.576 74.3945 119.708 74.4606Z" fill="#949494"/>
<path d="M119.443 74.3945V79.8086C119.377 79.8086 119.312 79.8086 119.246 79.8086V74.3945C119.312 74.3945 119.377 74.3945 119.443 74.3945Z" fill="#999999"/>
<path d="M119.251 74.3945V79.8086C119.186 79.8086 119.12 79.8086 119.055 79.8086V74.3945C119.055 74.3945 119.12 74.3945 119.251 74.3945Z" fill="#9E9E9E"/>
<path d="M118.99 74.3945V79.8086C118.924 79.8086 118.859 79.8086 118.793 79.8086V74.3945C118.859 74.3945 118.924 74.3945 118.99 74.3945Z" fill="#A3A3A3"/>
<path d="M118.794 74.3945V79.8086C118.728 79.8086 118.662 79.8086 118.531 79.8086V74.3945C118.662 74.3945 118.728 74.3945 118.794 74.3945Z" fill="#A8A8A8"/>
<path d="M118.528 74.3945V79.8086C118.462 79.8086 118.331 79.8086 118.266 79.8746V74.4606C118.331 74.3945 118.462 74.3945 118.528 74.3945Z" fill="#ADADAD"/>
<path d="M118.264 74.3945V79.8086C118.133 79.8086 117.936 79.8746 117.805 79.9407V74.5266C117.936 74.4606 118.133 74.4606 118.264 74.3945Z" fill="#B3B3B3"/>
<path d="M117.807 74.5273V79.9414C117.413 80.0735 116.954 80.2715 116.43 80.6017V75.1876C116.889 74.9235 117.348 74.6594 117.807 74.5273Z" fill="#B8B8B8"/>
<path d="M124.04 74V79.4141L121.68 80.8006V75.3865L124.04 74Z" fill="#C5C5C5"/>
<path d="M121.675 75.3852V80.7993C121.544 80.7332 121.413 80.6012 121.348 80.5352V75.1211C121.413 75.2531 121.544 75.3192 121.675 75.3852Z" fill="#858585"/>
<path d="M123.774 73.8004C123.84 73.8004 123.84 73.8664 123.905 73.8664C123.971 73.8664 123.971 73.9325 124.102 73.9985L121.676 75.385C121.545 75.319 121.414 75.1869 121.348 75.1209C121.217 75.0549 121.152 74.9889 121.086 74.9228C120.168 74.3946 119.185 74.1966 118.267 74.3286C117.742 74.3946 117.152 74.6587 116.431 75.1209L112.169 77.5639L109.809 76.1773L118.66 71.0273L120.889 72.3479L119.316 73.2722C120.234 73.1402 120.955 73.0741 121.479 73.1402C122.332 73.2062 123.053 73.4043 123.774 73.8004Z" fill="#DCDCDC"/>
<path d="M116.434 75.1836L116.368 80.5977L112.172 83.0406V77.6926L116.434 75.1836Z" fill="#C5C5C5"/>
<path d="M112.169 77.6951V83.0432L109.809 81.6567V76.3086L112.169 77.6951Z" fill="#898989"/>
<path d="M128.426 73.0742L130.787 74.4607L128.688 75.7152L126.328 74.3287L128.426 73.0742Z" fill="#DCDCDC"/>
<path d="M130.786 74.4609V79.809L128.688 81.0635V75.7154L130.786 74.4609Z" fill="#C5C5C5"/>
<path d="M128.688 75.7186V81.0666L126.262 79.6801L126.327 74.332L128.688 75.7186Z" fill="#898989"/>
<path d="M116.43 80.1379L125.281 74.9219L127.641 76.3084L118.79 81.5244L116.43 80.1379Z" fill="#DCDCDC"/>
<path d="M127.644 76.3086L127.578 81.7227L118.727 86.8727L118.792 81.5246L127.644 76.3086Z" fill="#C5C5C5"/>
<path d="M118.789 81.5233L118.724 86.8713L116.363 85.4848L116.429 80.1367L118.789 81.5233Z" fill="#898989"/>
<path d="M134.589 81.3242V86.7383C134.589 86.8043 134.523 86.9364 134.523 87.0024V81.5883C134.523 81.5223 134.589 81.4563 134.589 81.3242Z" fill="#9E9E9E"/>
<path d="M132.622 81.9889V87.4029C132.622 87.3369 132.622 87.3369 132.622 87.2709C132.556 86.9408 132.294 86.6106 131.9 86.3465C131.769 86.2805 131.573 86.2145 131.441 86.1485V80.7344C131.573 80.8004 131.769 80.8664 131.9 80.9325C132.359 81.1966 132.622 81.5267 132.622 81.8568C132.622 81.8568 132.622 81.9228 132.622 81.9889Z" fill="#858585"/>
<path d="M131.441 80.6672V86.0813C131.31 86.0153 131.244 86.0153 131.113 85.9492V80.5352C131.179 80.6012 131.31 80.6672 131.441 80.6672Z" fill="#8A8A8A"/>
<path d="M131.114 80.6012V86.0153C131.048 86.0153 130.983 85.9492 130.852 85.9492V80.5352C130.917 80.5352 131.048 80.5352 131.114 80.6012Z" fill="#8F8F8F"/>
<path d="M130.849 80.5348V85.9489C130.783 85.9489 130.718 85.9489 130.652 85.8828V80.4688C130.718 80.4688 130.783 80.4688 130.849 80.5348Z" fill="#949494"/>
<path d="M130.658 80.4688V85.8828C130.592 85.8828 130.527 85.8828 130.461 85.8828V80.4688C130.527 80.4688 130.592 80.4688 130.658 80.4688Z" fill="#999999"/>
<path d="M130.458 80.4688V85.8828C130.393 85.8828 130.327 85.8828 130.262 85.8828V80.4688C130.327 80.4688 130.393 80.4688 130.458 80.4688Z" fill="#9E9E9E"/>
<path d="M130.263 80.4688V85.8828C130.198 85.8828 130.132 85.8828 130.066 85.8828V80.4688C130.132 80.4688 130.198 80.4688 130.263 80.4688Z" fill="#A3A3A3"/>
<path d="M130.001 80.4688V85.8828C129.935 85.8828 129.804 85.8828 129.738 85.8828V80.4688C129.869 80.4688 129.935 80.4688 130.001 80.4688Z" fill="#A8A8A8"/>
<path d="M129.737 80.4688V85.8828C129.672 85.8828 129.606 85.8828 129.606 85.8828C129.54 85.8828 129.409 85.8828 129.344 85.9489V80.5348C129.409 80.5348 129.54 80.5348 129.606 80.4688C129.672 80.4688 129.737 80.4688 129.737 80.4688Z" fill="#ADADAD"/>
<path d="M129.345 80.5352V85.9492C129.083 86.0153 128.821 86.0813 128.559 86.1473V80.7332C128.821 80.6672 129.083 80.6012 129.345 80.5352Z" fill="#B3B3B3"/>
<path d="M128.556 80.7344V86.1485C128.097 86.2805 127.703 86.4786 127.244 86.7427C127.179 86.7427 127.179 86.8087 127.113 86.8087V81.3946C127.179 81.3946 127.179 81.3286 127.244 81.3286C127.638 81.0645 128.097 80.8664 128.556 80.7344Z" fill="#B8B8B8"/>
<path d="M127.111 81.3906V86.8047C126.783 87.0028 126.521 87.2009 126.324 87.3989V81.9849C126.521 81.7868 126.783 81.5887 127.111 81.3906Z" fill="#B3B3B3"/>
<path d="M126.262 81.9883V87.4024C126.131 87.5344 126.066 87.6004 126 87.7325V82.3184C126.066 82.1864 126.197 82.1203 126.262 81.9883Z" fill="#ADADAD"/>
<path d="M126.002 82.3164V87.7305C125.937 87.7965 125.871 87.8625 125.871 87.9286V82.5145C125.871 82.4485 125.937 82.3824 126.002 82.3164Z" fill="#A8A8A8"/>
<path d="M125.866 82.5156V87.9297C125.801 87.9957 125.801 88.0618 125.801 88.1278V82.7137C125.801 82.6477 125.801 82.5817 125.866 82.5156Z" fill="#A3A3A3"/>
<path d="M125.737 82.7148V88.1289C125.737 88.195 125.737 88.195 125.672 88.261V82.8469C125.737 82.8469 125.737 82.7809 125.737 82.7148Z" fill="#9E9E9E"/>
<path d="M125.737 82.8438V88.2578C125.737 88.3239 125.737 88.3239 125.737 88.3899V82.9758C125.671 82.9758 125.671 82.9098 125.737 82.8438Z" fill="#999999"/>
<path d="M128.093 85.4844V90.8985C127.962 90.8985 127.831 90.8985 127.766 90.9645V85.5504C127.831 85.5504 127.962 85.4844 128.093 85.4844Z" fill="#ADADAD"/>
<path d="M127.703 85.5508V90.9649C127.507 90.9649 127.31 91.0309 127.113 91.0309V85.6168C127.31 85.5508 127.507 85.5508 127.703 85.5508Z" fill="#A8A8A8"/>
<path d="M127.111 85.5508V90.9649C126.98 90.9649 126.783 90.9649 126.652 90.9649V85.5508C126.783 85.5508 126.98 85.5508 127.111 85.5508Z" fill="#A3A3A3"/>
<path d="M126.655 85.5508V90.9649C126.524 90.9649 126.393 90.9649 126.262 90.9649V85.5508C126.393 85.5508 126.524 85.5508 126.655 85.5508Z" fill="#9E9E9E"/>
<path d="M126.261 85.5504V90.9645C126.13 90.9645 125.999 90.9645 125.934 90.8985V85.4844C125.999 85.5504 126.13 85.5504 126.261 85.5504Z" fill="#999999"/>
<path d="M125.933 85.484V90.8981C125.868 90.8981 125.868 90.8981 125.802 90.8981C125.737 90.8981 125.671 90.8981 125.605 90.8321V85.418C125.671 85.418 125.737 85.418 125.802 85.484C125.868 85.484 125.868 85.484 125.933 85.484Z" fill="#949494"/>
<path d="M125.604 85.484V90.8981C125.473 90.8981 125.342 90.8321 125.211 90.8321V85.418C125.342 85.418 125.473 85.418 125.604 85.484Z" fill="#8F8F8F"/>
<path d="M125.208 85.3504V90.7645C125.011 90.6985 124.88 90.6325 124.684 90.5664V85.1523C124.88 85.2184 125.011 85.2844 125.208 85.3504Z" fill="#8A8A8A"/>
<path d="M124.686 85.1543V90.5684C124.424 90.4363 124.162 90.3043 123.834 90.1722C122.916 89.644 122.457 88.9837 122.457 88.1914V82.7773C122.457 83.5696 122.916 84.2299 123.834 84.7581C124.162 84.9562 124.424 85.0882 124.686 85.1543Z" fill="#858585"/>
<path d="M138.72 79.1464L141.08 80.5329L129.147 87.5316L126.852 86.2111L128.098 85.4848C127.246 85.6169 126.459 85.6169 125.803 85.4848C125.148 85.3528 124.492 85.1547 123.836 84.7585C122.787 84.1643 122.328 83.372 122.459 82.5137C122.59 81.5893 123.312 80.797 124.623 80.0047C126.131 79.1464 127.705 78.6182 129.213 78.5521C130.786 78.4201 132.163 78.7502 133.343 79.4105C133.868 79.7406 134.261 80.0707 134.458 80.4669C134.655 80.863 134.655 81.2592 134.523 81.6553L138.72 79.1464ZM128.754 84.4944C129.606 84.4284 130.393 84.1643 131.18 83.7021C132.229 83.0419 132.753 82.4476 132.688 81.8534C132.622 81.5233 132.36 81.1932 131.966 80.929C131.311 80.5329 130.524 80.4008 129.672 80.5329C128.819 80.6649 128.032 80.929 127.311 81.3912C126.524 81.8534 126 82.3156 125.869 82.8438C125.672 83.306 125.934 83.7681 126.59 84.1643C127.246 84.5604 127.901 84.5604 128.754 84.4944Z" fill="#DCDCDC"/>
<path d="M141.081 80.5312V85.8793L129.148 92.878V87.5299L141.081 80.5312Z" fill="#C5C5C5"/>
<path d="M129.15 87.5314V92.8795L126.855 91.559V86.2109L129.15 87.5314Z" fill="#898989"/>
</g>
<g clip-path="url(#clip1)">
<path d="M47.6347 78.8549V81.9648C47.6347 81.6614 47.4041 81.358 46.9429 81.1305C46.7892 81.0546 46.6355 80.9788 46.5586 80.9029V77.793C46.6355 77.8688 46.7892 77.9447 46.8661 78.0205C47.4041 78.2481 47.6347 78.5515 47.6347 78.8549Z" fill="#858585"/>
<path d="M46.5548 77.7907V80.9006C46.4779 80.9006 46.4011 80.8248 46.3242 80.8248V77.7148C46.4011 77.7907 46.4779 77.7907 46.5548 77.7907Z" fill="#8A8A8A"/>
<path d="M46.3243 77.7165V80.8264C46.2475 80.8264 46.1706 80.8264 46.0938 80.7506V77.6406C46.1706 77.7165 46.2475 77.7165 46.3243 77.7165Z" fill="#8F8F8F"/>
<path d="M46.0951 77.7173V80.8272C46.0183 80.8272 45.9414 80.8272 45.9414 80.8272V77.7173C45.9414 77.6415 46.0183 77.7173 46.0951 77.7173Z" fill="#949494"/>
<path d="M45.9428 77.6406V80.7506C45.8659 80.7506 45.7891 80.7506 45.7891 80.7506V77.6406C45.7891 77.6406 45.8659 77.6406 45.9428 77.6406Z" fill="#999999"/>
<path d="M45.7111 77.6406V80.7506C45.6342 80.7506 45.5573 80.7506 45.4805 80.7506V77.6406C45.6342 77.6406 45.6342 77.6406 45.7111 77.6406Z" fill="#9E9E9E"/>
<path d="M45.5587 77.6406V80.7506C45.4819 80.7506 45.405 80.7506 45.3281 80.7506V77.6406C45.405 77.6406 45.4819 77.6406 45.5587 77.6406Z" fill="#A3A3A3"/>
<path d="M45.327 77.6406V80.7506C45.2501 80.7506 45.1733 80.7506 45.0195 80.7506V77.6406C45.0964 77.6406 45.1733 77.6406 45.327 77.6406Z" fill="#A8A8A8"/>
<path d="M45.0184 77.6406V80.7506C44.9415 80.7506 44.7878 80.7506 44.7109 80.8264V77.7165C44.7878 77.7165 44.8647 77.6406 45.0184 77.6406Z" fill="#ADADAD"/>
<path d="M44.6344 77.7148V80.8248C44.4039 80.8248 44.2501 80.9006 44.0195 80.9765V77.8665C44.2501 77.7907 44.4807 77.7148 44.6344 77.7148Z" fill="#B3B3B3"/>
<path d="M44.0203 77.8672V80.9771C43.5591 81.053 43.1748 81.2805 42.7136 81.5081C42.6367 81.5081 42.6367 81.5839 42.6367 81.5839V78.474L42.7136 78.3982C43.1748 78.1706 43.5591 78.0189 44.0203 77.8672Z" fill="#B8B8B8"/>
<path d="M42.6358 78.4727V81.5826C42.3284 81.8101 42.0978 81.9618 41.8672 82.1136V79.0036C42.0978 78.8519 42.3284 78.7002 42.6358 78.4727Z" fill="#B3B3B3"/>
<path d="M41.8634 79.0078V82.1177C41.7865 82.1936 41.7097 82.2694 41.6328 82.3453V79.2354C41.7097 79.1595 41.7865 79.0837 41.8634 79.0078Z" fill="#ADADAD"/>
<path d="M41.6355 79.2344V82.3443C41.6355 82.4202 41.5586 82.496 41.5586 82.5719V79.4619C41.5586 79.3861 41.6355 79.3102 41.6355 79.2344Z" fill="#A8A8A8"/>
<path d="M41.5573 79.4609V82.5709C41.5573 82.6467 41.4805 82.6467 41.4805 82.7226V79.6126C41.4805 79.5368 41.4805 79.4609 41.5573 79.4609Z" fill="#A3A3A3"/>
<path d="M49.4779 79.4531V82.5631C49.4779 82.6389 49.4011 82.7148 49.3242 82.7906V79.6807C49.4011 79.6048 49.4779 79.529 49.4779 79.4531Z" fill="#A3A3A3"/>
<path d="M49.3959 79.6797V82.7896C49.3191 82.8655 49.3191 82.9413 49.2422 83.0172V79.9072C49.2422 79.8314 49.3191 79.7555 49.3959 79.6797Z" fill="#A8A8A8"/>
<path d="M49.2462 79.9141V83.024C49.1694 83.0998 49.0925 83.1757 49.0156 83.2515V80.1416C49.0925 80.0658 49.1694 79.9899 49.2462 79.9141Z" fill="#ADADAD"/>
<path d="M49.0145 80.1406V83.2506C48.9376 83.3264 48.7839 83.4023 48.707 83.4781V80.3682C48.7839 80.2923 48.9376 80.2165 49.0145 80.1406Z" fill="#B3B3B3"/>
<path d="M48.7053 80.3695V83.4795L47.168 82.6451V79.5352L48.7053 80.3695Z" fill="#898989"/>
<path d="M46.4013 81.7344V84.8443C46.2476 84.9202 46.017 84.996 45.8633 85.0719V81.9619C46.017 81.8861 46.1707 81.8102 46.4013 81.7344Z" fill="#B8B8B8"/>
<path d="M45.865 81.8867V84.9967C45.5576 85.0725 45.327 85.1484 45.0195 85.2242V82.1143C45.2501 82.0384 45.5576 81.9626 45.865 81.8867Z" fill="#B3B3B3"/>
<path d="M44.9404 82.1133V85.2232C44.7867 85.2232 44.5561 85.2991 44.4023 85.2991V82.1891C44.6329 82.1891 44.7867 82.1891 44.9404 82.1133Z" fill="#ADADAD"/>
<path d="M44.4026 82.1875V85.2974C44.2489 85.2974 44.0951 85.2974 43.9414 85.2974V82.1875C44.0951 82.1875 44.2489 82.1875 44.4026 82.1875Z" fill="#A8A8A8"/>
<path d="M43.939 82.2695V85.3795C43.7853 85.3795 43.6316 85.3795 43.5547 85.3795V82.2695C43.7084 82.2695 43.7853 82.2695 43.939 82.2695Z" fill="#A3A3A3"/>
<path d="M43.5562 82.2678V85.3778C43.4025 85.3778 43.3256 85.3778 43.1719 85.3778V82.2678C43.2487 82.192 43.4025 82.192 43.5562 82.2678Z" fill="#9E9E9E"/>
<path d="M43.1695 82.1891V85.2991C43.0157 85.2991 42.9389 85.2991 42.7852 85.2232V82.1133C42.9389 82.1891 43.0157 82.1891 43.1695 82.1891Z" fill="#999999"/>
<path d="M42.7867 82.1891V85.2991C42.6329 85.2991 42.5561 85.2991 42.4023 85.2232V82.1133C42.5561 82.1133 42.7098 82.1891 42.7867 82.1891Z" fill="#949494"/>
<path d="M42.482 82.1149V85.2248C42.3282 85.2248 42.2514 85.149 42.0977 85.149V82.0391C42.1745 82.0391 42.3282 82.1149 42.482 82.1149Z" fill="#8F8F8F"/>
<path d="M42.0185 82.0384V85.1484C41.8648 85.0725 41.7111 85.0725 41.4805 84.9966V81.8867C41.7111 81.8867 41.8648 81.9626 42.0185 82.0384Z" fill="#8A8A8A"/>
<path d="M41.5584 81.8114V84.9213C41.3279 84.8454 41.0973 84.6937 40.8667 84.542C39.8674 84.0869 39.4062 83.4801 39.4062 82.7974V79.6875C39.4062 80.3702 39.8674 80.9011 40.7898 81.4321C41.0204 81.6597 41.3279 81.7355 41.5584 81.8114Z" fill="#858585"/>
<path d="M48.0923 77.2585C49.2453 77.9412 49.7065 78.6239 49.4759 79.3824C49.3221 79.8375 49.0915 80.1409 48.6304 80.3685L47.1699 79.5341C47.4005 79.3065 47.5543 79.079 47.5543 78.9273C47.5543 78.6239 47.3237 78.3204 46.8625 78.017C46.4013 77.7136 45.7095 77.5619 45.0177 77.6378C44.2491 77.7136 43.5573 77.9412 42.7118 78.3963C41.9432 78.8514 41.482 79.3065 41.4051 79.6858C41.3283 80.065 41.5588 80.4443 42.02 80.7477C42.5581 81.0511 43.0961 81.2028 43.711 81.127C44.0185 81.127 44.4028 81.0511 44.864 80.8994L46.3244 81.7338C45.4789 82.113 44.5566 82.2648 43.5573 82.2648C42.5581 82.2648 41.6357 81.9613 40.8671 81.5062C39.791 80.8994 39.3298 80.2926 39.4066 79.6099C39.4835 78.9273 40.0984 78.2446 41.2514 77.5619C42.4812 76.8793 43.711 76.5 45.0177 76.5C46.1707 76.5 47.1699 76.7276 48.0923 77.2585Z" fill="#DCDCDC"/>
<path d="M54.0107 83.3984V86.5084C54.0107 86.5842 54.0107 86.5842 54.0107 86.6601V83.5501C53.9339 83.5501 54.0107 83.4743 54.0107 83.3984Z" fill="#999999"/>
<path d="M52.1658 83.2484V86.3584C52.1658 86.1308 52.0121 85.9033 51.6278 85.6757C51.5509 85.5998 51.474 85.5998 51.3203 85.524V82.4141C51.3972 82.4899 51.5509 82.4899 51.6278 82.5658C51.9352 82.7933 52.1658 83.0209 52.1658 83.2484Z" fill="#858585"/>
<path d="M51.3243 82.4899V85.5998C51.2475 85.5998 51.1706 85.524 51.0938 85.524V82.4141C51.1706 82.4141 51.2475 82.4141 51.3243 82.4899Z" fill="#8A8A8A"/>
<path d="M51.0951 82.4157V85.5256C51.0183 85.5256 51.0183 85.5256 50.9414 85.4498V82.3398C51.0183 82.4157 51.0951 82.4157 51.0951 82.4157Z" fill="#8F8F8F"/>
<path d="M50.9389 82.3398V85.4498C50.862 85.4498 50.862 85.4498 50.7852 85.4498V82.3398C50.862 82.3398 50.9389 82.3398 50.9389 82.3398Z" fill="#949494"/>
<path d="M50.8608 82.3398V85.4498C50.7839 85.4498 50.7839 85.4498 50.707 85.4498V82.3398C50.707 82.3398 50.7839 82.3398 50.8608 82.3398Z" fill="#999999"/>
<path d="M50.7084 82.3398V85.4498C50.6316 85.4498 50.6316 85.4498 50.5547 85.4498V82.3398C50.6316 82.3398 50.6316 82.3398 50.7084 82.3398Z" fill="#9E9E9E"/>
<path d="M50.5522 82.3398V85.4498C50.4753 85.4498 50.4753 85.4498 50.3984 85.4498V82.3398C50.4753 82.3398 50.4753 82.3398 50.5522 82.3398Z" fill="#A3A3A3"/>
<path d="M50.3998 82.3398V85.4498H50.323C50.323 85.4498 50.323 85.4498 50.2461 85.4498V82.3398C50.2461 82.3398 50.2461 82.3398 50.323 82.3398C50.323 82.3398 50.323 82.3398 50.3998 82.3398Z" fill="#A8A8A8"/>
<path d="M50.2462 82.3398V85.4498C50.1694 85.4498 50.0925 85.4498 50.0156 85.4498V82.3398C50.0925 82.3398 50.1694 82.3398 50.2462 82.3398Z" fill="#ADADAD"/>
<path d="M50.0132 82.3398V85.4498C49.8595 85.4498 49.7058 85.5256 49.6289 85.5256V82.4157C49.7058 82.4157 49.8595 82.4157 50.0132 82.3398Z" fill="#B3B3B3"/>
<path d="M49.5552 82.4922V85.6021C49.3246 85.678 49.0171 85.8297 48.7097 85.9814C48.7097 85.9814 48.6328 85.9814 48.6328 86.0572V82.9473C48.6328 82.9473 48.7097 82.9473 48.7097 82.8714C49.0171 82.6439 49.3246 82.568 49.5552 82.4922Z" fill="#B8B8B8"/>
<path d="M48.7073 82.8711V85.981C48.4767 86.1327 48.323 86.2086 48.2461 86.3603V83.2504C48.323 83.0986 48.4767 83.0228 48.7073 82.8711Z" fill="#B3B3B3"/>
<path d="M48.1694 83.2539V86.3638C48.0925 86.4397 48.0156 86.5155 48.0156 86.5155V83.4056C48.0925 83.3298 48.1694 83.2539 48.1694 83.2539Z" fill="#ADADAD"/>
<path d="M48.0144 83.4023V86.5123C48.0144 86.5881 47.9375 86.5881 47.9375 86.664V83.554C47.9375 83.4782 48.0144 83.4023 48.0144 83.4023Z" fill="#A8A8A8"/>
<path d="M47.9401 83.5547V86.6646C47.9401 86.6646 47.9401 86.7405 47.8633 86.7405V83.6305C47.9401 83.6305 47.9401 83.5547 47.9401 83.5547Z" fill="#A3A3A3"/>
<path d="M53.9323 83.625V86.7349C53.9323 86.8108 53.8555 86.8866 53.8555 86.9625V83.8526C53.9323 83.7767 53.9323 83.7009 53.9323 83.625Z" fill="#9E9E9E"/>
<path d="M53.8542 83.8555V86.9654C53.8542 87.0413 53.7773 87.1171 53.7773 87.193V84.083C53.8542 84.0072 53.8542 83.9313 53.8542 83.8555Z" fill="#A3A3A3"/>
<path d="M53.7787 84.082V87.192C53.7019 87.2678 53.7019 87.3437 53.625 87.4195V84.3096C53.7019 84.2337 53.7019 84.1579 53.7787 84.082Z" fill="#A8A8A8"/>
<path d="M53.6251 84.3086V87.4185C53.5483 87.4944 53.4714 87.5702 53.3945 87.7219V84.612C53.4714 84.4603 53.5483 84.3844 53.6251 84.3086Z" fill="#ADADAD"/>
<path d="M53.3141 84.6133V87.7232C53.1604 87.8749 52.9298 88.0266 52.6992 88.1783V85.0684C53.0067 84.9167 53.1604 84.765 53.3141 84.6133Z" fill="#B3B3B3"/>
<path d="M52.7819 84.9922V88.1021C52.7819 88.1021 52.705 88.1021 52.705 88.178C52.3975 88.4055 52.0132 88.5572 51.6289 88.6331V85.5232C52.0132 85.4473 52.3207 85.2956 52.7819 84.9922C52.705 85.068 52.705 85.068 52.7819 84.9922Z" fill="#B8B8B8"/>
<path d="M51.628 85.5234V88.6334C51.3974 88.7092 51.09 88.7851 50.8594 88.7851V85.6751C51.09 85.6751 51.3974 85.5993 51.628 85.5234Z" fill="#B3B3B3"/>
<path d="M50.8545 85.75V88.8599C50.7007 88.8599 50.4701 88.9358 50.3164 88.9358V85.8259C50.4701 85.75 50.7007 85.75 50.8545 85.75Z" fill="#ADADAD"/>
<path d="M50.3218 85.8242V88.9342C50.245 88.9342 50.1681 88.9342 50.0912 88.9342C50.0144 88.9342 50.0144 88.9342 49.9375 88.9342V85.8242C50.0144 85.8242 50.0144 85.8242 50.0912 85.8242C50.1681 85.8242 50.245 85.8242 50.3218 85.8242Z" fill="#A8A8A8"/>
<path d="M49.9364 85.8242V88.9342C49.8595 88.9342 49.7058 88.9342 49.6289 88.9342V85.8242C49.7058 85.8242 49.8595 85.8242 49.9364 85.8242Z" fill="#A3A3A3"/>
<path d="M49.6278 85.8242V88.9342C49.5509 88.9342 49.474 88.9342 49.3203 88.9342V85.8242C49.474 85.8242 49.5509 85.8242 49.6278 85.8242Z" fill="#9E9E9E"/>
<path d="M49.4012 85.8267V88.9366C49.3243 88.9366 49.2475 88.9366 49.0938 88.9366V85.8267C49.1706 85.7508 49.2475 85.8267 49.4012 85.8267Z" fill="#999999"/>
<path d="M49.0926 85.7516V88.8616C49.0157 88.8616 48.862 88.8616 48.7852 88.7857V85.6758C48.862 85.7516 49.0157 85.7516 49.0926 85.7516Z" fill="#949494"/>
<path d="M48.784 85.7516V88.8616C48.6303 88.8616 48.5534 88.7857 48.4766 88.7857V85.6758C48.5534 85.6758 48.7072 85.6758 48.784 85.7516Z" fill="#8F8F8F"/>
<path d="M48.4768 85.6751V88.7851C48.3231 88.7092 48.1694 88.7092 48.0156 88.6334V85.5234C48.1694 85.5234 48.3231 85.5993 48.4768 85.6751Z" fill="#8A8A8A"/>
<path d="M48.0141 85.4454V88.5554C47.7835 88.4795 47.5529 88.3278 47.2455 88.1761C46.3999 87.721 46.0156 87.2659 46.0156 86.7349V83.625C46.0156 84.156 46.3999 84.6111 47.2455 85.0662C47.476 85.2937 47.7066 85.3696 48.0141 85.4454Z" fill="#858585"/>
<path d="M53.9344 83.5515C53.8576 84.0825 53.3964 84.6134 52.6277 85.0685C51.8591 85.5237 51.0136 85.7512 50.0144 85.8271C49.0151 85.9029 48.0928 85.6754 47.1704 85.1444C46.3249 84.6134 45.9406 84.0825 46.0174 83.5515C46.0943 83.0205 46.5555 82.4896 47.3241 82.0345C48.0928 81.5793 48.9383 81.3518 49.9375 81.2759C50.9367 81.2001 51.8591 81.4276 52.7815 81.9586C53.7038 82.4896 54.0882 83.0205 53.9344 83.5515ZM49.7069 84.7651C50.1681 84.6893 50.7061 84.5376 51.2442 84.2342C51.7822 83.9308 52.0897 83.6274 52.1666 83.3239C52.2434 83.0205 52.0897 82.793 51.6285 82.5654C51.2442 82.3379 50.783 82.262 50.3218 82.262C49.8606 82.3379 49.3226 82.4896 48.7845 82.793C48.2465 83.0964 47.939 83.3998 47.939 83.7032C47.8622 84.0066 48.0159 84.2342 48.4002 84.4617C48.7845 84.6893 49.2457 84.7651 49.7069 84.7651Z" fill="#DCDCDC"/>
<path d="M57.5513 84.8398V87.9498L56.6289 88.4807V85.3708L57.5513 84.8398Z" fill="#C5C5C5"/>
<path d="M57.7763 86.4362V89.5462C57.6995 89.4703 57.6226 89.4703 57.6226 89.4703C57.4689 89.3944 57.3151 89.3186 57.2383 89.2427V86.1328C57.392 86.2087 57.5457 86.2845 57.6226 86.3604C57.6995 86.3604 57.6995 86.4362 57.7763 86.4362Z" fill="#858585"/>
<path d="M57.2384 86.1305V89.2405C57.1615 89.2405 57.0847 89.1646 57.0078 89.1646V86.0547C57.0847 86.1305 57.1615 86.1305 57.2384 86.1305Z" fill="#8A8A8A"/>
<path d="M57.0092 86.0563V89.1663C56.9323 89.1663 56.9323 89.1663 56.8555 89.0904V85.9805C56.8555 86.0563 56.9323 86.0563 57.0092 86.0563Z" fill="#8F8F8F"/>
<path d="M56.7748 86.0547V89.1646C56.698 89.1646 56.698 89.1646 56.6211 89.1646V86.0547C56.698 86.0547 56.7748 86.0547 56.7748 86.0547Z" fill="#949494"/>
<path d="M56.7006 85.9805V89.0904C56.6237 89.0904 56.6237 89.0904 56.5469 89.0904V85.9805C56.6237 85.9805 56.6237 85.9805 56.7006 85.9805Z" fill="#999999"/>
<path d="M56.5483 85.9805V89.0904C56.4714 89.0904 56.4714 89.0904 56.3945 89.0904V85.9805C56.4714 85.9805 56.4714 85.9805 56.5483 85.9805Z" fill="#9E9E9E"/>
<path d="M56.392 85.9805V89.0904C56.3151 89.0904 56.3151 89.0904 56.2383 89.0904V85.9805C56.3151 85.9805 56.392 85.9805 56.392 85.9805Z" fill="#A3A3A3"/>
<path d="M56.3139 85.9805V89.0904C56.237 89.0904 56.237 89.0904 56.1602 89.0904V85.9805C56.237 85.9805 56.237 85.9805 56.3139 85.9805Z" fill="#A8A8A8"/>
<path d="M56.1615 85.9805V89.0904C56.0847 89.0904 56.0847 89.0904 56.0078 89.0904V85.9805C56.0847 85.9805 56.0847 85.9805 56.1615 85.9805Z" fill="#ADADAD"/>
<path d="M56.0079 86.0547V89.1646C55.9311 89.1646 55.8542 89.2405 55.7773 89.2405V86.1305C55.7773 86.0547 55.9311 86.0547 56.0079 86.0547Z" fill="#B3B3B3"/>
<path d="M55.701 86.0547V89.1646C55.4704 89.2405 55.1629 89.3922 54.8555 89.5439V86.4339C55.2398 86.2822 55.4704 86.1305 55.701 86.0547Z" fill="#B8B8B8"/>
<path d="M59.3914 85.7539V88.8638L58.0078 89.6982V86.5883L59.3914 85.7539Z" fill="#C5C5C5"/>
<path d="M58.0118 86.5853V89.6952C57.935 89.6194 57.8581 89.6194 57.7812 89.5435V86.4336C57.8581 86.5094 57.935 86.5094 58.0118 86.5853Z" fill="#858585"/>
<path d="M59.317 85.753C59.317 85.753 59.3938 85.753 59.3938 85.8289L58.0103 86.6633C57.9334 86.5874 57.8565 86.5874 57.7797 86.5116C57.7028 86.4357 57.626 86.4357 57.626 86.4357C57.0879 86.1323 56.5499 85.9806 56.0118 86.1323C55.7043 86.2082 55.32 86.3599 54.9357 86.5874L52.3992 87.8769L51.0156 87.1184L56.1655 84.1602L57.4722 84.9187L56.5499 85.4496C57.0879 85.3738 57.5491 85.3738 57.7797 85.3738C58.3946 85.2979 58.7789 85.4496 59.317 85.753Z" fill="#DCDCDC"/>
<path d="M54.935 86.4336V89.5435L52.3984 90.9847V87.8748L54.935 86.4336Z" fill="#C5C5C5"/>
<path d="M52.3992 87.8796V90.9895L51.0156 90.231L51.0925 87.1211L52.3992 87.8796Z" fill="#898989"/>
<path d="M61.9236 88.8656V91.9756C61.9236 91.748 61.7699 91.5204 61.3856 91.2929C61.3087 91.217 61.2319 91.217 61.0781 91.1412V88.0312C61.155 88.1071 61.3087 88.1071 61.3856 88.183C61.7699 88.4105 61.9236 88.6381 61.9236 88.8656Z" fill="#858585"/>
<path d="M61.1603 88.1071V91.217C61.0834 91.217 61.0066 91.1412 60.9297 91.1412V88.0312C61.0066 88.0312 61.0834 88.0313 61.1603 88.1071Z" fill="#8A8A8A"/>
<path d="M60.9311 88.0329V91.1428C60.8542 91.1428 60.8542 91.1428 60.7773 91.067V87.957C60.8542 87.957 60.8542 87.957 60.9311 88.0329Z" fill="#8F8F8F"/>
<path d="M60.7748 87.957V91.067C60.698 91.067 60.698 91.067 60.6211 91.067V87.957C60.698 87.957 60.698 87.957 60.7748 87.957Z" fill="#949494"/>
<path d="M60.6225 87.957V91.067C60.5456 91.067 60.5456 91.067 60.4688 91.067V87.957C60.5456 87.957 60.6225 87.957 60.6225 87.957Z" fill="#999999"/>
<path d="M60.4662 87.957V91.067C60.3894 91.067 60.3894 91.067 60.3125 91.067V87.957C60.3894 87.957 60.4662 87.957 60.4662 87.957Z" fill="#9E9E9E"/>
<path d="M60.3881 87.957V91.067C60.3112 91.067 60.3112 91.067 60.2344 91.067V87.957C60.2344 87.957 60.3112 87.957 60.3881 87.957Z" fill="#A3A3A3"/>
<path d="M60.2358 87.957V91.067H60.1589C60.1589 91.067 60.1589 91.067 60.082 91.067V87.957C60.082 87.957 60.082 87.957 60.1589 87.957C60.1589 87.957 60.1589 87.957 60.2358 87.957Z" fill="#A8A8A8"/>
<path d="M60.004 87.957V91.067C59.9272 91.067 59.8503 91.067 59.7734 91.067V87.957C59.8503 87.957 59.9272 87.957 60.004 87.957Z" fill="#ADADAD"/>
<path d="M59.775 87.957V91.067C59.6212 91.067 59.4675 91.1428 59.3906 91.1428V88.0329C59.5444 88.0329 59.6981 87.957 59.775 87.957Z" fill="#B3B3B3"/>
<path d="M59.3911 88.0312V91.1412C59.1605 91.217 58.8531 91.3687 58.5456 91.5204C58.5456 91.5204 58.4688 91.5204 58.4688 91.5963V88.4864C58.4688 88.4864 58.5456 88.4864 58.5456 88.4105C58.8531 88.2588 59.0837 88.183 59.3911 88.0312Z" fill="#B8B8B8"/>
<path d="M58.469 88.4883V91.5982C58.2384 91.7499 58.0847 91.8258 58.0078 91.9775V88.8675C58.1615 88.7158 58.3153 88.5641 58.469 88.4883Z" fill="#B3B3B3"/>
<path d="M58.0053 88.7891V91.899C57.9284 91.9748 57.8516 92.0507 57.8516 92.0507V88.9408C57.9284 88.9408 57.9284 88.8649 58.0053 88.7891Z" fill="#ADADAD"/>
<path d="M57.8503 89.0195V92.1295C57.8503 92.2053 57.7734 92.2053 57.7734 92.2812V89.1712C57.7734 89.0954 57.8503 89.0195 57.8503 89.0195Z" fill="#A8A8A8"/>
<path d="M57.7761 89.0977V92.2076C57.7761 92.2076 57.7761 92.2834 57.6992 92.2834V89.1735C57.6992 89.1735 57.7761 89.1735 57.7761 89.0977Z" fill="#A3A3A3"/>
<path d="M63.7683 89.168V92.2779C63.7683 92.3538 63.6914 92.4296 63.6914 92.5055V89.3955C63.6914 89.3197 63.7683 89.2438 63.7683 89.168Z" fill="#9E9E9E"/>
<path d="M63.6941 89.3945V92.5045C63.6941 92.5803 63.6172 92.6562 63.6172 92.732V89.6221C63.6172 89.5462 63.6941 89.4704 63.6941 89.3945Z" fill="#A3A3A3"/>
<path d="M63.6186 89.6211V92.731C63.5417 92.8069 63.5417 92.8827 63.4648 92.9586V89.8487C63.4648 89.8487 63.5417 89.7728 63.6186 89.6211Z" fill="#A8A8A8"/>
<path d="M63.3868 89.9258V93.0357C63.31 93.1116 63.2331 93.1874 63.1562 93.3391V90.2292C63.2331 90.0775 63.31 90.0016 63.3868 89.9258Z" fill="#ADADAD"/>
<path d="M63.1579 90.1562V93.2662C63.0042 93.4179 62.7736 93.5696 62.543 93.7213V90.6114C62.7736 90.4597 63.0042 90.308 63.1579 90.1562Z" fill="#B3B3B3"/>
<path d="M62.5436 90.6094V93.7193C62.5436 93.7193 62.4667 93.7193 62.4667 93.7952C62.1593 94.0227 61.7749 94.1744 61.3906 94.2503V91.1403C61.7749 90.9886 62.1593 90.8369 62.5436 90.6094C62.5436 90.6094 62.5436 90.6852 62.5436 90.6094Z" fill="#B8B8B8"/>
<path d="M61.3897 91.1406V94.2506C61.1591 94.3264 60.8517 94.4023 60.6211 94.4023V91.2923C60.9285 91.2923 61.1591 91.2165 61.3897 91.1406Z" fill="#B3B3B3"/>
<path d="M60.6162 91.293V94.4029C60.4624 94.4029 60.2319 94.4788 60.0781 94.4788V91.3688C60.3087 91.3688 60.4624 91.3688 60.6162 91.293Z" fill="#ADADAD"/>
<path d="M60.1578 91.3672V94.4771C60.0809 94.4771 60.004 94.4771 59.9272 94.4771C59.8503 94.4771 59.8503 94.4771 59.7734 94.4771V91.3672C59.8503 91.3672 59.8503 91.3672 59.9272 91.3672C59.9272 91.3672 60.0809 91.3672 60.1578 91.3672Z" fill="#A8A8A8"/>
<path d="M59.7723 91.4414V94.5513C59.6954 94.5513 59.5417 94.5513 59.4648 94.5513V91.4414C59.5417 91.4414 59.6186 91.4414 59.7723 91.4414Z" fill="#A3A3A3"/>
<path d="M59.4637 91.4414V94.5513C59.3868 94.5513 59.31 94.5513 59.1562 94.5513V91.4414C59.2331 91.4414 59.3868 91.4414 59.4637 91.4414Z" fill="#9E9E9E"/>
<path d="M59.1629 91.3672V94.4771C59.0861 94.4771 59.0092 94.4771 58.8555 94.4771V91.3672C59.0092 91.3672 59.0861 91.3672 59.1629 91.3672Z" fill="#999999"/>
<path d="M58.9285 91.3688V94.4788C58.8517 94.4788 58.698 94.4788 58.6211 94.4029V91.293C58.698 91.3688 58.7748 91.3688 58.9285 91.3688Z" fill="#949494"/>
<path d="M58.62 91.2907V94.4006C58.4662 94.4006 58.3894 94.3248 58.3125 94.3248V91.2148C58.3894 91.2907 58.4662 91.2907 58.62 91.2907Z" fill="#8F8F8F"/>
<path d="M58.2385 91.2142V94.3241C58.0848 94.2483 57.9311 94.2483 57.7773 94.1724V91.0625C57.9311 91.1384 58.0848 91.2142 58.2385 91.2142Z" fill="#8A8A8A"/>
<path d="M57.7758 91.0626V94.1726C57.5452 94.0967 57.3146 93.945 57.0072 93.7933C56.1617 93.3382 55.7773 92.8831 55.7773 92.3521V89.2422C55.7773 89.7732 56.1617 90.2283 57.0072 90.6834C57.3146 90.8351 57.5452 90.9868 57.7758 91.0626Z" fill="#858585"/>
<path d="M63.773 89.1687C63.6961 89.6997 63.2349 90.2306 62.4663 90.6857C61.6976 91.1408 60.8521 91.3684 59.8529 91.4442C58.8537 91.5201 57.9313 91.2925 57.0089 90.7616C56.0866 90.2306 55.7022 89.6997 55.7791 89.1687C55.856 88.6377 56.3171 88.1068 57.0858 87.6516C57.8544 87.1965 58.6999 86.969 59.6992 86.8931C60.6984 86.8173 61.6208 87.0448 62.5432 87.5758C63.4655 88.0309 63.8498 88.6377 63.773 89.1687ZM59.5454 90.3823C60.0066 90.3065 60.5447 90.1548 61.0827 89.8514C61.6208 89.5479 61.9282 89.2445 62.0051 88.9411C62.082 88.6377 61.9282 88.4102 61.4671 88.1826C61.0827 87.9551 60.6215 87.8792 60.1604 87.8792C59.6992 87.9551 59.1611 88.1068 58.6231 88.4102C58.085 88.7136 57.7776 89.017 57.7776 89.3204C57.7007 89.6238 57.8544 89.8514 58.2388 90.0789C58.6231 90.3065 59.0074 90.3823 59.5454 90.3823Z" fill="#DCDCDC"/>
<path d="M67.3858 90.4609V93.5709L66.6172 94.026V90.916L67.3858 90.4609Z" fill="#C5C5C5"/>
<path d="M67.9222 92.2006V95.3105C67.9222 95.1588 67.7685 95.0071 67.5379 94.8554C67.4611 94.7795 67.3842 94.7795 67.2305 94.7037V91.5938C67.3073 91.5938 67.3842 91.6696 67.5379 91.7455C67.7685 91.8972 67.9222 92.0489 67.9222 92.2006Z" fill="#858585"/>
<path d="M67.2319 91.5915V94.7014C67.155 94.7014 67.0781 94.6256 67.0781 94.6256V91.5156C67.155 91.5156 67.155 91.5156 67.2319 91.5915Z" fill="#8A8A8A"/>
<path d="M67.0795 91.5156V94.6256C67.0026 94.6256 67.0026 94.6256 66.9258 94.6256V91.5156C67.0026 91.5156 67.0026 91.5156 67.0795 91.5156Z" fill="#8F8F8F"/>
<path d="M66.9233 91.4414V94.5513C66.8464 94.5513 66.8464 94.5513 66.7695 94.5513V91.4414C66.8464 91.4414 66.9233 91.4414 66.9233 91.4414Z" fill="#949494"/>
<path d="M66.7709 91.4414V94.5513C66.7709 94.5513 66.6941 94.5513 66.6172 94.5513V91.4414C66.6941 91.4414 66.7709 91.4414 66.7709 91.4414Z" fill="#999999"/>
<path d="M66.6928 91.4414V94.5513C66.6159 94.5513 66.6159 94.5513 66.5391 94.5513V91.4414C66.6159 91.4414 66.6159 91.4414 66.6928 91.4414Z" fill="#9E9E9E"/>
<path d="M66.5365 91.4414V94.5513C66.4597 94.5513 66.4597 94.5513 66.3828 94.5513V91.4414C66.4597 91.4414 66.5365 91.4414 66.5365 91.4414Z" fill="#A3A3A3"/>
<path d="M66.4623 91.4414V94.5513C66.3855 94.5513 66.3855 94.5513 66.3086 94.5513V91.4414C66.3855 91.4414 66.3855 91.4414 66.4623 91.4414Z" fill="#A8A8A8"/>
<path d="M66.3048 91.4414V94.5513C66.2279 94.5513 66.1511 94.5513 66.0742 94.5513V91.4414C66.1511 91.4414 66.2279 91.4414 66.3048 91.4414Z" fill="#ADADAD"/>
<path d="M66.0796 91.4414V94.5513C66.0028 94.5513 66.0028 94.5513 65.9259 94.5513C65.849 94.5513 65.7722 94.5513 65.6953 94.6272V91.5173C65.7722 91.5173 65.849 91.4414 65.9259 91.4414C66.0028 91.5173 66.0796 91.5173 66.0796 91.4414Z" fill="#B3B3B3"/>
<path d="M65.7699 91.5938V94.7037C65.5393 94.7795 65.3087 94.8554 65.0781 95.0071V91.8972C65.3087 91.7455 65.5393 91.5938 65.7699 91.5938Z" fill="#B8B8B8"/>
<path d="M69.9206 92.5781V95.6881C69.9206 95.6881 69.9206 95.7639 69.8438 95.7639V92.654C69.9206 92.654 69.9206 92.654 69.9206 92.5781Z" fill="#A3A3A3"/>
<path d="M69.9206 92.7305V95.8404C69.9206 95.9163 69.8438 95.9163 69.8438 95.9921V92.8822C69.8438 92.8063 69.8438 92.7305 69.9206 92.7305Z" fill="#A8A8A8"/>
<path d="M69.8451 92.8047V95.9146C69.7683 95.9905 69.7683 95.9905 69.6914 96.0663V92.9564C69.6914 92.9564 69.7683 92.8805 69.8451 92.8047Z" fill="#ADADAD"/>
<path d="M69.6877 93.0312V96.1412C69.534 96.2929 69.3803 96.3687 69.2266 96.5204V93.4105C69.3803 93.2588 69.534 93.1071 69.6877 93.0312Z" fill="#B3B3B3"/>
<path d="M69.1511 93.3398V96.4498C69.1511 96.4498 69.0742 96.4498 69.0742 96.5256L69.1511 93.3398C69.1511 93.3398 69.1511 93.4157 69.1511 93.3398Z" fill="#B8B8B8"/>
<path d="M65.0784 91.8984V94.9325L62.2344 96.6013V93.4913L65.0784 91.8984Z" fill="#C5C5C5"/>
<path d="M62.2351 93.4929V96.6028L60.8516 95.7685V92.7344L62.2351 93.4929Z" fill="#898989"/>
<path d="M69.0761 93.4141V96.4481L65.6172 98.4961V95.3862L69.0761 93.4141Z" fill="#C5C5C5"/>
<path d="M65.614 95.3874V98.4974L64.2305 97.663V94.6289L65.614 95.3874Z" fill="#898989"/>
<path d="M69.076 91.2915C69.6141 91.5949 69.9215 91.8983 69.9984 92.2775C70.0753 92.6568 69.7678 92.9602 69.076 93.3395L65.6171 95.3116L64.2336 94.4773L67.385 92.6568C67.6925 92.5051 67.8462 92.3534 67.9231 92.2017C68.0768 91.9741 67.9231 91.7466 67.5388 91.519C67.0776 91.2915 66.5395 91.2156 66.0015 91.2915C65.694 91.3673 65.3866 91.519 65.0791 91.6707L62.2351 93.2636L60.8516 92.5051L66.0015 89.5469L67.3082 90.3054L66.5395 90.7605C67.0007 90.6847 67.3082 90.6847 67.6156 90.6847C68.2305 90.9122 68.6149 91.0639 69.076 91.2915Z" fill="#DCDCDC"/>
<path d="M73.9158 95.6898V98.7998C73.9158 98.5722 73.7621 98.3447 73.3778 98.1171C73.3009 98.0413 73.1472 98.0413 73.0703 97.9654V94.8555C73.1472 94.9313 73.3009 94.9313 73.3778 95.0072C73.7621 95.2347 73.9158 95.4623 73.9158 95.6898Z" fill="#858585"/>
<path d="M73.1525 94.9313V98.0413C73.0756 98.0413 72.9987 97.9654 72.9219 97.9654V94.8555C72.9987 94.8555 73.0756 94.8555 73.1525 94.9313Z" fill="#8A8A8A"/>
<path d="M72.9233 94.8571V97.967C72.8464 97.967 72.8464 97.967 72.7695 97.8912V94.7812C72.8464 94.7812 72.9233 94.8571 72.9233 94.8571Z" fill="#8F8F8F"/>
<path d="M72.767 94.7812V97.8912C72.6901 97.8912 72.6901 97.8912 72.6133 97.8912V94.7812C72.6901 94.7812 72.767 94.7812 72.767 94.7812Z" fill="#949494"/>
<path d="M72.6147 94.7812V97.8912C72.5378 97.8912 72.5378 97.8912 72.4609 97.8912V94.7812C72.5378 94.7812 72.6147 94.7812 72.6147 94.7812Z" fill="#999999"/>
<path d="M72.5365 94.7812V97.8912C72.4597 97.8912 72.4597 97.8912 72.3828 97.8912V94.7812C72.3828 94.7812 72.4597 94.7812 72.5365 94.7812Z" fill="#9E9E9E"/>
<path d="M72.3803 94.7812V97.8912C72.3034 97.8912 72.3034 97.8912 72.2266 97.8912V94.7812C72.2266 94.7812 72.3034 94.7812 72.3803 94.7812Z" fill="#A3A3A3"/>
<path d="M72.228 94.7812V97.8912H72.1511H72.0742V94.7812H72.1511C72.1511 94.7812 72.1511 94.7812 72.228 94.7812Z" fill="#A8A8A8"/>
<path d="M71.9962 94.7812V97.8912C71.9194 97.8912 71.8425 97.8912 71.7656 97.8912V94.7812C71.8425 94.7812 71.9194 94.7812 71.9962 94.7812Z" fill="#ADADAD"/>
<path d="M71.7671 94.7812V97.8912C71.6134 97.8912 71.4597 97.967 71.3828 97.967V94.8571C71.5365 94.8571 71.6903 94.8571 71.7671 94.7812Z" fill="#B3B3B3"/>
<path d="M71.3833 94.9336V98.0435C71.1527 98.1194 70.8453 98.2711 70.5378 98.4228C70.5378 98.4228 70.4609 98.4228 70.4609 98.4986V95.3887C70.4609 95.3887 70.5378 95.3887 70.5378 95.3129C70.8453 95.0853 71.0759 95.0094 71.3833 94.9336Z" fill="#B8B8B8"/>
<path d="M70.4612 95.3125V98.4224C70.2306 98.5741 70.0769 98.65 70 98.8017V95.6918C70.1537 95.5401 70.3075 95.3884 70.4612 95.3125Z" fill="#B3B3B3"/>
<path d="M69.9975 95.6133V98.7232C69.9206 98.7991 69.8438 98.8749 69.8438 98.8749V95.765C69.9206 95.765 69.9206 95.6891 69.9975 95.6133Z" fill="#ADADAD"/>
<path d="M69.8425 95.8438V98.9537C69.8425 99.0295 69.7656 99.0295 69.7656 99.1054V95.9955C69.7656 95.9196 69.8425 95.8438 69.8425 95.8438Z" fill="#A8A8A8"/>
<path d="M69.7683 95.9219V99.0318C69.7683 99.0318 69.7683 99.1077 69.6914 99.1077V95.9977C69.6914 95.9977 69.7683 95.9977 69.7683 95.9219Z" fill="#A3A3A3"/>
<path d="M75.7605 95.9922V99.1021C75.7605 99.178 75.6836 99.2538 75.6836 99.3297V96.2197C75.6836 96.2197 75.7605 96.1439 75.7605 95.9922Z" fill="#9E9E9E"/>
<path d="M75.6862 96.2969V99.4068C75.6862 99.4827 75.6094 99.5585 75.6094 99.6344V96.5244C75.6094 96.4486 75.6862 96.3727 75.6862 96.2969Z" fill="#A3A3A3"/>
<path d="M75.6108 96.5234V99.6334C75.5339 99.7092 75.5339 99.7851 75.457 99.8609V96.751C75.457 96.6751 75.5339 96.5993 75.6108 96.5234Z" fill="#A8A8A8"/>
<path d="M75.379 96.75V99.8599C75.3022 99.9358 75.2253 100.012 75.1484 100.163V97.0534C75.2253 96.9017 75.3022 96.8259 75.379 96.75Z" fill="#ADADAD"/>
<path d="M75.1501 97.0547V100.165C74.9963 100.316 74.7657 100.468 74.5352 100.62V97.5098C74.7657 97.2822 74.9963 97.2064 75.1501 97.0547Z" fill="#B3B3B3"/>
<path d="M74.5358 97.4336V100.544C74.5358 100.544 74.4589 100.544 74.4589 100.619C74.1515 100.847 73.7671 100.999 73.3828 101.074V97.9646C73.7671 97.8129 74.1515 97.6611 74.5358 97.4336C74.5358 97.4336 74.5358 97.5094 74.5358 97.4336Z" fill="#B8B8B8"/>
<path d="M73.4562 97.9648V101.075C73.2256 101.151 72.995 101.226 72.6875 101.226V98.1165C72.9181 98.1165 73.1487 98.0407 73.4562 97.9648Z" fill="#B3B3B3"/>
<path d="M72.6904 98.1172V101.227C72.5367 101.227 72.3829 101.303 72.1523 101.303V98.193C72.3061 98.193 72.4598 98.193 72.6904 98.1172Z" fill="#ADADAD"/>
<path d="M72.1526 98.1914V101.301C72.0757 101.301 71.9989 101.301 71.8451 101.301C71.7683 101.301 71.7683 101.301 71.6914 101.301V98.1914C71.7683 98.1914 71.7683 98.1914 71.8451 98.1914C71.9989 98.2673 72.0757 98.1914 72.1526 98.1914Z" fill="#A8A8A8"/>
<path d="M71.7645 98.2656V101.376C71.6876 101.376 71.5339 101.376 71.457 101.376V98.2656C71.5339 98.2656 71.6108 98.2656 71.7645 98.2656Z" fill="#A3A3A3"/>
<path d="M71.4559 98.2656V101.376C71.379 101.376 71.3022 101.376 71.1484 101.376V98.2656C71.2253 98.2656 71.379 98.2656 71.4559 98.2656Z" fill="#9E9E9E"/>
<path d="M71.1551 98.2678V101.378C71.0782 101.378 71.0014 101.378 70.8477 101.378V98.2678C71.0014 98.192 71.0782 98.192 71.1551 98.2678Z" fill="#999999"/>
<path d="M70.9207 98.193V101.303C70.8439 101.303 70.6901 101.303 70.6133 101.227V98.1172C70.6901 98.193 70.767 98.193 70.9207 98.193Z" fill="#949494"/>
<path d="M70.6121 98.1149V101.225C70.4584 101.225 70.3816 101.149 70.3047 101.149V98.0391C70.3816 98.1149 70.4584 98.1149 70.6121 98.1149Z" fill="#8F8F8F"/>
<path d="M70.2307 98.0384V101.148C70.077 101.072 69.9233 101.072 69.7695 100.997V97.8867C69.9233 97.9626 70.077 98.0384 70.2307 98.0384Z" fill="#8A8A8A"/>
<path d="M69.768 97.8869V100.997C69.5374 100.921 69.3068 100.769 68.9994 100.618C68.1539 100.162 67.7695 99.7073 67.7695 99.1763V96.0664C67.7695 96.5974 68.1539 97.0525 68.9994 97.5076C69.3068 97.6593 69.5374 97.811 69.768 97.8869Z" fill="#858585"/>
<path d="M75.7652 95.9929C75.6883 96.5239 75.2271 97.0548 74.4585 97.5099C73.6898 97.9651 72.8443 98.1926 71.8451 98.2685C70.8459 98.3443 69.9235 98.1168 69.0011 97.5858C68.0787 97.0548 67.6944 96.5239 67.7713 95.9929C67.8481 95.4619 68.3093 94.931 69.078 94.4759C69.8466 94.0208 70.6921 93.7932 71.6914 93.7173C72.6906 93.6415 73.613 93.8691 74.5353 94.4C75.4577 94.931 75.842 95.4619 75.7652 95.9929ZM71.5376 97.2065C71.9988 97.1307 72.5369 96.979 73.0749 96.6756C73.613 96.3722 73.9204 96.0688 73.9204 95.7653C73.9973 95.4619 73.8436 95.2344 73.4592 95.0068C73.0749 94.7793 72.6137 94.7034 72.1525 94.7034C71.6914 94.7793 71.1533 94.931 70.6153 95.2344C70.0772 95.5378 69.7698 95.8412 69.7698 96.1446C69.6929 96.448 69.8466 96.6756 70.2309 96.9031C70.6153 97.1307 70.9996 97.2065 71.5376 97.2065Z" fill="#DCDCDC"/>
<path d="M83.6036 99.4844V102.518L79.9141 103.58V100.546L83.6036 99.4844Z" fill="#C3C3C3"/>
<path d="M78.3005 101.004V104.114L76.3789 104.645V101.535L78.3005 101.004Z" fill="#C3C3C3"/>
<path d="M76.3771 101.534V104.644L74.8398 103.733V100.699L76.3771 101.534Z" fill="#898989"/>
<path d="M80.9103 102.445V105.555L78.2969 104.114V101.004L80.9103 102.445Z" fill="#898989"/>
<path d="M86.062 99.029L81.527 104.49L79.9129 103.58L80.9121 102.518L78.2987 101.001L76.3771 101.532L74.8398 100.622L84.371 98.043L86.062 99.029ZM79.9129 100.546L81.6808 101.608L83.5255 99.4842L79.9129 100.546Z" fill="#DCDCDC"/>
<path d="M86.0584 99.0312V102.141L81.5234 107.603V104.493L86.0584 99.0312Z" fill="#B8B8B8"/>
<path d="M81.5282 104.488V107.598L79.9141 106.688V103.578L81.5282 104.488Z" fill="#898989"/>
<path d="M88.753 102.668V105.778L87.9844 106.233V103.123L88.753 102.668Z" fill="#C5C5C5"/>
<path d="M89.3702 104.567V107.677C89.3702 107.449 89.2165 107.298 88.909 107.07C88.8322 106.994 88.7553 106.994 88.6016 106.919V103.809C88.6784 103.809 88.7553 103.884 88.909 103.96C89.2165 104.112 89.3702 104.34 89.3702 104.567Z" fill="#858585"/>
<path d="M88.603 103.806V106.916C88.5261 106.916 88.4492 106.84 88.4492 106.84V103.73C88.4492 103.806 88.5261 103.806 88.603 103.806Z" fill="#8A8A8A"/>
<path d="M88.4467 103.73V106.84C88.3698 106.84 88.3698 106.84 88.293 106.84V103.73C88.293 103.73 88.3698 103.73 88.4467 103.73Z" fill="#8F8F8F"/>
<path d="M88.2943 103.73V106.84C88.2175 106.84 88.2175 106.84 88.1406 106.84V103.73C88.2175 103.73 88.2175 103.73 88.2943 103.73Z" fill="#949494"/>
<path d="M88.142 103.733V106.843C88.0651 106.843 88.0651 106.843 87.9883 106.843V103.733C88.0651 103.657 88.0651 103.733 88.142 103.733Z" fill="#999999"/>
<path d="M87.9858 103.656V106.766C87.9089 106.766 87.9089 106.766 87.832 106.766V103.656C87.9089 103.656 87.9858 103.656 87.9858 103.656Z" fill="#9E9E9E"/>
<path d="M87.9115 103.656V106.766C87.8347 106.766 87.8347 106.766 87.7578 106.766V103.656C87.8347 103.656 87.8347 103.656 87.9115 103.656Z" fill="#A3A3A3"/>
<path d="M87.7592 103.656V106.766C87.6823 106.766 87.6823 106.766 87.6055 106.766V103.656C87.6055 103.656 87.6823 103.656 87.7592 103.656Z" fill="#A8A8A8"/>
<path d="M87.6017 103.656V106.766C87.5248 106.766 87.448 106.766 87.3711 106.766V103.656C87.448 103.732 87.5248 103.732 87.6017 103.656Z" fill="#ADADAD"/>
<path d="M87.3713 103.73V106.84C87.2945 106.84 87.2176 106.84 87.1407 106.916C87.0639 106.916 86.987 106.916 86.9102 106.992V103.882C86.987 103.882 87.0639 103.806 87.1407 103.806C87.2176 103.73 87.2945 103.73 87.3713 103.73Z" fill="#B3B3B3"/>
<path d="M86.9875 103.809V106.919C86.6801 106.994 86.3726 107.146 86.0651 107.298H85.9883V104.188H86.0651C86.3726 104.036 86.6801 103.884 86.9875 103.809Z" fill="#B8B8B8"/>
<path d="M85.9846 104.262V107.372C85.8309 107.448 85.6772 107.599 85.5234 107.675V104.565C85.6772 104.489 85.8309 104.338 85.9846 104.262Z" fill="#B3B3B3"/>
<path d="M85.6029 104.57V107.68C85.5261 107.756 85.5261 107.756 85.4492 107.832V104.722C85.4492 104.646 85.5261 104.646 85.6029 104.57Z" fill="#ADADAD"/>
<path d="M85.448 104.719V107.829C85.448 107.905 85.3711 107.905 85.3711 107.98V104.87C85.3711 104.795 85.3711 104.795 85.448 104.719Z" fill="#A8A8A8"/>
<path d="M85.3737 104.871V107.981C85.3737 107.981 85.3737 108.057 85.2969 108.057V104.947C85.2969 104.871 85.3737 104.871 85.3737 104.871Z" fill="#A3A3A3"/>
<path d="M84.2957 105.324V108.358L81.6055 109.951V106.841L84.2957 105.324Z" fill="#C5C5C5"/>
<path d="M81.6062 106.841V109.95L80.2227 109.192V106.082L81.6062 106.841Z" fill="#898989"/>
<path d="M91.3666 104.793C91.3666 105.323 90.9054 105.779 90.0599 106.31C89.1375 106.841 88.2151 107.144 87.3696 107.144C86.4473 107.144 85.6786 106.992 85.0637 106.613C84.6794 106.385 84.3719 106.082 84.3719 105.854C84.2951 105.703 84.3719 105.551 84.4488 105.323L81.7586 106.841L80.375 106.082L87.6002 101.91L88.9069 102.669L88.1383 103.124C88.5226 103.048 88.8301 103.048 89.1375 103.124C89.6756 103.2 90.1367 103.275 90.5979 103.579C91.0591 103.882 91.3666 104.262 91.3666 104.793ZM87.0622 106.006C87.5234 105.93 88.0614 105.779 88.5226 105.475C88.9069 105.248 89.2144 105.02 89.2912 104.717C89.445 104.413 89.2912 104.186 88.8301 103.958C88.292 103.655 87.754 103.579 87.139 103.806C86.7547 103.882 86.4473 104.034 86.0629 104.262C85.448 104.641 85.2174 104.944 85.2943 105.248C85.3712 105.475 85.5249 105.627 85.7555 105.779C86.1398 105.93 86.601 106.082 87.0622 106.006Z" fill="#DCDCDC"/>
<path d="M91.3659 104.941V108.051C91.3659 108.127 91.3659 108.127 91.2891 108.203V105.093C91.2891 105.017 91.2891 104.941 91.3659 104.941Z" fill="#9E9E9E"/>
<path d="M91.2917 105.094V108.204C91.2917 108.28 91.2148 108.28 91.2148 108.355V105.245C91.2148 105.17 91.2917 105.094 91.2917 105.094Z" fill="#A3A3A3"/>
<path d="M91.2162 105.242V108.352C91.2162 108.428 91.1394 108.504 91.0625 108.58V105.47C91.1394 105.394 91.1394 105.318 91.2162 105.242Z" fill="#A8A8A8"/>
<path d="M91.0587 105.395V108.504C90.9819 108.58 90.905 108.656 90.8281 108.732V105.622C90.905 105.622 90.9819 105.546 91.0587 105.395Z" fill="#ADADAD"/>
<path d="M90.8285 105.703V108.813C90.6748 108.965 90.4442 109.116 90.1367 109.344V106.234C90.4442 106.007 90.6748 105.855 90.8285 105.703Z" fill="#B3B3B3"/>
<path d="M90.1375 106.23V109.34L90.0606 109.416C89.5994 109.644 89.1382 109.871 88.7539 110.023V106.913C89.2151 106.761 89.6763 106.61 90.0606 106.306C90.0606 106.23 90.0606 106.23 90.1375 106.23Z" fill="#B8B8B8"/>
<path d="M88.6762 106.836V109.946C88.4456 110.022 88.215 110.098 87.9844 110.098V106.988C88.215 106.988 88.4456 106.912 88.6762 106.836Z" fill="#B3B3B3"/>
<path d="M87.9859 107.062V110.172C87.8322 110.172 87.7553 110.248 87.6016 110.248V107.138C87.7553 107.063 87.8322 107.062 87.9859 107.062Z" fill="#ADADAD"/>
<path d="M87.6031 107.062V110.172C87.5262 110.172 87.4493 110.172 87.2956 110.172C87.2956 110.172 87.2956 110.172 87.2188 110.172V107.062C87.2188 107.062 87.2187 107.062 87.2956 107.062C87.3725 107.062 87.5262 107.062 87.6031 107.062Z" fill="#A8A8A8"/>
<path d="M87.2957 107.141V110.251C87.2189 110.251 87.0651 110.251 86.9883 110.251V107.141C87.0651 107.141 87.142 107.141 87.2957 107.141Z" fill="#A3A3A3"/>
<path d="M86.9129 107.139V110.249C86.8361 110.249 86.6823 110.249 86.6055 110.249V107.139C86.7592 107.063 86.8361 107.139 86.9129 107.139Z" fill="#9E9E9E"/>
<path d="M86.6043 107.062V110.172C86.5275 110.172 86.4506 110.172 86.2969 110.172V107.062C86.4506 107.062 86.5275 107.062 86.6043 107.062Z" fill="#999999"/>
<path d="M86.3699 107.064V110.174C86.2931 110.174 86.2162 110.174 86.0625 110.098V106.988C86.2162 107.064 86.2931 107.064 86.3699 107.064Z" fill="#949494"/>
<path d="M86.0653 106.99V110.1C85.9884 110.1 85.8347 110.024 85.7578 110.024V106.914C85.9115 106.99 85.9884 106.99 86.0653 106.99Z" fill="#8F8F8F"/>
<path d="M85.8335 106.913V110.023C85.6798 110.023 85.6029 109.948 85.4492 109.872V106.762C85.6029 106.838 85.6798 106.913 85.8335 106.913Z" fill="#8A8A8A"/>
<path d="M85.4498 106.841V109.951C85.2961 109.875 85.1424 109.799 84.9887 109.723C84.6043 109.496 84.2969 109.192 84.2969 108.965C84.2969 108.889 84.2969 108.889 84.2969 108.813V105.703C84.2969 105.779 84.2969 105.855 84.2969 105.855C84.3737 106.158 84.6043 106.386 84.9887 106.613C85.1424 106.689 85.2961 106.765 85.4498 106.841Z" fill="#858585"/>
<path d="M94.7452 106.082V109.192L93.9766 109.647V106.537L94.7452 106.082Z" fill="#C5C5C5"/>
<path d="M95.3624 107.981V111.091C95.3624 110.864 95.2087 110.712 94.9012 110.484C94.8243 110.408 94.7475 110.408 94.5938 110.333V107.223C94.6706 107.223 94.7475 107.299 94.9012 107.374C95.2087 107.526 95.3624 107.754 95.3624 107.981Z" fill="#858585"/>
<path d="M94.5951 107.22V110.33C94.5183 110.33 94.4414 110.254 94.4414 110.254V107.145C94.4414 107.22 94.5183 107.22 94.5951 107.22Z" fill="#8A8A8A"/>
<path d="M94.4389 107.145V110.254C94.362 110.254 94.362 110.254 94.2852 110.254V107.145C94.2852 107.145 94.362 107.145 94.4389 107.145Z" fill="#8F8F8F"/>
<path d="M94.2865 107.145V110.254C94.2097 110.254 94.2097 110.254 94.1328 110.254V107.145C94.2097 107.145 94.2097 107.145 94.2865 107.145Z" fill="#949494"/>
<path d="M94.1342 107.145V110.254C94.0573 110.254 94.0573 110.254 93.9805 110.254V107.145C94.0573 107.145 94.1342 107.145 94.1342 107.145Z" fill="#999999"/>
<path d="M93.978 107.07V110.18C93.9011 110.18 93.9011 110.18 93.8242 110.18V107.07C93.9011 107.07 93.978 107.07 93.978 107.07Z" fill="#9E9E9E"/>
<path d="M93.9037 107.07V110.18C93.8269 110.18 93.8269 110.18 93.75 110.18V107.07C93.8269 107.07 93.8269 107.07 93.9037 107.07Z" fill="#A3A3A3"/>
<path d="M93.7514 107.07V110.18C93.6745 110.18 93.6745 110.18 93.5977 110.18V107.07C93.6745 107.07 93.6745 107.07 93.7514 107.07Z" fill="#A8A8A8"/>
<path d="M93.5939 107.145V110.254C93.517 110.254 93.4401 110.254 93.3633 110.254V107.145C93.4401 107.145 93.517 107.145 93.5939 107.145Z" fill="#ADADAD"/>
<path d="M93.3635 107.145V110.254C93.2867 110.254 93.2098 110.254 93.1329 110.33C93.0561 110.33 92.9792 110.33 92.9023 110.406V107.296C92.9792 107.296 93.0561 107.22 93.1329 107.22C93.2098 107.145 93.2867 107.145 93.3635 107.145Z" fill="#B3B3B3"/>
<path d="M92.9797 107.223V110.333C92.6722 110.408 92.3648 110.56 92.0573 110.712H91.9805V107.602H92.0573C92.3648 107.45 92.6722 107.299 92.9797 107.223Z" fill="#B8B8B8"/>
<path d="M91.9768 107.676V110.786C91.8231 110.862 91.6694 111.013 91.5156 111.089V107.979C91.6694 107.903 91.8231 107.752 91.9768 107.676Z" fill="#B3B3B3"/>
<path d="M91.5951 107.984V111.094C91.5183 111.17 91.5183 111.17 91.4414 111.246V108.136C91.4414 108.06 91.5183 108.06 91.5951 107.984Z" fill="#ADADAD"/>
<path d="M91.4401 108.133V111.243L91.3633 111.319V108.209C91.3633 108.209 91.3633 108.209 91.4401 108.133Z" fill="#A8A8A8"/>
<path d="M91.3659 108.285V111.395C91.3659 111.395 91.3659 111.471 91.2891 111.471V108.361C91.2891 108.285 91.2891 108.285 91.3659 108.285Z" fill="#A3A3A3"/>
<path d="M90.2879 108.738V111.772L87.5977 113.365V110.255L90.2879 108.738Z" fill="#C5C5C5"/>
<path d="M87.5984 110.255V113.365L86.2148 112.606V109.496L87.5984 110.255Z" fill="#898989"/>
<path d="M97.3575 108.207C97.3575 108.738 96.8963 109.193 96.0508 109.724C95.1285 110.255 94.2061 110.558 93.3606 110.558C92.4382 110.634 91.6696 110.406 91.0546 110.027C90.6703 109.799 90.3629 109.496 90.286 109.269C90.286 109.117 90.286 108.965 90.3629 108.738L87.6726 110.255L86.2891 109.496L93.5143 105.324L94.821 106.083L94.0524 106.538C94.4367 106.462 94.7441 106.462 95.0516 106.538C95.5896 106.614 96.0508 106.69 96.512 106.993C97.0501 107.296 97.3575 107.676 97.3575 108.207ZM93.0531 109.42C93.5143 109.344 94.0524 109.193 94.5135 108.889C94.8979 108.662 95.2053 108.434 95.2822 108.131C95.4359 107.827 95.2822 107.6 94.821 107.372C94.2829 107.069 93.7449 106.993 93.13 107.221C92.7457 107.296 92.4382 107.448 92.0539 107.676C91.439 108.055 91.2084 108.358 91.2852 108.662C91.3621 108.889 91.5158 109.041 91.7464 109.193C92.1307 109.344 92.5919 109.496 93.0531 109.42Z" fill="#DCDCDC"/>
<path d="M97.3581 108.355V111.465C97.3581 111.541 97.3581 111.541 97.2813 111.617V108.507C97.2813 108.431 97.2812 108.355 97.3581 108.355Z" fill="#9E9E9E"/>
<path d="M97.28 108.508V111.618C97.28 111.694 97.2031 111.769 97.2031 111.769V108.66C97.2031 108.584 97.28 108.508 97.28 108.508Z" fill="#A3A3A3"/>
<path d="M97.2045 108.656V111.766C97.2045 111.842 97.1276 111.918 97.0508 111.994V108.884C97.1276 108.808 97.1276 108.732 97.2045 108.656Z" fill="#A8A8A8"/>
<path d="M97.0509 108.883V111.993C96.974 112.069 96.8972 112.144 96.8203 112.22V109.11C96.8972 109.035 96.974 108.959 97.0509 108.883Z" fill="#ADADAD"/>
<path d="M96.8246 109.117V112.227C96.6709 112.379 96.4403 112.531 96.1328 112.758V109.648C96.3634 109.421 96.594 109.269 96.8246 109.117Z" fill="#B3B3B3"/>
<path d="M96.1297 109.645V112.754L96.0528 112.83C95.5916 113.058 95.1304 113.285 94.7461 113.437V110.327C95.2073 110.175 95.5916 110.024 96.0528 109.72C96.0528 109.645 96.0528 109.645 96.1297 109.645Z" fill="#B8B8B8"/>
<path d="M94.6683 110.25V113.36C94.4377 113.436 94.2072 113.512 93.9766 113.512V110.402C94.2072 110.402 94.4377 110.326 94.6683 110.25Z" fill="#B3B3B3"/>
<path d="M93.9742 110.477V113.586C93.8204 113.586 93.7436 113.662 93.5898 113.662V110.552C93.7436 110.477 93.8204 110.477 93.9742 110.477Z" fill="#ADADAD"/>
<path d="M93.5914 110.477V113.586C93.5145 113.586 93.4376 113.586 93.2839 113.586H93.207V110.477H93.2839C93.3608 110.477 93.5145 110.477 93.5914 110.477Z" fill="#A8A8A8"/>
<path d="M93.2098 110.555V113.665C93.1329 113.665 92.9792 113.665 92.9023 113.665V110.555C93.0561 110.555 93.1329 110.555 93.2098 110.555Z" fill="#A3A3A3"/>
<path d="M92.9012 110.553V113.663C92.8243 113.663 92.6706 113.663 92.5938 113.663V110.553C92.7475 110.477 92.8243 110.553 92.9012 110.553Z" fill="#9E9E9E"/>
<path d="M92.5926 110.477V113.586C92.5157 113.586 92.4389 113.586 92.2852 113.586V110.477C92.4389 110.477 92.5157 110.477 92.5926 110.477Z" fill="#999999"/>
<path d="M92.3661 110.478V113.588C92.2892 113.588 92.2123 113.588 92.0586 113.512V110.402C92.2123 110.478 92.2892 110.478 92.3661 110.478Z" fill="#949494"/>
<path d="M92.0575 110.404V113.514C91.9806 113.514 91.8269 113.438 91.75 113.438V110.328C91.9037 110.404 91.9806 110.404 92.0575 110.404Z" fill="#8F8F8F"/>
<path d="M91.8257 110.327V113.437C91.672 113.437 91.5951 113.362 91.4414 113.286V110.176C91.5951 110.327 91.672 110.327 91.8257 110.327Z" fill="#8A8A8A"/>
<path d="M91.4408 110.252V113.362C91.287 113.286 91.1333 113.21 90.9796 113.134C90.5953 112.907 90.2878 112.603 90.2109 112.376V109.266C90.2878 109.569 90.5184 109.797 90.9796 110.024C91.1333 110.1 91.287 110.176 91.4408 110.252Z" fill="#858585"/>
</g>
<defs>
<clipPath id="clip0">
<rect x="76.5" y="37.0898" width="97.3655" height="62.5921" fill="white"/>
</clipPath>
<clipPath id="clip1">
<rect x="39.4062" y="76.5" width="57.9557" height="37.0916" fill="white"/>
</clipPath>
</defs>
</svg>
