<svg width="150" height="144" viewBox="0 0 150 144" fill="none" xmlns="http://www.w3.org/2000/svg">
<path d="M58.7721 46.3203L49.5195 51.6941L52.3882 70.5225L58.7721 66.8053L65.1964 70.5225L68.0651 51.6941L58.7721 46.3203Z" fill="#8C5E4C"/>
<path d="M58.8495 59.6915L58.8091 76.0148L49.2737 70.5198L45.0312 51.6914L58.8495 59.6915Z" fill="url(#paint0_linear)"/>
<path d="M72.5865 51.6914L68.3036 70.5198L58.8086 76.0148L58.849 59.6915L72.5865 51.6914Z" fill="url(#paint1_linear)"/>
<path d="M48.7891 68.3008L49.2739 70.523L58.8093 76.018H58.8497V74.119L48.7891 68.3008Z" fill="#EDA468"/>
<path d="M68.7871 68.3438L58.8477 74.1216V76.0206L68.3023 70.5256L68.7871 68.3438Z" fill="#B57962"/>
<path opacity="0.3" d="M58.8495 60.0551L72.5062 52.0954L72.587 51.6914L58.8495 59.6915L45.0312 51.6914L45.1121 52.0954L58.8495 60.0551Z" fill="white"/>
<path d="M58.7687 43.7344L72.587 51.7344L58.8495 59.7345L45.0312 51.694L58.7687 43.7344ZM58.8091 57.0678L68.0617 51.694L58.7687 46.3203L49.5161 51.694L58.8091 57.0678Z" fill="#C8C8E5"/>
<path d="M53.395 56.5414C53.5162 56.5414 53.6374 56.5414 53.799 56.5414C54.8899 56.4202 55.4556 55.9354 55.9808 55.4505L49.5161 51.6929L55.0515 48.4606C54.1222 48.2585 53.3545 48.5818 52.2232 47.6121C52.1828 47.5717 52.1424 47.5717 52.1424 47.5312L45.0312 51.6929L53.395 56.5414Z" fill="#ACACD1"/>
<path d="M49.9167 26.2004C50.2804 23.7762 49.3915 23.7762 50.1591 21.3519C51.048 18.9277 52.2198 17.9984 53.2299 15.6953C54.8865 17.5943 56.3006 18.1196 57.8764 20.1398C59.3309 22.2408 58.5228 22.5236 59.6138 24.7055C60.5835 26.9277 61.634 26.7257 62.4825 29.0692C63.2502 31.453 61.9976 31.6146 62.3613 33.9985C62.6037 36.3823 64.0582 36.3419 64.1795 38.847C64.1795 41.3521 62.5633 41.3117 62.24 43.6955C61.7552 46.0794 63.533 46.2814 62.8865 48.7461C62.1188 51.1703 60.2198 50.8471 59.1289 53.1097C57.3915 51.2915 55.6945 52.1804 54.1996 50.0794C52.8258 47.938 54.442 47.2107 53.2703 45.0693C52.1794 42.8874 50.6844 43.4127 49.9167 41.0288C49.2702 38.6046 50.644 38.2409 50.1591 35.8571C49.7955 33.4732 48.543 33.6752 48.543 31.2106C48.6238 28.7055 49.6743 28.6247 49.9167 26.2004Z" fill="url(#paint2_linear)"/>
<path d="M64.1425 38.8042C64.0617 36.9052 63.1728 36.4608 62.6476 35.2891C62.5668 35.5315 62.486 35.8143 62.3243 36.1376C61.4354 38.077 60.2637 37.6325 59.496 39.6931C58.8092 41.7942 60.1425 42.1982 59.7789 44.2992C59.5364 46.4407 58.0011 46.1174 57.8799 48.3397C57.8395 50.2791 59.092 50.7235 59.6172 52.2185C60.7082 50.8851 62.1627 50.8043 62.8092 48.7437C63.4557 46.279 61.6779 46.077 62.1627 43.6932C62.5668 41.2689 64.1425 41.3093 64.1425 38.8042Z" fill="#A9D1B5"/>
<path d="M49.677 27.4922C50.5659 28.6639 50.2022 29.1488 51.2527 30.6841C52.3841 32.5023 53.2326 32.1791 54.2831 34.1185C55.2124 36.0983 54.1619 36.3811 54.7679 38.4418C55.2932 40.5024 56.5457 40.26 56.9498 42.4014C57.273 44.5832 55.8588 44.7448 55.8588 46.8863C55.7376 49.0277 57.3134 48.9873 57.0306 51.2095C56.9902 51.452 56.9498 51.654 56.8689 51.8156C55.8992 51.4924 54.9699 51.2903 54.1215 50.0782C52.7477 47.9368 54.3639 47.2095 53.1922 45.0681C52.1012 42.8862 50.6063 43.4115 49.8386 41.0276C49.1921 38.6034 50.5659 38.2397 50.081 35.8559C49.7174 33.472 48.4648 33.6741 48.4648 31.2094C48.5861 29.27 49.2729 28.7447 49.677 27.4922Z" fill="#A9D1B5"/>
<g opacity="0.5">
<path opacity="0.5" d="M53.0352 14.4414L59.2574 54.5225" stroke="white" stroke-width="0.5" stroke-miterlimit="10" stroke-linejoin="round"/>
<path opacity="0.5" d="M48.1445 45.0237L58.6901 50.7612L66.973 42.0742" stroke="white" stroke-width="0.5" stroke-miterlimit="10" stroke-linejoin="round"/>
<path opacity="0.5" d="M47.1758 38.8036L57.7213 44.5815L66.0042 35.8945" stroke="white" stroke-width="0.5" stroke-miterlimit="10" stroke-linejoin="round"/>
<path opacity="0.5" d="M46.2461 32.624L56.7512 38.4018L65.0745 29.7148" stroke="white" stroke-width="0.5" stroke-miterlimit="10" stroke-linejoin="round"/>
<path opacity="0.5" d="M45.2773 26.4378L55.8229 32.1752L64.1058 23.4883" stroke="white" stroke-width="0.5" stroke-miterlimit="10" stroke-linejoin="round"/>
<path opacity="0.5" d="M44.3047 20.2177L54.8502 25.9955L63.1331 17.3086" stroke="white" stroke-width="0.5" stroke-miterlimit="10" stroke-linejoin="round"/>
<path opacity="0.5" d="M43.3359 14.0355L53.8815 19.7729L62.1644 11.0859" stroke="white" stroke-width="0.5" stroke-miterlimit="10" stroke-linejoin="round"/>
</g>
<path d="M37.191 40.4998C36.1 38.6412 35.494 39.126 34.6859 37.025C33.9586 34.8836 34.2818 33.5906 33.6758 31.4492C35.8576 31.8533 37.1102 31.4492 39.292 31.9745C41.4334 32.6209 41.0294 33.2674 42.9688 34.1563C44.8678 35.1664 45.4334 34.4391 47.3325 35.5705C49.1506 36.7826 48.383 37.5907 49.9587 39.0452C51.4537 40.5402 52.383 39.7321 53.8376 41.3887C55.2113 43.0857 54.08 43.9342 55.1709 45.7928C56.1406 47.6918 57.4739 46.8837 58.3628 48.9039C59.1709 51.0049 57.676 51.813 58.1608 53.9948C55.979 53.712 55.2921 55.2474 53.1103 54.6009C51.0092 53.8736 51.7365 52.4999 49.7163 51.6514C47.7769 50.7221 47.0092 51.9342 45.191 50.7221C43.4132 49.4292 44.1809 48.3786 42.5647 47.0453C40.989 45.5907 40.2617 46.4392 38.8879 44.7018C37.6758 42.9241 38.3627 42.2776 37.191 40.4998Z" fill="url(#paint3_linear)"/>
<g opacity="0.5">
<path opacity="0.5" d="M32.9102 30.7227L59.1326 54.8441" stroke="white" stroke-width="0.5" stroke-miterlimit="10" stroke-linejoin="round"/>
<path opacity="0.5" d="M46.2852 54.3975L56.7095 52.5793L57.6388 42.0742" stroke="white" stroke-width="0.5" stroke-miterlimit="10" stroke-linejoin="round"/>
<path opacity="0.5" d="M42.2422 50.6788L52.6261 48.8606L53.5958 38.3555" stroke="white" stroke-width="0.5" stroke-miterlimit="10" stroke-linejoin="round"/>
<path opacity="0.5" d="M38.1992 46.9196L48.5831 45.1418L49.5124 34.6367" stroke="white" stroke-width="0.5" stroke-miterlimit="10" stroke-linejoin="round"/>
<path opacity="0.5" d="M34.1211 43.2022L44.505 41.384L45.4747 30.8789" stroke="white" stroke-width="0.5" stroke-miterlimit="10" stroke-linejoin="round"/>
<path opacity="0.5" d="M30.082 39.4874L40.4659 37.6692L41.3952 27.1641" stroke="white" stroke-width="0.5" stroke-miterlimit="10" stroke-linejoin="round"/>
<path opacity="0.5" d="M26 35.7296L36.4243 33.9114L37.3536 23.4062" stroke="white" stroke-width="0.5" stroke-miterlimit="10" stroke-linejoin="round"/>
</g>
<path d="M71.8154 31.1252C73.5932 29.913 73.068 29.3474 75.1286 28.3777C77.2296 27.5292 78.5226 27.7312 80.5832 27.0039C80.3407 29.1857 80.8256 30.4383 80.462 32.6605C79.9771 34.8424 79.2902 34.4787 78.5225 36.4989C77.6741 38.4383 78.4013 39.004 77.3912 40.9434C76.3003 42.8424 75.4518 42.1555 74.1185 43.8121C72.7043 45.3879 73.5932 46.2768 72.0579 47.8526C70.4417 49.3475 69.5124 48.297 67.7346 49.4687C65.9164 50.6001 66.8053 51.8526 64.8255 52.9031C62.8053 53.8728 61.876 52.4182 59.7345 53.0647C59.8557 50.8425 58.28 50.2768 58.7648 48.095C59.3305 45.9536 60.785 46.5596 61.4719 44.5394C62.2396 42.5596 60.9871 41.8727 62.1184 39.9737C63.2901 38.1151 64.381 38.802 65.5932 37.0646C66.9265 35.408 66.0376 34.7211 67.6538 33.2666C69.4316 31.7716 70.1184 32.4181 71.8154 31.1252Z" fill="url(#paint4_linear)"/>
<g opacity="0.5">
<path opacity="0.5" d="M81.2654 26.1523L59.043 53.9909" stroke="white" stroke-width="0.5" stroke-miterlimit="10" stroke-linejoin="round"/>
<path opacity="0.5" d="M58.5586 41.1836L61.1041 51.4059L71.6496 51.6079" stroke="white" stroke-width="0.5" stroke-miterlimit="10" stroke-linejoin="round"/>
<path opacity="0.5" d="M62.0312 36.8633L64.5363 47.126L75.0819 47.328" stroke="white" stroke-width="0.5" stroke-miterlimit="10" stroke-linejoin="round"/>
<path opacity="0.5" d="M65.4688 32.5352L67.9738 42.7979L78.5194 42.9999" stroke="white" stroke-width="0.5" stroke-miterlimit="10" stroke-linejoin="round"/>
<path opacity="0.5" d="M68.9023 28.2539L71.4074 38.4762L81.9934 38.6782" stroke="white" stroke-width="0.5" stroke-miterlimit="10" stroke-linejoin="round"/>
<path opacity="0.5" d="M72.3359 23.9336L74.8814 34.1963L85.427 34.3983" stroke="white" stroke-width="0.5" stroke-miterlimit="10" stroke-linejoin="round"/>
<path opacity="0.5" d="M75.7734 19.6484L78.3189 29.8707L88.8645 30.0728" stroke="white" stroke-width="0.5" stroke-miterlimit="10" stroke-linejoin="round"/>
</g>
<path d="M122.33 102.925L120.633 101.915V57.4297L122.33 58.4398V102.925Z" fill="#614134"/>
<path d="M97.7204 117.105L96.0234 116.095V70.3164L97.7204 71.3265V117.105Z" fill="#614134"/>
<path d="M97.7204 71.3268L96.0234 70.3167L121.761 55.4883L123.458 56.458L97.7204 71.3268Z" fill="#9C6854"/>
<path d="M123.456 56.457V102.235L122.325 102.922V58.4368L98.8905 71.9723V116.457L97.7188 117.104V71.3258L123.456 56.457Z" fill="#8C5E4C"/>
<path d="M74.8103 75.4055L73.1133 74.3953V29.9102L74.8103 30.9203V75.4055Z" fill="#614134"/>
<path d="M50.2439 89.589L48.5469 88.5789V42.8008L50.2439 43.8109V89.589Z" fill="#614134"/>
<path d="M50.2439 43.8125L48.5469 42.8024L74.244 27.9336L75.9814 28.9437L50.2439 43.8125Z" fill="#9C6854"/>
<path d="M75.9798 28.9414V74.7195L74.808 75.4064V30.9212L51.3735 44.4567V88.9015L50.2422 89.5883V43.8102L75.9798 28.9414Z" fill="#8C5E4C"/>
<path d="M45.7969 42.6445V45.2304L96.5043 74.8872V72.3013L45.7969 42.6445Z" fill="#FCBB86"/>
<path d="M45.7969 42.6439L96.5043 72.3007L126 55.7349L75.3325 26.0781L45.7969 42.6439Z" fill="#EDA468"/>
<path d="M96.5039 72.3002V74.886L125.999 58.3203V55.7344L96.5039 72.3002Z" fill="#B57962"/>
<path opacity="0.4" d="M126 55.7355V56.1396L96.5043 72.7054L45.7969 43.0486V42.6445L96.5043 72.3013L126 55.7355Z" fill="#FFFBF7"/>
<path d="M94.2416 29.7958L75.6556 19.0482C75.5748 19.0078 75.494 19.0078 75.4132 19.0078C75.2516 19.0482 75.1304 19.0886 74.9688 19.129C75.0496 19.129 75.1304 19.129 75.2112 19.1694L93.7972 29.917C93.9992 30.0382 94.1608 30.3614 94.08 30.6443L91.0497 44.4626C91.0093 44.6242 90.9285 44.7454 90.8073 44.7858L91.2517 44.6646C91.3729 44.6242 91.4941 44.503 91.4941 44.3413L94.5245 30.5231C94.6053 30.2402 94.4841 29.917 94.2416 29.7958Z" fill="#1C2229"/>
<path d="M93.7964 29.9155L75.2104 19.1679C75.0084 19.0467 74.766 19.1679 74.7256 19.4507L71.6952 33.269C71.6548 33.5518 71.7761 33.8751 71.9781 33.9963L90.5641 44.7438C90.7661 44.8651 91.0085 44.7439 91.0489 44.461L94.0793 30.6427C94.1601 30.3599 94.0388 30.0367 93.7964 29.9155Z" fill="url(#paint5_linear)"/>
<path d="M75.0483 19.8555L72.3008 32.4616L90.9272 43.2092L93.6747 30.603L75.0483 19.8555Z" fill="#242B3D"/>
<path d="M77.4317 23.5298L77.3913 23.7722L75.3711 22.6409L75.4519 22.3984L77.4317 23.5298Z" fill="#7DD075"/>
<path d="M88.6628 29.8771L88.582 30.1195L87.2891 29.3922L87.3699 29.1094L88.6628 29.8771Z" fill="#B875D0"/>
<path d="M90.323 30.8054L90.2422 31.0478L88.9492 30.3206L89.03 30.0781L90.323 30.8054Z" fill="#5D99FA"/>
<path d="M79.0872 28.868L79.0064 29.1508L75.168 26.969L75.2488 26.7266L79.0872 28.868Z" fill="white"/>
<path d="M81.0277 29.9592L80.9469 30.2016L79.3711 29.3127L79.4519 29.0703L81.0277 29.9592Z" fill="#7DD075"/>
<path d="M76.5433 28.6233L76.4625 28.8657L74.8867 27.9768L74.9675 27.7344L76.5433 28.6233Z" fill="#7DD075"/>
<path d="M75.4105 32.8264L75.3297 33.0688L73.7539 32.1799L73.8347 31.9375L75.4105 32.8264Z" fill="#5D99FA"/>
<path d="M75.6956 31.7795L75.6148 32.0219L74.0391 31.1331L74.1199 30.8906L75.6956 31.7795Z" fill="#B875D0"/>
<path d="M75.9769 30.7248L75.8961 30.9673L74.3203 30.0784L74.4011 29.8359L75.9769 30.7248Z" fill="#7DD075"/>
<path d="M76.262 29.678L76.1812 29.9204L74.6055 29.0315L74.6863 28.7891L76.262 29.678Z" fill="white"/>
<path d="M78.3206 33.2326L78.2398 33.4751L76.6641 32.5862L76.7449 32.3438L78.3206 33.2326Z" fill="white"/>
<path d="M82.3211 34.2781L82.2403 34.5205L76.1797 31.0862L76.2201 30.8438L82.3211 34.2781Z" fill="#F56EAB"/>
<path d="M78.4847 29.717L78.4039 29.9594L76.8281 29.0706L76.9089 28.8281L78.4847 29.717Z" fill="#F56EAB"/>
<path d="M84.7865 31.0494L84.7057 31.2919L75.4531 26.0393L75.4935 25.7969L84.7865 31.0494Z" fill="white"/>
<path d="M85.0287 30.1198L84.9883 30.3622L75.6953 25.1096L75.7357 24.8672L85.0287 30.1198Z" fill="white"/>
<path d="M85.2709 29.1901L85.2305 29.4325L75.9375 24.1799L76.0183 23.9375L85.2709 29.1901Z" fill="white"/>
<path d="M87.0483 28.9479L86.9674 29.1903L77.7148 23.9377L77.7553 23.6953L87.0483 28.9479Z" fill="white"/>
<path opacity="0.2" d="M75.2104 19.1679C75.0084 19.0467 74.766 19.1679 74.7256 19.4507L71.6952 33.269C71.6548 33.5518 71.7761 33.8751 71.9781 33.9963L74.4023 35.37L89.9176 27.6528L75.2104 19.1679Z" fill="white"/>
<path d="M90.6042 44.8301L79.7354 51.1736C79.5334 51.2948 79.1697 51.2948 78.9273 51.1736L60.3413 40.426C60.2201 40.3452 60.1797 40.2644 60.1797 40.1836C60.1797 40.426 60.1797 40.6684 60.1797 40.9513C60.1797 41.0321 60.2201 41.1129 60.3413 41.1937L78.9273 51.9413C79.1293 52.0625 79.493 52.0625 79.695 51.9413L90.5638 45.6382C90.685 45.5574 90.7254 45.4766 90.7254 45.3958C90.7254 45.1533 90.7254 44.9109 90.7254 44.6281C90.7658 44.7089 90.7254 44.7897 90.6042 44.8301Z" fill="#B0B2C9"/>
<path d="M82.4046 50.0029L81.5157 50.5282C81.4349 50.5686 81.3945 50.6494 81.3945 50.7706C81.3945 50.8514 81.4349 50.8918 81.5157 50.8514L82.4046 50.3262C82.4854 50.2857 82.5258 50.2049 82.5258 50.1241C82.5258 49.9625 82.445 49.9625 82.4046 50.0029Z" fill="#7C80A6"/>
<path d="M90.6042 44.8301L79.7354 51.1736C79.5334 51.2948 79.1697 51.2948 78.9273 51.1736L60.3413 40.426C60.2201 40.3452 60.1797 40.2644 60.1797 40.1836C60.1797 40.224 60.1797 40.2644 60.1797 40.3048C60.1797 40.3856 60.2201 40.4664 60.3413 40.5068L78.9273 51.2544C79.1293 51.3756 79.493 51.3756 79.695 51.2544L90.5638 44.9513C90.685 44.8705 90.7254 44.7897 90.7254 44.7089C90.7254 44.6685 90.7254 44.6685 90.7254 44.6281C90.7658 44.7089 90.7254 44.7897 90.6042 44.8301Z" fill="white"/>
<path d="M90.6058 44.3853L72.0198 33.6378C71.8178 33.5166 71.4541 33.5166 71.2117 33.6378L60.3429 39.9813C60.1409 40.1025 60.1409 40.3045 60.3429 40.4257L78.9289 51.1733C79.1309 51.2945 79.4946 51.2945 79.737 51.1733L90.6058 44.8702C90.8078 44.7086 90.8078 44.5066 90.6058 44.3853Z" fill="url(#paint6_linear)"/>
<path d="M82.6456 44.1028L83.1709 44.4261C83.2921 44.5069 83.4941 44.5069 83.6153 44.4261L84.181 44.1028C84.3022 44.022 84.3022 43.9008 84.181 43.8604L83.6557 43.5372C83.5345 43.4564 83.3325 43.4564 83.2113 43.5372L82.6456 43.8604C82.5244 43.9008 82.5244 44.022 82.6456 44.1028Z" fill="url(#paint7_linear)"/>
<path d="M81.2315 40.6286L81.7972 40.9518C81.9184 41.0326 82.1204 41.0326 82.2416 40.9518L82.3225 40.9114C82.4437 40.8306 82.4437 40.7094 82.3225 40.669L81.7568 40.3458C81.6356 40.265 81.4336 40.265 81.3123 40.3458L81.2315 40.3862C81.1103 40.4266 81.1103 40.5478 81.2315 40.6286Z" fill="url(#paint8_linear)"/>
<path d="M82.4034 41.2731L82.8883 41.556C83.0095 41.6368 83.2115 41.6368 83.3327 41.556L83.4135 41.5156C83.5347 41.4347 83.5347 41.3539 83.4135 41.2731L82.9287 40.9903C82.8074 40.9095 82.6054 40.9095 82.4842 40.9903L82.4034 41.0307C82.2822 41.1115 82.2822 41.2327 82.4034 41.2731Z" fill="url(#paint9_linear)"/>
<path d="M83.5323 41.9177L84.0576 42.2005C84.1788 42.2813 84.3808 42.2813 84.502 42.2005L84.5828 42.1601C84.704 42.0793 84.704 41.9581 84.5828 41.9177L84.0576 41.6348C83.9364 41.554 83.7343 41.554 83.6131 41.6348L83.5323 41.6752C83.4111 41.756 83.4111 41.8773 83.5323 41.9177Z" fill="url(#paint10_linear)"/>
<path d="M82.6887 41.6755L82.2038 41.3926C82.0826 41.3118 81.8806 41.3118 81.7594 41.3926L81.2745 41.6755C81.1533 41.7563 81.1533 41.8371 81.2745 41.9179L81.7594 42.2007C81.8806 42.2815 82.0826 42.2815 82.2038 42.2007L82.6887 41.9179C82.8099 41.8775 82.8099 41.7563 82.6887 41.6755Z" fill="url(#paint11_linear)"/>
<path d="M83.815 42.363L83.2897 42.0801C83.1685 41.9993 82.9665 41.9993 82.8453 42.0801L82.3604 42.363C82.2392 42.4438 82.2392 42.565 82.3604 42.6054L82.8857 42.8882C83.0069 42.969 83.2089 42.969 83.3301 42.8882L83.815 42.6054C83.9362 42.5246 83.9362 42.4034 83.815 42.363Z" fill="url(#paint12_linear)"/>
<path d="M84.6651 42.6052L85.1904 42.9284C85.3116 43.0092 85.5136 43.0092 85.6348 42.9284L85.7156 42.888C85.8369 42.8072 85.8369 42.686 85.7156 42.6456L85.1904 42.3223C85.0692 42.2415 84.8671 42.2415 84.7459 42.3223L84.6651 42.3627C84.5439 42.4031 84.5439 42.5243 84.6651 42.6052Z" fill="url(#paint13_linear)"/>
<path d="M80.4229 42.8099L80.9078 43.0927C81.029 43.1735 81.231 43.1735 81.3522 43.0927L81.9179 42.7695C82.0391 42.6886 82.0391 42.6078 81.9179 42.527L81.433 42.2442C81.3118 42.1634 81.1098 42.1634 80.9886 42.2442L80.4229 42.5674C80.3017 42.6078 80.3017 42.729 80.4229 42.8099Z" fill="url(#paint14_linear)"/>
<path d="M78.5245 42.9687L79.0902 43.2919C79.2114 43.3727 79.4134 43.3727 79.5346 43.2919L80.0195 43.0091C80.1407 42.9283 80.1407 42.8071 80.0195 42.7666L79.4538 42.4434C79.3326 42.3626 79.1306 42.3626 79.0094 42.4434L78.5245 42.7262C78.4033 42.8071 78.4033 42.9283 78.5245 42.9687Z" fill="url(#paint15_linear)"/>
<path d="M84.502 43.538L84.9869 43.2552C85.1081 43.1744 85.1081 43.0532 84.9869 43.0127L84.4616 42.6895C84.3404 42.6087 84.1384 42.6087 84.0172 42.6895L83.5323 42.9723C83.4111 43.0532 83.4111 43.1744 83.5323 43.2148L84.0576 43.538C84.1788 43.6188 84.3808 43.6188 84.502 43.538Z" fill="url(#paint16_linear)"/>
<path d="M85.837 43.2536L86.4027 43.5768C86.5239 43.6576 86.7259 43.6576 86.8471 43.5768L86.9279 43.5364C87.0491 43.4556 87.0491 43.3748 86.9279 43.294L86.3623 42.9708C86.241 42.89 86.039 42.89 85.9178 42.9708L85.837 43.0112C85.7158 43.092 85.7158 43.1728 85.837 43.2536Z" fill="url(#paint17_linear)"/>
<path d="M83.0091 43.414C83.1303 43.3332 83.1303 43.2524 83.0091 43.1716L82.4838 42.8887C82.3626 42.8079 82.1606 42.8079 82.0394 42.8887L81.4737 43.212C81.3525 43.2928 81.3525 43.3736 81.4737 43.4544L81.999 43.7372C82.1202 43.818 82.3222 43.818 82.4434 43.7372L83.0091 43.414Z" fill="url(#paint18_linear)"/>
<path d="M79.6964 43.6601L80.1812 43.9429C80.3024 44.0237 80.5045 44.0237 80.6257 43.9429L81.1105 43.6601C81.2317 43.5793 81.2317 43.4581 81.1105 43.4177L80.6257 43.1348C80.5045 43.054 80.3024 43.054 80.1812 43.1348L79.6964 43.4177C79.5752 43.4985 79.5752 43.6197 79.6964 43.6601Z" fill="url(#paint19_linear)"/>
<path d="M87.0089 43.9411L87.4937 44.2239C87.6149 44.3047 87.817 44.3047 87.9382 44.2239L88.019 44.1835C88.1402 44.1027 88.1402 43.9815 88.019 43.9411L87.5341 43.6583C87.4129 43.5775 87.2109 43.5775 87.0897 43.6583L87.0089 43.6987C86.8877 43.7795 86.8877 43.8603 87.0089 43.9411Z" fill="url(#paint20_linear)"/>
<path d="M77.8761 43.9413L78.4417 44.2646C78.5629 44.3454 78.765 44.3454 78.8862 44.2646L79.4114 43.9817C79.5326 43.9009 79.5326 43.7797 79.4114 43.7393L78.8458 43.4161C78.7246 43.3353 78.5225 43.3353 78.4013 43.4161L77.8761 43.6989C77.7549 43.7393 77.7549 43.8605 77.8761 43.9413Z" fill="url(#paint21_linear)"/>
<path d="M80.8292 44.3007L81.3544 44.5835C81.4757 44.6643 81.6777 44.6643 81.7989 44.5835L82.2838 44.3007C82.405 44.2199 82.405 44.1391 82.2838 44.0583L81.7585 43.7755C81.6373 43.6946 81.4353 43.6946 81.314 43.7755L80.8292 44.0583C80.708 44.1391 80.708 44.2603 80.8292 44.3007Z" fill="url(#paint22_linear)"/>
<path d="M86.8052 44.8681L87.2901 44.5852C87.4113 44.5044 87.4113 44.3832 87.2901 44.3428L85.6335 43.3731C85.5123 43.2923 85.3103 43.2923 85.189 43.3731L84.7042 43.6559C84.583 43.7368 84.583 43.8176 84.7042 43.8984L86.3608 44.8681C86.482 44.9489 86.684 44.9489 86.8052 44.8681Z" fill="url(#paint23_linear)"/>
<path d="M79.0479 44.5859L79.5328 44.8687C79.654 44.9495 79.856 44.9495 79.9772 44.8687L80.5025 44.5859C80.6237 44.505 80.6237 44.4242 80.5025 44.3434L80.0176 44.0606C79.8964 43.9798 79.6944 43.9798 79.5732 44.0606L79.0479 44.3434C78.9267 44.4242 78.9267 44.5455 79.0479 44.5859Z" fill="url(#paint24_linear)"/>
<path d="M89.234 44.6235L88.6279 44.2598C88.5067 44.179 88.3046 44.179 88.1834 44.2598L88.1026 44.3002C87.9814 44.381 87.9814 44.5023 88.1026 44.5427L88.7087 44.9063C88.8299 44.9871 89.0319 44.9871 89.1531 44.9063L89.234 44.8659C89.3552 44.8255 89.3552 44.7043 89.234 44.6235Z" fill="url(#paint25_linear)"/>
<path d="M85.6357 45.5555L86.2013 45.2322C86.3225 45.1514 86.3225 45.0706 86.2013 44.9898L84.8276 44.1817C84.7064 44.1009 84.5043 44.1009 84.3831 44.1817L83.8175 44.5049C83.6963 44.5857 83.6963 44.707 83.8175 44.7474L85.1912 45.5555C85.3124 45.6363 85.5145 45.6363 85.6357 45.5555Z" fill="url(#paint26_linear)"/>
<path d="M88.5052 45.0688L87.8991 44.7051C87.7779 44.6243 87.5759 44.6243 87.4547 44.7051L86.9698 44.988C86.8486 45.0688 86.8486 45.19 86.9698 45.2304L87.5759 45.594C87.6971 45.6748 87.8991 45.6748 88.0203 45.594L88.5052 45.3112C88.6264 45.2304 88.6264 45.1092 88.5052 45.0688Z" fill="url(#paint27_linear)"/>
<path d="M80.1417 45.2304L81.7579 46.1597C81.8791 46.2405 82.0811 46.2405 82.2023 46.1597L82.7276 45.8769C82.8488 45.7961 82.8488 45.7152 82.7276 45.6344L81.1114 44.7051C80.9902 44.6243 80.7882 44.6243 80.6669 44.7051L80.1417 44.988C80.0205 45.0688 80.0205 45.19 80.1417 45.2304Z" fill="url(#paint28_linear)"/>
<path d="M84.5049 46.2003L84.9898 45.9175C85.111 45.8367 85.111 45.7559 84.9898 45.6751L82.8483 44.463C82.7271 44.3821 82.5251 44.3821 82.4039 44.463L81.919 44.7458C81.7978 44.8266 81.7978 44.9478 81.919 44.9882L84.0605 46.2003C84.2221 46.2811 84.3837 46.2811 84.5049 46.2003Z" fill="url(#paint29_linear)"/>
<path d="M87.4141 45.7172L86.808 45.3536C86.6868 45.2728 86.4848 45.2728 86.3636 45.3536L85.7979 45.6768C85.6767 45.7576 85.6767 45.8788 85.7979 45.9192L86.404 46.2829C86.5252 46.3637 86.7272 46.3637 86.8485 46.2829L87.4141 45.9596C87.5353 45.8788 87.5353 45.7576 87.4141 45.7172Z" fill="url(#paint30_linear)"/>
<path d="M81.595 46.2862L81.0294 45.963C80.9081 45.8821 80.7061 45.8821 80.5849 45.963L80.0597 46.2458C79.9384 46.3266 79.9384 46.4478 80.0597 46.4882L80.6253 46.8114C80.7465 46.8922 80.9486 46.8922 81.0698 46.8114L81.595 46.5286C81.7162 46.4882 81.7162 46.367 81.595 46.2862Z" fill="url(#paint31_linear)"/>
<path d="M82.4034 46.5273L82.9287 46.8505C83.0499 46.9313 83.2519 46.9313 83.3731 46.8505L83.8984 46.5677C84.0196 46.4869 84.0196 46.3657 83.8984 46.3252L83.3731 46.002C83.2519 45.9212 83.0499 45.9212 82.9287 46.002L82.4034 46.2848C82.2822 46.3657 82.2822 46.4869 82.4034 46.5273Z" fill="url(#paint32_linear)"/>
<path d="M86.2396 46.3657L85.6335 46.002C85.5123 45.9212 85.3103 45.9212 85.189 46.002L84.7042 46.2848C84.583 46.3657 84.583 46.4869 84.7042 46.5273L85.3103 46.8909C85.4315 46.9717 85.6335 46.9717 85.7547 46.8909L86.2396 46.6081C86.3608 46.5677 86.3608 46.4465 86.2396 46.3657Z" fill="url(#paint33_linear)"/>
<path d="M85.1081 47.0102L84.502 46.6465C84.3808 46.5657 84.1788 46.5657 84.0576 46.6465L83.5323 46.9294C83.4111 47.0102 83.4111 47.1314 83.5323 47.1718L84.1384 47.5354C84.2596 47.6162 84.4616 47.6162 84.5828 47.5354L85.1081 47.2526C85.2293 47.2122 85.2293 47.091 85.1081 47.0102Z" fill="url(#paint34_linear)"/>
<path d="M83.9792 47.6977L83.3731 47.334C83.2519 47.2532 83.0499 47.2532 82.9287 47.334L82.4034 47.6169C82.2822 47.6977 82.2822 47.8189 82.4034 47.8593L83.0095 48.2229C83.1307 48.3037 83.3327 48.3037 83.4539 48.2229L83.9792 47.9401C84.1004 47.8593 84.1004 47.7381 83.9792 47.6977Z" fill="url(#paint35_linear)"/>
<path d="M82.7695 46.9698L82.2442 46.6465C82.123 46.5657 81.921 46.5657 81.7998 46.6465L81.2745 46.9294C81.1533 47.0102 81.1533 47.1314 81.2745 47.1718L81.7998 47.495C81.921 47.5758 82.123 47.5758 82.2442 47.495L82.7695 47.2122C82.8907 47.1314 82.8907 47.0506 82.7695 46.9698Z" fill="url(#paint36_linear)"/>
<path d="M80.423 45.596L79.9786 45.3536C79.8574 45.2728 79.6553 45.2728 79.5341 45.3536L79.0089 45.6364C78.8877 45.7172 78.8877 45.8384 79.0089 45.8788L79.4533 46.1213C79.5745 46.2021 79.7766 46.2021 79.8978 46.1213L80.423 45.8384C80.5442 45.798 80.5442 45.6768 80.423 45.596Z" fill="url(#paint37_linear)"/>
<path d="M79.3306 44.988L78.8458 44.7051C78.7246 44.6243 78.5225 44.6243 78.4013 44.7051L77.8761 44.988C77.7549 45.0688 77.7549 45.19 77.8761 45.2304L78.3609 45.5132C78.4821 45.594 78.6842 45.594 78.8054 45.5132L79.2902 45.2304C79.4518 45.19 79.4518 45.0688 79.3306 44.988Z" fill="url(#paint38_linear)"/>
<path d="M74.0401 40.3866L74.6058 40.7099C74.727 40.7907 74.929 40.7907 75.0502 40.7099L75.5351 40.4271C75.6563 40.3462 75.6563 40.225 75.5351 40.1846L74.9694 39.8614C74.8482 39.7806 74.6462 39.7806 74.525 39.8614L74.0401 40.1442C73.9189 40.225 73.9189 40.3462 74.0401 40.3866Z" fill="url(#paint39_linear)"/>
<path d="M68.7901 38.445C68.6689 38.5258 68.6689 38.647 68.7901 38.6874L69.3558 39.0107C69.477 39.0915 69.679 39.0915 69.8002 39.0107L70.3255 38.7278C70.4467 38.647 70.4467 38.5258 70.3255 38.4854L69.7598 38.1622C69.6386 38.0814 69.4366 38.0814 69.3154 38.1622L68.7901 38.445Z" fill="url(#paint40_linear)"/>
<path d="M67.5323 36.6679L68.8253 37.3952C68.9465 37.476 69.1485 37.476 69.2697 37.3952L69.7546 37.1123C69.8758 37.0315 69.8758 36.9103 69.7546 36.8699L68.4616 36.1426C68.3404 36.0618 68.1384 36.0618 68.0172 36.1426L67.5323 36.4255C67.4111 36.4659 67.4111 36.5871 67.5323 36.6679Z" fill="url(#paint41_linear)"/>
<path d="M68.6651 36.0208L69.554 36.5461C69.6752 36.6269 69.8773 36.6269 69.9985 36.5461L70.5641 36.2228C70.6853 36.142 70.6853 36.0208 70.5641 35.9804L69.6752 35.4551C69.554 35.3743 69.352 35.3743 69.2308 35.4551L68.6651 35.7784C68.5439 35.8188 68.5439 35.94 68.6651 36.0208Z" fill="url(#paint42_linear)"/>
<path d="M67.0093 37.8801L66.2012 37.4356C66.08 37.3548 65.878 37.3548 65.7568 37.4356L65.2315 37.7184C65.1103 37.7992 65.1103 37.9205 65.2315 37.9609L66.0396 38.4053C66.1608 38.4861 66.3629 38.4861 66.4841 38.4053L66.9689 38.1225C67.1305 38.0821 67.1305 37.9609 67.0093 37.8801Z" fill="url(#paint43_linear)"/>
<path d="M72.1808 35.3747L72.7464 35.6979C72.8676 35.7787 73.0696 35.7787 73.1909 35.6979L73.2717 35.6575C73.3929 35.5767 73.3929 35.4555 73.2717 35.4151L72.706 35.0919C72.5848 35.011 72.3828 35.011 72.2616 35.0919L72.1808 35.1323C72.0595 35.2131 72.0595 35.2939 72.1808 35.3747Z" fill="url(#paint44_linear)"/>
<path d="M72.5429 35.8174L71.9772 35.4942C71.856 35.4134 71.654 35.4134 71.5328 35.4942L71.0479 35.777C70.9267 35.8578 70.9267 35.9386 71.0479 36.0195L71.6136 36.3427C71.7348 36.4235 71.9368 36.4235 72.058 36.3427L72.5429 36.0599C72.6641 35.9791 72.6237 35.8982 72.5429 35.8174Z" fill="url(#paint45_linear)"/>
<path d="M70.7269 36.2998L70.1612 36.6231C70.04 36.7039 70.04 36.8251 70.1612 36.8655L70.7269 37.1887C70.8481 37.2695 71.0501 37.2695 71.1713 37.1887L71.737 36.8655C71.8582 36.7847 71.8582 36.6635 71.737 36.6231L71.1713 36.2998C71.0501 36.2594 70.8481 36.2594 70.7269 36.2998Z" fill="url(#paint46_linear)"/>
<path d="M73.3526 36.0583L73.8375 36.3411C73.9587 36.4219 74.1607 36.4219 74.2819 36.3411L74.3627 36.3007C74.484 36.2199 74.484 36.0987 74.3627 36.0583L73.8779 35.7755C73.7567 35.6946 73.5547 35.6946 73.4334 35.7755L73.3526 35.8159C73.2314 35.8967 73.2314 35.9775 73.3526 36.0583Z" fill="url(#paint47_linear)"/>
<path d="M74.4854 36.7067L75.0107 36.9896C75.1319 37.0704 75.3339 37.0704 75.4551 36.9896L75.536 36.9491C75.6572 36.8683 75.6572 36.7471 75.536 36.7067L75.0107 36.4239C74.8895 36.3431 74.6875 36.3431 74.5662 36.4239L74.4854 36.4643C74.3642 36.5047 74.3642 36.6259 74.4854 36.7067Z" fill="url(#paint48_linear)"/>
<path d="M75.6143 37.3552L76.0992 37.638C76.2204 37.7188 76.4224 37.7188 76.5436 37.638L76.6245 37.5976C76.7457 37.5168 76.7457 37.436 76.6245 37.3552L76.1396 37.0723C76.0184 36.9915 75.8164 36.9915 75.6952 37.0723L75.6143 37.1127C75.4931 37.1935 75.4931 37.3148 75.6143 37.3552Z" fill="url(#paint49_linear)"/>
<path d="M76.7472 37.9997L77.3128 38.3229C77.434 38.4037 77.6361 38.4037 77.7573 38.3229L77.8381 38.2825C77.9593 38.2017 77.9593 38.0805 77.8381 38.0401L77.2724 37.7169C77.1512 37.636 76.9492 37.636 76.828 37.7169L76.7472 37.7573C76.6259 37.8381 76.6259 37.9593 76.7472 37.9997Z" fill="url(#paint50_linear)"/>
<path d="M77.1093 38.4424L76.5436 38.1192C76.4224 38.0384 76.2204 38.0384 76.0992 38.1192L75.6143 38.402C75.4931 38.4828 75.4931 38.5636 75.6143 38.6445L76.18 38.9677C76.3012 39.0485 76.5032 39.0485 76.6245 38.9677L77.1093 38.6849C77.1901 38.6445 77.1901 38.5232 77.1093 38.4424Z" fill="url(#paint51_linear)"/>
<path d="M75.8996 37.7614L75.4147 37.4786C75.2935 37.3978 75.0915 37.3978 74.9703 37.4786L74.4854 37.7614C74.3642 37.8422 74.3642 37.9634 74.4854 38.0038L74.9703 38.2867C75.0915 38.3675 75.2935 38.3675 75.4147 38.2867L75.8996 38.0038C76.0208 37.9634 76.0208 37.8422 75.8996 37.7614Z" fill="url(#paint52_linear)"/>
<path d="M74.7681 37.113L74.2429 36.8301C74.1217 36.7493 73.9196 36.7493 73.7984 36.8301L73.3136 37.113C73.1924 37.1938 73.1924 37.315 73.3136 37.3554L73.8388 37.6382C73.96 37.719 74.1621 37.719 74.2833 37.6382L74.7681 37.3554C74.8893 37.315 74.8893 37.1938 74.7681 37.113Z" fill="url(#paint53_linear)"/>
<path d="M73.634 36.4645L73.1491 36.1817C73.0279 36.1009 72.8259 36.1009 72.7047 36.1817L72.2198 36.4645C72.0986 36.5453 72.0986 36.6261 72.2198 36.707L72.7047 36.9898C72.8259 37.0706 73.0279 37.0706 73.1491 36.9898L73.634 36.707C73.7552 36.6261 73.7552 36.5453 73.634 36.4645Z" fill="url(#paint54_linear)"/>
<path d="M72.8281 37.2731L72.3432 36.9903C72.222 36.9095 72.02 36.9095 71.8988 36.9903L71.3331 37.3135C71.2119 37.3943 71.2119 37.4751 71.3331 37.556L71.818 37.8388C71.9392 37.9196 72.1412 37.9196 72.2624 37.8388L72.8281 37.5155C72.9493 37.4751 72.9493 37.3539 72.8281 37.2731Z" fill="url(#paint55_linear)"/>
<path d="M69.4737 37.5153C69.3525 37.5961 69.3525 37.7173 69.4737 37.7577L70.0394 38.081C70.1606 38.1618 70.3626 38.1618 70.4838 38.081L70.9687 37.7981C71.0899 37.7173 71.0899 37.5961 70.9687 37.5557L70.403 37.2325C70.2818 37.1517 70.0798 37.1517 69.9586 37.2325L69.4737 37.5153Z" fill="url(#paint56_linear)"/>
<path d="M66.4034 37.3124L68.1812 38.3225C68.3024 38.4033 68.5044 38.4033 68.6256 38.3225L69.1509 38.0397C69.2721 37.9589 69.2721 37.8781 69.1509 37.7973L67.3731 36.7872C67.2519 36.7064 67.0499 36.7064 66.9287 36.7872L66.4034 37.07C66.2822 37.1104 66.2822 37.2316 66.4034 37.3124Z" fill="url(#paint57_linear)"/>
<path d="M70.6456 38.2028C70.5244 38.2836 70.5244 38.3644 70.6456 38.4452L71.1304 38.7281C71.2517 38.8089 71.4537 38.8089 71.5749 38.7281L72.0597 38.4452C72.181 38.3644 72.181 38.2432 72.0597 38.2028L71.5749 37.92C71.4537 37.8392 71.2517 37.8392 71.1304 37.92L70.6456 38.2028Z" fill="url(#paint58_linear)"/>
<path d="M80.7487 41.8799L80.183 41.5567C80.0618 41.4759 79.8598 41.4759 79.7386 41.5567L79.1729 41.8799C79.0517 41.9607 79.0517 42.082 79.1729 42.1224L79.7386 42.4456C79.8598 42.5264 80.0618 42.5264 80.183 42.4456L80.7487 42.1224C80.8699 42.0416 80.8699 41.9203 80.7487 41.8799Z" fill="url(#paint59_linear)"/>
<path d="M77.9151 38.6872L78.4 38.97C78.5212 39.0508 78.7232 39.0508 78.8444 38.97L78.9252 38.9296C79.0465 38.8488 79.0465 38.7276 78.9252 38.6872L78.4404 38.4044C78.3192 38.3235 78.1171 38.3235 77.9959 38.4044L77.9151 38.4448C77.7939 38.5256 77.7939 38.6468 77.9151 38.6872Z" fill="url(#paint60_linear)"/>
<path d="M79.0479 39.3317L79.5732 39.6146C79.6944 39.6954 79.8964 39.6954 80.0176 39.6146L80.0985 39.5741C80.2197 39.4933 80.2197 39.3721 80.0985 39.3317L79.5732 39.0489C79.452 38.9681 79.25 38.9681 79.1287 39.0489L79.0479 39.0893C78.9267 39.1701 78.9267 39.2509 79.0479 39.3317Z" fill="url(#paint61_linear)"/>
<path d="M79.3306 39.738L78.8054 39.4551C78.6842 39.3743 78.4821 39.3743 78.3609 39.4551L77.8761 39.738C77.7549 39.8188 77.7549 39.8996 77.8761 39.9804L78.4013 40.2632C78.5225 40.344 78.7246 40.344 78.8458 40.2632L79.3306 39.9804C79.4518 39.94 79.4518 39.8188 79.3306 39.738Z" fill="url(#paint62_linear)"/>
<path d="M78.5247 40.5895L77.9995 40.3067C77.8782 40.2259 77.6762 40.2259 77.555 40.3067L76.9893 40.6299C76.8681 40.7107 76.8681 40.832 76.9893 40.8724L77.5146 41.1552C77.6358 41.236 77.8378 41.236 77.9591 41.1552L78.5247 40.832C78.6459 40.7511 78.6459 40.6299 78.5247 40.5895Z" fill="url(#paint63_linear)"/>
<path d="M80.1808 39.9802L80.6252 40.2226C80.7464 40.3034 80.9484 40.3034 81.0696 40.2226L81.1505 40.1822C81.2717 40.1014 81.2717 39.9802 81.1505 39.9397L80.706 39.6973C80.5848 39.6165 80.3828 39.6165 80.2616 39.6973L80.1808 39.7377C80.0595 39.8185 80.0595 39.9398 80.1808 39.9802Z" fill="url(#paint64_linear)"/>
<path d="M80.3826 40.346L79.9382 40.1036C79.817 40.0228 79.6149 40.0228 79.4937 40.1036L79.0089 40.3864C78.8877 40.4672 78.8877 40.5884 79.0089 40.6288L79.4533 40.8713C79.5745 40.9521 79.7766 40.9521 79.8978 40.8713L80.3826 40.5884C80.5038 40.548 80.5038 40.4268 80.3826 40.346Z" fill="url(#paint65_linear)"/>
<path d="M79.5728 41.1898L79.1284 40.9473C79.0071 40.8665 78.8051 40.8665 78.6839 40.9473L78.1183 41.2706C77.997 41.3514 77.997 41.4726 78.1183 41.513L78.5627 41.7554C78.6839 41.8362 78.8859 41.8362 79.0071 41.7554L79.5728 41.4322C79.694 41.3514 79.694 41.2302 79.5728 41.1898Z" fill="url(#paint66_linear)"/>
<path d="M73.957 37.9177L73.4317 37.6348C73.3105 37.554 73.1085 37.554 72.9873 37.6348L72.462 37.9581C72.3408 38.0389 72.3408 38.1601 72.462 38.2005L72.9873 38.4833C73.1085 38.5641 73.3105 38.5641 73.4317 38.4833L73.9974 38.1601C74.0782 38.1197 74.0782 37.9985 73.957 37.9177Z" fill="url(#paint67_linear)"/>
<path d="M75.0898 38.6052L74.6049 38.3223C74.4837 38.2415 74.2817 38.2415 74.1605 38.3223L73.5948 38.6456C73.4736 38.7264 73.4736 38.8476 73.5948 38.888L74.0797 39.1708C74.2009 39.2516 74.4029 39.2516 74.5241 39.1708L75.0898 38.8476C75.211 38.7668 75.211 38.6456 75.0898 38.6052Z" fill="url(#paint68_linear)"/>
<path d="M71.7364 39.0898L72.2616 39.3726C72.3829 39.4534 72.5849 39.4534 72.7061 39.3726L73.1909 39.0898C73.3122 39.009 73.3122 38.8877 73.1909 38.8473L72.6657 38.5645C72.5445 38.4837 72.3425 38.4837 72.2212 38.5645L71.7364 38.8473C71.6556 38.8877 71.6556 39.009 71.7364 39.0898Z" fill="url(#paint69_linear)"/>
<path d="M78.2043 39.0895L77.7194 38.8067C77.5982 38.7259 77.3962 38.7259 77.275 38.8067L76.7901 39.0895C76.6689 39.1703 76.6689 39.2511 76.7901 39.332L77.275 39.6148C77.3962 39.6956 77.5982 39.6956 77.7194 39.6148L78.2043 39.332C78.3255 39.2915 78.3255 39.1703 78.2043 39.0895Z" fill="url(#paint70_linear)"/>
<path d="M70.0011 39.3749L70.4859 39.6578C70.6071 39.7386 70.8092 39.7386 70.9304 39.6578L71.4556 39.3749C71.5768 39.2941 71.5768 39.1729 71.4556 39.1325L70.9708 38.8497C70.8496 38.7689 70.6475 38.7689 70.5263 38.8497L70.0011 39.1325C69.8799 39.2133 69.8799 39.2941 70.0011 39.3749Z" fill="url(#paint71_linear)"/>
<path d="M76.2604 39.2549L75.6948 38.9317C75.5736 38.8509 75.3715 38.8509 75.2503 38.9317L74.6847 39.2549C74.5634 39.3357 74.5634 39.4166 74.6847 39.4974L75.2503 39.8206C75.3715 39.9014 75.5736 39.9014 75.6948 39.8206L76.2604 39.4974C76.3816 39.457 76.3816 39.3357 76.2604 39.2549Z" fill="url(#paint72_linear)"/>
<path d="M72.9073 39.7382L73.3922 40.021C73.5134 40.1018 73.7154 40.1018 73.8366 40.021L74.3215 39.7382C74.4427 39.6574 74.4427 39.5362 74.3215 39.4958L73.8366 39.213C73.7154 39.1321 73.5134 39.1321 73.3922 39.213L72.9073 39.4958C72.7861 39.5766 72.7861 39.6574 72.9073 39.7382Z" fill="url(#paint73_linear)"/>
<path d="M71.0909 40.0195L71.6162 40.3023C71.7374 40.3831 71.9394 40.3831 72.0606 40.3023L72.5859 40.0195C72.7071 39.9386 72.7071 39.8174 72.5859 39.777L72.0606 39.4942C71.9394 39.4134 71.7374 39.4134 71.6162 39.4942L71.0909 39.777C70.9697 39.8174 70.9697 39.9386 71.0909 40.0195Z" fill="url(#paint74_linear)"/>
<path d="M70.4413 39.8591L69.9161 39.5762C69.7949 39.4954 69.5928 39.4954 69.4716 39.5762L68.9464 39.8591C68.8252 39.9399 68.8252 40.0207 68.9464 40.1015L69.4716 40.3843C69.5928 40.4651 69.7949 40.4651 69.9161 40.3843L70.4413 40.1015C70.5626 40.0611 70.5626 39.9399 70.4413 39.8591Z" fill="url(#paint75_linear)"/>
<path d="M77.3945 39.8981L76.9096 39.6153C76.7884 39.5345 76.5864 39.5345 76.4652 39.6153L75.8995 39.9385C75.7783 40.0193 75.7783 40.1405 75.8995 40.181L76.3844 40.4638C76.5056 40.5446 76.7076 40.5446 76.8288 40.4638L77.3945 40.1405C77.5157 40.1001 77.5157 39.9789 77.3945 39.8981Z" fill="url(#paint76_linear)"/>
<path d="M72.2589 40.6679L72.7437 40.9507C72.8649 41.0315 73.067 41.0315 73.1882 40.9507L73.7134 40.6679C73.8346 40.5871 73.8346 40.4659 73.7134 40.4255L73.2286 40.1426C73.1074 40.0618 72.9053 40.0618 72.7841 40.1426L72.2589 40.4255C72.1377 40.5063 72.1377 40.6275 72.2589 40.6679Z" fill="url(#paint77_linear)"/>
<path d="M71.5728 40.5036L71.088 40.2208C70.9667 40.14 70.7647 40.14 70.6435 40.2208L70.1183 40.5036C69.997 40.5844 69.997 40.7056 70.1183 40.746L70.6031 41.0288C70.7243 41.1097 70.9263 41.1097 71.0476 41.0288L71.5728 40.746C71.694 40.7056 71.694 40.5844 71.5728 40.5036Z" fill="url(#paint78_linear)"/>
<path d="M75.212 41.0702L75.6969 41.3531C75.8181 41.4339 76.0201 41.4339 76.1413 41.3531L76.6262 41.0702C76.7474 40.9894 76.7474 40.8682 76.6262 40.8278L76.1413 40.545C76.0201 40.4642 75.8181 40.4642 75.6969 40.545L75.212 40.8278C75.0908 40.9086 75.0908 40.9894 75.212 41.0702Z" fill="url(#paint79_linear)"/>
<path d="M73.3536 41.3163L73.9192 41.6396C74.0404 41.7204 74.2425 41.7204 74.3637 41.6396L74.8889 41.3567C75.0102 41.2759 75.0102 41.1951 74.8889 41.1143L74.3233 40.7911C74.2021 40.7103 74 40.7103 73.8788 40.7911L73.3536 41.0739C73.2728 41.1547 73.2728 41.2759 73.3536 41.3163Z" fill="url(#paint80_linear)"/>
<path d="M76.3031 41.7187L76.8283 42.0015C76.9495 42.0823 77.1516 42.0823 77.2728 42.0015L77.7576 41.7187C77.8788 41.6379 77.8788 41.5167 77.7576 41.4762L77.2324 41.1934C77.1112 41.1126 76.9091 41.1126 76.7879 41.1934L76.3031 41.4762C76.1819 41.5571 76.2223 41.6379 76.3031 41.7187Z" fill="url(#paint81_linear)"/>
<path d="M74.5636 41.9999L75.0484 42.2828C75.1696 42.3636 75.3717 42.3636 75.4929 42.2828L76.0181 41.9999C76.1393 41.9191 76.1393 41.7979 76.0181 41.7575L75.5333 41.4747C75.4121 41.3939 75.21 41.3939 75.0888 41.4747L74.5636 41.7575C74.4424 41.8383 74.4424 41.9595 74.5636 41.9999Z" fill="url(#paint82_linear)"/>
<path d="M77.4737 42.3632L77.9182 42.6056C78.0394 42.6864 78.2414 42.6864 78.3626 42.6056L78.8475 42.3228C78.9687 42.242 78.9687 42.1208 78.8475 42.0804L78.403 41.838C78.2818 41.7571 78.0798 41.7571 77.9586 41.838L77.4737 42.1208C77.3525 42.2016 77.3525 42.3228 77.4737 42.3632Z" fill="url(#paint83_linear)"/>
<path d="M75.6573 42.6484L76.1826 42.9312C76.3038 43.012 76.5058 43.012 76.627 42.9312L77.1523 42.6484C77.2735 42.5676 77.2735 42.4867 77.1523 42.4059L76.627 42.1231C76.5058 42.0423 76.3038 42.0423 76.1826 42.1231L75.6573 42.4059C75.5361 42.4867 75.5361 42.5676 75.6573 42.6484Z" fill="url(#paint84_linear)"/>
<path d="M76.7872 43.2929L77.2316 43.5353C77.3528 43.6161 77.5549 43.6161 77.6761 43.5353L78.2013 43.2525C78.3225 43.1717 78.3225 43.0909 78.2013 43.0101L77.7569 42.7676C77.6357 42.6868 77.4336 42.6868 77.3124 42.7676L76.7872 43.0505C76.7064 43.1313 76.7064 43.2525 76.7872 43.2929Z" fill="url(#paint85_linear)"/>
<path d="M78.241 44.344L72.2208 40.8692C72.0996 40.7884 71.8975 40.7884 71.7763 40.8692L71.2511 41.152C71.1299 41.2328 71.1299 41.3541 71.2511 41.3945L77.2713 44.8692C77.3925 44.95 77.5945 44.95 77.7158 44.8692L78.2006 44.5864C78.3622 44.546 78.3622 44.4248 78.241 44.344Z" fill="url(#paint86_linear)"/>
<path d="M68.2239 38.5674L67.6583 38.2442C67.5371 38.1634 67.335 38.1634 67.2138 38.2442L66.6886 38.527C66.5674 38.6078 66.5674 38.7291 66.6886 38.7695L67.2542 39.0927C67.3754 39.1735 67.5775 39.1735 67.6987 39.0927L68.2239 38.8099C68.3451 38.7291 68.3451 38.6482 68.2239 38.5674Z" fill="url(#paint87_linear)"/>
<path d="M69.315 39.2145L68.8301 38.9317C68.7089 38.8509 68.5069 38.8509 68.3857 38.9317L67.8604 39.2145C67.7392 39.2953 67.7392 39.4166 67.8604 39.457L68.3453 39.7398C68.4665 39.8206 68.6685 39.8206 68.7897 39.7398L69.315 39.457C69.4362 39.3761 69.4362 39.2953 69.315 39.2145Z" fill="url(#paint88_linear)"/>
<path d="M70.9308 34.6872L71.5368 35.0508C71.658 35.1316 71.8601 35.1316 71.9813 35.0508L72.0621 35.0104C72.1833 34.9296 72.1833 34.8084 72.0621 34.768L71.456 34.4044C71.3348 34.3235 71.1328 34.3235 71.0116 34.4044L70.9308 34.4448C70.8095 34.4852 70.8095 34.6064 70.9308 34.6872Z" fill="url(#paint89_linear)"/>
<path d="M69.837 35.332L70.4431 35.6956C70.5643 35.7764 70.7663 35.7764 70.8875 35.6956L71.3724 35.4128C71.4936 35.332 71.4936 35.2512 71.3724 35.1703L70.7663 34.8067C70.6451 34.7259 70.4431 34.7259 70.3219 34.8067L69.837 35.0895C69.7158 35.1299 69.7158 35.2511 69.837 35.332Z" fill="url(#paint90_linear)"/>
<path d="M81.5976 41.0284L81.0319 40.7051C80.9107 40.6243 80.7087 40.6243 80.5875 40.7051L80.1026 40.988C79.9814 41.0688 79.9814 41.1496 80.1026 41.2304L80.6683 41.5536C80.7895 41.6344 80.9915 41.6344 81.1127 41.5536L81.5976 41.2708C81.7188 41.2304 81.7188 41.1092 81.5976 41.0284Z" fill="url(#paint91_linear)"/>
<path d="M77.5535 45.4317L70.0787 41.1084C69.9979 41.068 69.8363 41.068 69.7555 41.1084L66.2403 43.1286C66.1595 43.1691 66.1595 43.2499 66.2403 43.3307L73.7151 47.6539C73.7959 47.6943 73.9575 47.6943 74.0383 47.6539L77.5535 45.6337C77.6343 45.5933 77.6343 45.5125 77.5535 45.4317Z" fill="url(#paint92_linear)"/>
<path d="M63.2057 108.219C63.2057 108.219 65.7512 109.714 67.6098 110.32C69.4684 110.966 70.0744 111.007 70.3169 111.492C70.5593 111.976 70.8017 112.946 69.8724 113.269C68.9431 113.593 62.4784 114.441 61.4279 114.562C60.3774 114.683 58.1552 114.279 58.1147 113.431C58.0743 112.542 58.8824 108.259 58.8824 108.259L63.2057 108.219Z" fill="#C27D5D"/>
<path d="M63.1276 107.656C63.1276 107.656 65.673 109.151 67.5316 109.757C69.3902 110.404 69.9963 110.444 70.2387 110.929C70.4812 111.414 70.7236 112.384 69.7943 112.707C68.865 113.03 62.4003 113.879 61.3498 114C60.2993 114.121 58.077 113.717 58.0366 112.868C57.9962 111.98 58.8043 107.697 58.8043 107.697L63.1276 107.656Z" fill="#5274AB"/>
<path d="M63.8945 108.584C63.8945 108.584 60.4601 109.998 58.0358 107.412C58.0358 107.412 58.1975 98.8866 58.3591 89.1088C54.6419 82.9673 48.7024 77.6339 45.4297 74.8865L58.5207 68.543C58.5207 68.543 64.9854 78.8865 65.9955 87.129C65.8743 92.5028 63.8945 108.584 63.8945 108.584Z" fill="#1E202B"/>
<path d="M66.3235 98.0001C66.3235 98.0001 68.3033 100.344 69.9599 101.596C71.6164 102.849 72.1417 103.131 72.2225 103.697C72.3033 104.263 72.1821 105.313 71.172 105.313C70.1215 105.313 63.4548 103.94 62.3638 103.697C61.2729 103.495 59.2123 102.323 59.4951 101.434C59.778 100.546 62.0002 96.5859 62.0002 96.5859L66.3235 98.0001Z" fill="#C27D5D"/>
<path d="M66.4836 97.4337C66.4836 97.4337 68.4634 99.7771 70.12 101.03C71.7766 102.282 72.3018 102.565 72.3827 103.131C72.4635 103.696 72.3423 104.747 71.3321 104.747C70.2816 104.747 63.6149 103.373 62.524 103.131C61.4331 102.929 59.3725 101.757 59.6553 100.868C59.9381 99.9792 62.1604 96.0195 62.1604 96.0195L66.4836 97.4337Z" fill="#5274AB"/>
<path d="M75.6586 80.7053C75.6586 80.7053 75.5778 82.2407 73.8 85.3518C72.0222 88.4629 66.8909 97.8771 66.8909 97.8771C66.8909 97.8771 63.0525 98.2004 61.3555 96.261C61.3555 96.261 66.6888 82.6043 67.5373 80.7053C68.4262 78.8063 74.8909 77.1093 75.6586 80.7053Z" fill="#2D3041"/>
<path d="M43.5733 71.8617L41.8359 70.8516L47.2905 110.448L49.0279 111.458L43.5733 71.8617Z" fill="#7F5545"/>
<path d="M34.481 75.1351L32.7437 74.125L27.2891 122.004L29.0264 123.014L34.481 75.1351Z" fill="#976552"/>
<path d="M45.0251 69.0335L43.3281 68.0234L32.7422 74.1245L34.4796 75.1346L45.0251 69.0335Z" fill="#9C6854"/>
<path d="M34.478 75.1362L29.0234 123.015L30.7608 122.005L35.973 76.2675L43.569 71.8635L49.0236 111.46L50.761 110.45L45.0236 69.0352L34.478 75.1362Z" fill="#614135"/>
<path d="M63.7796 105.719L46.8906 95.9414L47.1735 97.8L64.0221 107.578L63.7796 105.719Z" fill="#7F5545"/>
<path d="M65.517 104.748L48.628 94.9297L46.8906 95.9398L63.7796 105.718L65.517 104.748Z" fill="#9C6854"/>
<path d="M63.7812 105.72L64.0237 107.578L65.7611 106.568L65.5186 104.75L63.7812 105.72Z" fill="#614135"/>
<path d="M48.0989 113.075L31.2502 103.297L31.0078 105.438L47.8968 115.216L48.0989 113.075Z" fill="#976552"/>
<path d="M49.836 112.067L32.9874 102.289L31.25 103.299L48.0986 113.077L49.836 112.067Z" fill="#9C6854"/>
<path d="M48.1005 113.077L47.8984 115.218L49.5954 114.208L49.8378 112.066L48.1005 113.077Z" fill="#614135"/>
<path d="M61.1853 82.0869L59.4883 81.1172L64.9429 120.713L66.6398 121.683L61.1853 82.0869Z" fill="#7F5545"/>
<path d="M52.093 85.3603L50.396 84.3906L44.9414 132.27L46.6384 133.239L52.093 85.3603Z" fill="#976552"/>
<path d="M62.6775 79.2588L60.9805 78.2891L50.3945 84.3901L52.0915 85.3598L62.6775 79.2588Z" fill="#9C6854"/>
<path d="M52.0913 85.355L46.6367 133.234L48.3741 132.224L53.5863 86.4863L61.1823 82.0822L66.6369 121.678L68.3743 120.709L62.6772 79.2539L52.0913 85.355Z" fill="#614135"/>
<path d="M30.8047 73.6797V76.2656L51.4917 88.3061V85.7606L30.8047 73.6797Z" fill="#FCBB86"/>
<path d="M30.8047 73.6799L51.4917 85.7608L63.5726 78.8921L42.8856 66.8516L30.8047 73.6799Z" fill="#EDA468"/>
<path d="M51.4922 85.7633V88.3088L63.5731 81.4804V78.8945L51.4922 85.7633Z" fill="#B57962"/>
<path opacity="0.4" d="M63.5726 78.8918V79.2959L51.4917 86.1646L30.8047 74.0837V73.6797L51.4917 85.7606L63.5726 78.8918Z" fill="#FFFBF7"/>
<path d="M30.8047 73.6797V76.2656L51.4917 88.3061V85.7606L30.8047 73.6797Z" fill="#FCBB86"/>
<path d="M30.8047 73.6799L51.4917 85.7608L63.5726 78.8921L42.8856 66.8516L30.8047 73.6799Z" fill="#EDA468"/>
<path d="M51.4922 85.7633V88.3088L63.5731 81.4804V78.8945L51.4922 85.7633Z" fill="#B57962"/>
<path opacity="0.4" d="M63.5726 78.8918V79.2959L51.4917 86.1646L30.8047 74.0837V73.6797L51.4917 85.7606L63.5726 78.8918Z" fill="#FFFBF7"/>
<path d="M58.567 67.8164C58.567 67.8164 70.0014 73.473 72.3449 74.8064C74.6883 76.1397 75.6581 77.9579 75.6581 80.9074C75.6581 82.4832 71.6176 82.4428 67.6984 81.6751C66.7287 81.4731 65.2741 81.2307 63.5367 80.9478L63.4963 78.9276L60.4256 77.473C60.4256 77.473 55.4155 79.4529 51.7387 78.8064C50.3245 78.4832 49.1932 78.2003 48.5467 77.9579C45.7184 76.8266 42.7689 75.2912 42.082 72.3821L58.567 67.8164Z" fill="#2D3041"/>
<path fill-rule="evenodd" clip-rule="evenodd" d="M64.5508 38.8054C64.5508 38.8054 65.4397 38.159 65.6821 37.9973C65.9245 37.8357 66.2478 37.6741 66.5306 37.6337C66.8134 37.5933 67.7023 37.5125 67.9447 37.4317C68.1872 37.3509 68.672 37.1489 68.7528 37.2297C68.8336 37.3105 68.7932 38.0378 68.0256 38.2802C67.2983 38.5226 66.8942 38.4822 66.6114 38.6034C66.3286 38.765 65.2377 39.5731 65.2377 39.5731L64.5508 38.8054Z" fill="url(#paint93_linear)"/>
<path fill-rule="evenodd" clip-rule="evenodd" d="M65.2773 38.9663C65.2773 38.9663 66.4491 38.3602 66.7319 38.1986C67.0147 38.037 67.338 37.9157 67.6612 37.9157C67.9844 37.9157 68.9137 37.8753 69.1562 37.8349C69.439 37.7945 69.9642 37.6329 70.0451 37.7137C70.1259 37.7945 70.0047 38.5622 69.1966 38.7642C68.3885 38.9663 67.9844 38.845 67.6612 39.0067C67.338 39.1279 66.1258 39.936 66.1258 39.936L65.2773 38.9663Z" fill="url(#paint94_linear)"/>
<path fill-rule="evenodd" clip-rule="evenodd" d="M65.9219 39.532C65.9219 39.532 67.2148 38.9664 67.538 38.8452C67.8613 38.6836 68.2249 38.6027 68.5886 38.6027C68.9118 38.6432 69.9219 38.6836 70.2047 38.6431C70.4876 38.6027 71.0936 38.4815 71.1744 38.5623C71.2552 38.6431 71.0532 39.4512 70.1643 39.6129C69.2754 39.7341 68.8714 39.6128 68.5078 39.7341C68.1441 39.8553 66.8108 40.5826 66.8108 40.5826L65.9219 39.532Z" fill="url(#paint95_linear)"/>
<path fill-rule="evenodd" clip-rule="evenodd" d="M48.7931 41.6736L49.7224 44.0575C49.7224 44.0575 52.6719 43.2898 54.3285 43.007C55.9851 42.7241 60.672 41.4716 61.6417 40.9059C62.571 40.3807 64.4296 38.8857 64.5912 38.7241C64.7528 38.6029 65.1973 38.2797 65.3993 38.3605C66.5306 39.0069 67.4195 40.5019 67.5407 41.0676C67.2579 41.5928 66.2478 42.1989 65.6821 42.6029C65.1164 43.007 63.7831 43.2898 62.9346 43.2898C62.0861 43.2898 58.6517 45.31 55.783 46.805C52.9547 48.2999 49.6416 49.6333 48.4294 50.0373C47.2173 50.4414 46.6113 50.2393 46.0456 49.5525C45.4799 48.8656 43.985 45.8353 43.3789 43.9767L48.7931 41.6736Z" fill="#FDDDC8"/>
<path fill-rule="evenodd" clip-rule="evenodd" d="M49.3966 43.292C49.3966 43.292 47.8208 46.2011 44.9521 47.8172C44.346 46.6455 43.6996 45.1506 43.3359 44.0596L48.7501 41.6758L49.3966 43.292Z" fill="url(#paint96_linear)"/>
<path fill-rule="evenodd" clip-rule="evenodd" d="M66.3672 40.459C66.3672 40.459 67.5389 39.9742 67.8217 39.8126C68.1046 39.6914 68.4278 39.5702 68.751 39.6106C69.0743 39.651 69.9228 39.651 70.2056 39.651C70.448 39.6106 70.9733 39.4893 71.0541 39.5702C71.1349 39.651 70.9329 40.3782 70.1652 40.4995C69.3975 40.6207 68.9935 40.4995 68.7106 40.6207C68.3874 40.7015 67.1753 41.3883 67.1753 41.3883L66.3672 40.459Z" fill="#FDDDC8"/>
<path fill-rule="evenodd" clip-rule="evenodd" d="M67.4191 41.3128C67.0555 41.7977 66.207 42.2825 65.6817 42.6462C65.1161 42.0805 64.6716 41.4744 65.1565 41.2724C65.9242 40.9492 67.0959 41.232 67.4191 41.3128Z" fill="url(#paint97_linear)"/>
<path fill-rule="evenodd" clip-rule="evenodd" d="M64.4649 43.1666C64.4649 43.1666 65.6366 43.0454 66.3639 43.0454C67.0912 43.0454 67.2932 42.9646 67.6164 42.8434C67.9397 42.7222 68.3437 42.2373 68.5861 42.1565C68.8286 42.0757 69.3538 41.9141 69.3134 41.7121C69.3134 41.5505 68.6266 41.1868 67.9801 41.4293C67.3336 41.6717 67.172 41.7929 66.8892 41.7525C66.6063 41.6717 66.0811 41.1464 65.273 41.308C64.4649 41.4293 63.9396 42.6818 64.4649 43.1666Z" fill="#FDDDC8"/>
<path fill-rule="evenodd" clip-rule="evenodd" d="M44.8289 14.6867C48.0209 14.5655 49.7583 16.02 50.6876 19.0099C51.6169 21.9999 51.0108 22.4847 51.7381 24.0605C52.4654 25.6363 52.2633 27.01 51.6169 28.7474C50.9704 30.4848 50.6876 31.2525 50.0815 31.2525C49.4754 31.2525 47.6976 30.808 47.6976 30.808L41.2734 29.9191C41.2734 29.9191 38.6471 27.4949 37.8794 21.9191C37.1117 16.4645 40.6269 14.8887 44.8289 14.6867Z" fill="#FDDDC8"/>
<path fill-rule="evenodd" clip-rule="evenodd" d="M47.4125 29.4346C47.4125 29.4346 47.3721 33.7579 48.8671 36.1822C50.4024 38.6468 51.0893 38.768 51.0893 38.768C51.0893 38.768 46.6448 41.1115 42.5236 39.3337C38.4023 37.5559 38.4023 33.5963 38.4023 33.5963C38.4023 33.5963 41.6751 33.3539 40.7054 27.6973L45.1499 27.0508C45.1499 27.0508 45.5943 27.9397 47.0893 28.3841C47.3317 28.7074 47.4125 29.071 47.4125 29.4346Z" fill="url(#paint98_linear)"/>
<path d="M48.8665 36.2231C48.8665 36.2231 51.6544 38.7281 52.6645 39.4958C53.6746 40.2635 56.3009 42.2433 56.6645 46.2838C57.0282 50.3242 56.4221 59.9 57.6342 63.698C58.8464 67.496 59.6141 67.5364 59.008 69.7587C58.4019 71.9809 55.0888 74.9708 49.6746 75.6577C44.2604 76.3446 40.7048 73.6375 40.0179 69.1122C39.3311 64.5869 38.2806 56.0616 37.5937 51.9404C36.9068 47.8191 34.6442 41.516 35.0886 38.1625C35.2502 36.9908 35.6139 35.6978 36.0583 34.8897C36.8664 33.4352 39.3715 33.1523 39.5735 33.1523C39.8967 33.1523 40.22 33.4756 43.0483 34.2837C45.8362 35.0513 47.2099 35.3746 48.8665 36.2231Z" fill="#5274AB"/>
<path d="M39.332 33.1528C39.332 33.1528 40.5038 31.4154 40.7058 31.375C40.9078 31.375 43.8169 31.8194 46.2008 32.9912C48.5846 34.2033 49.3927 36.668 49.3927 36.668C49.3927 36.668 43.3725 34.4457 39.332 33.1528Z" fill="#395075"/>
<path d="M57.1489 61.2338C53.3509 58.4863 50.6842 52.8701 50.0781 48.5469L56.7852 50.2035C56.8257 53.7186 56.7852 58.1227 57.1489 61.2338Z" fill="#3C547D"/>
<path fill-rule="evenodd" clip-rule="evenodd" d="M73.625 48.2242C73.625 48.2242 73.9886 47.0929 74.1503 46.406C74.3119 45.7191 74.4331 45.5171 74.6351 45.2343C74.8371 44.9515 75.3624 44.6282 75.524 44.4262C75.6452 44.2242 75.928 43.7393 76.0897 43.7797C76.2513 43.8201 76.4533 44.5878 76.0897 45.1535C75.726 45.7595 75.5644 45.8808 75.5644 46.1636C75.5644 46.4464 75.9685 47.0929 75.6856 47.8202C75.322 48.5878 74.029 48.8303 73.625 48.2242Z" fill="url(#paint99_linear)"/>
<path fill-rule="evenodd" clip-rule="evenodd" d="M59.5256 49.1941L60.9802 51.578C60.9802 51.578 63.9297 50.8103 65.5863 50.5275C67.2429 50.2446 71.9298 48.9921 72.8995 48.4264C73.8288 47.9012 75.445 45.3961 75.6066 45.2749C75.7682 45.1537 76.2126 44.8304 76.4147 44.9112C77.546 45.5577 78.6369 48.0628 78.7985 48.6284C78.5157 49.1537 77.5056 49.7598 76.9399 50.1638C76.3743 50.5679 75.0409 50.8507 74.1924 50.8507C73.3439 50.8507 69.9096 52.8709 67.0409 54.3659C64.2125 55.8608 60.8994 57.1942 59.6873 57.5982C58.4751 58.0023 57.8691 57.8002 57.3034 57.1134C56.7377 56.4265 55.2428 53.3962 54.6367 51.5376L59.5256 49.1941Z" fill="#FDDDC8"/>
<path fill-rule="evenodd" clip-rule="evenodd" d="M72.9385 49.7227C72.9385 49.7227 73.1809 50.4903 73.1809 51.1772L72.4132 51.5813C72.4132 51.5813 72.3324 50.6924 71.9688 50.0459L72.9385 49.7227Z" fill="#CF8F5B"/>
<path fill-rule="evenodd" clip-rule="evenodd" d="M70.8806 49.5594C70.9614 50.0038 71.527 50.2463 72.1735 50.1251C72.82 50.0038 73.2644 49.5594 73.1836 49.1553C73.1028 48.7109 72.5371 48.4685 71.8907 48.5897C71.2442 48.7109 70.7998 49.1553 70.8806 49.5594Z" fill="#7D4A41"/>
<path fill-rule="evenodd" clip-rule="evenodd" d="M71.0806 49.4351C71.1614 49.7988 71.6059 50.0008 72.1311 49.92C72.6564 49.8392 73.02 49.4756 72.9796 49.1119C72.8988 48.7483 72.4544 48.5463 71.9291 48.6271C71.4039 48.7483 70.9998 49.1119 71.0806 49.4351Z" fill="#D9C8C5"/>
<path fill-rule="evenodd" clip-rule="evenodd" d="M76.1328 44.9923C76.1328 44.9923 77.2641 44.4266 77.547 44.265C77.8298 44.1034 78.153 43.9821 78.4359 43.9821C78.7187 43.9821 79.6076 43.9417 79.85 43.9013C80.0924 43.8609 80.6177 43.6993 80.6985 43.7801C80.7793 43.8609 80.6581 44.5882 79.8904 44.7498C79.1227 44.9115 78.7187 44.8306 78.4359 44.9519C78.1126 45.0731 76.9813 45.8003 76.9813 45.8003L76.1328 44.9923Z" fill="#FDDDC8"/>
<path fill-rule="evenodd" clip-rule="evenodd" d="M76.7812 45.842C76.7812 45.842 78.0742 45.2763 78.3974 45.1147C78.7207 44.9531 79.0843 44.8723 79.4479 44.8723C79.7712 44.9127 80.7813 44.9531 81.0641 44.9127C81.3469 44.8723 81.953 44.7511 82.0338 44.8319C82.1146 44.9127 81.9126 45.7208 81.0237 45.8824C80.1348 46.0036 79.7308 45.8824 79.3671 46.0036C79.0035 46.1248 77.6701 46.8521 77.6701 46.8521L76.7812 45.842Z" fill="#FDDDC8"/>
<path fill-rule="evenodd" clip-rule="evenodd" d="M77.4648 46.8921C77.4648 46.8921 78.7174 46.488 79.0406 46.3668C79.3638 46.2456 79.6871 46.2052 80.0103 46.2456C80.3336 46.286 81.2224 46.4072 81.5053 46.4072C81.7881 46.4072 82.3538 46.3264 82.3942 46.4072C82.475 46.488 82.1922 47.2153 81.3841 47.2961C80.576 47.3365 80.1719 47.1749 79.8487 47.2557C79.5255 47.3365 78.1921 47.9022 78.1921 47.9022L77.4648 46.8921Z" fill="#FDDDC8"/>
<path fill-rule="evenodd" clip-rule="evenodd" d="M77.3438 47.9832C77.3438 47.9832 78.5559 47.7004 78.8387 47.6196C79.1215 47.5388 79.4852 47.4984 79.768 47.5792C80.0508 47.66 80.8993 47.862 81.1418 47.862C81.3842 47.862 81.9094 47.862 81.9903 47.9428C82.0307 48.0237 81.7478 48.7105 80.9801 48.6701C80.2125 48.6701 79.8488 48.4681 79.5256 48.5085C79.2024 48.5489 77.9094 48.9934 77.9094 48.9934L77.3438 47.9832Z" fill="#FDDDC8"/>
<path d="M54.4802 41.1118C54.4802 41.1118 56.7024 43.9805 57.7529 45.5563C58.8034 47.1321 61.3085 50.9301 61.3085 50.9301C61.3085 50.9301 61.8742 50.6877 62.1974 50.6877C62.6014 51.7382 63.2075 53.7988 62.9651 56.7079C62.359 57.0311 61.1873 57.8392 60.46 58.2029C59.6923 58.6069 58.561 59.0918 57.9953 58.4049C57.4297 57.718 56.3792 56.7483 55.5307 55.6574C54.7226 54.5665 50.763 52.3038 50.0357 48.2634C49.3084 44.2634 52.2175 38.6472 54.4802 41.1118Z" fill="#5274AB"/>
<path d="M61.5508 50.8519C61.5508 50.8519 61.5912 50.5691 61.7124 50.5691C61.8336 50.5287 64.7831 50.4883 64.9043 50.4883C65.0256 50.4883 65.5912 50.8923 65.9145 52.4277C66.2377 53.9631 66.0761 55.1348 65.9145 55.2964C65.7528 55.458 62.8841 57.155 62.8033 57.1954C62.7225 57.2358 62.3993 57.0742 62.3993 57.0742C62.3993 57.0742 62.8437 54.0035 61.5508 50.8519Z" fill="#7495CC"/>
<path d="M49.6756 19.8977C49.6756 19.8977 50.3624 21.2714 50.0796 22.6048C50.0796 22.6048 49.5947 22.3623 49.2715 21.9583C49.2715 21.9583 49.1099 23.0896 49.1099 23.2108C49.1099 23.3724 48.423 23.8573 48.3826 24.1401C48.3422 24.423 48.3018 26.0795 48.3018 26.0795L47.7765 26.1603C47.7765 26.1603 47.3725 24.9886 47.1705 24.7058C46.9685 24.3825 46.322 23.8977 46.0392 24.2209C45.7563 24.5442 45.5947 26.322 45.8371 27.13C46.0392 27.9381 47.2109 28.423 47.2109 28.423C47.1705 30.0392 46.726 30.6452 46.6048 30.726C46.4836 30.8068 46.2816 30.322 46.2816 30.322C46.2816 30.322 43.9381 31.4533 43.0088 31.3725C42.0795 31.2917 40.1805 30.524 39.2108 28.4634C39.2108 28.4634 39.0088 28.8674 38.928 28.8674C38.8472 28.8674 36.8674 27.1704 36.3421 24.1805C35.8573 21.1906 36.7462 19.7764 37.3926 18.7259C37.3522 17.0694 37.7967 15.3724 39.8169 14.6047C41.8371 13.8774 43.6553 13.5946 44.4634 12.8269C45.2715 12.0592 46.5644 10.8875 46.8068 11.0087C47.0493 11.0895 48.1402 11.9784 48.1402 13.3522C49.3523 12.9077 50.6453 11.736 50.7665 12.2612C50.9281 12.7865 51.6958 15.1704 50.7665 16.7865C51.4937 16.5845 52.0594 16.5845 52.0594 16.8269C51.9786 17.1098 51.615 19.3724 49.6756 19.8977Z" fill="#6F4D50"/>
<path d="M95.9376 52.2631L95.8164 52.2227C95.8568 52.2227 95.8972 52.2631 95.9376 52.2631C95.9376 52.3439 95.978 52.3843 96.0588 52.4247L96.18 52.4651C96.1396 52.4247 96.0588 52.3843 96.0184 52.3035C95.978 52.3035 95.9376 52.3035 95.9376 52.2631Z" fill="#2C3340"/>
<path d="M90.7253 53.7982L90.6445 53.7578V54.1214L90.7253 54.1619V53.7982Z" fill="url(#paint100_linear)"/>
<path d="M90.7227 53.7989V54.1625C90.8843 54.1221 93.5914 53.1524 93.8742 53.0716C93.9146 53.0716 93.955 53.0312 93.9954 53.0312C94.0762 52.9908 94.1974 52.8696 94.3186 52.7888C94.4399 52.708 94.5611 52.5867 94.7227 52.5059C94.8035 52.4655 94.8843 52.4251 95.0055 52.3847C95.4904 52.2231 95.8944 52.1827 96.0156 52.3847C96.0964 52.5463 96.2985 52.6676 96.5813 52.5059C96.8641 52.3443 97.0257 52.0211 96.9853 51.9807C96.9449 51.9403 95.1671 52.0615 94.9651 52.1423C94.8035 52.1423 90.9247 53.7181 90.7227 53.7989Z" fill="url(#paint101_linear)"/>
<path d="M96.9464 51.9391L96.8252 51.8987C96.7444 51.8582 95.007 51.9795 94.805 52.0603C94.6433 52.1411 90.7645 53.6764 90.5625 53.7573L90.6837 53.7977C90.8857 53.7168 94.7241 52.1411 94.9262 52.1007C95.1282 52.0199 96.906 51.8987 96.9464 51.9391Z" fill="#697A9C"/>
<path d="M89.9181 48.8646L89.7969 48.8242C89.8777 48.8242 89.8777 48.8242 89.9181 48.8646C89.9181 48.9454 89.9585 48.9858 90.0393 49.0262L90.1605 49.0666C90.1201 49.0262 90.0393 48.9858 89.9989 48.905C89.9989 48.905 89.9585 48.8646 89.9181 48.8646Z" fill="#2C3340"/>
<path d="M84.7501 50.4011L84.6289 50.3203V50.6839L84.7501 50.7648V50.4011Z" fill="url(#paint102_linear)"/>
<path d="M84.7461 50.4004V50.7641C84.9077 50.7237 87.6148 49.754 87.8976 49.6732C87.938 49.6732 87.9784 49.6328 88.0188 49.6328C88.0997 49.5923 88.2209 49.4711 88.3421 49.3903C88.4633 49.3095 88.5845 49.1883 88.7461 49.1075C88.8269 49.0671 88.9077 49.0267 89.029 48.9863C89.5138 48.8247 89.9179 48.7843 90.0391 48.9863C90.1603 49.1479 90.3219 49.2691 90.6047 49.1075C90.8876 48.9459 91.0492 48.6226 91.0088 48.5822C90.9684 48.5418 89.1906 48.6631 88.9886 48.7439C88.7865 48.7439 84.9481 50.3196 84.7461 50.4004Z" fill="url(#paint103_linear)"/>
<path d="M90.9698 48.5016L90.8486 48.4612C90.7678 48.4207 89.0304 48.542 88.8284 48.6228C88.6668 48.7036 84.788 50.2389 84.5859 50.3198L84.7072 50.3602C84.9092 50.2793 88.7476 48.7036 88.9496 48.6632C89.1516 48.5824 90.889 48.4612 90.9698 48.5016Z" fill="#697A9C"/>
<path d="M85.0304 50.9702C85.0304 50.9298 85.0709 50.8894 85.1113 50.8894C85.1517 50.849 85.1921 50.849 85.2729 50.8086C85.2325 50.849 85.2325 50.849 85.1921 50.8894C85.1517 50.9702 85.1113 51.3743 85.2325 51.9399C85.3133 52.3844 85.5961 52.7884 86.081 53.0712C86.1618 53.1116 86.283 53.1925 86.4042 53.2329C86.6466 53.3137 86.8082 53.3137 86.9699 53.2329L86.8082 53.3137C86.687 53.3945 86.485 53.3945 86.2426 53.3137C86.1214 53.2733 86.0002 53.2329 85.9193 53.152C85.4345 52.8692 85.1517 52.4652 85.0708 52.0207C84.99 51.4551 84.99 51.051 85.0304 50.9702Z" fill="url(#paint104_linear)"/>
<path d="M86.9258 53.4748L87.0874 53.394C87.3702 53.2324 87.4914 52.7072 87.5722 52.5859L87.4106 52.6667C87.2894 52.788 87.2086 53.2728 86.9258 53.4748Z" fill="#2C3340"/>
<path d="M88.1006 52.6238L88.2622 52.543C88.1814 52.5834 88.141 52.7046 88.1814 52.947C88.2218 53.3511 88.3834 54.1591 89.0703 54.6844C89.1915 54.7652 89.3127 54.846 89.3935 54.8864C89.7167 55.048 89.9188 55.0884 90.0804 55.0076C90.04 55.048 89.9592 55.048 89.9188 55.0884C89.7571 55.1692 89.5551 55.1288 89.2319 54.9672C89.1511 54.9268 89.0299 54.846 88.9087 54.7652C88.2218 54.24 88.0602 53.3915 88.0198 53.0278C87.9794 52.7854 88.0198 52.7046 88.1006 52.6238Z" fill="url(#paint105_linear)"/>
<path d="M90 55.2927C90.0404 55.2523 90.1212 55.2523 90.1616 55.2119C90.3232 55.0907 90.404 54.8483 90.4445 54.727C90.4849 54.525 90.4849 54.2826 90.5657 54.2422L90.404 54.323C90.3232 54.3634 90.3232 54.6462 90.2828 54.8078C90.2424 54.9291 90.202 55.2119 90 55.2927Z" fill="#2C3340"/>
<path d="M84.7046 50.2422C84.7046 50.2422 84.745 50.2422 84.7046 50.2422C84.7854 50.2422 85.4723 50.525 86.0379 50.8483C86.0783 50.8483 86.0783 50.8887 86.1187 50.8887C86.6844 51.2119 87.0884 51.6159 87.2501 51.7372C87.4117 51.8584 87.5733 52.02 87.7349 52.1008C87.8965 52.1816 88.0581 52.2624 88.2198 52.3028C88.3814 52.3432 88.7854 52.4644 89.3511 52.7877C89.3915 52.7877 89.3915 52.8281 89.4319 52.8281C89.9976 53.1513 90.644 53.6362 90.7248 53.6766C90.7652 53.717 90.7652 53.7574 90.7652 53.8382C90.7652 53.919 90.7652 54.0806 90.7652 54.1614C90.7652 54.2018 90.7652 54.2018 90.7652 54.2018C90.7248 54.2422 90.644 54.2422 90.6036 54.2826V54.2422C90.6036 54.1614 90.6036 53.9998 90.6036 53.919C90.6036 53.8382 90.6036 53.8382 90.5632 53.7574C90.5228 53.717 89.8359 53.1917 89.2703 52.9089C89.2299 52.9089 89.2299 52.8685 89.1895 52.8685C88.6238 52.5452 88.2198 52.424 88.0582 52.3836C87.8965 52.3432 87.7349 52.2624 87.5733 52.1816C87.4117 52.1008 87.2501 51.9392 87.0884 51.818C86.9268 51.6967 86.5228 51.3331 85.9571 50.9695C85.9167 50.9695 85.9167 50.9291 85.8763 50.9291C85.3107 50.6058 84.6642 50.323 84.5834 50.323H84.543L84.7046 50.2422Z" fill="url(#paint106_linear)"/>
<path d="M85.8763 50.9289C85.9167 50.9289 85.9167 50.9693 85.9571 50.9693C86.5228 51.2925 86.9268 51.6966 87.0884 51.8178C87.2501 51.939 87.4117 52.1006 87.5733 52.1814C87.7349 52.2622 87.8965 52.343 88.0582 52.3835C88.2198 52.4239 88.6238 52.5451 89.1895 52.8683C89.2299 52.8683 89.2299 52.9087 89.2703 52.9087C89.8359 53.2319 90.4824 53.7168 90.5632 53.7572C90.6036 53.7976 90.6036 53.838 90.6036 53.9188C90.6036 53.9996 90.6036 54.1612 90.6036 54.2421C90.6036 54.3229 90.5632 54.2825 90.442 54.2825C90.3208 54.2421 90.3208 54.5653 90.24 54.8077C90.1996 55.0097 90.0784 55.4138 89.6743 55.3734C89.5127 55.333 89.3107 55.2926 89.1087 55.1714C88.8258 55.0097 88.543 54.7673 88.3006 54.4441C87.8965 53.9188 87.8157 53.1511 87.6945 52.9087C87.6541 52.7875 87.5733 52.7471 87.5329 52.7067C87.4925 52.7067 87.4117 52.6259 87.3713 52.7067C87.2501 52.8279 87.1693 53.434 86.7652 53.5552C86.5228 53.5956 86.24 53.5148 85.9571 53.3532C85.7551 53.2319 85.5531 53.0703 85.3915 52.9087C84.9874 52.5047 84.9066 51.9794 84.8662 51.737C84.8258 51.4542 84.8258 51.1713 84.7046 51.0097C84.5834 50.8885 84.543 50.8481 84.543 50.7673C84.543 50.6865 84.543 50.5249 84.543 50.444C84.543 50.3632 84.543 50.3632 84.5834 50.3632C84.6642 50.3228 85.3107 50.6057 85.8763 50.9289ZM85.1086 52.0198C85.2298 52.4643 85.4723 52.8683 85.9571 53.1511C86.0379 53.1915 86.1591 53.2723 86.2804 53.3128C86.9672 53.5956 87.1288 52.9491 87.1693 52.5855C87.2097 52.2218 87.0884 52.0198 86.9268 51.8582C86.5228 51.4946 86.24 51.2925 85.9975 51.1309C85.7955 51.0097 85.6339 50.9289 85.4723 50.8885C85.1894 50.8077 85.1086 50.8481 85.0682 50.9693C84.9874 51.0501 84.9874 51.4542 85.1086 52.0198ZM87.9773 53.0299C88.0177 53.434 88.1794 54.2421 88.8662 54.7673C88.9875 54.8481 89.1087 54.9289 89.1895 54.9693C89.6743 55.2522 89.9572 55.1714 90.038 54.8481C90.1592 54.4441 90.1592 53.9996 90.0784 53.8784C90.038 53.7572 89.9572 53.5552 89.6743 53.3532C89.5127 53.2319 89.3511 53.1107 89.1491 52.9895C88.9066 52.8279 88.5834 52.7067 88.2198 52.6259C88.0986 52.5855 87.9773 52.6663 87.9773 53.0299Z" fill="url(#paint107_linear)"/>
<path d="M94.8114 56.5824C94.7306 56.0167 94.6498 55.4914 94.6094 54.9258C94.6498 55.249 94.8922 55.5723 95.2962 55.8551C96.266 56.4611 97.8821 56.4611 98.9326 55.8955C99.4175 55.6127 99.6599 55.2894 99.7003 54.9258C99.6195 55.4914 99.5791 56.0167 99.4983 56.5824C99.4579 56.9056 99.2155 57.2288 98.771 57.4713C97.8417 57.9965 96.3468 57.9965 95.4579 57.4308C95.0942 57.1884 94.8518 56.8652 94.8114 56.5824Z" fill="url(#paint108_linear)"/>
<path d="M94.6085 54.9279C94.4469 53.7562 94.2853 52.6249 94.1641 51.4531C94.2045 51.8572 94.4873 52.2208 95.0126 52.544C96.1843 53.2309 98.0833 53.2713 99.2954 52.5844C99.8611 52.2612 100.144 51.8572 100.225 51.4531L99.7803 54.9279C99.7399 55.2915 99.457 55.6148 99.0126 55.8976C98.0025 56.4633 96.3863 56.4633 95.3762 55.8572C94.8913 55.5744 94.6489 55.2511 94.6085 54.9279Z" fill="#7DD075"/>
<path d="M94.1628 51.4525C94.1224 51.2505 94.1224 51.0081 94.082 50.806C94.1224 51.2101 94.4053 51.6141 94.9305 51.8969C96.1023 52.6242 98.0821 52.6242 99.3346 51.9374C99.9003 51.6141 100.223 51.2101 100.264 50.7656C100.223 50.9676 100.223 51.2101 100.183 51.4121C100.143 51.8161 99.8195 52.2202 99.2538 52.5434C98.0417 53.2303 96.1427 53.1899 94.9709 52.503C94.4861 52.2202 94.2032 51.8161 94.1628 51.4525Z" fill="url(#paint109_linear)"/>
<path d="M99.6983 47.9782C101.032 48.7863 100.991 50.0792 99.5771 50.8469C98.1629 51.6146 95.9407 51.6146 94.6073 50.8065C93.274 49.9984 93.3144 48.7055 94.7285 47.9378C96.1023 47.1297 98.3245 47.1701 99.6983 47.9782Z" fill="url(#paint110_linear)"/>
<path d="M98.6889 47.8571C97.8808 47.3723 96.507 47.3723 95.6585 47.8167C94.8101 48.3016 94.7697 49.0693 95.5777 49.5541C96.3858 50.039 97.7596 50.039 98.6081 49.5945C99.4566 49.1097 99.497 48.342 98.6889 47.8571Z" fill="url(#paint111_linear)"/>
<path d="M97.6784 48.504C97.3956 48.3424 96.9108 48.3424 96.6279 48.504C96.3451 48.6656 96.3047 48.9485 96.5875 49.1101C96.8704 49.2717 97.3552 49.2717 97.638 49.1101C97.9613 48.9485 97.9613 48.6656 97.6784 48.504Z" fill="#363E4F"/>
<path d="M97.8381 48.3428C97.4744 48.1408 96.8683 48.1004 96.5047 48.3428C96.1411 48.5448 96.1007 48.9085 96.4643 49.1105C96.8279 49.3125 97.434 49.3529 97.7976 49.1105C98.1613 48.8681 98.2017 48.5448 97.8381 48.3428ZM97.6764 49.1105C97.3936 49.2721 96.9088 49.2721 96.6259 49.1105C96.3431 48.9489 96.3431 48.666 96.6663 48.5044C96.9492 48.3428 97.434 48.3428 97.7168 48.5044C97.9593 48.666 97.9593 48.9489 97.6764 49.1105Z" fill="url(#paint112_linear)"/>
<path d="M94.8908 48.4249C95.0928 48.2633 95.2544 48.1421 95.4565 47.9805C94.8504 48.4653 94.8908 49.1118 95.6181 49.5562C96.4262 50.0411 97.7999 50.0411 98.6484 49.5966C99.4161 49.1522 99.4969 48.4653 98.8908 47.9805C99.0929 48.1421 99.2545 48.2633 99.4565 48.4249C100.305 49.0714 100.184 50.0007 99.1333 50.5663C98.0019 51.2128 96.2242 51.1724 95.1332 50.5259C94.1635 49.9199 94.0827 49.031 94.8908 48.4249Z" fill="url(#paint113_linear)"/>
<path opacity="0.4" d="M98.6062 49.5951C97.7577 50.0799 96.4244 50.0395 95.5759 49.5547C94.9698 49.191 94.8486 48.6658 95.1314 48.2617C94.8082 48.7062 94.9294 49.2314 95.5355 49.5951C96.384 50.0799 97.7577 50.1203 98.6062 49.5951C98.8082 49.5143 98.9699 49.3526 99.0911 49.191C98.9699 49.3526 98.8082 49.4739 98.6062 49.5951Z" fill="white"/>
<path d="M93.6406 50.6471C93.6406 50.243 93.6406 49.7986 93.6406 49.3945C93.6406 49.8794 93.9639 50.4046 94.6103 50.8087C95.9437 51.6168 98.1659 51.6572 99.5801 50.8491C100.307 50.445 100.671 49.9198 100.671 49.3945C100.671 49.7986 100.671 50.243 100.671 50.6471C100.671 51.1723 100.307 51.738 99.5801 52.1016C98.1659 52.8693 95.9437 52.8693 94.6103 52.0612C93.9639 51.6572 93.6406 51.1723 93.6406 50.6471Z" fill="url(#paint114_linear)"/>
<path opacity="0.4" d="M99.5801 50.8465C98.1659 51.6142 95.9437 51.6142 94.6103 50.8061C93.9639 50.4021 93.6406 49.9172 93.6406 49.392V49.4324C93.6406 49.9172 93.9639 50.4425 94.6103 50.8465C95.9437 51.6546 98.1659 51.695 99.5801 50.8869C100.307 50.4829 100.671 49.9576 100.671 49.4324C100.671 49.4324 100.671 49.392 100.671 49.3516C100.671 49.8768 100.307 50.4425 99.5801 50.8465Z" fill="white"/>
<defs>
<linearGradient id="paint0_linear" x1="46.8461" y1="72.4815" x2="59.1692" y2="51.539" gradientUnits="userSpaceOnUse">
<stop stop-color="#F7F7FF"/>
<stop offset="1" stop-color="#BEBEE0"/>
</linearGradient>
<linearGradient id="paint1_linear" x1="58.0989" y1="77.6016" x2="72.5771" y2="44.5372" gradientUnits="userSpaceOnUse">
<stop stop-color="#F7F7FF"/>
<stop offset="1" stop-color="#BEBEE0"/>
</linearGradient>
<linearGradient id="paint2_linear" x1="56.6317" y1="44.7312" x2="55.9141" y2="22.0751" gradientUnits="userSpaceOnUse">
<stop stop-color="#346D4D"/>
<stop offset="1" stop-color="#8AC45E"/>
</linearGradient>
<linearGradient id="paint3_linear" x1="51.9616" y1="49.5628" x2="39.0672" y2="34.3825" gradientUnits="userSpaceOnUse">
<stop stop-color="#346D4D"/>
<stop offset="1" stop-color="#8AC45E"/>
</linearGradient>
<linearGradient id="paint4_linear" x1="63.8075" y1="46.4859" x2="78.045" y2="32.5578" gradientUnits="userSpaceOnUse">
<stop stop-color="#346D4D"/>
<stop offset="1" stop-color="#8AC45E"/>
</linearGradient>
<linearGradient id="paint5_linear" x1="80.792" y1="22.8774" x2="87.9303" y2="53.6522" gradientUnits="userSpaceOnUse">
<stop stop-color="#405078"/>
<stop offset="1" stop-color="#252E45"/>
</linearGradient>
<linearGradient id="paint6_linear" x1="69.5655" y1="47.1219" x2="85.4488" y2="34.4431" gradientUnits="userSpaceOnUse">
<stop stop-color="white"/>
<stop offset="1" stop-color="#CECFDB"/>
</linearGradient>
<linearGradient id="paint7_linear" x1="66.3337" y1="34.7328" x2="88.1607" y2="46.5287" gradientUnits="userSpaceOnUse">
<stop stop-color="#333E4A"/>
<stop offset="1" stop-color="#222931"/>
</linearGradient>
<linearGradient id="paint8_linear" x1="67.3576" y1="32.8378" x2="89.1851" y2="44.6339" gradientUnits="userSpaceOnUse">
<stop stop-color="#333E4A"/>
<stop offset="1" stop-color="#222931"/>
</linearGradient>
<linearGradient id="paint9_linear" x1="67.3393" y1="32.8686" x2="89.1677" y2="44.6652" gradientUnits="userSpaceOnUse">
<stop stop-color="#333E4A"/>
<stop offset="1" stop-color="#222931"/>
</linearGradient>
<linearGradient id="paint10_linear" x1="67.3162" y1="32.8968" x2="89.149" y2="44.6959" gradientUnits="userSpaceOnUse">
<stop stop-color="#333E4A"/>
<stop offset="1" stop-color="#222931"/>
</linearGradient>
<linearGradient id="paint11_linear" x1="66.9089" y1="33.662" x2="88.7406" y2="45.4605" gradientUnits="userSpaceOnUse">
<stop stop-color="#333E4A"/>
<stop offset="1" stop-color="#222931"/>
</linearGradient>
<linearGradient id="paint12_linear" x1="66.8887" y1="33.6962" x2="88.7175" y2="45.493" gradientUnits="userSpaceOnUse">
<stop stop-color="#333E4A"/>
<stop offset="1" stop-color="#222931"/>
</linearGradient>
<linearGradient id="paint13_linear" x1="67.3032" y1="32.9321" x2="89.1316" y2="44.7288" gradientUnits="userSpaceOnUse">
<stop stop-color="#333E4A"/>
<stop offset="1" stop-color="#222931"/>
</linearGradient>
<linearGradient id="paint14_linear" x1="66.368" y1="34.6672" x2="88.1957" y2="46.4635" gradientUnits="userSpaceOnUse">
<stop stop-color="#333E4A"/>
<stop offset="1" stop-color="#222931"/>
</linearGradient>
<linearGradient id="paint15_linear" x1="65.8443" y1="35.6331" x2="87.6729" y2="47.4299" gradientUnits="userSpaceOnUse">
<stop stop-color="#333E4A"/>
<stop offset="1" stop-color="#222931"/>
</linearGradient>
<linearGradient id="paint16_linear" x1="66.8714" y1="33.7327" x2="88.6994" y2="45.529" gradientUnits="userSpaceOnUse">
<stop stop-color="#333E4A"/>
<stop offset="1" stop-color="#222931"/>
</linearGradient>
<linearGradient id="paint17_linear" x1="67.2867" y1="32.9681" x2="89.1136" y2="44.7639" gradientUnits="userSpaceOnUse">
<stop stop-color="#333E4A"/>
<stop offset="1" stop-color="#222931"/>
</linearGradient>
<linearGradient id="paint18_linear" x1="66.35" y1="34.6975" x2="88.1788" y2="46.4944" gradientUnits="userSpaceOnUse">
<stop stop-color="#333E4A"/>
<stop offset="1" stop-color="#222931"/>
</linearGradient>
<linearGradient id="paint19_linear" x1="65.8267" y1="35.6701" x2="87.6555" y2="47.4669" gradientUnits="userSpaceOnUse">
<stop stop-color="#333E4A"/>
<stop offset="1" stop-color="#222931"/>
</linearGradient>
<linearGradient id="paint20_linear" x1="67.2712" y1="33.0025" x2="89.0958" y2="44.7972" gradientUnits="userSpaceOnUse">
<stop stop-color="#333E4A"/>
<stop offset="1" stop-color="#222931"/>
</linearGradient>
<linearGradient id="paint21_linear" x1="65.3091" y1="36.6215" x2="87.1385" y2="48.4187" gradientUnits="userSpaceOnUse">
<stop stop-color="#333E4A"/>
<stop offset="1" stop-color="#222931"/>
</linearGradient>
<linearGradient id="paint22_linear" x1="65.81" y1="35.6965" x2="87.6397" y2="47.4938" gradientUnits="userSpaceOnUse">
<stop stop-color="#333E4A"/>
<stop offset="1" stop-color="#222931"/>
</linearGradient>
<linearGradient id="paint23_linear" x1="66.8438" y1="33.778" x2="88.6732" y2="45.5751" gradientUnits="userSpaceOnUse">
<stop stop-color="#333E4A"/>
<stop offset="1" stop-color="#222931"/>
</linearGradient>
<linearGradient id="paint24_linear" x1="65.2929" y1="36.6535" x2="87.1201" y2="48.4494" gradientUnits="userSpaceOnUse">
<stop stop-color="#333E4A"/>
<stop offset="1" stop-color="#222931"/>
</linearGradient>
<linearGradient id="paint25_linear" x1="67.2534" y1="33.0304" x2="89.0808" y2="44.8265" gradientUnits="userSpaceOnUse">
<stop stop-color="#333E4A"/>
<stop offset="1" stop-color="#222931"/>
</linearGradient>
<linearGradient id="paint26_linear" x1="66.3098" y1="34.7763" x2="88.1379" y2="46.5727" gradientUnits="userSpaceOnUse">
<stop stop-color="#333E4A"/>
<stop offset="1" stop-color="#222931"/>
</linearGradient>
<linearGradient id="paint27_linear" x1="66.8164" y1="33.8253" x2="88.6492" y2="45.6243" gradientUnits="userSpaceOnUse">
<stop stop-color="#333E4A"/>
<stop offset="1" stop-color="#222931"/>
</linearGradient>
<linearGradient id="paint28_linear" x1="65.2707" y1="36.7001" x2="87.0968" y2="48.4954" gradientUnits="userSpaceOnUse">
<stop stop-color="#333E4A"/>
<stop offset="1" stop-color="#222931"/>
</linearGradient>
<linearGradient id="paint29_linear" x1="65.7799" y1="35.7531" x2="87.6081" y2="47.5497" gradientUnits="userSpaceOnUse">
<stop stop-color="#333E4A"/>
<stop offset="1" stop-color="#222931"/>
</linearGradient>
<linearGradient id="paint30_linear" x1="66.2828" y1="34.8211" x2="88.1125" y2="46.6184" gradientUnits="userSpaceOnUse">
<stop stop-color="#333E4A"/>
<stop offset="1" stop-color="#222931"/>
</linearGradient>
<linearGradient id="paint31_linear" x1="64.73" y1="37.6998" x2="86.5581" y2="49.4963" gradientUnits="userSpaceOnUse">
<stop stop-color="#333E4A"/>
<stop offset="1" stop-color="#222931"/>
</linearGradient>
<linearGradient id="paint32_linear" x1="65.2416" y1="36.7518" x2="87.07" y2="48.5483" gradientUnits="userSpaceOnUse">
<stop stop-color="#333E4A"/>
<stop offset="1" stop-color="#222931"/>
</linearGradient>
<linearGradient id="paint33_linear" x1="65.7481" y1="35.815" x2="87.5744" y2="47.6104" gradientUnits="userSpaceOnUse">
<stop stop-color="#333E4A"/>
<stop offset="1" stop-color="#222931"/>
</linearGradient>
<linearGradient id="paint34_linear" x1="65.2212" y1="36.7843" x2="87.0489" y2="48.5806" gradientUnits="userSpaceOnUse">
<stop stop-color="#333E4A"/>
<stop offset="1" stop-color="#222931"/>
</linearGradient>
<linearGradient id="paint35_linear" x1="64.6952" y1="37.766" x2="86.5212" y2="49.5614" gradientUnits="userSpaceOnUse">
<stop stop-color="#333E4A"/>
<stop offset="1" stop-color="#222931"/>
</linearGradient>
<linearGradient id="paint36_linear" x1="64.7137" y1="37.7295" x2="86.543" y2="49.5265" gradientUnits="userSpaceOnUse">
<stop stop-color="#333E4A"/>
<stop offset="1" stop-color="#222931"/>
</linearGradient>
<linearGradient id="paint37_linear" x1="64.7484" y1="37.6648" x2="86.575" y2="49.4605" gradientUnits="userSpaceOnUse">
<stop stop-color="#333E4A"/>
<stop offset="1" stop-color="#222931"/>
</linearGradient>
<linearGradient id="paint38_linear" x1="64.7657" y1="37.633" x2="86.5888" y2="49.4268" gradientUnits="userSpaceOnUse">
<stop stop-color="#333E4A"/>
<stop offset="1" stop-color="#222931"/>
</linearGradient>
<linearGradient id="paint39_linear" x1="65.9147" y1="35.5087" x2="87.7426" y2="47.305" gradientUnits="userSpaceOnUse">
<stop stop-color="#333E4A"/>
<stop offset="1" stop-color="#222931"/>
</linearGradient>
<linearGradient id="paint40_linear" x1="65.455" y1="36.362" x2="87.2817" y2="48.1576" gradientUnits="userSpaceOnUse">
<stop stop-color="#333E4A"/>
<stop offset="1" stop-color="#222931"/>
</linearGradient>
<linearGradient id="paint41_linear" x1="66.0063" y1="35.3328" x2="87.8339" y2="47.1289" gradientUnits="userSpaceOnUse">
<stop stop-color="#333E4A"/>
<stop offset="1" stop-color="#222931"/>
</linearGradient>
<linearGradient id="paint42_linear" x1="66.5463" y1="34.3364" x2="88.3713" y2="46.1312" gradientUnits="userSpaceOnUse">
<stop stop-color="#333E4A"/>
<stop offset="1" stop-color="#222931"/>
</linearGradient>
<linearGradient id="paint43_linear" x1="64.9575" y1="37.2778" x2="86.784" y2="49.0733" gradientUnits="userSpaceOnUse">
<stop stop-color="#333E4A"/>
<stop offset="1" stop-color="#222931"/>
</linearGradient>
<linearGradient id="paint44_linear" x1="67.4963" y1="32.5774" x2="89.326" y2="44.3747" gradientUnits="userSpaceOnUse">
<stop stop-color="#333E4A"/>
<stop offset="1" stop-color="#222931"/>
</linearGradient>
<linearGradient id="paint45_linear" x1="67.0651" y1="33.3729" x2="88.8921" y2="45.1687" gradientUnits="userSpaceOnUse">
<stop stop-color="#333E4A"/>
<stop offset="1" stop-color="#222931"/>
</linearGradient>
<linearGradient id="paint46_linear" x1="66.5254" y1="34.3707" x2="88.3568" y2="46.1689" gradientUnits="userSpaceOnUse">
<stop stop-color="#333E4A"/>
<stop offset="1" stop-color="#222931"/>
</linearGradient>
<linearGradient id="paint47_linear" x1="67.4789" y1="32.6069" x2="89.3086" y2="44.4043" gradientUnits="userSpaceOnUse">
<stop stop-color="#333E4A"/>
<stop offset="1" stop-color="#222931"/>
</linearGradient>
<linearGradient id="paint48_linear" x1="67.4637" y1="32.6413" x2="89.2912" y2="44.4374" gradientUnits="userSpaceOnUse">
<stop stop-color="#333E4A"/>
<stop offset="1" stop-color="#222931"/>
</linearGradient>
<linearGradient id="paint49_linear" x1="67.4441" y1="32.676" x2="89.2706" y2="44.4716" gradientUnits="userSpaceOnUse">
<stop stop-color="#333E4A"/>
<stop offset="1" stop-color="#222931"/>
</linearGradient>
<linearGradient id="paint50_linear" x1="67.4261" y1="32.7063" x2="89.2563" y2="44.5039" gradientUnits="userSpaceOnUse">
<stop stop-color="#333E4A"/>
<stop offset="1" stop-color="#222931"/>
</linearGradient>
<linearGradient id="paint51_linear" x1="66.995" y1="33.5019" x2="88.8232" y2="45.2984" gradientUnits="userSpaceOnUse">
<stop stop-color="#333E4A"/>
<stop offset="1" stop-color="#222931"/>
</linearGradient>
<linearGradient id="paint52_linear" x1="67.0144" y1="33.4743" x2="88.8445" y2="45.2718" gradientUnits="userSpaceOnUse">
<stop stop-color="#333E4A"/>
<stop offset="1" stop-color="#222931"/>
</linearGradient>
<linearGradient id="paint53_linear" x1="67.0332" y1="33.4405" x2="88.8599" y2="45.2362" gradientUnits="userSpaceOnUse">
<stop stop-color="#333E4A"/>
<stop offset="1" stop-color="#222931"/>
</linearGradient>
<linearGradient id="paint54_linear" x1="67.0467" y1="33.4062" x2="88.8759" y2="45.2032" gradientUnits="userSpaceOnUse">
<stop stop-color="#333E4A"/>
<stop offset="1" stop-color="#222931"/>
</linearGradient>
<linearGradient id="paint55_linear" x1="66.5083" y1="34.4072" x2="88.3375" y2="46.2043" gradientUnits="userSpaceOnUse">
<stop stop-color="#333E4A"/>
<stop offset="1" stop-color="#222931"/>
</linearGradient>
<linearGradient id="paint56_linear" x1="65.9841" y1="35.3757" x2="87.813" y2="47.1726" gradientUnits="userSpaceOnUse">
<stop stop-color="#333E4A"/>
<stop offset="1" stop-color="#222931"/>
</linearGradient>
<linearGradient id="paint57_linear" x1="65.4795" y1="36.3098" x2="87.307" y2="48.106" gradientUnits="userSpaceOnUse">
<stop stop-color="#333E4A"/>
<stop offset="1" stop-color="#222931"/>
</linearGradient>
<linearGradient id="paint58_linear" x1="65.9654" y1="35.4085" x2="87.7978" y2="47.2072" gradientUnits="userSpaceOnUse">
<stop stop-color="#333E4A"/>
<stop offset="1" stop-color="#222931"/>
</linearGradient>
<linearGradient id="paint59_linear" x1="66.389" y1="34.6347" x2="88.215" y2="46.4299" gradientUnits="userSpaceOnUse">
<stop stop-color="#333E4A"/>
<stop offset="1" stop-color="#222931"/>
</linearGradient>
<linearGradient id="paint60_linear" x1="67.4068" y1="32.7409" x2="89.2326" y2="44.5361" gradientUnits="userSpaceOnUse">
<stop stop-color="#333E4A"/>
<stop offset="1" stop-color="#222931"/>
</linearGradient>
<linearGradient id="paint61_linear" x1="67.3905" y1="32.7709" x2="89.2171" y2="44.5664" gradientUnits="userSpaceOnUse">
<stop stop-color="#333E4A"/>
<stop offset="1" stop-color="#222931"/>
</linearGradient>
<linearGradient id="paint62_linear" x1="66.9587" y1="33.5694" x2="88.7869" y2="45.366" gradientUnits="userSpaceOnUse">
<stop stop-color="#333E4A"/>
<stop offset="1" stop-color="#222931"/>
</linearGradient>
<linearGradient id="paint63_linear" x1="66.4194" y1="34.5733" x2="88.2486" y2="46.3704" gradientUnits="userSpaceOnUse">
<stop stop-color="#333E4A"/>
<stop offset="1" stop-color="#222931"/>
</linearGradient>
<linearGradient id="paint64_linear" x1="67.3768" y1="32.8053" x2="89.2004" y2="44.5993" gradientUnits="userSpaceOnUse">
<stop stop-color="#333E4A"/>
<stop offset="1" stop-color="#222931"/>
</linearGradient>
<linearGradient id="paint65_linear" x1="66.9429" y1="33.6028" x2="88.7718" y2="45.3997" gradientUnits="userSpaceOnUse">
<stop stop-color="#333E4A"/>
<stop offset="1" stop-color="#222931"/>
</linearGradient>
<linearGradient id="paint66_linear" x1="66.4015" y1="34.5992" x2="88.2285" y2="46.3951" gradientUnits="userSpaceOnUse">
<stop stop-color="#333E4A"/>
<stop offset="1" stop-color="#222931"/>
</linearGradient>
<linearGradient id="paint67_linear" x1="66.4881" y1="34.4371" x2="88.3183" y2="46.2347" gradientUnits="userSpaceOnUse">
<stop stop-color="#333E4A"/>
<stop offset="1" stop-color="#222931"/>
</linearGradient>
<linearGradient id="paint68_linear" x1="66.4736" y1="34.4712" x2="88.2995" y2="46.2664" gradientUnits="userSpaceOnUse">
<stop stop-color="#333E4A"/>
<stop offset="1" stop-color="#222931"/>
</linearGradient>
<linearGradient id="paint69_linear" x1="65.9491" y1="35.4394" x2="87.7781" y2="47.2363" gradientUnits="userSpaceOnUse">
<stop stop-color="#333E4A"/>
<stop offset="1" stop-color="#222931"/>
</linearGradient>
<linearGradient id="paint70_linear" x1="66.9796" y1="33.5344" x2="88.8112" y2="45.3328" gradientUnits="userSpaceOnUse">
<stop stop-color="#333E4A"/>
<stop offset="1" stop-color="#222931"/>
</linearGradient>
<linearGradient id="paint71_linear" x1="65.4361" y1="36.3954" x2="87.264" y2="48.1918" gradientUnits="userSpaceOnUse">
<stop stop-color="#333E4A"/>
<stop offset="1" stop-color="#222931"/>
</linearGradient>
<linearGradient id="paint72_linear" x1="66.4532" y1="34.5065" x2="88.2828" y2="46.3037" gradientUnits="userSpaceOnUse">
<stop stop-color="#333E4A"/>
<stop offset="1" stop-color="#222931"/>
</linearGradient>
<linearGradient id="paint73_linear" x1="65.9311" y1="35.474" x2="87.7589" y2="47.2703" gradientUnits="userSpaceOnUse">
<stop stop-color="#333E4A"/>
<stop offset="1" stop-color="#222931"/>
</linearGradient>
<linearGradient id="paint74_linear" x1="65.417" y1="36.4258" x2="87.2461" y2="48.2228" gradientUnits="userSpaceOnUse">
<stop stop-color="#333E4A"/>
<stop offset="1" stop-color="#222931"/>
</linearGradient>
<linearGradient id="paint75_linear" x1="64.8998" y1="37.3795" x2="86.7272" y2="49.1756" gradientUnits="userSpaceOnUse">
<stop stop-color="#333E4A"/>
<stop offset="1" stop-color="#222931"/>
</linearGradient>
<linearGradient id="paint76_linear" x1="66.4373" y1="34.5358" x2="88.2684" y2="46.3339" gradientUnits="userSpaceOnUse">
<stop stop-color="#333E4A"/>
<stop offset="1" stop-color="#222931"/>
</linearGradient>
<linearGradient id="paint77_linear" x1="65.3958" y1="36.46" x2="87.225" y2="48.2571" gradientUnits="userSpaceOnUse">
<stop stop-color="#333E4A"/>
<stop offset="1" stop-color="#222931"/>
</linearGradient>
<linearGradient id="paint78_linear" x1="64.8822" y1="37.4096" x2="86.7105" y2="49.2062" gradientUnits="userSpaceOnUse">
<stop stop-color="#333E4A"/>
<stop offset="1" stop-color="#222931"/>
</linearGradient>
<linearGradient id="paint79_linear" x1="65.8963" y1="35.5381" x2="87.7259" y2="47.3354" gradientUnits="userSpaceOnUse">
<stop stop-color="#333E4A"/>
<stop offset="1" stop-color="#222931"/>
</linearGradient>
<linearGradient id="paint80_linear" x1="65.3813" y1="36.4946" x2="87.2113" y2="48.292" gradientUnits="userSpaceOnUse">
<stop stop-color="#333E4A"/>
<stop offset="1" stop-color="#222931"/>
</linearGradient>
<linearGradient id="paint81_linear" x1="65.8799" y1="35.5726" x2="87.7077" y2="47.3688" gradientUnits="userSpaceOnUse">
<stop stop-color="#333E4A"/>
<stop offset="1" stop-color="#222931"/>
</linearGradient>
<linearGradient id="paint82_linear" x1="65.3636" y1="36.5257" x2="87.1882" y2="48.3203" gradientUnits="userSpaceOnUse">
<stop stop-color="#333E4A"/>
<stop offset="1" stop-color="#222931"/>
</linearGradient>
<linearGradient id="paint83_linear" x1="65.8605" y1="35.6017" x2="87.6902" y2="47.399" gradientUnits="userSpaceOnUse">
<stop stop-color="#333E4A"/>
<stop offset="1" stop-color="#222931"/>
</linearGradient>
<linearGradient id="paint84_linear" x1="65.3465" y1="36.5583" x2="87.1767" y2="48.3559" gradientUnits="userSpaceOnUse">
<stop stop-color="#333E4A"/>
<stop offset="1" stop-color="#222931"/>
</linearGradient>
<linearGradient id="paint85_linear" x1="65.3296" y1="36.5884" x2="87.1569" y2="48.3844" gradientUnits="userSpaceOnUse">
<stop stop-color="#333E4A"/>
<stop offset="1" stop-color="#222931"/>
</linearGradient>
<linearGradient id="paint86_linear" x1="64.8237" y1="37.5229" x2="86.6517" y2="49.3192" gradientUnits="userSpaceOnUse">
<stop stop-color="#333E4A"/>
<stop offset="1" stop-color="#222931"/>
</linearGradient>
<linearGradient id="paint87_linear" x1="64.9394" y1="37.3154" x2="86.7681" y2="49.1122" gradientUnits="userSpaceOnUse">
<stop stop-color="#333E4A"/>
<stop offset="1" stop-color="#222931"/>
</linearGradient>
<linearGradient id="paint88_linear" x1="64.9222" y1="37.349" x2="86.7504" y2="49.1455" gradientUnits="userSpaceOnUse">
<stop stop-color="#333E4A"/>
<stop offset="1" stop-color="#222931"/>
</linearGradient>
<linearGradient id="paint89_linear" x1="67.5179" y1="32.5426" x2="89.3467" y2="44.3393" gradientUnits="userSpaceOnUse">
<stop stop-color="#333E4A"/>
<stop offset="1" stop-color="#222931"/>
</linearGradient>
<linearGradient id="paint90_linear" x1="67.0836" y1="33.3373" x2="88.9173" y2="45.1367" gradientUnits="userSpaceOnUse">
<stop stop-color="#333E4A"/>
<stop offset="1" stop-color="#222931"/>
</linearGradient>
<linearGradient id="paint91_linear" x1="66.9312" y1="33.6315" x2="88.756" y2="45.4262" gradientUnits="userSpaceOnUse">
<stop stop-color="#333E4A"/>
<stop offset="1" stop-color="#222931"/>
</linearGradient>
<linearGradient id="paint92_linear" x1="63.835" y1="36.2343" x2="75.7246" y2="48.2478" gradientUnits="userSpaceOnUse">
<stop stop-color="white"/>
<stop offset="1" stop-color="#CECFDB"/>
</linearGradient>
<linearGradient id="paint93_linear" x1="66.6517" y1="37.95" x2="66.9555" y2="38.9337" gradientUnits="userSpaceOnUse">
<stop stop-color="#FDDDC8"/>
<stop offset="1" stop-color="#F8B4A8"/>
</linearGradient>
<linearGradient id="paint94_linear" x1="67.6688" y1="38.3624" x2="68.1464" y2="40.1143" gradientUnits="userSpaceOnUse">
<stop stop-color="#FDDDC8"/>
<stop offset="1" stop-color="#F8B4A8"/>
</linearGradient>
<linearGradient id="paint95_linear" x1="68.4185" y1="38.7484" x2="69.1861" y2="40.8771" gradientUnits="userSpaceOnUse">
<stop stop-color="#FDDDC8"/>
<stop offset="1" stop-color="#F8B4A8"/>
</linearGradient>
<linearGradient id="paint96_linear" x1="50.117" y1="45.2067" x2="44.5585" y2="44.425" gradientUnits="userSpaceOnUse">
<stop stop-color="#FBD1BE"/>
<stop offset="1" stop-color="#F8B4A8"/>
</linearGradient>
<linearGradient id="paint97_linear" x1="67.7123" y1="42.1352" x2="65.4408" y2="41.8157" gradientUnits="userSpaceOnUse">
<stop stop-color="#FBD1BE"/>
<stop offset="1" stop-color="#F8B4A8"/>
</linearGradient>
<linearGradient id="paint98_linear" x1="51.4956" y1="38.1563" x2="41.7307" y2="31.9183" gradientUnits="userSpaceOnUse">
<stop stop-color="#FBD1BE"/>
<stop offset="1" stop-color="#F8B4A8"/>
</linearGradient>
<linearGradient id="paint99_linear" x1="76.3674" y1="46.346" x2="74.3857" y2="46.0673" gradientUnits="userSpaceOnUse">
<stop stop-color="#FBD1BE"/>
<stop offset="1" stop-color="#F8B4A8"/>
</linearGradient>
<linearGradient id="paint100_linear" x1="90.7377" y1="53.9606" x2="90.6343" y2="53.9606" gradientUnits="userSpaceOnUse">
<stop stop-color="#475269"/>
<stop offset="1" stop-color="#363E4F"/>
</linearGradient>
<linearGradient id="paint101_linear" x1="96.0128" y1="52.2027" x2="90.5846" y2="53.8658" gradientUnits="userSpaceOnUse">
<stop stop-color="#5B6A87"/>
<stop offset="1" stop-color="#2C3340"/>
</linearGradient>
<linearGradient id="paint102_linear" x1="84.7475" y1="50.5397" x2="84.6441" y2="50.5397" gradientUnits="userSpaceOnUse">
<stop stop-color="#475269"/>
<stop offset="1" stop-color="#363E4F"/>
</linearGradient>
<linearGradient id="paint103_linear" x1="90.0211" y1="48.7803" x2="84.593" y2="50.4435" gradientUnits="userSpaceOnUse">
<stop stop-color="#5B6A87"/>
<stop offset="1" stop-color="#2C3340"/>
</linearGradient>
<linearGradient id="paint104_linear" x1="86.987" y1="52.0806" x2="85.0037" y2="52.0806" gradientUnits="userSpaceOnUse">
<stop stop-color="#5B6A87"/>
<stop offset="1" stop-color="#2C3340"/>
</linearGradient>
<linearGradient id="paint105_linear" x1="90.0502" y1="53.8673" x2="87.9908" y2="53.8673" gradientUnits="userSpaceOnUse">
<stop stop-color="#5B6A87"/>
<stop offset="1" stop-color="#2C3340"/>
</linearGradient>
<linearGradient id="paint106_linear" x1="85.2869" y1="50.4506" x2="90.8885" y2="54.115" gradientUnits="userSpaceOnUse">
<stop stop-color="#5B6A87"/>
<stop offset="1" stop-color="#2C3340"/>
</linearGradient>
<linearGradient id="paint107_linear" x1="86.2945" y1="50.9658" x2="89.5296" y2="55.4438" gradientUnits="userSpaceOnUse">
<stop stop-color="#475269"/>
<stop offset="1" stop-color="#363E4F"/>
</linearGradient>
<linearGradient id="paint108_linear" x1="99.7865" y1="56.0417" x2="94.1905" y2="56.5257" gradientUnits="userSpaceOnUse">
<stop stop-color="#F7F7FF"/>
<stop offset="1" stop-color="#BEBEE0"/>
</linearGradient>
<linearGradient id="paint109_linear" x1="99.3995" y1="51.5915" x2="93.8036" y2="52.0754" gradientUnits="userSpaceOnUse">
<stop stop-color="#F7F7FF"/>
<stop offset="1" stop-color="#BEBEE0"/>
</linearGradient>
<linearGradient id="paint110_linear" x1="93.6374" y1="49.3715" x2="100.658" y2="49.3715" gradientUnits="userSpaceOnUse">
<stop stop-color="#475269"/>
<stop offset="1" stop-color="#363E4F"/>
</linearGradient>
<linearGradient id="paint111_linear" x1="97.7462" y1="48.1827" x2="95.4093" y2="50.2076" gradientUnits="userSpaceOnUse">
<stop stop-color="#475269"/>
<stop offset="1" stop-color="#363E4F"/>
</linearGradient>
<linearGradient id="paint112_linear" x1="98.8158" y1="48.1299" x2="97.0631" y2="48.7312" gradientUnits="userSpaceOnUse">
<stop stop-color="#475269"/>
<stop offset="1" stop-color="#363E4F"/>
</linearGradient>
<linearGradient id="paint113_linear" x1="99.5174" y1="48.2607" x2="96.0688" y2="49.8034" gradientUnits="userSpaceOnUse">
<stop stop-color="#475269"/>
<stop offset="1" stop-color="#363E4F"/>
</linearGradient>
<linearGradient id="paint114_linear" x1="93.6403" y1="51.0172" x2="100.662" y2="51.0172" gradientUnits="userSpaceOnUse">
<stop stop-color="#475269"/>
<stop offset="1" stop-color="#363E4F"/>
</linearGradient>
</defs>
</svg>
