<svg width="250" height="161" viewBox="0 0 250 161" fill="none" xmlns="http://www.w3.org/2000/svg">
<path opacity="0.6" d="M222.324 67.741L222.906 51.0938L204.047 54.3533L175.293 72.3976L177.97 87.2986L180.764 85.6688H188.681V84.039H183.675L192.639 78.8004H200.555V77.1706H195.665L204.513 72.0483H212.313V70.3021H207.423L211.847 67.741H222.324Z" fill="#A09595"/>
<path opacity="0.6" d="M189.609 102.55L191.122 101.618L179.947 95.0991L123.369 74.7266C106.373 90.4425 87.3972 103.83 68.4216 117.218L82.0421 125.134L60.7383 138.522L63.4158 153.423L66.2098 151.793H74.1259V150.047H69.2365L78.2004 144.924H86.1166V143.178H81.2272L90.0747 138.056H97.9909V136.31H93.1015L97.5252 133.749L108.934 140.268H124.533V137.59H129.306L129.656 137.358H124.533V135.029H133.73L134.079 134.796H124.533V132.468H138.154L138.503 132.235H124.65V132.002L128.375 129.791H142.578L142.927 129.558H128.724L132.799 127.229H147.001L147.351 126.997H133.264L137.339 124.668H151.425L151.774 124.436H138.969L145.255 120.827H158.177V120.71H145.488L152.007 116.869H164.696L165.046 116.636H151.076L155.15 114.307H169.12L169.469 114.075H155.5L159.574 111.746H173.544L173.893 111.514H159.923L163.998 109.185H177.968L178.317 108.952H164.347L168.422 106.624H182.391L182.741 106.391H168.771L172.845 104.063H186.815L187.164 103.83H173.195L176.571 101.851L189.609 102.55ZM138.27 124.785H137.339L143.625 121.176H144.557L138.27 124.785ZM151.309 117.218L144.79 121.06H143.858L150.377 117.218H151.309Z" fill="#A09595"/>
<path d="M108.354 110.465L91.707 123.969L108.354 133.515L110.101 125.133L108.354 110.465Z" fill="#A89E84"/>
<path d="M222.323 44.6914L205.676 58.1955L222.323 67.7415L224.069 59.3596L222.323 44.6914Z" fill="#A89E84"/>
<path d="M73.7782 134.211C74.3568 134.211 74.8259 133.95 74.8259 133.629C74.8259 133.307 74.3568 133.047 73.7782 133.047C73.1995 133.047 72.7305 133.307 72.7305 133.629C72.7305 133.95 73.1995 134.211 73.7782 134.211Z" fill="#E4DBC6"/>
<path d="M74.8259 133.629V151.324C74.8259 151.44 74.7095 151.673 74.4767 151.79C74.1274 152.022 73.4289 152.022 73.0797 151.79C72.8469 151.673 72.7305 151.557 72.7305 151.324V133.629C72.7305 133.745 72.8469 133.978 73.0797 134.095C73.4289 134.327 74.1274 134.327 74.4767 134.095C74.7095 133.978 74.8259 133.745 74.8259 133.629Z" fill="url(#paint0_linear)"/>
<path d="M86.4675 127.228C86.1183 127.461 85.4198 127.461 85.0705 127.228C84.7213 126.995 84.7213 126.646 85.0705 126.413C85.4198 126.18 86.1183 126.18 86.4675 126.413C86.8167 126.646 86.8167 126.995 86.4675 127.228Z" fill="#E4DBC6"/>
<path d="M86.7009 126.762V144.457C86.7009 144.573 86.5845 144.806 86.3517 144.922C86.0024 145.155 85.304 145.155 84.9547 144.922C84.7219 144.806 84.6055 144.69 84.6055 144.457V126.762C84.6055 126.878 84.7219 127.111 84.9547 127.227C85.304 127.46 86.0024 127.46 86.3517 127.227C86.5845 127.111 86.7009 126.878 86.7009 126.762Z" fill="url(#paint1_linear)"/>
<path d="M98.3386 120.361C97.9894 120.593 97.2909 120.593 96.9416 120.361C96.5924 120.128 96.5924 119.779 96.9416 119.546C97.2909 119.313 97.9894 119.313 98.3386 119.546C98.6879 119.779 98.6879 120.128 98.3386 120.361Z" fill="#E4DBC6"/>
<path d="M98.572 119.895V137.59C98.572 137.706 98.4556 137.939 98.2228 138.055C97.8735 138.288 97.1751 138.288 96.8258 138.055C96.593 137.939 96.4766 137.822 96.4766 137.59V119.895C96.4766 120.011 96.593 120.244 96.8258 120.36C97.1751 120.593 97.8735 120.593 98.2228 120.36C98.4556 120.244 98.572 120.127 98.572 119.895Z" fill="url(#paint2_linear)"/>
<path d="M189.143 67.8528C188.794 68.0856 188.096 68.0856 187.746 67.8528C187.397 67.62 187.397 67.2707 187.746 67.0379C188.096 66.8051 188.794 66.8051 189.143 67.0379C189.493 67.2707 189.493 67.62 189.143 67.8528Z" fill="#E4DBC6"/>
<path d="M189.494 67.5039V85.1989C189.494 85.3153 189.377 85.5481 189.145 85.6646C188.795 85.8974 188.097 85.8974 187.748 85.6646C187.515 85.5481 187.398 85.4317 187.398 85.1989V67.5039C187.398 67.6203 187.515 67.8532 187.748 67.9696C188.097 68.2024 188.795 68.2024 189.145 67.9696C189.377 67.7367 189.494 67.6203 189.494 67.5039Z" fill="#E4DBC6"/>
<path d="M200.317 61.2227C200.896 61.2227 201.365 60.9621 201.365 60.6407C201.365 60.3192 200.896 60.0586 200.317 60.0586C199.739 60.0586 199.27 60.3192 199.27 60.6407C199.27 60.9621 199.739 61.2227 200.317 61.2227Z" fill="#E4DBC6"/>
<path d="M201.365 60.6406V78.3356C201.365 78.452 201.249 78.6849 201.016 78.8013C200.667 79.0341 199.968 79.0341 199.619 78.8013C199.386 78.6849 199.27 78.5684 199.27 78.3356V60.6406C199.27 60.757 199.386 60.9899 199.619 61.1063C199.968 61.3391 200.667 61.3391 201.016 61.1063C201.249 60.8735 201.365 60.757 201.365 60.6406Z" fill="url(#paint3_linear)"/>
<path d="M212.889 54.2356C212.54 54.4684 211.842 54.4684 211.492 54.2356C211.143 54.0028 211.143 53.6535 211.492 53.4207C211.842 53.1879 212.54 53.1879 212.889 53.4207C213.239 53.5371 213.239 54.0028 212.889 54.2356Z" fill="#E4DBC6"/>
<path d="M213.24 53.7695V71.4645C213.24 71.5809 213.124 71.8138 212.891 71.9302C212.542 72.163 211.843 72.163 211.494 71.9302C211.261 71.8138 211.145 71.6974 211.145 71.4645V53.7695C211.145 53.8859 211.261 54.1188 211.494 54.2352C211.843 54.468 212.542 54.468 212.891 54.2352C213.124 54.1188 213.24 53.8859 213.24 53.7695Z" fill="url(#paint4_linear)"/>
<path d="M62.4844 125.137V160.061L65.5111 158.315V142.25L108.352 117.57V133.519L179.481 92.541V76.4758L222.321 51.796V67.7447L224.417 66.5806V31.6562L62.4844 125.137Z" fill="#E4DBC6"/>
<path d="M62.4901 160.052L25.7031 138.749V103.824L62.4901 125.128V160.052Z" fill="#AEA388"/>
<path opacity="0.8" d="M28.6133 140.497V111.16L59.6959 129.204V158.541L28.6133 140.497Z" fill="#346B74"/>
<path d="M62.4901 125.129L25.7031 103.825L187.519 10.4609L224.423 31.6484L62.4901 125.129Z" fill="#8E7967"/>
<path d="M62.2526 127.112L25 105.575V103.945L62.2526 125.482V127.112Z" fill="#AEA388"/>
<path d="M225.001 33.165L62.2539 127.111V125.482L225.001 31.5352V33.165Z" fill="#E4DBC6"/>
<path d="M62.2526 125.483L25 103.946L187.747 10L225 31.5367L62.2526 125.483Z" fill="#F2ECDD"/>
<path d="M26.5156 103.949L187.75 10.9336L223.489 31.5389L62.2549 124.67L26.5156 103.949Z" fill="#A09595"/>
<path d="M65.5117 140.265L108.352 115.585V102.547L65.5117 127.227V140.265Z" fill="#AEA388"/>
<path d="M97.06 109.07L65.5117 127.231V140.269L108.352 115.59L97.06 109.07Z" fill="#CCC6BA"/>
<path d="M101.949 115.585L99.0385 117.215H104.859V117.564H98.4565L94.6148 119.776H100.436V120.126H94.0327L90.1911 122.337H96.0118V122.687H89.609L85.7673 124.898H91.588V125.248H85.1852L81.3436 127.46H87.1643V127.809H80.7615L76.9198 130.021H82.7405V130.37H76.3377L72.496 132.582H78.3168V132.931H71.914L68.0723 135.143H73.893V135.492H67.4902L63.6486 137.704H69.4693V138.053H61.9023V137.704H63.6486L64.347 126.761L108.352 101.965V115.702H101.949V115.585Z" fill="#A09595"/>
<path opacity="0.7" d="M65.5117 140.265L108.352 115.585V102.547L65.5117 127.227V140.265Z" fill="url(#paint5_linear)"/>
<path d="M108.351 108.598V108.947L105.092 110.81V117.445L104.859 117.562V110.926L100.668 113.371V120.007L100.435 120.123V113.487L96.2444 115.932V122.451L96.0115 122.568V115.932L91.8206 118.377V125.012L91.5878 125.129V118.493L87.3969 120.938V127.574L87.164 127.69V121.054L82.9731 123.499V130.135L82.7403 130.251V123.615L78.5494 126.06C78.5494 126.642 78.5494 130.018 78.5494 132.696L78.3165 132.812C78.3165 130.717 78.3165 128.621 78.3165 126.177L74.1256 128.621C74.1256 131.066 74.1256 133.045 74.1256 135.14L73.8928 135.257C73.8928 133.161 73.8928 131.764 73.8928 128.621L69.7019 131.066C69.7019 134.209 69.7019 130.251 69.7019 137.702L69.469 137.818C69.469 130.135 69.469 133.161 69.469 131.182L65.3945 133.511V133.394L69.469 131.066C69.469 128.854 69.469 127.108 69.469 124.896L69.7019 124.78C69.7019 126.875 69.7019 128.738 69.7019 130.95L73.8928 128.505C73.8928 126.293 73.8928 124.547 73.8928 122.451L74.1256 122.335C74.1256 124.43 74.1256 126.293 74.1256 128.505L78.3165 126.06C78.3165 123.732 78.3165 121.869 78.3165 119.89L78.5494 119.774C78.5494 121.753 78.5494 123.615 78.5494 125.944L82.7403 123.499C82.7403 120.938 82.7403 119.308 82.7403 117.329L82.9731 117.213C82.9731 119.192 82.9731 121.171 82.9731 123.383L87.164 120.938C87.164 118.726 87.164 116.747 87.164 114.768L87.3969 114.651C87.3969 116.514 87.3969 118.493 87.3969 120.821L91.5878 118.377C91.5878 116.165 91.5878 114.186 91.5878 112.207L91.8206 112.09C91.8206 113.953 91.8206 115.932 91.8206 118.26L96.0115 115.816C96.0115 113.72 96.0115 116.048 96.0115 109.762L96.2444 109.646C96.2444 111.625 96.2444 113.487 96.2444 115.816L100.435 113.371C100.435 109.646 100.435 108.132 100.435 107.201L100.668 107.085C100.668 108.249 100.668 110.111 100.668 113.255L104.859 110.81C104.859 107.085 104.859 105.571 104.859 104.64L105.092 104.523C105.092 105.106 105.092 105.455 105.092 105.688C105.092 105.688 105.092 105.804 105.092 106.037C105.092 106.619 105.092 107.899 105.092 110.577L108.351 108.598Z" fill="#4F9286"/>
<path d="M179.484 74.4995L222.325 49.8197V36.7812L179.484 61.4611V74.4995Z" fill="#AEA388"/>
<path d="M211.033 43.3008L179.484 61.4614V74.4999L222.325 49.82L211.033 43.3008Z" fill="#CCC6BA"/>
<path d="M215.922 49.8197L213.011 51.4495H218.832V51.7988H212.429L208.587 54.0106H214.408V54.3599H208.005L204.164 56.5717H209.984V56.921H203.582L199.74 59.1329H205.561V59.4821H199.158L195.316 61.694H201.137V62.0432H194.734L190.892 64.2551H196.713V64.6043H190.31L186.469 66.8162H192.289V67.1655H185.887L182.045 69.3773H187.866V69.7266H181.463L177.621 71.9384H183.442V72.2877H175.875V71.9384H177.621L178.32 60.9955L222.324 36.1992V49.9361H215.922V49.8197Z" fill="#A09595"/>
<path opacity="0.7" d="M179.484 74.4995L222.325 49.8197V36.7812L179.484 61.4611V74.4995Z" fill="url(#paint6_linear)"/>
<path d="M222.324 42.8354V43.1847L219.064 45.0473V51.683L218.832 51.7994V45.1637L214.641 47.6084V54.2441L214.408 54.3605V47.7249L210.217 50.1696V56.6888L209.984 56.8052V50.1696L205.793 52.6143V59.2499L205.56 59.3663V52.7307L201.37 55.1754V61.811L201.137 61.9274V55.4082L196.946 57.8529V64.4885L196.713 64.605V57.9693L192.522 60.414C192.522 60.9961 192.522 64.3721 192.522 67.0497L192.289 67.1661C192.289 65.0706 192.289 62.9752 192.289 60.5304L188.098 62.9752C188.098 65.4199 188.098 67.3989 188.098 69.4944L187.865 69.6108C187.865 67.5153 187.865 66.1183 187.865 62.9752L183.675 65.4199C183.675 68.563 183.675 64.605 183.675 72.0555L183.442 72.1719C183.442 64.4885 183.442 67.5153 183.442 65.5363L179.367 67.8646V67.5153L183.442 65.187C183.442 62.9752 183.442 61.2289 183.442 59.0171L183.675 58.9006C183.675 60.9961 183.675 62.8587 183.675 65.0706L187.865 62.6259C187.865 60.414 187.865 58.6678 187.865 56.5724L188.098 56.4559C188.098 58.5514 188.098 60.414 188.098 62.6259L192.289 60.1812C192.289 57.8529 192.289 55.9903 192.289 54.0112L192.522 53.8948C192.522 55.8739 192.522 57.7365 192.522 60.0648L196.713 57.6201C196.713 55.059 196.713 53.4292 196.713 51.4501L196.946 51.3337C196.946 53.3128 196.946 55.2918 196.946 57.5037L201.137 55.059C201.137 52.8471 201.137 50.8681 201.137 48.889L201.37 48.7726C201.37 50.6352 201.37 52.6143 201.37 54.9426L205.56 52.4979C205.56 50.286 205.56 48.3069 205.56 46.3279L205.793 46.2115C205.793 48.0741 205.793 50.0531 205.793 52.3814L209.984 49.9367C209.984 47.8413 209.984 50.1696 209.984 43.8832L210.217 43.7668C210.217 45.7458 210.217 47.6084 210.217 49.9367L214.408 47.492C214.408 43.7668 214.408 42.2534 214.408 41.3221L214.641 41.2057C214.641 42.3698 214.641 44.2324 214.641 47.3756L218.832 44.9309C218.832 41.2057 218.832 39.6923 218.832 38.7609L219.064 38.6445C219.064 39.2266 219.064 39.5758 219.064 39.8087C219.064 39.8087 219.064 39.9251 219.064 40.1579C219.064 40.74 219.064 42.0206 219.064 44.6981L222.324 42.8354Z" fill="#4F9286"/>
<path d="M113.004 107.784L180.059 68.7852V95.0948L113.004 133.977V107.784Z" fill="#E4DBC6"/>
<path d="M118.359 112.094L174.82 79.2656L174.703 98.3576L118.242 131.186L118.359 112.094Z" fill="#20555B"/>
<path opacity="0.5" d="M174.702 88.6943L170.861 90.9061C170.861 90.0912 170.861 83.2228 170.861 81.4766L170.628 81.593C170.628 84.969 170.628 87.7629 170.628 91.0226L166.437 93.4672C166.437 91.3718 166.437 86.2496 166.437 84.0377L166.204 84.1541C166.204 88.2286 166.204 89.2763 166.204 93.5837L162.013 96.0284C162.013 92.8852 162.013 89.742 162.013 86.5988L161.78 86.7152C161.78 90.2076 161.78 92.6523 161.78 96.1448L157.589 98.5895C157.589 97.7746 157.589 91.0225 157.589 89.1599L157.357 89.2763C157.357 92.6524 157.357 95.4463 157.357 98.7059L153.166 101.151C153.166 97.3089 153.166 96.1448 153.166 91.721L152.933 91.8375C152.933 95.912 152.933 96.9597 152.933 101.151L148.742 103.595C148.742 100.452 148.742 97.3089 148.742 94.2821L148.509 94.3986C148.509 97.891 148.509 100.336 148.509 103.712L144.318 106.156C144.318 105.342 144.318 98.7059 144.318 96.8433L144.085 96.9597C144.085 100.219 144.085 103.013 144.085 106.273L139.894 108.718C139.894 106.622 139.894 101.733 139.894 99.288L139.662 99.4044C139.662 103.362 139.662 104.527 139.662 108.718L135.471 111.162C135.471 108.019 135.471 104.992 135.471 101.849L135.238 101.966C135.238 105.342 135.238 107.903 135.238 111.279L131.047 113.723V113.491C131.047 103.362 131.047 106.04 131.047 104.294L130.814 104.41C130.814 107.553 130.814 105.458 130.814 113.607V113.84L126.623 116.284V116.168V116.052C126.623 108.368 126.623 108.834 126.623 106.971L126.39 107.088C126.39 110.231 126.39 104.061 126.39 116.168V116.284L122.2 118.729V118.613C122.2 107.903 122.2 111.977 122.2 109.532L121.967 109.649C121.967 110.697 121.967 108.485 121.967 118.729V118.846L118.125 121.057V121.407L121.967 119.195V128.624L122.2 128.508V119.078L126.39 116.634V126.063L126.623 125.947V116.517L130.814 114.073V123.502L131.047 123.386V113.956L135.238 111.511V120.941L135.471 120.825V111.395L139.662 108.95V118.38L139.894 118.264V110.929L146.297 107.204V114.538L146.53 114.422V107.088L152.933 103.362V110.697L153.166 110.58V101.267L157.357 98.8223V108.135L157.589 108.019V98.7059L161.78 96.2612V105.574L162.013 105.458V96.1448L166.204 93.7001V103.013L166.437 102.897V93.8165L170.628 91.3718V100.569L170.861 100.452V91.2554L174.702 89.0435V88.6943ZM152.933 103.362L140.011 110.813V109.067C141.408 108.252 150.837 102.78 152.933 101.5V103.362Z" fill="#2C737E"/>
<path d="M110.676 106.386L177.73 67.5039L180.059 68.7845L113.004 107.783L110.676 106.386Z" fill="#85705F"/>
<path d="M113.003 107.78V133.973L110.559 132.692L110.675 106.383L113.003 107.78Z" fill="#AEA388"/>
<path opacity="0.7" d="M191.351 75.4216V101.615L180.059 95.0956V68.9023L191.351 75.4216Z" fill="#346B74"/>
<path d="M190.885 75.0727L189.371 74.2578V100.451L190.885 101.382V75.0727Z" fill="#AEA388"/>
<path opacity="0.7" d="M125.812 115.467L189.957 78.2148L189.84 102.545L125.812 139.798V115.467Z" fill="url(#paint7_linear)"/>
<path d="M113.121 107.785L180.059 68.9023L191.352 75.4216L124.297 114.304L113.121 107.785Z" fill="#85705F"/>
<path opacity="0.8" d="M124.3 114.304V140.614L113.008 134.095L113.124 107.785L124.3 114.304Z" fill="#346B74"/>
<path d="M123.597 113.957V116.052L112.305 109.533L112.421 107.438L123.597 113.957Z" fill="#AEA388"/>
<path d="M122.32 113.14L189.375 74.2578L191.354 75.422L124.416 114.304L122.32 113.14Z" fill="#85705F"/>
<path d="M124.416 114.301L124.299 140.611L122.32 139.446V113.137L124.416 114.301Z" fill="#AEA388"/>
<path d="M189.84 92.997L186.58 94.976C186.58 91.7164 186.58 88.4568 186.58 85.1972L189.956 83.2182V82.8689L186.58 84.848C186.58 82.7525 186.58 81.472 186.58 80.1914L186.347 80.3078C186.347 81.7048 186.347 82.8689 186.347 84.9644L182.156 87.4091C182.156 85.3136 182.156 84.0331 182.156 82.7525L181.923 82.8689C181.923 84.1495 181.923 85.4301 181.923 87.5255L177.733 89.9702C177.733 87.9912 177.733 86.7106 177.733 85.3136L177.5 85.4301C177.5 86.7106 177.5 87.9912 177.5 90.0866L173.309 92.5313C173.309 91.0179 173.309 89.5046 173.309 87.8747L173.076 87.9912C173.076 89.5046 173.076 90.9015 173.076 92.6477L168.885 95.0925C168.885 94.6268 168.885 92.6478 168.885 90.4359L168.652 90.5523C168.652 92.0657 168.652 93.5791 168.652 95.2089L164.461 97.6536C164.461 97.1879 164.461 95.0925 164.461 92.997L164.228 93.1134C164.228 94.394 164.228 95.6745 164.228 97.6536L160.038 100.098C160.038 98.5849 160.038 97.0715 160.038 95.5581L159.805 95.6745C159.805 97.0715 159.805 98.5849 159.805 100.215L155.614 102.659C155.614 100.564 155.614 99.3998 155.614 98.1192L155.381 98.2356C155.381 99.5162 155.381 100.797 155.381 102.776L151.19 105.221C151.19 103.474 151.19 102.077 151.19 100.68L150.957 100.797C150.957 101.961 150.957 103.358 150.957 105.337L146.766 107.782C146.766 106.268 146.766 104.755 146.766 103.241L146.533 103.358C146.533 104.755 146.533 106.268 146.533 107.898L142.343 110.343C142.343 108.364 142.343 107.083 142.343 105.803L142.11 105.919C142.11 107.2 142.11 108.364 142.11 110.459L137.919 112.904C137.919 112.438 137.919 110.459 137.919 108.364L137.686 108.48C137.686 109.644 137.686 111.041 137.686 112.904L133.495 115.349C133.495 113.835 133.495 112.322 133.495 110.925L133.262 111.041C133.262 112.438 133.262 113.835 133.262 115.465L129.071 117.91C129.071 115.931 129.071 114.65 129.071 113.486L128.838 113.602C128.838 114.883 128.838 116.047 128.838 118.026L125.695 119.889V120.238L128.838 118.375C128.838 122.101 128.838 119.539 128.838 127.921V128.154L125.695 130.017V130.366L128.838 128.503V137.933L129.071 137.817V128.387L133.262 125.942V135.372L133.495 135.255V125.826L137.686 123.381V132.811L137.919 132.694V123.265L142.11 120.82V130.25L142.343 130.133V120.704L146.533 118.259V127.689L146.766 127.572V118.143L150.957 115.698V125.127L151.19 125.011V117.677L157.593 113.952V121.286L157.826 121.169V113.835L164.228 110.11V117.444L164.461 117.328V108.014L168.652 105.57V114.883L168.885 114.766V105.453L173.076 103.009V112.322L173.309 112.205V102.892L177.5 100.448V109.761L177.733 109.644V100.448L181.923 98.0028V107.2L182.156 107.083V97.8864L186.347 95.4417V104.638L186.58 104.522V95.3253L189.84 93.3462V92.997ZM133.379 125.477V125.593L129.188 128.038V127.805C129.188 116.978 129.188 120.82 129.188 118.259L133.379 115.814C133.379 118.143 133.379 114.068 133.379 125.477ZM137.802 122.916V123.032L133.611 125.477V125.36C133.611 113.952 133.611 119.307 133.611 115.698L137.802 113.253C137.802 117.677 137.802 110.226 137.802 122.916ZM142.226 120.354V120.587L138.035 123.032V122.916V122.799C138.035 114.534 138.035 115.698 138.035 113.253L142.226 110.808C142.226 114.534 142.226 111.973 142.226 120.354ZM146.65 118.026L142.459 120.471V120.238C142.459 109.411 142.459 113.253 142.459 110.692L146.65 108.247C146.65 111.856 146.65 114.417 146.65 118.026ZM151.074 115.465L146.883 117.91C146.883 114.65 146.883 111.39 146.883 108.131L151.074 105.686C151.074 109.993 151.074 111.041 151.074 115.465ZM155.73 103.009L159.921 100.564C159.921 104.289 159.921 106.734 159.921 110.343L155.73 112.787C155.73 111.973 155.73 104.406 155.73 103.009ZM151.306 105.57L155.497 103.125C155.497 106.617 155.497 109.528 155.497 112.904L151.306 115.349C151.306 113.137 151.306 107.782 151.306 105.57ZM164.228 109.877L151.306 117.328V115.581C152.703 114.766 162.133 109.295 164.228 108.014V109.877ZM164.228 107.782L160.038 110.226C160.038 106.967 160.038 103.707 160.038 100.448L164.228 98.0028C164.228 102.427 164.228 103.358 164.228 107.782ZM168.652 105.337L164.461 107.782C164.461 103.824 164.461 102.776 164.461 98.0028L168.652 95.5581C168.652 99.0505 168.652 101.844 168.652 105.337ZM173.076 102.659L168.885 105.104C168.885 104.289 168.885 96.7223 168.885 95.3253L173.076 92.8806C173.076 96.6058 173.076 99.167 173.076 102.659ZM177.5 100.098L173.309 102.543C173.309 99.2834 173.309 96.0238 173.309 92.7642L177.5 90.3195C177.5 94.8596 177.5 95.7909 177.5 100.098ZM181.923 97.6536L177.733 100.098C177.733 97.8864 177.733 92.5313 177.733 90.3195L181.923 87.8747C181.923 91.3672 181.923 94.2776 181.923 97.6536ZM186.347 95.0925L182.156 97.5372C182.156 96.7222 182.156 89.1553 182.156 87.7583L186.347 85.3136C186.347 89.0389 186.347 91.4836 186.347 95.0925Z" fill="#4F9286"/>
<path d="M124.297 114.304V140.614L125.81 139.683V115.468L189.955 78.2158L189.838 102.43L191.352 101.615V75.4219L124.297 114.304Z" fill="#E4DBC6"/>
<path d="M124.067 114.544L110.562 106.744V105.23L124.067 113.147V114.544Z" fill="#AEA388"/>
<path d="M191.824 75.5446L124.07 114.543V113.147L191.824 74.0312V75.5446Z" fill="#E4DBC6"/>
<path d="M124.067 113.145L110.562 105.229L178.199 66.1133L191.82 74.0295L124.067 113.145Z" fill="#F2ECDD"/>
<path opacity="0.6" d="M67.8388 117.447H59.9227L60.6211 117.098H66.209V116.516H61.5524L85.301 102.779H94.1485V102.197H86.2323L86.9308 101.848H92.5187V101.266H87.8621H87.9785H77.6176L48.8633 117.796L50.2603 118.611H57.9436L58.9913 118.029H67.8388V117.447Z" fill="#A09595"/>
<path opacity="0.6" d="M202.767 34.9157L203.465 34.5664H209.053V33.9844H204.397H204.513H194.152L165.281 50.6316L166.445 51.3301H174.478L175.526 50.7481H184.373V50.166H176.457L177.156 49.8167H182.627V49.2347H178.087L201.835 35.4978H210.683V34.9157H202.767Z" fill="#A09595"/>
<path opacity="0.6" d="M69.5859 78.2178L90.8898 90.4413H113.591L84.1377 73.4448V69.8359L69.5859 78.2178Z" fill="#A09595"/>
<path d="M86.582 53.4247L136.757 24.4375L136.64 45.8578L86.582 74.8449V53.4247Z" fill="#E4DBC6"/>
<path d="M84.2539 52.027L134.312 23.1562L136.757 24.4368L86.5822 53.424L84.2539 52.027Z" fill="#85705F"/>
<path d="M86.5814 53.4243V74.8446L84.1367 73.4476L84.2531 52.0273L86.5814 53.4243Z" fill="#AEA388"/>
<path opacity="0.7" d="M163.769 40.1542L163.653 61.5745L136.645 45.9749L136.761 24.5547L163.769 40.1542Z" fill="#346B74"/>
<path d="M163.299 39.8071L161.785 38.9922V60.4124L163.299 61.2273V39.8071Z" fill="#AEA388"/>
<path opacity="0.6" d="M155.731 62.5071L152.122 64.6026H157.943V64.9518H151.54L147.698 67.1637H153.519V67.5129H147.116L143.275 69.7248H149.095V70.0741H142.693L138.851 72.2859H144.672V72.6352H138.269L134.427 74.8471H140.248V75.1963H133.845L130.003 77.4082H135.824V77.7574H129.421L125.58 79.9693H131.4V80.3185H124.998L121.156 82.5304H126.977V82.8797H120.574L116.732 85.0915H122.553V85.4408H116.15L114.055 86.6049V69.8412L143.391 50.0508L162.134 60.8773L162.017 62.6235H155.731V62.5071ZM114.171 87.7691H118.246V87.4198H114.171V87.7691Z" fill="#A09595"/>
<path opacity="0.7" d="M115.105 70.1863L162.253 42.9453V62.3865L115.105 89.6275V70.1863Z" fill="url(#paint8_linear)"/>
<path d="M86.5859 53.4247L136.761 24.4375L163.769 40.037L113.594 69.0242L86.5859 53.4247Z" fill="#85705F"/>
<path opacity="0.8" d="M113.594 69.0253V90.4456L86.5859 74.846V53.4258L113.594 69.0253Z" fill="#346B74"/>
<path opacity="0.4" d="M112.197 89.6305L112.43 89.747V89.6305C112.43 78.2219 112.43 82.2964 112.43 79.9681L113.594 80.6666V80.3174L112.43 79.6189C112.43 76.3593 112.43 74.031 112.43 70.1893L113.594 70.8878V70.5386L112.43 69.8401C112.43 69.258 112.43 68.6759 112.43 68.0939L112.197 68.2103C112.197 68.7924 112.197 69.3744 112.197 69.9565L108.006 67.5118C108.006 66.9297 108.006 66.3477 108.006 65.7656L107.773 65.6492C107.773 66.2312 107.773 66.8133 107.773 67.3954L103.582 64.9507C103.582 64.3686 103.582 63.7865 103.582 63.2045L103.35 63.0881C103.35 64.0194 103.35 64.6014 103.35 64.8343L99.1587 62.3896V60.6434L98.9259 60.5269V62.2732L94.7349 59.8285V58.0822L94.5021 57.9658V59.712L90.3112 57.2673V55.5211L90.0784 55.4047V57.1509L86.5859 55.1719V55.5211L90.0784 57.5002C90.0784 60.5269 90.0784 63.3209 90.0784 66.9297L86.5859 64.8343V65.1835L90.0784 67.279V76.9414L90.3112 77.0578V67.3954L94.5021 69.8401V79.5025L94.7349 79.6189V69.9565L98.9259 72.4012V82.0636L99.1587 82.18V72.5176L103.35 74.9623C103.35 75.8936 103.35 83.4606 103.35 84.6247L103.582 84.7411C103.582 81.3651 103.582 78.5712 103.582 75.0787L107.773 77.5234C107.773 81.1323 107.773 83.8098 107.773 87.1858L108.006 87.3022C108.006 82.9949 108.006 81.9472 108.006 77.6399L112.197 80.0846C112.197 83.577 112.197 78.2219 112.197 89.6305ZM94.5021 69.4908L90.3112 67.0461C90.3112 63.5537 90.3112 60.7598 90.3112 57.6166L94.5021 60.0613C94.5021 63.0881 94.5021 65.7656 94.5021 69.4908ZM98.9259 72.052L94.7349 69.6073C94.7349 66.1148 94.7349 63.3209 94.7349 60.1777L98.9259 62.6224C98.9259 65.9984 98.9259 68.6759 98.9259 72.052ZM103.35 74.6131L99.1587 72.1684C99.1587 68.3267 99.1587 66.5805 99.1587 62.7388L103.35 65.1835C103.35 68.5595 103.35 71.1206 103.35 74.6131ZM107.773 77.1742L103.582 74.7295C103.582 71.2371 103.582 68.7924 103.582 65.2999L107.773 67.7446C107.773 71.3535 107.773 73.7982 107.773 77.1742ZM108.006 77.2906C108.006 74.031 108.006 71.7027 108.006 67.861L112.197 70.3058C112.197 74.031 112.197 76.4757 112.197 79.7353L108.006 77.2906Z" fill="#295559"/>
<path d="M112.891 68.6738V70.7692L85.8828 55.1697V53.0742L112.891 68.6738Z" fill="#AEA388"/>
<path d="M113.59 69.0223V90.4426L115.103 89.6277V70.1865L162.251 42.9455V62.5031L163.648 61.4554L163.764 40.0352L113.59 69.0223Z" fill="#E4DBC6"/>
<path d="M111.617 67.863L161.792 38.9922L163.771 40.0399L113.596 69.0271L111.617 67.863Z" fill="#85705F"/>
<path d="M113.596 69.0274V90.4477L111.617 89.2836V67.8633L113.596 69.0274Z" fill="#AEA388"/>
<path d="M113.36 69.2607L84.0234 52.3806V50.8672L113.36 67.8637V69.2607Z" fill="#AEA388"/>
<path d="M164.116 40.1587L113.359 69.2623V67.8653L164.116 38.7617V40.1587Z" fill="#E4DBC6"/>
<path d="M113.36 67.8618L84.0234 50.8653L134.78 21.7617L164.117 38.7582L113.36 67.8618Z" fill="#F2ECDD"/>
<path d="M162.253 52.4911L158.178 54.8194V45.2734L157.945 45.3899V54.9358L153.754 57.3805V47.8346L153.521 47.951V57.3805L149.331 59.8252V50.3957L149.098 50.5121V59.9417L144.907 62.3864V53.0732L144.674 53.1896V62.6192L140.483 65.0639V55.6343L140.25 55.7507V65.1803L136.059 67.625V58.1954L135.826 58.3119V67.7414L131.636 70.1861V60.7566L131.403 60.873V70.3025L127.212 72.7472V63.3177L126.979 63.4341V72.7472L122.788 75.1919V65.8788L122.555 65.9952V75.3084L118.364 77.7531V68.4399L118.131 68.5563V77.8695L114.988 79.7321V80.0813L118.131 78.2187C118.131 81.944 118.131 79.3829 118.131 87.7647L118.364 87.6483C118.364 76.8217 118.364 80.6634 118.364 78.1023L122.555 75.6576C122.555 77.8695 122.555 73.9114 122.555 85.2036L122.788 85.0872C122.788 73.6786 122.788 79.0336 122.788 75.5412L126.979 73.0965C126.979 77.4038 126.979 70.0697 126.979 82.7589L127.212 82.6425C127.212 74.377 127.212 75.5412 127.212 73.0965L131.403 70.6518C131.403 74.377 131.403 71.8159 131.403 80.1978L131.636 80.0813C131.636 69.2548 131.636 73.0965 131.636 70.5354L135.826 68.0907V77.6366L136.059 77.5202V67.9743L140.25 65.5295V75.1919L140.483 75.0755V65.5295L144.674 63.0848V72.6308L144.907 72.5144V62.9684L149.098 60.5237V70.0697L149.331 69.9533V60.4073L153.521 57.9626V67.625L153.754 67.5086V57.7298L157.945 55.2851V64.8311L158.178 64.7146V55.1687L162.253 52.8404V52.4911Z" fill="#4F9286"/>
<defs>
<linearGradient id="paint0_linear" x1="72.7915" y1="142.774" x2="74.8441" y2="142.774" gradientUnits="userSpaceOnUse">
<stop stop-color="#AEA388"/>
<stop offset="0.2235" stop-color="#BDB299"/>
<stop offset="0.7248" stop-color="#D9D0BA"/>
<stop offset="1" stop-color="#E4DBC6"/>
</linearGradient>
<linearGradient id="paint1_linear" x1="84.6665" y1="135.919" x2="86.719" y2="135.919" gradientUnits="userSpaceOnUse">
<stop stop-color="#AEA388"/>
<stop offset="0.2235" stop-color="#BDB299"/>
<stop offset="0.7248" stop-color="#D9D0BA"/>
<stop offset="1" stop-color="#E4DBC6"/>
</linearGradient>
<linearGradient id="paint2_linear" x1="96.5376" y1="129.065" x2="98.5901" y2="129.065" gradientUnits="userSpaceOnUse">
<stop stop-color="#AEA388"/>
<stop offset="0.2235" stop-color="#BDB299"/>
<stop offset="0.7248" stop-color="#D9D0BA"/>
<stop offset="1" stop-color="#E4DBC6"/>
</linearGradient>
<linearGradient id="paint3_linear" x1="199.268" y1="69.7539" x2="201.321" y2="69.7539" gradientUnits="userSpaceOnUse">
<stop stop-color="#AEA388"/>
<stop offset="0.2235" stop-color="#BDB299"/>
<stop offset="0.7248" stop-color="#D9D0BA"/>
<stop offset="1" stop-color="#E4DBC6"/>
</linearGradient>
<linearGradient id="paint4_linear" x1="211.143" y1="62.8956" x2="213.196" y2="62.8956" gradientUnits="userSpaceOnUse">
<stop stop-color="#AEA388"/>
<stop offset="0.2235" stop-color="#BDB299"/>
<stop offset="0.7248" stop-color="#D9D0BA"/>
<stop offset="1" stop-color="#E4DBC6"/>
</linearGradient>
<linearGradient id="paint5_linear" x1="65.5377" y1="121.388" x2="108.386" y2="121.388" gradientUnits="userSpaceOnUse">
<stop stop-color="#72B8A6"/>
<stop offset="0.677" stop-color="#61ABA3"/>
<stop offset="1" stop-color="#57A4A2"/>
</linearGradient>
<linearGradient id="paint6_linear" x1="179.452" y1="55.6298" x2="222.3" y2="55.6298" gradientUnits="userSpaceOnUse">
<stop stop-color="#72B8A6"/>
<stop offset="0.677" stop-color="#61ABA3"/>
<stop offset="1" stop-color="#57A4A2"/>
</linearGradient>
<linearGradient id="paint7_linear" x1="125.778" y1="109.023" x2="189.906" y2="109.023" gradientUnits="userSpaceOnUse">
<stop stop-color="#72B8A6"/>
<stop offset="0.677" stop-color="#61ABA3"/>
<stop offset="1" stop-color="#57A4A2"/>
</linearGradient>
<linearGradient id="paint8_linear" x1="115.055" y1="66.2528" x2="162.273" y2="66.2528" gradientUnits="userSpaceOnUse">
<stop stop-color="#72B8A6"/>
<stop offset="0.677" stop-color="#61ABA3"/>
<stop offset="1" stop-color="#57A4A2"/>
</linearGradient>
</defs>
</svg>
