<svg width="236" height="167" viewBox="0 0 236 167" fill="none" xmlns="http://www.w3.org/2000/svg">
<path d="M108.36 52.9814C108.36 53.2532 107.817 56.7863 107.409 63.7165C107.137 68.8802 107.001 72.4133 106.73 76.2181C106.594 77.9847 107.409 81.1101 108.36 81.6536C109.447 82.1972 110.942 80.1589 111.622 77.0335C111.893 75.5387 110.942 72.9569 111.35 70.7827C112.981 62.7653 113.796 54.8839 113.388 55.5633L108.36 52.9814Z" fill="#FFC5B3"/>
<path d="M117.467 21.0479C117.467 21.0479 119.642 15.7483 124.534 18.0584C129.561 20.2326 129.697 30.1524 130.241 33.1419C130.92 36.1314 131.056 47.1383 131.056 47.1383L123.718 45.5076C123.854 45.6435 115.021 29.8806 117.467 21.0479Z" fill="#33211F"/>
<path d="M112.44 34.365C109.994 35.4521 106.732 41.567 107.004 50.3997C107.004 51.3509 106.868 54.0687 106.597 57.4658C106.053 64.532 105.781 67.7933 105.781 72.6852C107.276 74.0441 109.722 73.9082 111.76 72.8211C114.478 70.511 114.07 49.4485 114.07 49.4485L117.332 34.365C117.468 34.2291 115.429 33.0062 112.44 34.365Z" fill="#389EC6"/>
<path d="M109.995 85.8662C109.995 85.8662 110.946 91.5735 110.946 94.1553C110.946 96.7372 111.082 97.8243 111.626 100.95C112.169 103.939 112.985 115.761 112.985 119.702C112.985 123.643 110.539 127.312 109.723 128.671C108.772 130.03 111.626 132.34 113.8 130.301C115.974 128.263 116.246 127.855 117.469 127.176C118.692 126.496 119.643 123.779 118.692 120.653C117.741 117.528 118.148 111.413 119.236 106.113C120.323 100.814 118.828 94.0194 119.371 92.3888C119.643 90.7581 109.995 85.8662 109.995 85.8662Z" fill="#FFAD97"/>
<path d="M109.587 128.671C109.587 128.671 106.87 130.845 106.054 131.932C105.103 133.019 107.957 134.65 110.539 133.698C113.121 132.747 115.295 130.301 117.333 128.399C119.371 126.632 119.915 125.953 119.779 123.779C119.779 122.692 118.692 121.604 118.692 121.604C118.692 121.604 118.012 125.817 115.023 127.584C112.169 129.486 111.082 129.758 109.587 128.671Z" fill="#33211F"/>
<path d="M118.284 90.4863C118.284 90.4863 118.556 96.1935 118.692 98.7754C118.692 101.357 119.1 102.173 119.915 105.026C120.73 107.88 121.274 120.381 121.274 124.322C121.274 128.263 118.828 131.932 118.012 133.291C117.061 134.65 119.915 136.96 122.089 134.921C124.263 132.883 124.535 132.475 125.758 131.796C126.981 131.117 127.932 128.399 126.981 125.273C126.03 122.148 126.437 116.033 127.525 110.733C128.612 105.434 126.845 98.5036 127.253 96.873C128.204 92.7963 130.378 86.4096 128.068 85.0508C125.35 83.556 118.284 90.4863 118.284 90.4863Z" fill="#FFC5B3"/>
<path d="M117.877 133.155C117.877 133.155 115.159 135.329 114.343 136.416C113.392 137.503 116.246 139.134 118.828 138.183C121.41 137.232 123.584 134.786 125.622 132.883C127.66 131.117 128.204 130.437 128.068 128.263C128.068 127.176 126.981 126.089 126.981 126.089C126.981 126.089 126.302 130.301 123.312 132.068C120.594 134.106 119.371 134.378 117.877 133.155Z" fill="#33211F"/>
<path d="M109.18 63.9883C109.18 63.9883 108.093 65.2112 107.957 71.3262C107.957 73.2286 108.093 89.535 108.093 89.535C108.093 89.535 114.48 95.9217 118.556 96.1935C122.633 96.4653 130.107 93.7475 130.107 93.7475C130.107 93.7475 132.009 71.1903 129.971 66.706C127.797 62.4935 109.18 63.9883 109.18 63.9883Z" fill="#33211F"/>
<path d="M130.922 42.6539C130.378 40.6156 124.263 36.4031 124.263 36.4031C124.263 36.4031 120.866 39.1209 119.643 40.0721C118.42 41.0233 116.654 40.0721 117.877 36.8108C118.284 35.7237 117.741 32.7342 117.741 32.7342C117.741 32.7342 117.197 32.5983 116.518 32.4624C115.431 33.6854 113.393 36.6749 112.305 37.8979C111.218 39.1209 107.006 42.9257 108.229 46.8664C108.636 48.0894 109.044 49.0406 109.588 50.5354C110.267 52.166 111.626 54.612 111.082 56.2426C109.044 61.814 107.957 66.2983 107.957 66.2983C107.957 66.2983 113.8 70.6467 118.556 71.0543C126.166 71.8697 130.378 67.9289 130.378 67.9289C129.971 65.7547 125.758 56.5144 125.894 52.8455C125.894 52.9814 132.553 49.3124 130.922 42.6539Z" fill="#2A78B7"/>
<path d="M117.328 33.2776C117.328 33.2776 116.785 34.0929 116.785 35.3159C116.649 36.403 111.349 41.2949 115.018 43.4691C118.279 45.3716 124.394 36.403 124.394 36.403C124.394 36.403 123.579 34.0929 123.443 32.3264C123.171 29.4728 123.579 25.9397 123.579 25.9397L117.328 33.2776Z" fill="#FFAD97"/>
<path d="M120.86 20.912C118.55 19.2814 113.115 19.0096 111.484 24.581C109.717 30.4241 115.289 37.4903 118.007 36.1314C119.501 35.3161 122.898 32.5983 123.714 29.4729C124.529 25.9398 122.627 22.135 120.86 20.912Z" fill="#FFC5B3"/>
<path d="M124.259 22.4067C123.851 20.5043 122.356 19.2813 120.726 18.6019C117.464 17.3789 115.29 17.1071 112.436 20.0966C110.67 21.8632 110.398 23.7656 110.534 26.891C110.534 26.891 112.572 29.337 117.328 29.6087C119.638 29.7446 122.492 27.7063 123.307 30.56C125.074 27.7063 124.666 24.445 124.259 22.4067Z" fill="#46373B"/>
<path d="M120.449 30.1523C120.449 30.1523 120.585 28.6576 121.808 28.114C123.031 27.5705 123.167 30.0164 122.352 30.9677C121.536 31.9189 120.449 30.1523 120.449 30.1523Z" fill="#FFC5B3"/>
<path d="M133.232 128.806C132.96 128.806 132.689 128.806 132.553 128.671C132.009 128.399 131.602 127.719 131.602 126.768V89.2633C131.602 87.7685 132.553 86.1379 133.64 85.4584L136.901 83.556C137.445 83.1483 138.124 83.1483 138.668 83.4201C139.211 83.6919 139.619 84.3713 139.619 85.3225V122.692C139.619 124.186 138.668 125.817 137.581 126.496L134.319 128.399C133.912 128.671 133.64 128.806 133.232 128.806ZM137.852 84.5072C137.716 84.5072 137.581 84.6431 137.445 84.6431L134.183 86.5455C133.368 86.9532 132.689 88.3121 132.689 89.3992V126.768C132.689 127.312 132.825 127.583 132.96 127.719C133.096 127.855 133.368 127.719 133.504 127.583L136.765 125.681C137.581 125.273 138.26 123.914 138.26 122.827V85.4584C138.26 84.9149 138.124 84.6431 137.988 84.5072C137.988 84.5072 137.988 84.5072 137.852 84.5072Z" fill="#A0989E"/>
<path d="M131.333 136.416C131.333 137.231 130.789 138.319 130.11 138.59C129.43 138.998 128.887 138.59 128.887 137.639C128.887 136.824 129.43 135.737 130.11 135.465C130.789 135.193 131.333 135.601 131.333 136.416Z" fill="#46373B"/>
<path d="M131.743 136.009L130.792 135.465L129.297 138.726L130.248 139.27L131.743 136.009Z" fill="#46373B"/>
<path d="M132.282 136.96C132.282 137.775 131.738 138.862 131.059 139.134C130.379 139.541 129.836 139.134 129.836 138.183C129.836 137.367 130.379 136.28 131.059 136.008C131.738 135.737 132.282 136.144 132.282 136.96Z" fill="#59494E"/>
<path d="M131.743 137.231C131.743 137.639 131.472 138.183 131.2 138.318C130.928 138.454 130.656 138.318 130.656 137.911C130.656 137.503 130.928 136.96 131.2 136.824C131.472 136.688 131.743 136.824 131.743 137.231Z" fill="white"/>
<path d="M140.028 141.716C140.028 142.531 139.484 143.618 138.805 143.89C138.126 144.298 137.582 143.89 137.582 142.939C137.582 142.124 138.126 141.037 138.805 140.765C139.62 140.357 140.028 140.765 140.028 141.716Z" fill="#46373B"/>
<path d="M140.571 141.172L139.62 140.765L138.125 144.026L139.076 144.569L140.571 141.172Z" fill="#46373B"/>
<path d="M140.977 142.26C140.977 143.075 140.434 144.162 139.754 144.434C139.075 144.841 138.531 144.434 138.531 143.483C138.531 142.667 139.075 141.58 139.754 141.308C140.434 141.037 140.977 141.308 140.977 142.26Z" fill="#59494E"/>
<path d="M140.568 142.531C140.568 142.939 140.296 143.483 140.024 143.618C139.752 143.754 139.48 143.618 139.48 143.211C139.48 142.803 139.752 142.26 140.024 142.124C140.296 141.988 140.568 142.124 140.568 142.531Z" fill="white"/>
<path d="M154.02 133.562C154.02 134.378 153.477 135.465 152.797 135.737C152.118 136.144 151.574 135.737 151.574 134.785C151.574 133.97 152.118 132.883 152.797 132.611C153.613 132.339 154.02 132.747 154.02 133.562Z" fill="#46373B"/>
<path d="M154.563 133.155L153.612 132.611L152.117 135.873L153.068 136.416L154.563 133.155Z" fill="#46373B"/>
<path d="M154.969 134.106C154.969 134.921 154.426 136.008 153.746 136.28C153.067 136.688 152.523 136.28 152.523 135.329C152.523 134.514 153.067 133.426 153.746 133.155C154.562 132.883 154.969 133.291 154.969 134.106Z" fill="#59494E"/>
<path d="M154.56 134.514C154.56 134.921 154.288 135.465 154.016 135.601C153.744 135.737 153.473 135.601 153.473 135.193C153.473 134.785 153.744 134.242 154.016 134.106C154.288 133.834 154.56 134.106 154.56 134.514Z" fill="white"/>
<path d="M129.836 110.19L130.108 135.737L138.669 140.629L138.94 110.462L129.836 110.19Z" fill="#2A78B7"/>
<path d="M145.871 102.988V126.632C145.871 127.719 145.327 128.671 144.376 129.078L132.962 135.601C131.059 136.688 128.613 135.329 128.613 133.155V109.646C128.613 108.559 129.157 107.608 130.108 107.2L141.523 100.678C143.425 99.3189 145.871 100.814 145.871 102.988Z" fill="#2A78B7"/>
<path d="M144.242 100.406L152.803 105.298L144.378 111.821L144.242 100.406Z" fill="#2A78B7"/>
<path d="M154.566 108.016V131.66C154.566 132.747 154.023 133.698 153.071 134.106L141.657 140.629C139.755 141.716 137.309 140.357 137.309 138.183V114.538C137.309 113.451 137.852 112.5 138.803 112.092L150.218 105.57C152.12 104.347 154.566 105.706 154.566 108.016Z" fill="#389EC6"/>
<path d="M132.965 135.601V111.957C132.965 110.87 133.509 109.918 134.46 109.511L145.874 102.988C146.554 102.58 147.369 102.445 148.049 102.716C147.233 101.901 145.874 101.629 144.651 102.309L133.237 108.831C132.286 109.375 131.742 110.326 131.742 111.277V134.922C131.742 136.28 132.693 137.639 133.916 137.911C133.373 137.368 132.965 136.416 132.965 135.601Z" fill="white"/>
<path d="M138.941 113.044C138.941 113.044 140.3 121.061 140.029 127.72C139.757 134.378 139.485 140.221 139.485 140.221L140.029 139.949C140.029 139.949 140.844 133.427 140.98 127.312C141.251 121.333 139.485 112.772 139.485 112.772L138.941 113.044Z" fill="#2A78B7"/>
<path d="M140.98 111.957C140.98 111.957 142.339 119.974 142.068 126.632C141.796 133.291 141.524 139.134 141.524 139.134L142.068 138.862C142.068 138.862 142.883 132.34 143.019 126.225C143.291 120.246 141.524 111.685 141.524 111.685L140.98 111.957Z" fill="#2A78B7"/>
<path d="M143.152 110.733C143.152 110.733 144.511 118.751 144.239 125.409C143.968 132.068 143.696 137.911 143.696 137.911L144.239 137.639C144.239 137.639 145.055 131.117 145.191 125.002C145.462 119.023 143.696 110.462 143.696 110.462L143.152 110.733Z" fill="#2A78B7"/>
<path d="M145.328 109.375C145.328 109.375 146.687 117.392 146.415 124.05C146.143 130.709 145.872 136.552 145.872 136.552L146.415 136.28C146.415 136.28 147.231 129.758 147.366 123.643C147.638 117.664 145.872 109.103 145.872 109.103L145.328 109.375Z" fill="#2A78B7"/>
<path d="M147.367 108.288C147.367 108.288 148.726 116.305 148.454 122.963C148.183 129.622 147.911 135.465 147.911 135.465L148.454 135.193C148.454 135.193 149.27 128.671 149.405 122.556C149.677 116.577 147.911 108.016 147.911 108.016L147.367 108.288Z" fill="#2A78B7"/>
<path d="M149.676 107.065C149.676 107.065 151.035 115.082 150.763 121.74C150.491 128.399 150.219 134.242 150.219 134.242L150.763 133.97C150.763 133.97 151.578 127.448 151.714 121.333C151.986 115.354 150.219 106.793 150.219 106.793L149.676 107.065Z" fill="#2A78B7"/>
<path d="M151.852 105.842C151.852 105.842 153.21 113.859 152.939 120.517C152.667 127.176 152.395 133.019 152.395 133.019L152.939 132.747C152.939 132.747 153.754 126.225 153.89 120.11C154.162 114.131 152.395 105.57 152.395 105.57L151.852 105.842Z" fill="#2A78B7"/>
<path d="M138.531 140.9V142.803C138.531 142.803 138.939 143.074 139.482 143.21C140.026 143.346 140.162 142.939 140.026 142.259C139.754 141.444 139.347 140.357 139.347 140.357L138.531 140.9Z" fill="#848484"/>
<path d="M138.533 140.9L137.582 140.357V142.259L138.533 142.803V140.9Z" fill="#A8A8A8"/>
<path d="M137.854 140.085L138.533 140.493L139.213 140.221L139.484 140.357L138.533 140.9L137.582 140.357L137.854 140.085Z" fill="#C9C9C9"/>
<path d="M129.836 135.601V137.503C129.836 137.503 130.244 137.775 130.787 137.911C131.331 138.047 131.467 137.639 131.331 136.96C131.059 136.144 129.972 135.329 129.972 135.329L129.836 135.601Z" fill="#848484"/>
<path d="M129.838 135.601L128.887 135.057V136.96L129.838 137.503V135.601Z" fill="#A8A8A8"/>
<path d="M129.023 134.921L129.974 135.465L129.838 135.601L128.887 135.057L129.023 134.921Z" fill="#C9C9C9"/>
<path d="M152.934 132.204C152.934 132.204 152.934 134.242 153.205 134.785C153.477 135.193 153.749 135.193 153.613 135.193L153.205 132.339L152.934 132.204Z" fill="#A8A8A8"/>
<path d="M153.211 132.34L155.113 131.252C155.113 131.252 155.113 132.475 154.842 133.291C154.706 133.97 154.298 134.786 154.026 135.057C153.754 135.193 153.483 135.601 153.347 134.242C153.211 133.427 153.211 132.34 153.211 132.34Z" fill="#848484"/>
<path d="M152.934 132.204L153.205 132.34L155.108 131.252L154.564 130.981V131.252L152.934 132.204Z" fill="#C9C9C9"/>
<path d="M132.825 86.2739C132.825 86.2739 133.913 86.8174 133.777 86.9533C133.641 87.2251 133.369 87.6328 133.369 87.6328C133.369 87.6328 133.913 88.1763 134.864 87.2251C135.951 86.138 137.989 85.7303 138.397 84.915C138.669 84.0997 138.261 82.8767 137.174 82.8767C136.087 82.8767 133.369 83.9638 132.418 85.3227C131.874 86.0021 132.554 86.6816 132.554 86.6816L132.825 86.2739Z" fill="#33211F"/>
<path d="M145.465 106.521L141.252 108.967C140.708 109.375 139.621 109.239 138.942 108.831C138.263 108.424 138.127 107.744 138.806 107.472L143.019 105.026C143.562 104.619 144.649 104.755 145.329 105.162C146.008 105.57 146.144 106.114 145.465 106.521Z" fill="#33211F"/>
<path d="M140.027 82.4691C139.076 78.1208 138.26 76.4901 138.26 75.5389C138.26 74.7236 136.222 66.2986 136.222 66.2986H132.281C132.281 66.2986 133.504 73.9083 133.912 78.2566C134.048 80.1591 132.553 82.1974 133.504 84.2357C133.504 84.2357 134.591 83.5562 135.407 84.7792C136.222 85.8663 135.407 86.8175 135.407 86.8175C135.407 86.8175 140.978 86.8175 140.027 82.4691Z" fill="#FFC5B3"/>
<path d="M139.479 76.2183C139.887 75.8106 136.626 64.532 135.81 58.553C135.267 54.884 134.18 50.6715 132.549 45.236C131.462 41.8389 129.695 39.9364 128.065 39.257C126.842 38.7134 125.211 41.8389 124.803 44.013C123.988 48.905 128.201 59.0965 128.88 62.4937C130.103 68.6086 132.006 75.6747 133.093 78.1207C134.587 78.936 138.12 77.8489 139.479 76.2183Z" fill="#389EC6"/>
<path d="M64.8819 115.178C64.8819 115.178 63.5231 116.673 61.6207 118.575C59.8541 120.206 59.3106 120.75 57.8158 122.244C56.8646 123.196 57.6799 124.011 59.4465 123.875C61.0771 123.875 64.6102 123.06 66.5126 122.38C67.8715 121.837 70.4533 120.478 71.8122 119.662C73.1711 118.847 73.4428 117.624 73.4428 117.624V114.771L64.8819 115.178Z" fill="#46373B"/>
<path d="M90.4295 112.596C90.4295 112.596 89.4783 113.955 87.7118 115.722C85.9453 117.352 85.5376 118.032 83.907 120.07C83.4993 120.478 83.3634 121.837 85.1299 121.701C86.7606 121.701 89.0707 121.021 91.109 120.206C93.4191 119.391 95.3215 117.081 96.5445 116.265C97.9033 115.45 98.4469 113.548 98.4469 113.548L97.4957 110.83L90.4295 112.596Z" fill="#46373B"/>
<path d="M89.6114 67.2104C90.2908 56.8829 84.5836 51.4474 84.5836 51.4474C84.9912 47.9144 68.9565 52.8063 68.9565 52.8063C68.9565 52.8063 65.5594 71.5587 64.0646 81.3426C62.434 92.4854 63.3852 115.179 63.3852 115.179C63.3852 115.179 63.6569 117.624 67.7336 117.624C70.859 117.624 73.3049 114.771 73.3049 114.771L73.5767 88.9523L77.2457 70.6075C77.2457 70.6075 80.7787 85.5551 81.8658 90.8547C83.0888 96.562 87.709 113.412 87.709 113.412C87.709 113.412 90.6985 116.809 94.3674 115.043C98.0364 113.14 97.357 111.102 97.357 111.102C97.357 111.102 96.6775 99.1438 91.9215 88.5446C91.6497 80.2555 89.3396 71.9664 89.6114 67.2104Z" fill="#33211F"/>
<path d="M71.2677 25.9006C71.2677 25.9006 68.9576 25.7647 66.6475 30.249C64.3374 34.7333 62.0273 39.4893 62.0273 39.4893C62.0273 39.4893 65.4245 40.0328 69.2294 43.43C74.2572 38.674 75.0725 28.0748 71.2677 25.9006Z" fill="#E04C1E"/>
<path d="M71.2705 25.9004C71.2705 25.9004 69.9116 28.3464 68.8245 32.9666C68.1451 35.4125 68.0092 42.071 67.8733 48.7295C67.7374 54.3008 67.6016 60.2799 67.6016 60.2799C67.6016 60.2799 72.3576 65.9871 80.5108 65.3077C85.4028 64.9 90.7024 62.1823 90.7024 62.1823C91.2459 58.7851 89.0717 54.5726 89.6153 50.3601C90.4306 44.1093 91.3818 36.092 91.11 34.4613C90.7024 31.4718 84.4516 24.5416 84.4516 24.5416C84.4516 24.5416 76.1624 23.8621 71.2705 25.9004Z" fill="#FE733E"/>
<path d="M76.8379 22.9111L75.8867 28.4825C75.8867 28.4825 78.7403 31.6079 81.4581 29.2978C84.1758 26.9877 84.5835 25.7647 84.5835 25.7647L83.2246 18.155L76.8379 22.9111Z" fill="#FFAD97"/>
<path d="M80.7818 10.0016C78.4717 8.23502 72.7645 7.55558 70.7262 13.3987C68.552 19.5136 74.1233 26.9874 76.977 25.7645C78.6076 25.085 82.0048 22.5032 83.0919 19.2419C84.179 15.5729 82.5483 11.3604 80.7818 10.0016Z" fill="#FFC5B3"/>
<path d="M70.1784 15.3013C71.1296 16.2525 72.6244 17.3396 75.478 16.9319C77.924 16.5243 79.5546 15.4372 79.5546 15.4372L80.0982 18.6985C80.0982 18.6985 80.6417 18.5626 80.9135 18.4267C80.9135 17.2037 81.457 16.796 82.1365 17.2037C82.9518 17.6114 82.9518 19.3779 82.9518 19.3779C82.9518 19.3779 85.3978 17.0678 84.5825 13.3989C84.0389 11.0888 81.0494 6.74039 76.8369 7.01217C72.6244 7.41983 70.0425 10.2735 69.6349 12.7194C69.3631 13.8065 69.7708 14.8936 70.1784 15.3013Z" fill="#46373B"/>
<path d="M57.9531 132.98C57.9531 135.29 59.312 136.241 61.0785 135.29C62.8451 134.338 64.2039 131.621 64.2039 129.447C64.2039 127.136 62.8451 126.185 61.0785 127.136C59.312 128.088 57.9531 130.67 57.9531 132.98Z" fill="#46373B"/>
<path d="M60.3979 136.377L59.0391 135.562L62.8439 126.865L64.3387 127.68L60.3979 136.377Z" fill="#46373B"/>
<path d="M59.4492 133.931C59.4492 136.241 60.8081 137.192 62.5746 136.241C64.3412 135.29 65.7 132.572 65.7 130.398C65.7 128.088 64.3412 127.136 62.5746 128.088C60.8081 129.039 59.4492 131.621 59.4492 133.931Z" fill="#59494E"/>
<path d="M60.5312 133.251C60.5312 134.746 61.4825 135.426 62.5696 134.746C63.6567 134.067 64.6079 132.436 64.6079 130.941C64.6079 129.447 63.6567 128.767 62.5696 129.447C61.3466 130.126 60.5312 131.757 60.5312 133.251Z" fill="#C6C6C6"/>
<path d="M20.7188 145.209C20.7188 147.519 22.0776 148.471 23.8442 147.519C25.6107 146.568 26.9696 143.85 26.9696 141.676C26.9696 139.502 25.6107 138.415 23.8442 139.366C22.0776 140.317 20.7188 142.899 20.7188 145.209Z" fill="#46373B"/>
<path d="M23.3034 148.606L21.8086 147.791L25.7493 139.094L27.1082 139.91L23.3034 148.606Z" fill="#46373B"/>
<path d="M22.2148 146.16C22.2148 148.471 23.5737 149.422 25.3402 148.471C27.1068 147.519 28.4657 144.802 28.4657 142.627C28.4657 140.453 27.1068 139.366 25.3402 140.317C23.5737 141.269 22.2148 143.85 22.2148 146.16Z" fill="#59494E"/>
<path d="M23.2969 145.481C23.2969 146.976 24.2481 147.655 25.3352 146.976C26.4223 146.297 27.3735 144.666 27.3735 143.171C27.3735 141.676 26.4223 140.997 25.3352 141.676C24.2481 142.356 23.2969 143.986 23.2969 145.481Z" fill="#C6C6C6"/>
<path d="M32.6784 147.384C29.9607 147.384 27.2429 146.704 24.797 145.345C24.5252 145.209 18.0026 141.676 15.0131 139.774C13.5183 138.823 11.8877 137.056 12.0236 134.882C12.0236 133.115 13.3824 131.485 15.6925 130.126L29.1454 122.38C39.0651 116.673 38.9292 112.053 38.7933 108.248C38.7933 107.84 38.7933 107.433 38.7933 107.025V80.7988C38.7933 73.4609 39.201 68.8408 40.424 64.6283C41.5111 60.4158 48.1696 56.2033 48.4413 56.0674L49.5284 57.8339C47.7619 58.921 43.1417 62.4541 42.3264 65.1718C41.2393 69.1125 40.8316 73.7327 40.8316 80.7988V107.025C40.8316 107.433 40.8316 107.704 40.8316 108.112C40.9675 112.189 41.1034 117.76 30.0966 124.011L16.5079 131.892C15.2849 132.572 13.926 133.659 13.926 134.882C13.926 136.105 15.0131 137.328 15.9643 137.871C18.8179 139.774 25.6123 143.307 25.6123 143.307C29.8248 145.753 35.1244 145.753 39.3369 143.307L52.9256 135.425C62.8454 129.718 62.7095 125.098 62.5736 121.293C62.5736 120.886 62.5736 120.478 62.5736 120.07V94.1158C62.5736 86.7779 62.9813 82.1577 64.2042 77.9452C65.2913 73.7327 71.9498 69.5202 72.2216 69.3843L73.3087 71.1509C71.5421 72.2379 66.922 75.771 66.1067 78.4888C65.0196 82.4295 64.6119 87.0496 64.6119 94.1158V120.342C64.6119 120.75 64.6119 121.021 64.6119 121.429C64.7478 125.506 64.8837 131.077 53.8768 137.328L40.5599 145.209C38.1139 146.704 35.3962 147.384 32.6784 147.384Z" fill="#AFAFAF"/>
<path d="M73.3081 72.1022C73.0364 72.1022 72.9005 72.1022 72.6287 71.9663L46.946 57.1546C46.2666 56.7469 45.9948 55.9316 46.4025 55.2522C46.8101 54.5727 47.6255 54.301 48.3049 54.7086L73.9876 69.5203C74.667 69.928 74.9388 70.7433 74.5311 71.4227C74.2593 71.9663 73.8517 72.1022 73.3081 72.1022Z" fill="#E04C1E"/>
<path d="M80.2353 45.0607C80.2353 45.0607 76.8381 52.1268 75.4792 54.0292C74.1204 55.9316 68.549 61.0953 67.326 61.7748C66.7825 62.0466 65.2877 62.4542 64.3365 62.4542C63.3853 62.4542 62.2982 62.1824 61.6187 62.1824C61.4829 63.1337 63.9288 63.8131 63.9288 63.8131C63.9288 63.8131 62.7058 64.9002 62.57 66.1232C62.4341 66.9385 64.0647 68.1615 65.9671 69.2486C67.1901 69.928 69.3643 68.4333 70.0437 67.482C70.7232 66.2591 70.4514 65.7155 71.5385 64.6284C73.7127 62.5901 78.3329 59.6006 79.5558 58.1058C81.1865 56.0675 86.4861 48.7296 86.4861 48.7296C86.4861 48.7296 84.5837 44.1095 80.2353 45.0607Z" fill="#FFC5B3"/>
<path d="M62.9801 39.761C62.9801 39.761 62.0289 41.2557 61.0777 42.8864C60.1265 44.517 55.5063 53.7574 54.8269 54.8445C54.0116 55.9316 53.468 55.9316 52.1091 57.834C50.7503 59.6005 51.4297 60.6876 52.3809 61.6388C53.1962 62.4541 54.2833 63.1336 54.8269 63.1336C56.3216 63.1336 56.3216 62.7259 56.3216 62.7259C56.3216 62.7259 55.5063 61.9106 56.1857 60.9594C56.7293 60.4158 58.0882 60.5517 58.0882 60.5517C58.0882 60.5517 57.9523 58.7852 57.9523 57.834C57.9523 55.9316 59.9906 53.6215 61.0777 52.1267C62.1648 50.4961 64.4749 47.3707 65.4261 45.6041C66.1055 44.517 67.3285 42.207 67.3285 42.207C67.3285 42.207 65.562 40.0328 62.9801 39.761Z" fill="#FFC5B3"/>
<path d="M89.8819 31.7438C88.1153 30.3849 84.4464 35.141 82.4081 37.9946C80.3698 40.9841 78.875 45.4684 78.875 45.4684C78.875 45.4684 81.321 47.2349 83.3593 48.5938C85.1258 49.6809 87.0282 50.6321 87.0282 50.6321C87.0282 50.6321 95.8609 36.4998 89.8819 31.7438Z" fill="#E04C1E"/>
<path d="M13.8913 131.431L12.8711 133.195L36.7543 147.002L37.7744 145.237L13.8913 131.431Z" fill="#AFAFAF"/>
<path d="M39.9301 100.073L38.9102 101.838L62.7933 115.642L63.8133 113.877L39.9301 100.073Z" fill="#AFAFAF"/>
<path d="M39.9106 90.5707L38.8906 92.3354L62.7738 106.139L63.7938 104.374L39.9106 90.5707Z" fill="#AFAFAF"/>
<path d="M39.895 74.0004L38.875 75.7651L62.7582 89.5687L63.7781 87.8039L39.895 74.0004Z" fill="#AFAFAF"/>
<path d="M38.0668 116.841L37.0469 118.605L60.93 132.409L61.95 130.644L38.0668 116.841Z" fill="#AFAFAF"/>
<path d="M36.8936 117.76L17.5977 130.262L40.9702 143.851L61.2174 130.805L36.8936 117.76Z" fill="#AFAFAF"/>
<path d="M37.0258 143.035L13.5173 129.446C11.2072 128.087 11.6149 125.913 14.1967 124.418L29.2802 115.722C31.8621 114.227 35.8028 114.091 38.1129 115.314L61.6214 128.903C63.9314 130.262 63.5238 132.436 60.9419 133.931L45.8584 142.627C43.1407 144.122 39.2 144.394 37.0258 143.035Z" fill="#33211F"/>
<path d="M38.6534 126.865L12.0195 127.272V114.363L38.6534 114.771V126.865Z" fill="#33211F"/>
<path d="M63.1166 118.032H36.2109V130.669H63.1166V118.032Z" fill="#33211F"/>
<path d="M37.0258 130.262L13.5173 116.673C11.2072 115.314 11.6149 113.14 14.1967 111.645L29.2802 102.949C31.8621 101.454 35.8028 101.318 38.1129 102.541L61.6214 116.13C63.9314 117.488 63.5238 119.663 60.9419 121.157L45.8584 129.854C43.1407 131.485 39.2 131.621 37.0258 130.262Z" fill="#46373B"/>
<path d="M29.1472 122.38L18.8198 116.401C17.0533 115.314 17.3251 113.548 19.3634 112.325L31.3214 105.394C33.3597 104.171 36.4851 104.036 38.2517 105.123L48.4432 111.102L29.1472 122.38Z" fill="#33211F"/>
<path d="M63.117 127.68C63.117 128.631 62.4376 129.718 60.9428 130.534L45.8593 139.23C43.2775 140.725 39.3367 140.861 37.0267 139.638L13.5182 126.049C12.567 125.506 12.0234 124.691 12.0234 123.875V125.098C12.0234 125.914 12.567 126.729 13.5182 127.272L37.0267 140.861C39.3367 142.22 43.2775 141.948 45.8593 140.453L60.9428 131.757C62.3017 130.941 63.117 129.854 63.117 128.903V127.68Z" fill="#AAA4A0"/>
<path d="M63.117 121.701C63.117 122.652 62.4376 123.739 60.9428 124.554L45.8593 133.251C43.2775 134.746 39.3367 134.882 37.0267 133.659L13.5182 120.07C12.567 119.527 12.0234 118.711 12.0234 117.896V119.119C12.0234 119.934 12.567 120.75 13.5182 121.293L37.0267 134.882C39.3367 136.241 43.2775 135.969 45.8593 134.474L60.9428 125.777C62.3017 124.962 63.117 123.875 63.117 122.924V121.701Z" fill="#AAA4A0"/>
<path d="M55.5067 131.892C51.9736 133.795 48.3047 133.523 48.3047 133.523V136.648C48.3047 136.648 51.9736 136.92 55.5067 135.018C59.0398 133.251 59.7192 130.126 59.7192 130.126V127C59.5833 127 59.0398 129.99 55.5067 131.892Z" fill="#46373B"/>
<path d="M48.3025 138.551L46.6719 139.638V133.523L48.3025 132.436V138.551Z" fill="#AAA4A0"/>
<path d="M61.2127 131.077L59.582 132.164V125.913L61.2127 124.962V131.077Z" fill="#AAA4A0"/>
<path d="M49.3931 111.781L29.9613 122.924L28.7383 122.244L48.0343 110.966L49.3931 111.781Z" fill="white"/>
<path d="M52.2449 121.021C52.7885 121.429 52.2449 122.244 51.0219 122.924C49.799 123.603 48.1683 124.011 47.6248 123.603C47.0812 123.196 47.6248 122.38 48.8477 121.701C50.2066 121.021 51.7014 120.75 52.2449 121.021Z" fill="white"/>
<path d="M27.6484 104.851C28.3279 104.443 30.7738 99.1437 31.9968 94.2518C33.2198 89.3599 33.7634 87.3216 35.9376 86.6421C38.2476 85.9627 38.3835 88.9522 38.5194 90.7187C38.6553 92.4853 38.3835 99.4155 38.1117 99.5514C37.84 99.6873 36.7529 99.8232 36.7529 99.8232C36.7529 99.8232 37.1605 90.8546 37.0246 89.7675C37.0246 88.6804 35.9376 87.5933 34.9863 89.4957C34.0351 91.3982 32.6763 96.5619 32.1327 98.7361C31.4533 101.046 29.8226 103.764 29.8226 103.764L27.6484 104.851Z" fill="#33211F"/>
<path d="M33.6246 125.642L54.0077 113.819L42.865 95.7463L22.0742 107.704L33.6246 125.642Z" fill="#719910"/>
<path d="M33.6254 125.641L17.7266 116.401C17.7266 116.401 19.0854 104.851 26.4233 107.297C33.6254 109.878 33.6254 125.641 33.6254 125.641Z" fill="#8BC116"/>
<path d="M54.0082 113.819L38.1094 104.579C38.1094 104.579 39.4682 93.0286 46.8062 95.4746C54.1441 98.0564 54.0082 113.819 54.0082 113.819Z" fill="#719910"/>
<path d="M26.2891 107.433L27.9197 108.248L48.1669 96.5619L46.6721 95.7466L26.2891 107.433Z" fill="#5B544F"/>
<path d="M37.7054 110.422C37.7054 110.422 35.5312 99.959 35.5312 95.8824C35.5312 91.8057 36.3466 89.7674 37.2978 88.9521C38.3849 88.1368 40.0155 86.642 41.1026 90.0392C42.0538 93.4364 43.6845 97.1053 45.1792 99.2795C46.2663 100.91 48.5764 104.171 48.5764 104.171L46.9458 105.123C46.9458 105.123 42.8692 99.8231 41.6462 95.3388C40.9667 93.1646 40.2873 89.3598 38.7925 90.311C37.1619 91.3981 37.1619 95.4747 37.4337 98.0566C37.8413 101.997 39.7438 109.335 39.7438 109.335L37.7054 110.422Z" fill="#46373B"/>
<path d="M37.5681 111.645C37.5681 111.645 36.8887 109.471 38.3835 108.52C39.8782 107.569 40.15 110.015 40.15 110.015L37.5681 111.645Z" fill="white"/>
<path d="M46.533 106.482C46.533 106.482 45.8535 104.307 47.3483 103.356C48.8431 102.405 49.1148 104.851 49.1148 104.851L46.533 106.482Z" fill="white"/>
<path d="M17.8625 115.45L17.7266 116.809L33.6254 126.321V124.827L17.8625 115.45Z" fill="#918A84"/>
<path d="M33.625 124.827V126.321L54.0081 114.363V113.004L33.625 124.827Z" fill="#5B544F"/>
<path d="M155.652 96.3005L185.004 79.5864L198.321 105.813L168.969 122.527L155.652 96.3005Z" fill="#46373B"/>
<path d="M195.875 105.677L187.722 100.921C185.548 99.6978 183.781 96.3006 183.781 93.5828V82.7119C183.781 79.8582 185.548 78.4994 187.722 79.7223L195.875 84.4784C198.049 85.7014 199.816 89.0986 199.816 91.8163V102.687C199.68 105.541 197.914 106.9 195.875 105.677Z" fill="#46373B"/>
<path d="M166.797 122.255L158.644 117.499C156.47 116.276 154.703 112.879 154.703 110.025V99.154C154.703 96.3004 156.47 94.9415 158.644 96.1645L166.797 100.921C168.971 102.144 170.738 105.541 170.738 108.258V119.129C170.602 122.119 168.971 123.478 166.797 122.255Z" fill="#33211F"/>
<path d="M166.117 120.217L159.187 116.276C157.421 115.189 155.926 112.471 155.926 110.025V100.785C155.926 98.3389 157.421 97.2518 159.187 98.3389L166.117 102.28C167.884 103.367 169.379 106.084 169.379 108.53V117.771C169.379 120.081 167.884 121.304 166.117 120.217Z" fill="#5B544F"/>
<path d="M194.11 105.949L176.309 116.276C175.222 116.819 174.406 116.276 174.406 114.917V106.764C174.406 105.405 175.222 103.774 176.309 103.231L194.11 92.9034C195.197 92.3598 196.012 92.9034 196.012 94.2622V102.415C196.012 103.774 195.197 105.405 194.11 105.949Z" fill="#33211F"/>
<path d="M166.391 92.2238L170.875 89.5061L172.506 90.4573L168.157 92.9033L166.391 92.2238Z" fill="white"/>
<path d="M177.535 85.2938L182.155 82.7119L183.786 83.5272L179.302 86.1091L177.535 85.2938Z" fill="white"/>
<path d="M168.835 92.6315C168.835 92.6315 170.329 87.196 168.971 83.5271C167.612 79.8581 168.699 76.7327 171.96 77.9557C174.95 79.0428 179.706 82.3041 182.695 84.2065C181.472 84.8859 180.521 85.5654 180.521 85.5654C180.521 85.5654 173.727 80.8093 172.504 79.994C171.145 79.1787 169.786 80.2658 170.601 82.9835C171.552 85.5654 171.552 91.1368 171.552 91.1368L168.835 92.6315Z" fill="#33211F"/>
<path d="M169.24 99.562L161.086 94.8059C160.135 94.2624 159.456 94.1265 158.776 94.5342C158.776 94.5342 158.233 94.9418 157.961 94.9418C158.64 94.5342 159.592 94.5342 160.543 95.0777L168.696 99.8338C170.87 101.057 172.501 104.318 172.501 107.172V118.043C172.501 119.401 171.821 120.76 171.142 121.168L171.821 120.76C172.637 120.217 173.044 119.266 173.044 117.771V106.9C173.18 104.182 171.414 100.785 169.24 99.562Z" fill="white"/>
<path d="M194.38 85.2937L186.227 80.5376C185.276 79.9941 184.596 79.8582 183.917 80.2658C183.917 80.2658 183.373 80.6735 183.102 80.6735C183.781 80.2658 184.732 80.2658 185.683 80.8094L193.837 85.5654C196.011 86.7884 197.641 90.0497 197.641 92.9033V103.774C197.641 105.133 196.962 106.492 196.283 106.9L196.962 106.492C197.777 105.949 198.185 104.997 198.185 103.503V92.6316C198.185 89.7779 196.554 86.5166 194.38 85.2937Z" fill="white"/>
<path d="M174.405 108.53C174.405 108.53 182.83 107.171 187.451 104.59C192.207 101.872 195.876 97.7953 195.876 97.7953V96.5723C195.876 96.5723 190.848 101.464 186.907 103.638C182.966 105.813 174.27 107.443 174.27 107.443V108.53H174.405Z" fill="#5B544F"/>
<path d="M174.137 96.5723C174.137 96.5723 173.322 86.2449 174.409 81.7606C175.632 77.2763 178.35 77.0046 182.426 80.9453C186.503 85.0219 189.221 87.8755 189.221 87.8755L186.639 89.3703C186.639 89.3703 181.611 82.5759 179.845 81.3529C178.214 80.13 176.311 79.7223 175.904 83.2554C175.496 86.7884 176.447 94.6699 176.447 94.6699L174.137 96.5723Z" fill="#33211F"/>
<path d="M173.726 97.9311L172.367 96.4364L177.259 93.5828L178.482 95.0775L173.726 97.9311Z" fill="white"/>
<path d="M186.093 90.865L184.734 89.3702L189.626 86.5166L190.849 88.0114L186.093 90.865Z" fill="white"/>
<path d="M199.001 34.2C199.001 34.2 205.795 35.6947 207.561 44.7991C209.328 53.9036 210.415 66.9487 208.784 69.8024C207.154 72.656 198.457 73.7431 198.457 73.7431L199.001 34.2Z" fill="white"/>
<path d="M167.887 50.5064C169.382 51.3218 174.546 51.8653 176.584 51.8653C178.758 52.0012 179.438 49.827 179.709 49.1476C180.797 46.5657 182.835 40.5867 182.835 40.5867L189.765 43.9838C189.765 43.9838 186.776 51.7294 184.466 55.2625C182.699 57.8443 180.525 58.1161 176.312 57.029C174.41 56.6213 167.344 54.3113 167.344 54.3113L167.887 50.5064Z" fill="#FFAD97"/>
<path d="M182.289 80.1296C182.289 80.1296 181.202 86.924 180.93 90.0494C180.658 93.1748 181.61 99.5615 182.425 104.997C183.104 108.802 183.648 117.091 183.648 117.091L189.219 117.634C189.219 117.634 189.763 101.6 189.491 99.6974C189.355 97.795 187.996 92.2236 187.996 92.2236L190.714 82.0321L182.289 80.1296Z" fill="#FFC5B3"/>
<path d="M196.695 84.2063C196.695 84.2063 198.462 94.262 198.87 96.0285C201.044 104.318 204.033 115.189 204.305 117.77C204.577 120.352 203.354 123.614 203.354 123.614H209.469C209.469 123.614 209.605 118.993 209.469 117.363C209.333 115.732 210.148 109.21 209.876 105.133C209.469 99.018 206.207 95.6208 206.207 95.6208L206.479 81.2168L196.695 84.2063Z" fill="#FFC5B3"/>
<path d="M202.671 122.526C201.992 124.429 201.04 126.875 200.633 128.369C199.953 130.272 200.089 131.087 200.089 131.087C200.089 131.087 202.399 133.533 204.03 133.261C205.661 132.99 207.155 131.903 207.835 131.087C208.107 130.68 208.242 130.136 208.514 129.592C208.242 127.282 207.699 124.157 206.748 123.07C205.796 122.255 204.166 122.255 202.671 122.526Z" fill="#FDD110"/>
<path d="M209.598 120.624C209.598 120.624 206.065 117.906 203.619 120.08C203.619 120.08 203.212 121.167 202.668 122.526C204.027 122.255 205.793 122.119 206.609 123.07C207.56 124.157 208.103 127.282 208.375 129.592C208.919 128.098 209.462 126.059 209.598 125.38C210.278 123.342 209.598 120.624 209.598 120.624Z" fill="#F7A521"/>
<path d="M207.838 130.68C208.245 128.641 206.886 125.244 206.886 125.244C206.886 125.244 206.615 128.37 206.886 131.495C207.022 131.223 207.294 130.951 207.838 130.68Z" fill="white"/>
<path d="M209.335 128.234C210.422 124.972 207.84 122.798 207.84 122.798C207.84 122.798 208.927 125.788 208.927 129.049C208.927 128.641 209.063 128.369 209.335 128.234Z" fill="white"/>
<path d="M204.711 119.401C204.711 119.401 203.76 122.798 203.488 124.157C203.217 125.516 204.575 127.147 205.527 124.429C206.478 121.711 207.157 119.401 207.157 119.401C207.157 119.401 205.934 118.586 204.711 119.401Z" fill="white"/>
<path d="M200.091 131.223C200.091 131.223 201.45 130.272 202.808 130.815C204.031 131.359 204.711 133.125 206.342 131.495C207.972 129.864 208.923 128.234 209.195 127.554C209.331 126.875 210.01 123.749 210.01 123.749C210.01 123.749 210.282 124.972 210.01 126.331C209.739 127.69 208.516 130.408 207.429 131.495C206.477 132.446 204.711 134.213 201.314 132.854C199.275 131.903 200.091 131.223 200.091 131.223Z" fill="#33211F"/>
<path d="M183.515 117.362C183.243 117.362 183.107 117.362 182.835 117.362C182.02 118.178 180.797 119.401 179.574 120.624C178.215 121.847 177.536 123.07 176.041 124.021C174.818 124.836 176.584 125.923 178.487 126.603C179.438 126.874 180.933 126.739 181.884 126.467C183.379 126.059 183.515 125.244 185.417 123.613C185.417 122.934 185.417 122.118 185.417 121.439C185.553 118.585 183.515 117.362 183.515 117.362Z" fill="#FDD110"/>
<path d="M189.359 121.303C190.582 120.624 191.261 119.129 191.261 119.129C191.261 119.129 191.125 115.324 189.902 115.188C189.087 115.052 189.63 117.77 188.271 117.634C186.641 117.498 184.738 116.004 183.651 116.411C183.651 116.411 183.379 116.683 182.836 117.227C183.108 117.227 183.244 117.227 183.515 117.227C183.515 117.227 185.554 118.314 185.554 121.167C185.554 121.847 185.554 122.662 185.554 123.342C185.554 123.342 185.554 123.342 185.69 123.206C186.641 122.662 188.271 121.983 189.359 121.303Z" fill="#F7A521"/>
<path d="M184.193 119.944C184.193 119.944 184.465 121.303 184.193 123.342C184.058 124.7 183.242 125.923 183.242 125.923L184.873 124.293C184.873 124.293 185.552 121.031 184.193 119.944Z" fill="white"/>
<path d="M185.551 118.314C185.551 118.314 186.638 120.216 186.502 122.526C186.366 124.972 187.589 121.983 187.589 121.983C187.589 121.983 187.317 118.993 185.551 118.314Z" fill="white"/>
<path d="M184.195 116.411C182.972 117.362 182.157 118.721 181.342 119.808C180.526 120.895 181.477 121.439 182.565 120.488C183.788 119.265 185.69 116.819 185.69 116.819C185.69 116.819 184.467 116.411 184.195 116.411Z" fill="white"/>
<path d="M175.632 124.565C175.632 124.565 176.855 124.429 177.67 125.244C178.485 126.059 179.436 126.467 181.067 126.331C182.698 126.195 183.785 124.429 185.551 123.206C187.318 121.983 189.084 121.439 189.764 120.896C190.715 120.216 191.123 117.906 191.123 117.906C191.123 117.906 191.53 119.129 191.53 119.537C191.395 120.352 190.851 121.032 190.443 121.439C189.9 121.847 189.492 122.391 188.269 122.662C187.59 122.798 186.231 123.614 185.687 124.021C185.144 124.429 183.921 126.603 181.882 127.011C179.844 127.418 177.67 127.147 176.447 126.059C175.224 125.108 175.632 124.565 175.632 124.565Z" fill="#33211F"/>
<path d="M202.671 118.314C204.846 118.858 209.602 120.488 211.64 117.635C212.184 103.774 207.563 92.3597 207.835 92.0879C207.563 86.2448 207.292 75.102 207.156 71.7048C206.884 61.7851 200.769 57.029 200.769 57.029C201.177 53.6318 185.55 58.3879 185.55 58.3879C185.55 58.3879 183.104 75.7814 180.93 85.8371C179.163 94.2621 182.153 112.471 182.832 115.868C184.734 116.955 188.403 118.858 191.121 115.46C191.801 107.715 191.665 99.0181 189.898 91.1367L194.518 77.1403C194.518 77.1403 197.1 89.7778 197.915 95.3492C199.003 104.59 200.905 113.422 202.671 118.314Z" fill="#2A78B7"/>
<path d="M188.812 31.4819C188.812 31.4819 186.23 30.5307 183.649 35.2868C181.339 39.6352 179.844 44.663 179.844 44.663C179.844 44.663 183.241 45.2065 186.91 48.4678C191.802 43.9836 192.617 33.6561 188.812 31.4819Z" fill="#F7A521"/>
<path d="M188.404 31.3462C188.404 31.3462 186.365 34.4716 185.142 38.9559C183.919 43.4402 184.055 67.4922 184.055 67.4922C184.055 67.4922 190.442 71.5688 198.459 71.5688C203.215 71.5688 209.059 68.8511 209.059 68.8511C209.059 68.8511 207.428 41.6736 207.02 38.6841C206.613 35.8305 200.362 30.5309 200.362 30.5309C200.362 30.5309 193.16 29.4438 188.404 31.3462Z" fill="#FDD110"/>
<path d="M193.162 29.1723L192.211 34.6077C192.211 34.6077 194.929 37.7332 197.646 35.4231C200.364 33.113 200.772 32.0259 200.772 32.0259L199.413 24.688L193.162 29.1723Z" fill="#F28775"/>
<path d="M196.966 16.5344C194.656 14.7679 189.22 14.2243 187.182 19.7957C185.144 25.7748 190.443 33.1127 193.297 31.8897C194.927 31.2102 198.189 28.6284 199.14 25.6389C200.227 22.1058 198.732 17.8933 196.966 16.5344Z" fill="#FFAD97"/>
<path d="M184.054 22.2418C185.005 23.6006 190.169 24.5518 191.935 24.1442C194.245 23.7365 195.876 22.2418 195.876 22.2418L196.283 24.8236C196.283 24.8236 196.691 24.6877 197.099 24.5518C197.099 23.3289 197.778 22.6494 198.322 23.3289C198.729 23.8724 198.865 24.9595 199.137 25.9107C199.545 27.1337 200.088 28.2208 200.088 28.2208C200.088 28.2208 201.583 23.3289 201.855 19.6599C201.991 18.1651 201.855 14.3603 197.778 14.2244C197.506 11.9143 193.973 11.6426 192.479 12.4579C188.13 15.0397 184.054 15.5833 184.054 15.5833C184.054 15.5833 185.141 16.5345 186.635 16.5345C186.228 17.3498 184.597 18.4369 183.238 19.1164C184.597 20.3393 185.82 20.2035 185.82 20.2035C185.82 20.2035 184.597 21.4264 184.054 22.2418Z" fill="#33211F"/>
<path d="M191.391 40.7223C191.256 40.8582 191.12 40.8582 190.984 40.994C190.984 40.994 190.848 40.994 190.848 41.1299C189.897 41.8094 189.217 42.8965 188.674 43.9836C186.5 47.7884 185.956 53.2239 188.266 56.7569C189.489 58.5235 191.799 58.5235 193.566 57.7082C196.012 56.6211 197.506 54.0392 197.914 51.4573C198.322 48.1961 197.235 37.461 191.391 40.7223Z" fill="white"/>
<path d="M197.646 55.534C196.966 56.0775 196.151 57.3005 195.472 57.5723C190.852 59.7465 191.531 54.8545 191.531 54.8545C193.026 54.5828 195.336 53.3598 195.608 51.7291C195.608 51.4574 195.472 51.1856 195.2 51.0497C194.113 50.2344 192.346 51.1856 191.395 51.865C190.852 52.2727 190.444 52.6803 190.172 53.2239C189.085 53.088 188.27 52.2727 188.541 50.5062C188.677 49.9626 188.813 49.5549 189.221 49.1473C192.21 49.9626 197.374 47.5166 196.015 45.3424C195.064 43.7118 191.939 45.3424 190.987 45.886C190.58 46.1578 190.172 46.4295 189.764 46.7013C189.764 46.5654 188.541 44.2553 190.172 43.1682C192.618 41.4017 198.325 39.907 198.189 39.907C194.928 39.6352 184.873 42.6247 187.454 47.7884C187.59 48.0602 187.862 48.332 188.134 48.6037C187.454 49.5549 187.183 50.5062 187.318 51.7291C187.454 53.3598 188.541 54.4469 189.764 54.8545C189.629 55.3981 189.629 55.9416 189.764 56.6211C190.987 61.6489 196.423 59.2029 198.461 56.4852C198.869 55.6699 198.189 55.1263 197.646 55.534ZM192.346 46.5654C193.298 46.1578 195.336 44.9348 194.928 46.5654C194.656 47.6525 191.395 48.6037 190.036 48.0602C190.852 47.5166 191.667 46.9731 192.346 46.5654Z" fill="#2A78B7"/>
<path d="M199.819 62.4645C199.276 62.6004 198.868 62.7363 198.596 62.7363C197.373 63.0081 192.21 60.698 190.987 60.9698C188.948 61.3774 193.297 64.0952 193.297 64.0952C193.297 64.0952 191.123 65.1823 189.492 65.9976C187.725 66.8129 188.133 68.4436 191.123 68.7153C193.569 68.9871 198.053 67.2206 199.14 66.8129C199.412 66.677 199.955 65.7258 200.499 65.5899C200.635 64.2311 199.819 63.8234 199.819 62.4645Z" fill="#FFAD97"/>
<path d="M196.828 62.8718C198.595 62.6001 202.807 61.3771 204.438 60.1541C206.204 58.7952 205.933 57.9799 205.661 57.3005C204.845 54.5827 202.807 47.9242 202.807 47.9242L210.281 46.1577C210.281 46.1577 211.504 51.0497 211.912 55.2622C212.183 58.3876 212.047 62.8718 208.107 64.7743C206.34 65.5896 197.915 67.2202 197.915 67.2202L196.828 62.8718Z" fill="#FFAD97"/>
<path d="M204.442 34.3357C202.268 33.9281 201.452 38.4123 201.045 41.9454C200.637 45.3426 201.724 49.4192 201.724 49.4192C201.724 49.4192 203.898 50.0986 206.344 49.691C208.518 49.2833 211.78 47.6527 211.78 47.6527C211.78 47.6527 211.78 35.8305 204.442 34.3357Z" fill="#F7A521"/>
<path d="M177.669 58.7953H171.962L164.488 45.886H170.196L177.669 58.7953Z" fill="#E8E6E7"/>
<path d="M175.632 57.0287H168.701L163.945 48.196H170.74L175.632 57.0287Z" fill="#2A78B7"/>
<path d="M170.876 49.555H165.576L165.305 49.0115H170.604L170.876 49.555Z" fill="#FDD110"/>
<path d="M174.544 56.6212H169.244L168.973 56.0776H174.272L174.544 56.6212Z" fill="#FDD110"/>
<path d="M171.965 53.088C172.644 54.311 172.237 55.2622 171.014 55.2622C169.791 55.2622 168.296 54.311 167.616 53.088C166.937 51.865 167.345 50.9138 168.568 50.9138C169.655 50.9138 171.149 51.865 171.965 53.088Z" fill="#FDD110"/>
<path d="M165.306 51.1855C165.985 50.7779 167.887 51.7291 168.703 53.088C169.518 54.4468 169.79 54.9904 168.159 55.5339C166.529 56.0775 165.985 55.2622 165.306 54.0392C164.626 52.9521 164.083 51.865 165.306 51.1855Z" fill="#FFAD97"/>
</svg>
