<svg width="16" height="16" viewBox="0 0 16 16" fill="none" xmlns="http://www.w3.org/2000/svg">
<path fill-rule="evenodd" clip-rule="evenodd" d="M9.3977 2.06458C10.6505 0.811807 12.6816 0.811807 13.9344 2.06458C15.1872 3.31735 15.1872 5.34849 13.9343 6.60126L11.0175 9.51802C10.6073 9.92843 10.0933 10.2198 9.53053 10.3612H9.50532L9.37244 10.3887L9.29911 10.4025L9.14101 10.4254H9.06312C9.02857 10.4254 8.99634 10.4292 8.96553 10.4329C8.9432 10.4356 8.92161 10.4381 8.90043 10.4391L8.76295 10.4551H8.74921H8.58883C8.47452 10.4506 8.36057 10.4399 8.24742 10.423C8.1535 10.407 8.06183 10.3887 7.97019 10.3658L7.83499 10.3291C7.78688 10.3154 7.73648 10.2993 7.68836 10.281C7.67074 10.2743 7.65281 10.2679 7.6348 10.2614C7.60363 10.2503 7.57223 10.2391 7.54173 10.226C7.5257 10.2191 7.50966 10.2125 7.49362 10.2059C7.46154 10.1927 7.42946 10.1794 7.39738 10.1642C7.05638 10.0061 6.74609 9.78894 6.48089 9.52261C6.29514 9.3364 6.19834 9.07936 6.2151 8.8169C6.22984 8.59568 6.32427 8.38729 6.48089 8.23034C6.8426 7.88991 7.40684 7.88991 7.76857 8.23034C8.30531 8.76642 9.17481 8.76642 9.71156 8.23034L10.4631 7.48339L10.4814 7.46277L12.6306 5.31587C13.1678 4.77869 13.1678 3.90777 12.6306 3.37059C12.0935 2.83342 11.2225 2.83342 10.6853 3.37059L8.96004 5.09363C8.89468 5.15941 8.79609 5.17933 8.7103 5.14402C8.24559 4.95398 7.74824 4.8567 7.24619 4.85761H7.16142C7.06782 4.85941 6.98254 4.80407 6.94605 4.71785C6.90913 4.63188 6.92817 4.53213 6.99417 4.4658L9.3977 2.06458ZM8.97612 6.05136C9.17108 6.17533 9.35168 6.32057 9.51456 6.48441C9.70031 6.67059 9.79711 6.92763 9.78038 7.1901C9.76456 7.40974 9.67021 7.61632 9.51458 7.77209C9.15288 8.11252 8.58864 8.11252 8.22691 7.77209C7.69016 7.23601 6.82066 7.23601 6.28391 7.77209L3.35797 10.6957C2.8208 11.2329 2.8208 12.1038 3.35797 12.641C3.89515 13.1782 4.76607 13.1782 5.30325 12.641L7.03315 10.9088C7.09851 10.843 7.1971 10.8231 7.28289 10.8584C7.74848 11.0478 8.24664 11.1443 8.74929 11.1425H8.84093C8.96747 11.1418 9.07066 11.2438 9.07139 11.3703C9.07173 11.4319 9.04733 11.491 9.00362 11.5343L6.5978 13.9401C5.99726 14.5414 5.18151 14.8779 4.33174 14.875C2.56013 14.8738 1.12491 13.4368 1.12604 11.6652C1.12658 10.8162 1.46366 10.0021 2.0634 9.40117L4.97787 6.48441C5.57863 5.88156 6.39513 5.5434 7.24621 5.54498C7.8594 5.54498 8.45973 5.7207 8.97612 6.05136Z" fill="#7E8287"/>
</svg>
