<svg width="80" height="80" viewBox="0 0 80 80" fill="none" xmlns="http://www.w3.org/2000/svg">
<g clip-path="url(#clip0)">
<path fill-rule="evenodd" clip-rule="evenodd" d="M79.3973 50.8616C78.6194 49.8468 77.3549 49.6521 76.4315 49.5099L76.4314 49.5099L76.4176 49.5077L76.4174 49.5077C76.1905 49.4726 75.9579 49.4366 75.8248 49.3996C74.6872 49.0838 73.8623 48.5108 73.4395 47.7422C73.0579 47.0492 73.0134 46.2064 73.3065 45.2377C73.4007 44.9265 73.5634 44.5691 73.7359 44.1906L73.739 44.1836C74.2548 43.0527 74.8962 41.6452 74.2531 40.1452C73.7072 38.8725 72.5934 37.7286 71.6106 36.7193L71.6105 36.7192L71.6087 36.7173L71.5776 36.6855L71.6686 36.6095L71.6744 36.6046C72.5488 35.8736 73.4528 35.118 74.3589 34.4397C74.4439 34.3759 74.5936 34.2829 74.7407 34.1916L74.7569 34.1815C75.0997 33.9692 75.488 33.7284 75.7975 33.4251C76.7992 32.4437 77.2231 30.9842 76.8525 29.7931C76.5216 28.7292 75.6345 27.9981 74.4186 27.7871C74.0822 27.7286 73.6903 27.6953 73.2368 27.6567L73.2239 27.6556C72.7131 27.6123 71.6292 27.5204 71.0822 27.3481C71.2267 26.7857 71.4831 25.677 70.5672 24.6277C70.102 24.0948 69.5468 23.9315 69.1459 23.8704C69.1284 23.6743 69.1 23.4262 69.0304 23.1354C68.5901 21.2926 67.4801 19.8693 66.5006 18.6133L66.4998 18.6123L66.482 18.5894L66.4816 18.5889C66.2951 18.3498 66.1089 18.1109 65.9278 17.8691C65.6399 17.4855 65.2984 17.099 64.9365 16.6897C64.3293 16.0029 63.5735 15.1479 63.3829 14.5771C63.2345 14.1322 63.316 13.438 63.4026 12.7029C63.5143 11.7558 63.6407 10.6825 63.3381 9.61316C62.8149 7.76518 61.209 6.52783 59.3376 6.52783H59.3149C56.7549 6.54143 55.7593 8.53003 55.1008 9.8455C54.2291 11.5861 53.3715 13.3641 52.5421 15.0835C52.1232 15.9521 51.7041 16.8207 51.2819 17.6876C51.1019 18.0574 50.9152 18.5246 50.6991 19.0653L50.6991 19.0655L50.6929 19.081C50.3272 19.9968 49.8722 21.1363 49.3491 22.0254C48.7344 23.0705 48.3648 23.197 48.3412 23.2051L48.3412 23.2051C48.3403 23.2054 48.3399 23.2055 48.34 23.2056C48.1002 23.2004 47.9866 23.1563 47.9677 23.1432C47.7455 22.9113 47.7817 21.6193 47.7972 21.0675V21.0674C47.8289 19.9416 47.8616 18.7777 47.3385 17.836C46.3443 16.0456 43.7884 15.4752 41.9223 15.0588L41.9222 15.0588C41.6061 14.9883 41.3075 14.9216 41.081 14.8618L41.0794 14.8614C40.358 14.6709 39.8371 14.5334 39.2363 14.6883C38.47 14.886 38.0945 15.4251 37.7634 15.9005C37.6914 16.0041 37.6081 16.1238 37.5077 16.2612L33.9861 21.0802C33.5358 21.6963 33.1108 22.3612 32.6609 23.0651L32.6604 23.0659L32.6604 23.0659C31.5082 24.8683 30.3171 26.7316 28.8415 27.5046C28.7101 27.5735 28.5865 27.6374 28.4702 27.6975L28.4701 27.6975L28.3937 27.737C26.3546 28.7898 25.8395 29.302 25.461 31.9222L25.4303 32.1326L25.4302 32.1327C25.2207 33.5513 24.904 35.6953 26.2059 37.0148C26.7004 37.5161 27.6164 38.07 29.1682 37.8622C29.6025 37.8041 29.9583 37.6506 30.2439 37.5025C30.3472 37.735 30.5 37.9919 30.7403 38.2319C31.4375 38.9278 32.3654 39.2931 33.3565 39.2609C34.4948 39.2236 35.6078 38.678 36.4106 37.7642C37.3873 36.6522 38.2391 34.6584 37.9766 32.9998C37.8433 32.1573 37.557 31.6393 37.3675 31.2967L37.3177 31.2061C37.3244 31.1834 37.3336 31.1554 37.3456 31.1218C37.8081 29.8337 39.0844 28.2617 39.6122 28.1414C39.96 28.3432 40.3826 29.4734 40.6139 30.0923L40.6152 30.0956L40.6162 30.0984C40.8571 30.743 41.1061 31.4092 41.4524 31.9653C41.4678 31.9903 41.5058 32.064 41.5335 32.1178C41.6561 32.3567 41.895 32.8212 42.3174 33.1789C42.0263 33.3112 41.7234 33.4668 41.4369 33.6722C40.0811 34.6436 39.0147 35.9828 38.5117 37.3464C38.3234 37.8565 38.2406 38.339 38.1675 38.7647L38.1673 38.7656C38.0955 39.1853 38.0333 39.5478 37.8866 39.8258C37.5655 40.4345 37.1316 40.8711 36.5209 41.1997C36.2766 41.3313 35.9981 41.4467 35.6937 41.5428C34.8689 41.8031 34.4114 42.6828 34.6717 43.5077C34.932 44.3324 35.812 44.7896 36.6366 44.5297C37.128 44.3747 37.5886 44.1822 38.0055 43.9578C39.1573 43.3381 40.0495 42.4392 40.6572 41.2867C41.0361 40.5682 41.1572 39.8625 41.2545 39.2954L41.2545 39.2952C41.312 38.9602 41.3619 38.6708 41.4503 38.4308C41.7335 37.6636 42.4274 36.8158 43.2613 36.2183C43.404 36.1159 43.6805 35.9987 43.9489 35.8849L43.9536 35.8829C44.8185 35.5169 46.428 34.8351 46.4746 32.9426C46.4908 32.292 45.6944 30.3598 45.016 29.8567C44.6532 29.5876 44.1988 29.4839 43.7652 29.565C43.6958 29.3896 43.6265 29.2042 43.5578 29.0207L43.5499 28.9993L43.5497 28.999C43.0319 27.6131 42.3875 25.8883 40.7634 25.2249C39.9778 24.904 39.1188 24.9318 38.2795 25.3056C36.168 26.2463 34.7342 29.1281 34.3983 30.0632C33.9292 31.3698 34.2705 32.1673 34.627 32.8123L34.6271 32.8125C34.7575 33.0483 34.8363 33.1907 34.8836 33.4892C34.9708 34.0415 34.5697 35.1145 34.0581 35.697C33.8345 35.9515 33.5189 36.1215 33.2545 36.1303C33.1745 36.1325 33.1158 36.1197 33.068 36.0978C32.9545 35.7083 32.6886 34.8404 31.6968 34.3723C30.4712 33.7939 29.46 34.3572 28.974 34.6279C28.8892 34.6753 28.7756 34.7384 28.7193 34.7617C28.5782 34.7786 28.4845 34.777 28.4276 34.7717C28.2731 34.3265 28.4642 33.0323 28.5297 32.59L28.5618 32.3697C28.6017 32.0939 28.7229 31.2547 28.8243 31.0964C28.9145 30.9934 29.3965 30.7444 29.8242 30.5234L29.8315 30.5196L29.8401 30.5152C29.9808 30.4426 30.1324 30.3643 30.2956 30.2787C32.5089 29.1195 33.9922 26.7989 35.3008 24.7515C35.7236 24.0898 36.123 23.4649 36.5158 22.9276L40.0373 18.1085C40.0997 18.0233 40.1564 17.944 40.2084 17.8701L40.2388 17.878L40.2819 17.8894C40.5642 17.964 40.8879 18.0362 41.2306 18.1127L41.2411 18.1151C41.9952 18.2832 44.2899 18.7952 44.5969 19.3476C44.7063 19.5893 44.6817 20.4588 44.6671 20.9784C44.6275 22.3796 44.5788 24.1234 45.6991 25.3012C46.3302 25.9645 47.1961 26.3126 48.2729 26.3359C48.2968 26.3365 48.3204 26.3367 48.3441 26.3367C51.1686 26.3362 52.6318 22.6726 53.6026 20.2413C53.7901 19.7715 53.9671 19.3279 54.0988 19.0576C54.5224 18.1873 54.9432 17.3151 55.3638 16.443L55.3814 16.4066L55.382 16.4052C56.2009 14.7079 57.0472 12.9538 57.9023 11.2464C58.562 9.92847 58.8024 9.66159 59.3323 9.65878H59.3376C59.799 9.65878 60.1862 9.97472 60.3249 10.4647C60.4577 10.9339 60.3776 11.6142 60.2928 12.3346L60.2927 12.335C60.1754 13.3308 60.0426 14.4594 60.4129 15.568C60.8056 16.7432 61.7537 17.8162 62.5904 18.7627L62.5905 18.7628C62.9093 19.1235 63.2104 19.4641 63.4226 19.7474C63.6217 20.0126 63.826 20.2751 64.0307 20.5374C64.8906 21.6396 65.7026 22.6807 65.9851 23.8626C66.0131 23.9802 66.0229 24.0951 66.0351 24.2406C66.0767 24.7376 66.1464 25.5696 67.044 26.3724C67.3525 26.6484 67.6859 26.7893 67.9759 26.8645C67.8476 27.4359 67.7446 28.3545 68.4428 29.2459C69.4042 30.4739 71.3758 30.6412 72.9598 30.7756C73.2928 30.8037 73.6092 30.8307 73.8184 30.8617C73.7797 30.9623 73.7108 31.084 73.609 31.1839C73.5312 31.2554 73.2661 31.4198 73.1075 31.5181C72.8978 31.6481 72.6811 31.7826 72.4826 31.9311C71.5072 32.6615 70.5684 33.4462 69.6604 34.2053C69.2195 34.5739 68.7634 34.9551 68.3157 35.3194C67.9912 35.5833 67.7859 35.9659 67.7454 36.382C67.7047 36.7981 67.8321 37.2131 68.0992 37.5348C68.4745 37.9867 68.9073 38.4312 69.3659 38.9019L69.366 38.902C70.1593 39.7165 71.0584 40.6397 71.3754 41.3788C71.4726 41.6053 71.1079 42.4053 70.8901 42.8831L70.889 42.8856L70.8888 42.886C70.6803 43.3434 70.4648 43.8162 70.3095 44.3291C69.7706 46.11 69.9042 47.8122 70.6962 49.2513C71.5231 50.7538 73.0473 51.878 74.988 52.4166C75.1405 52.4591 75.2975 52.4929 75.4553 52.5222C74.9573 52.5724 74.4227 52.5948 73.8972 52.6167L73.8966 52.6168L73.893 52.6169H73.8928C73.3369 52.6402 72.7621 52.6643 72.2231 52.7221C71.6804 52.7802 71.1231 52.8696 70.5842 52.9561L70.5772 52.9573L70.5771 52.9573C69.5773 53.1177 68.5439 53.2835 67.6889 53.2301C66.9877 53.1866 66.0345 52.7925 65.1129 52.4113L65.1121 52.411C63.4729 51.733 61.6149 50.9646 59.8109 51.533C59.015 51.7839 58.4158 52.1099 57.9342 52.3718L57.9332 52.3724L57.9325 52.3728C57.0239 52.8674 56.9069 52.9312 55.9324 52.3386C55.2199 51.9054 54.1412 51.3755 53.0024 51.773C51.7494 52.2107 51.3083 53.4107 50.8818 54.5712C50.8343 54.7007 50.7852 54.8343 50.7335 54.9712C50.6368 55.2273 50.5085 55.5201 50.3725 55.8304L50.3663 55.8444L50.3662 55.8447C49.7277 57.3002 48.8534 59.2935 49.7079 61.1751C49.8568 61.5032 50.0194 61.7716 50.1561 61.9915C49.7088 62.3129 48.871 62.4745 48.0591 62.6309C47.4625 62.7459 46.8458 62.8648 46.2714 63.0648C45.8336 63.2171 44.5014 63.6812 44.1407 64.9618C43.7866 66.2187 44.6058 67.218 45.2041 67.9479L45.2043 67.9481C45.4353 68.23 45.6971 68.5495 45.7914 68.7586C45.9308 69.0918 45.6841 69.989 45.3977 70.2953C44.8767 69.9335 44.2828 68.9376 43.8039 68.1345L43.8024 68.132C43.5275 67.6709 43.2678 67.2356 42.9914 66.8465C42.8468 66.6431 42.6782 66.4411 42.5152 66.246L42.515 66.2457L42.5149 66.2456C42.3383 66.0342 42.0445 65.6824 41.9794 65.5376C41.9622 65.4396 41.9786 65.1771 41.9897 64.9996V64.9996L41.9899 64.9963C42.0138 64.6179 42.0435 64.1468 41.9469 63.6556C41.5483 61.6246 36.7583 56.5712 33.8095 56.1094C32.6159 55.9222 31.5795 56.4004 31.035 57.3869C30.5917 58.1899 30.7233 59.2099 31.6125 61.7412C31.5739 61.7045 31.5409 61.6735 31.5115 61.6471C31.1518 61.3202 30.9008 60.774 30.6353 60.1959L30.6351 60.1954C30.2876 59.4391 29.8937 58.5817 29.1101 58.0212C28.1443 57.3299 26.9296 57.3046 25.5007 57.9466C25.3395 58.019 25.1884 58.0891 25.0454 58.1557L25.0444 58.1562C24.1312 58.5804 23.9664 58.657 23.2651 58.4641C21.1863 57.8916 19.7101 57.6952 18.1899 60.0874C17.8859 60.5657 17.8757 60.5696 17.346 60.7701C17.0557 60.8799 16.6582 61.0304 16.1626 61.2801C15.0212 61.8549 14.2277 62.7079 13.5279 63.4604L13.3769 63.6223C13.0827 63.9376 12.7971 64.286 12.4947 64.6549C11.7438 65.5718 10.7172 66.8246 9.93489 66.8246C9.92911 66.8246 9.92318 66.8246 9.91755 66.8245C9.52021 66.8148 9.13458 66.7543 8.72661 66.6901L8.72639 66.6901L8.72635 66.6901C8.10719 66.5929 7.40555 66.4828 6.57238 66.5364C6.28941 66.5548 6.13394 66.5459 6.05894 66.5373C6.00368 66.472 5.92232 66.3641 5.85281 66.2719L5.8527 66.2718L5.8491 66.267L5.84804 66.2656C5.66666 66.025 5.44128 65.7261 5.11566 65.3745C4.65753 64.8795 4.16065 64.5209 3.76128 64.2331C3.5505 64.081 3.24112 63.8577 3.13627 63.7359C3.1419 63.6876 3.16065 63.5884 3.22284 63.4246C3.73136 62.0887 4.51744 60.7039 5.27765 59.3648L5.278 59.3641L5.28837 59.3459C5.57499 58.8409 5.87087 58.3197 6.14722 57.8083C6.58801 56.9933 6.89691 56.776 7.04191 56.719C7.27551 56.6274 7.71895 56.7162 8.29004 56.9704C9.40599 57.4665 10.5372 58.0123 11.6312 58.5402C12.1958 58.8127 12.7608 59.0852 13.3269 59.353C13.7048 59.5316 14.1379 59.5521 14.5305 59.4096C14.9234 59.2673 15.2429 58.9738 15.418 58.5948C15.5843 58.2355 15.7984 57.8413 16.025 57.4239L16.0251 57.4239L16.0265 57.4213L16.0283 57.418C16.5441 56.468 17.1285 55.3917 17.3748 54.2776C17.4891 53.7594 17.4618 53.3002 17.4398 52.9311L17.4397 52.9295C17.4253 52.6885 17.413 52.4806 17.4482 52.3627C17.6208 51.7845 18.2232 51.3191 18.9207 50.7801L18.921 50.7799L19.1479 50.6039C20.3107 49.6964 22.0798 48.3628 24.0071 47.2647C24.7585 46.8366 25.0206 45.88 24.5925 45.1286C24.1643 44.377 23.2082 44.115 22.4562 44.5431C20.3523 45.7421 18.4606 47.1669 17.2207 48.1344L17.0057 48.301L17.0056 48.3011C16.0709 49.0232 14.9077 49.922 14.4465 51.4663C14.2531 52.1144 14.2875 52.6934 14.3126 53.1164L14.3127 53.1177C14.3244 53.3107 14.3362 53.5101 14.316 53.6015C14.1685 54.2697 13.7326 55.0808 13.3043 55.8697L12.9921 55.7191L12.9834 55.7149L12.983 55.7147C11.87 55.1778 10.7197 54.6229 9.56255 54.1082C6.86332 52.9076 4.84441 53.6307 3.39159 56.3187C3.12721 56.8074 2.84877 57.298 2.55393 57.8176C1.73533 59.2593 0.888923 60.7502 0.29517 62.3104C-0.685313 64.8874 1.01498 66.114 1.92868 66.7731L1.92908 66.7734L1.92915 66.7734C2.25928 67.0115 2.57145 67.2367 2.81705 67.5021C3.03581 67.7382 3.1944 67.9487 3.34768 68.1521C4.05253 69.0876 4.75238 69.792 6.7741 69.6621C7.25884 69.6303 7.71006 69.7012 8.23144 69.7831L8.24036 69.7845L8.24127 69.7846C8.7087 69.858 9.23841 69.9412 9.84161 69.9559C12.1559 70.0115 13.7513 68.0641 14.9168 66.6414L14.9177 66.6403C15.1866 66.3117 15.4409 66.0015 15.6659 65.7606L15.8212 65.5937L15.8235 65.5912C16.4185 64.9516 16.9325 64.399 17.5715 64.0774C17.9196 63.902 18.1906 63.7994 18.4526 63.7003L18.4527 63.7002L18.4543 63.6996C19.3698 63.3532 20.0298 63.0317 20.8334 61.7673C21.0549 61.4187 21.1843 61.2738 21.2423 61.2182C21.4909 61.2247 22.1375 61.4027 22.4295 61.483L22.4296 61.483L22.4331 61.484C24.2432 61.9824 25.2738 61.5035 26.3651 60.9963L26.3654 60.9962C26.497 60.9349 26.6356 60.8705 26.784 60.8038C27.0692 60.6757 27.2434 60.6338 27.3315 60.6206C27.4629 60.7945 27.6544 61.211 27.7873 61.5001L27.7887 61.5031C28.1376 62.2629 28.5722 63.2085 29.405 63.9653C29.476 64.0297 29.6834 64.2344 29.9087 64.4567L29.9091 64.4571L29.9404 64.4881C30.5353 65.0754 31.4342 65.9629 32.2569 66.6999C33.5262 67.8368 34.4366 68.5565 35.5014 68.2153C35.9153 68.0826 36.2609 67.7809 36.4495 67.3876C36.8094 66.6374 36.6469 66.2131 35.5891 63.4521C35.2156 62.4781 34.562 60.7716 34.1931 59.5837C34.7164 59.8918 35.4514 60.4224 36.3839 61.3012C37.8598 62.6918 38.7305 63.9251 38.8773 64.2888C38.8886 64.4006 38.8742 64.6285 38.8634 64.7993L38.8634 64.7999C38.8325 65.2912 38.794 65.9024 39.0106 66.5392C39.2383 67.209 39.7016 67.7637 40.1103 68.2531C40.2406 68.409 40.3636 68.5564 40.4375 68.6603C40.641 68.9467 40.8693 69.3295 41.111 69.7349L41.1114 69.7356C41.7939 70.8803 42.5675 72.1775 43.6885 72.9206C44.2431 73.2883 44.8424 73.4708 45.4321 73.4708C46.1157 73.4706 46.7861 73.2253 47.3586 72.7395C48.7691 71.5407 49.3711 69.0795 48.6468 67.4726C48.3816 66.8848 47.9802 66.395 47.6258 65.9628L47.601 65.9323C47.9102 65.8498 48.273 65.7798 48.6516 65.7068L48.6525 65.7066C49.8424 65.4772 51.1911 65.2171 52.2393 64.3367C54.2537 62.6447 53.2706 61.0677 52.8507 60.3942L52.8507 60.3941L52.8502 60.3933C52.7404 60.2172 52.6367 60.0509 52.5593 59.8801C52.2831 59.2715 52.8104 58.0692 53.2341 57.1032L53.2343 57.1029C53.3827 56.7644 53.536 56.4146 53.6633 56.0777C53.7183 55.9322 53.7707 55.7902 53.8212 55.6524C53.908 55.416 54.0144 55.1271 54.1099 54.9037C54.1665 54.9338 54.2312 54.9707 54.3047 55.0155C56.8196 56.5446 58.2668 55.7572 59.4296 55.1245L59.4302 55.1241L59.4312 55.1236C59.8497 54.8958 60.2453 54.6806 60.7521 54.5208C61.4696 54.2945 62.7659 54.8307 63.9107 55.3042L63.9146 55.3058L63.9156 55.3063L63.9157 55.3063C65.0744 55.7855 66.2725 56.281 67.4946 56.3569C68.6992 56.4315 69.9097 56.2372 71.0804 56.0493L71.0868 56.0483L71.0872 56.0482C71.6067 55.9648 72.0976 55.8861 72.5565 55.8369C72.9944 55.7901 73.4944 55.7691 74.0236 55.7471C75.2194 55.6971 76.5745 55.6404 77.7548 55.2429C78.838 54.8779 79.617 54.1505 79.8923 53.2472C80.1369 52.4446 79.9613 51.5972 79.3973 50.8616ZM31.2392 43.5386C31.1737 42.6764 30.417 42.03 29.5523 42.0963L29.5295 42.098C28.6668 42.1635 28.0275 42.9153 28.0931 43.7778C28.1554 44.5999 28.8478 45.2249 29.6595 45.2249C29.6994 45.2249 29.7395 45.2235 29.78 45.2202L29.8028 45.2185C30.6653 45.153 31.3048 44.4011 31.2392 43.5386ZM22.1343 37.5706C22.3846 38.3445 22.6434 39.1448 22.7892 39.9539C23.1418 41.9092 22.8228 43.4839 21.8407 44.6341C20.3479 46.3817 17.7709 46.6266 15.3921 46.6266C14.9115 46.6266 14.4393 46.6167 13.9854 46.607L13.9828 46.607C13.5664 46.5983 13.1731 46.59 12.8074 46.59C11.5016 46.59 10.869 45.89 10.6079 45.4728C9.73537 44.0781 10.5004 42.2383 11.3591 40.4733L11.3663 40.4585C11.437 40.313 11.5087 40.1655 11.5369 40.0987C11.7672 39.5539 12.0196 39.0089 12.264 38.4816L12.2651 38.4791C12.7492 37.434 13.2064 36.4472 13.5048 35.4633C13.6669 34.9286 13.5462 34.272 13.4062 33.5117L13.4062 33.5116C13.2293 32.5507 13.0288 31.4617 13.3666 30.2992C13.6807 29.2181 14.581 28.427 15.9021 28.0717C17.4902 27.6443 19.8626 27.8445 21.131 29.0567C22.5994 30.4594 22.0708 32.3953 21.7209 33.6764L21.7209 33.6765L21.7197 33.6807C21.6118 34.0761 21.4779 34.5665 21.4824 34.7878C21.4988 35.6044 21.8074 36.5594 22.1343 37.5706ZM14.0516 43.475C15.9832 43.5159 18.6285 43.5717 19.4587 42.5995C19.8009 42.1989 19.8842 41.4956 19.7067 40.5095C19.5986 39.9096 19.3837 39.2447 19.1562 38.5408L19.154 38.5339L19.1534 38.5321C18.7713 37.3498 18.3762 36.1276 18.3509 34.85C18.3374 34.1762 18.5213 33.5026 18.6995 32.8511L18.6995 32.851C18.8226 32.4 19.0502 31.5664 18.9635 31.3178C18.5084 30.9289 16.7976 30.8851 16.3576 31.2384C16.2546 31.6821 16.3624 32.2695 16.4866 32.9445L16.4867 32.9447C16.6642 33.9092 16.8851 35.1094 16.5023 36.3719C16.1401 37.5659 15.6145 38.7008 15.1062 39.798C14.8621 40.3245 14.6318 40.8219 14.4226 41.3173C14.361 41.4628 14.2794 41.6306 14.1762 41.8431C13.8412 42.5311 13.6083 43.0728 13.4787 43.4638C13.6655 43.467 13.8562 43.4709 14.0516 43.475Z" fill="black"/>
</g>
<defs>
<clipPath id="clip0">
<rect width="80" height="80" fill="white"/>
</clipPath>
</defs>
</svg>
