<svg width="532" height="105" viewBox="0 0 532 105" fill="none" xmlns="http://www.w3.org/2000/svg">
<rect x="0.5" y="0.5" width="531" height="104" rx="2.5" fill="white" stroke="#DDDEE0"/>
<rect x="17" y="64" width="214" height="8" rx="4" fill="#EBEBEB"/>
<rect x="16" y="64" width="66" height="8" rx="4" fill="#FFAA25"/>
<rect x="291" y="64" width="214" height="8" rx="4" fill="#EBEBEB"/>
<rect x="290" y="64" width="8" height="8" rx="4" fill="#FA0067"/>
<path d="M21.812 32.156C23.36 32.156 24.728 31.364 25.424 30.14L24.224 29.456C23.792 30.284 22.868 30.812 21.812 30.812C20 30.812 18.8 29.528 18.8 27.8C18.8 26.072 20 24.788 21.812 24.788C22.868 24.788 23.78 25.316 24.224 26.144L25.424 25.448C24.716 24.224 23.348 23.444 21.812 23.444C19.256 23.444 17.42 25.364 17.42 27.8C17.42 30.236 19.256 32.156 21.812 32.156ZM31.9839 32H33.4719L30.4359 23.6H28.7799L25.7319 32H27.2319L27.8199 30.308H31.3959L31.9839 32ZM28.2759 29.012L29.6079 25.22L30.9399 29.012H28.2759ZM36.9602 32.156C38.7122 32.156 39.9362 31.22 39.9362 29.684C39.9362 28.016 38.5322 27.584 37.1402 27.14C35.9162 26.756 35.4482 26.48 35.4482 25.832C35.4482 25.196 35.9642 24.788 36.7682 24.788C37.7042 24.788 38.2322 25.292 38.5322 25.964L39.6962 25.292C39.1682 24.176 38.1482 23.444 36.7682 23.444C35.3522 23.444 34.0682 24.32 34.0682 25.868C34.0682 27.452 35.3402 27.932 36.6482 28.328C37.8962 28.712 38.5562 28.964 38.5562 29.708C38.5562 30.32 38.0882 30.812 36.9962 30.812C35.8562 30.812 35.2082 30.248 34.9082 29.396L33.7202 30.092C34.1642 31.34 35.3042 32.156 36.9602 32.156ZM45.0026 32.156C47.4386 32.156 49.3586 30.236 49.3586 27.8C49.3586 25.364 47.4386 23.444 45.0026 23.444C42.5786 23.444 40.6466 25.364 40.6466 27.8C40.6466 30.236 42.5786 32.156 45.0026 32.156ZM45.0026 30.812C43.3226 30.812 42.0266 29.528 42.0266 27.8C42.0266 26.072 43.3226 24.788 45.0026 24.788C46.6826 24.788 47.9786 26.072 47.9786 27.8C47.9786 29.528 46.6826 30.812 45.0026 30.812ZM53.0969 32.156C54.8489 32.156 56.0729 31.22 56.0729 29.684C56.0729 28.016 54.6689 27.584 53.2769 27.14C52.0529 26.756 51.5849 26.48 51.5849 25.832C51.5849 25.196 52.1009 24.788 52.9049 24.788C53.8409 24.788 54.3689 25.292 54.6689 25.964L55.8329 25.292C55.3049 24.176 54.2849 23.444 52.9049 23.444C51.4889 23.444 50.2049 24.32 50.2049 25.868C50.2049 27.452 51.4769 27.932 52.7849 28.328C54.0329 28.712 54.6929 28.964 54.6929 29.708C54.6929 30.32 54.2249 30.812 53.1329 30.812C51.9929 30.812 51.3449 30.248 51.0449 29.396L49.8569 30.092C50.3009 31.34 51.4409 32.156 53.0969 32.156ZM64.2456 32.156C65.7936 32.156 67.1616 31.364 67.8576 30.14L66.6576 29.456C66.2256 30.284 65.3016 30.812 64.2456 30.812C62.4336 30.812 61.2336 29.528 61.2336 27.8C61.2336 26.072 62.4336 24.788 64.2456 24.788C65.3016 24.788 66.2136 25.316 66.6576 26.144L67.8576 25.448C67.1496 24.224 65.7816 23.444 64.2456 23.444C61.6896 23.444 59.8536 25.364 59.8536 27.8C59.8536 30.236 61.6896 32.156 64.2456 32.156ZM72.8815 32.156C75.3175 32.156 77.2375 30.236 77.2375 27.8C77.2375 25.364 75.3175 23.444 72.8815 23.444C70.4575 23.444 68.5255 25.364 68.5255 27.8C68.5255 30.236 70.4575 32.156 72.8815 32.156ZM72.8815 30.812C71.2015 30.812 69.9055 29.528 69.9055 27.8C69.9055 26.072 71.2015 24.788 72.8815 24.788C74.5615 24.788 75.8575 26.072 75.8575 27.8C75.8575 29.528 74.5615 30.812 72.8815 30.812ZM83.5363 23.6V29.3L79.5763 23.6H78.4963V32H79.8763V26.3L83.8363 32H84.9163V23.6H83.5363ZM91.5139 24.92V23.6H86.5939V32H87.9739V28.592H91.3939V27.272H87.9739V24.92H91.5139ZM92.8048 23.6V32H94.1848V23.6H92.8048ZM100.651 32H102.163L100.255 28.736C101.239 28.34 101.923 27.38 101.923 26.3C101.923 24.8 100.723 23.6 99.2234 23.6H95.8634V32H97.2434V28.94H98.8754L100.651 32ZM97.2434 24.896H99.2234C99.9554 24.896 100.543 25.508 100.543 26.3C100.543 27.08 99.9554 27.704 99.2234 27.704H97.2434V24.896ZM111.263 23.6H109.787L107.243 27.8L104.711 23.6H103.223V32H104.603V26L107.159 30.236H107.327L109.883 26.012V32H111.263V23.6ZM118.41 32H119.898L116.862 23.6H115.206L112.158 32H113.658L114.246 30.308H117.822L118.41 32ZM114.702 29.012L116.034 25.22L117.366 29.012H114.702ZM124.101 23.6H120.801V32H124.101C126.417 32 128.121 30.14 128.121 27.8C128.121 25.448 126.417 23.6 124.101 23.6ZM124.101 30.68H122.181V24.92H124.101C125.697 24.92 126.789 26.132 126.789 27.8C126.789 29.456 125.697 30.68 124.101 30.68ZM133.315 32.156C135.751 32.156 137.671 30.236 137.671 27.8C137.671 25.364 135.751 23.444 133.315 23.444C130.891 23.444 128.959 25.364 128.959 27.8C128.959 30.236 130.891 32.156 133.315 32.156ZM133.315 30.812C131.635 30.812 130.339 29.528 130.339 27.8C130.339 26.072 131.635 24.788 133.315 24.788C134.995 24.788 136.291 26.072 136.291 27.8C136.291 29.528 134.995 30.812 133.315 30.812ZM141.409 32.156C143.161 32.156 144.385 31.22 144.385 29.684C144.385 28.016 142.981 27.584 141.589 27.14C140.365 26.756 139.897 26.48 139.897 25.832C139.897 25.196 140.413 24.788 141.217 24.788C142.153 24.788 142.681 25.292 142.981 25.964L144.145 25.292C143.617 24.176 142.597 23.444 141.217 23.444C139.801 23.444 138.517 24.32 138.517 25.868C138.517 27.452 139.789 27.932 141.097 28.328C142.345 28.712 143.005 28.964 143.005 29.708C143.005 30.32 142.537 30.812 141.445 30.812C140.305 30.812 139.657 30.248 139.357 29.396L138.169 30.092C138.613 31.34 139.753 32.156 141.409 32.156ZM149.966 30.68V28.412H153.326V27.104H149.966V24.92H153.626V23.6H148.586V32H153.686V30.68H149.966ZM157.745 32.156C159.497 32.156 160.721 31.22 160.721 29.684C160.721 28.016 159.317 27.584 157.925 27.14C156.701 26.756 156.233 26.48 156.233 25.832C156.233 25.196 156.749 24.788 157.553 24.788C158.489 24.788 159.017 25.292 159.317 25.964L160.481 25.292C159.953 24.176 158.933 23.444 157.553 23.444C156.137 23.444 154.853 24.32 154.853 25.868C154.853 27.452 156.125 27.932 157.433 28.328C158.681 28.712 159.341 28.964 159.341 29.708C159.341 30.32 158.873 30.812 157.781 30.812C156.641 30.812 155.993 30.248 155.693 29.396L154.505 30.092C154.949 31.34 156.089 32.156 157.745 32.156ZM164.948 23.6H161.852V32H163.232V29.12H164.948C166.532 29.12 167.732 27.908 167.732 26.36C167.732 24.8 166.532 23.6 164.948 23.6ZM164.948 27.824H163.232V24.896H164.948C165.764 24.896 166.352 25.508 166.352 26.36C166.352 27.2 165.764 27.824 164.948 27.824ZM173.558 32H175.046L172.01 23.6H170.354L167.306 32H168.806L169.394 30.308H172.97L173.558 32ZM169.85 29.012L171.182 25.22L172.514 29.012H169.85ZM177.185 22.796H178.253C178.253 22.088 178.481 22.148 179.009 22.52C179.969 23.168 181.025 22.964 181.025 21.2H179.957C179.957 21.908 179.729 21.848 179.213 21.476C178.253 20.828 177.185 21.032 177.185 22.796ZM180.989 23.6V29.3L177.029 23.6H175.949V32H177.329V26.3L181.289 32H182.369V23.6H180.989ZM189.519 32H191.007L187.971 23.6H186.315L183.267 32H184.767L185.355 30.308H188.931L189.519 32ZM185.811 29.012L187.143 25.22L188.475 29.012H185.811Z" fill="#101010"/>
<path d="M295.76 24.92V23.6H290.84V32H292.22V28.592H295.64V27.272H292.22V24.92H295.76ZM302.16 32H303.648L300.612 23.6H298.956L295.908 32H297.408L297.996 30.308H301.572L302.16 32ZM298.452 29.012L299.784 25.22L301.116 29.012H298.452ZM305.931 30.68V23.6H304.551V32H309.351V30.68H305.931ZM311.755 30.68V23.6H310.375V32H315.175V30.68H311.755ZM317.579 30.68V28.412H320.939V27.104H317.579V24.92H321.239V23.6H316.199V32H321.299V30.68H317.579ZM326.464 32.156C328.012 32.156 329.38 31.364 330.076 30.14L328.876 29.456C328.444 30.284 327.52 30.812 326.464 30.812C324.652 30.812 323.452 29.528 323.452 27.8C323.452 26.072 324.652 24.788 326.464 24.788C327.52 24.788 328.432 25.316 328.876 26.144L330.076 25.448C329.368 24.224 328 23.444 326.464 23.444C323.908 23.444 322.072 25.364 322.072 27.8C322.072 30.236 323.908 32.156 326.464 32.156ZM331.223 23.6V32H332.603V23.6H331.223ZM342.321 23.6H340.845L338.301 27.8L335.769 23.6H334.281V32H335.661V26L338.217 30.236H338.385L340.941 26.012V32H342.321V23.6ZM343.996 23.6V32H345.376V23.6H343.996ZM348.435 30.68V28.412H351.795V27.104H348.435V24.92H352.095V23.6H347.055V32H352.155V30.68H348.435ZM358.458 23.6V29.3L354.498 23.6H353.418V32H354.798V26.3L358.758 32H359.838V23.6H358.458ZM366.976 23.6H360.856V24.92H363.232V32H364.612V24.92H366.976V23.6ZM371.452 32.156C373.888 32.156 375.808 30.236 375.808 27.8C375.808 25.364 373.888 23.444 371.452 23.444C369.028 23.444 367.096 25.364 367.096 27.8C367.096 30.236 369.028 32.156 371.452 32.156ZM371.452 30.812C369.772 30.812 368.476 29.528 368.476 27.8C368.476 26.072 369.772 24.788 371.452 24.788C373.132 24.788 374.428 26.072 374.428 27.8C374.428 29.528 373.132 30.812 371.452 30.812ZM379.546 32.156C381.298 32.156 382.522 31.22 382.522 29.684C382.522 28.016 381.118 27.584 379.726 27.14C378.502 26.756 378.034 26.48 378.034 25.832C378.034 25.196 378.55 24.788 379.354 24.788C380.29 24.788 380.818 25.292 381.118 25.964L382.282 25.292C381.754 24.176 380.734 23.444 379.354 23.444C377.938 23.444 376.654 24.32 376.654 25.868C376.654 27.452 377.926 27.932 379.234 28.328C380.482 28.712 381.142 28.964 381.142 29.708C381.142 30.32 380.674 30.812 379.582 30.812C378.442 30.812 377.794 30.248 377.494 29.396L376.306 30.092C376.75 31.34 377.89 32.156 379.546 32.156ZM388.103 30.68V28.412H391.463V27.104H388.103V24.92H391.763V23.6H386.723V32H391.823V30.68H388.103ZM395.882 32.156C397.634 32.156 398.858 31.22 398.858 29.684C398.858 28.016 397.454 27.584 396.062 27.14C394.838 26.756 394.37 26.48 394.37 25.832C394.37 25.196 394.886 24.788 395.69 24.788C396.626 24.788 397.154 25.292 397.454 25.964L398.618 25.292C398.09 24.176 397.07 23.444 395.69 23.444C394.274 23.444 392.99 24.32 392.99 25.868C392.99 27.452 394.262 27.932 395.57 28.328C396.818 28.712 397.478 28.964 397.478 29.708C397.478 30.32 397.01 30.812 395.918 30.812C394.778 30.812 394.13 30.248 393.83 29.396L392.642 30.092C393.086 31.34 394.226 32.156 395.882 32.156ZM403.084 23.6H399.988V32H401.368V29.12H403.084C404.668 29.12 405.868 27.908 405.868 26.36C405.868 24.8 404.668 23.6 403.084 23.6ZM403.084 27.824H401.368V24.896H403.084C403.9 24.896 404.488 25.508 404.488 26.36C404.488 27.2 403.9 27.824 403.084 27.824ZM411.695 32H413.183L410.147 23.6H408.491L405.443 32H406.943L407.531 30.308H411.107L411.695 32ZM407.987 29.012L409.319 25.22L410.651 29.012H407.987ZM415.322 22.796H416.39C416.39 22.088 416.618 22.148 417.146 22.52C418.106 23.168 419.162 22.964 419.162 21.2H418.094C418.094 21.908 417.866 21.848 417.35 21.476C416.39 20.828 415.322 21.032 415.322 22.796ZM419.126 23.6V29.3L415.166 23.6H414.086V32H415.466V26.3L419.426 32H420.506V23.6H419.126ZM427.656 32H429.144L426.108 23.6H424.452L421.404 32H422.904L423.492 30.308H427.068L427.656 32ZM423.948 29.012L425.28 25.22L426.612 29.012H423.948Z" fill="#101010"/>
<path d="M21.632 35.2L17.24 36.784L18.176 40.072L21.152 39.256V52H24.992V35.2H21.632ZM39.6397 40.792C39.6397 37.312 37.1197 34.864 33.3997 34.864C29.7037 34.864 27.1597 37.312 27.1597 40.792C27.1597 44.056 29.4157 46.432 32.7517 46.696L29.1037 52H33.5197L38.6557 44.2C39.2797 43.264 39.6397 42.088 39.6397 40.792ZM30.9997 40.792C30.9997 39.328 32.1277 38.464 33.3997 38.464C34.6957 38.464 35.7997 39.304 35.7997 40.792C35.7997 42.28 34.6957 43.12 33.3997 43.12C32.1277 43.12 30.9997 42.256 30.9997 40.792ZM50.9814 43.24C51.9654 42.472 52.5894 41.368 52.5894 39.856C52.5894 36.592 50.0934 34.864 46.9974 34.864C43.9014 34.864 41.4054 36.592 41.4054 39.856C41.4054 41.368 42.0294 42.472 43.0134 43.24C41.5974 44.152 40.8294 45.616 40.8294 47.272C40.8294 50.344 43.0374 52.336 46.9974 52.336C50.9574 52.336 53.1654 50.344 53.1654 47.272C53.1654 45.616 52.3974 44.152 50.9814 43.24ZM46.9974 38.464C48.0774 38.464 48.7494 39.16 48.7494 40.096C48.7494 41.032 48.0774 41.728 46.9974 41.728C45.9174 41.728 45.2454 41.032 45.2454 40.096C45.2454 39.16 45.9174 38.464 46.9974 38.464ZM46.9974 48.736C45.6534 48.736 44.6694 47.992 44.6694 46.72C44.6694 45.448 45.6534 44.704 46.9974 44.704C48.3414 44.704 49.3254 45.448 49.3254 46.72C49.3254 47.992 48.3414 48.736 46.9974 48.736Z" fill="#A0A6AF"/>
<path d="M168.549 46.512L170.727 43.74V41.4H162.627V44.1H167.235L164.949 46.998L166.047 48.636H166.641C167.829 48.636 168.351 49.266 168.351 50.04C168.351 50.814 167.829 51.444 166.641 51.444C165.543 51.444 165.003 50.94 164.715 50.112L162.231 51.552C163.005 53.406 164.733 54.252 166.641 54.252C169.071 54.252 171.231 52.812 171.231 50.04C171.231 48.294 170.097 47.052 168.549 46.512ZM178.27 46.512L180.448 43.74V41.4H172.348V44.1H176.956L174.67 46.998L175.768 48.636H176.362C177.55 48.636 178.072 49.266 178.072 50.04C178.072 50.814 177.55 51.444 176.362 51.444C175.264 51.444 174.724 50.94 174.436 50.112L171.952 51.552C172.726 53.406 174.454 54.252 176.362 54.252C178.792 54.252 180.952 52.812 180.952 50.04C180.952 48.294 179.818 47.052 178.27 46.512ZM185.547 51.21H182.667L181.947 56.52H184.107L185.547 51.21ZM191.883 45.378L194.619 41.4H191.307L187.455 47.25C186.987 47.952 186.717 48.834 186.717 49.806C186.717 52.416 188.607 54.252 191.397 54.252C194.169 54.252 196.077 52.416 196.077 49.806C196.077 47.358 194.385 45.576 191.883 45.378ZM191.397 51.552C190.425 51.552 189.597 50.922 189.597 49.806C189.597 48.69 190.425 48.06 191.397 48.06C192.351 48.06 193.197 48.708 193.197 49.806C193.197 50.904 192.351 51.552 191.397 51.552ZM199.737 47.268C201.519 47.268 202.851 45.9 202.851 44.208C202.851 42.462 201.519 41.148 199.737 41.148C197.937 41.148 196.605 42.516 196.605 44.208C196.605 45.9 197.937 47.268 199.737 47.268ZM198.099 52.02L199.287 52.722L207.423 43.704L206.235 43.02L198.099 52.02ZM199.719 45.198C199.161 45.198 198.765 44.766 198.765 44.208C198.765 43.65 199.161 43.218 199.719 43.218C200.295 43.218 200.691 43.65 200.691 44.208C200.691 44.73 200.295 45.198 199.719 45.198ZM206.163 54.216C207.945 54.216 209.277 52.848 209.277 51.156C209.277 49.464 207.945 48.096 206.163 48.096C204.363 48.096 203.031 49.464 203.031 51.156C203.031 52.848 204.363 54.216 206.163 54.216ZM206.145 52.146C205.587 52.146 205.191 51.714 205.191 51.156C205.191 50.598 205.587 50.166 206.145 50.166C206.721 50.166 207.117 50.598 207.117 51.156C207.117 51.678 206.721 52.146 206.145 52.146Z" fill="#FFAA25"/>
<path d="M444.1 53.252C447.358 53.252 449.23 50.588 449.23 46.7C449.23 42.812 447.358 40.148 444.1 40.148C440.842 40.148 438.97 42.812 438.97 46.7C438.97 50.588 440.842 53.252 444.1 53.252ZM444.1 50.444C442.588 50.444 441.85 49.13 441.85 46.7C441.85 44.27 442.588 42.956 444.1 42.956C445.612 42.956 446.35 44.27 446.35 46.7C446.35 49.13 445.612 50.444 444.1 50.444ZM453.633 50.21H450.753L450.033 55.52H452.193L453.633 50.21ZM459.568 53.252C462.826 53.252 464.698 50.588 464.698 46.7C464.698 42.812 462.826 40.148 459.568 40.148C456.31 40.148 454.438 42.812 454.438 46.7C454.438 50.588 456.31 53.252 459.568 53.252ZM459.568 50.444C458.056 50.444 457.318 49.13 457.318 46.7C457.318 44.27 458.056 42.956 459.568 42.956C461.08 42.956 461.818 44.27 461.818 46.7C461.818 49.13 461.08 50.444 459.568 50.444ZM468.737 46.268C470.519 46.268 471.851 44.9 471.851 43.208C471.851 41.462 470.519 40.148 468.737 40.148C466.937 40.148 465.605 41.516 465.605 43.208C465.605 44.9 466.937 46.268 468.737 46.268ZM467.099 51.02L468.287 51.722L476.423 42.704L475.235 42.02L467.099 51.02ZM468.719 44.198C468.161 44.198 467.765 43.766 467.765 43.208C467.765 42.65 468.161 42.218 468.719 42.218C469.295 42.218 469.691 42.65 469.691 43.208C469.691 43.73 469.295 44.198 468.719 44.198ZM475.163 53.216C476.945 53.216 478.277 51.848 478.277 50.156C478.277 48.464 476.945 47.096 475.163 47.096C473.363 47.096 472.031 48.464 472.031 50.156C472.031 51.848 473.363 53.216 475.163 53.216ZM475.145 51.146C474.587 51.146 474.191 50.714 474.191 50.156C474.191 49.598 474.587 49.166 475.145 49.166C475.721 49.166 476.117 49.598 476.117 50.156C476.117 50.678 475.721 51.146 475.145 51.146Z" fill="#FA0067"/>
<path d="M294.632 37.2L290.24 38.784L291.176 42.072L294.152 41.256V54H297.992V37.2H294.632Z" fill="#A0A6AF"/>
<path d="M210 36H234V60H210V36Z" fill="white"/>
<path fill-rule="evenodd" clip-rule="evenodd" d="M222.875 39.7593C222.875 39.409 222.483 39.125 222 39.125C221.517 39.125 221.125 39.409 221.125 39.7593V55.9907C221.125 56.341 221.517 56.625 222 56.625C222.483 56.625 222.875 56.341 222.875 55.9907V39.7593Z" fill="#B7BDC2"/>
<path fill-rule="evenodd" clip-rule="evenodd" d="M230.125 41.266V42.2783C230.125 42.6925 230.461 43.0283 230.875 43.0283C231.289 43.0283 231.625 42.6925 231.625 42.2783V39.4404C231.625 39.0262 231.289 38.6904 230.875 38.6904H228.011C227.597 38.6904 227.261 39.0262 227.261 39.4404C227.261 39.8547 227.597 40.1904 228.011 40.1904H228.786L223.502 45.2895C223.079 45.0615 222.595 44.9317 222.081 44.9317C220.431 44.9317 219.089 46.2649 219.089 47.9034C219.089 49.542 220.431 50.875 222.081 50.875C223.73 50.875 225.072 49.542 225.072 47.9034C225.072 47.3924 224.941 46.9114 224.712 46.491L230.109 41.2825C230.114 41.2771 230.12 41.2715 230.125 41.266Z" fill="#1D9C44"/>
<path fill-rule="evenodd" clip-rule="evenodd" d="M222.078 46.6309C222.785 46.6309 223.359 47.2018 223.359 47.9034C223.359 48.6049 222.785 49.1758 222.078 49.1758C221.372 49.1758 220.798 48.6049 220.798 47.9034C220.798 47.2018 221.372 46.6309 222.078 46.6309Z" fill="white"/>
<path d="M481 35H505V59H481V35Z" fill="white"/>
<path fill-rule="evenodd" clip-rule="evenodd" d="M493.875 38.7593C493.875 38.409 493.483 38.125 493 38.125C492.517 38.125 492.125 38.409 492.125 38.7593V54.9907C492.125 55.341 492.517 55.625 493 55.625C493.483 55.625 493.875 55.341 493.875 54.9907V38.7593Z" fill="#B7BDC2"/>
<path fill-rule="evenodd" clip-rule="evenodd" d="M501.966 47.7589L501.237 48.5141C500.949 48.812 500.958 49.2868 501.256 49.5746C501.554 49.8623 502.028 49.854 502.316 49.556L504.288 47.5146C504.575 47.2167 504.567 46.7419 504.269 46.4541L502.209 44.4646C501.911 44.1769 501.436 44.1852 501.148 44.4831C500.861 44.7811 500.869 45.2559 501.167 45.5436L501.696 46.0542L495.93 46.0524C495.784 45.5945 495.526 45.1646 495.156 44.8075C493.97 43.6616 492.078 43.6884 490.94 44.8671C489.802 46.0458 489.841 47.9368 491.028 49.0827C492.214 50.2285 494.106 50.2018 495.244 49.0231C495.599 48.6556 495.839 48.2188 495.966 47.757L501.966 47.7589Z" fill="#53585F"/>
<path fill-rule="evenodd" clip-rule="evenodd" d="M493.078 45.6309C493.785 45.6309 494.359 46.2018 494.359 46.9034C494.359 47.6049 493.785 48.1758 493.078 48.1758C492.372 48.1758 491.798 47.6049 491.798 46.9034C491.798 46.2018 492.372 45.6309 493.078 45.6309Z" fill="white"/>
<line x1="258.5" y1="23" x2="258.5" y2="73" stroke="#EBEBEB"/>
</svg>
