<svg width="532" height="105" viewBox="0 0 532 105" fill="none" xmlns="http://www.w3.org/2000/svg">
<rect x="0.5" y="0.5" width="531" height="104" rx="2.5" fill="white" stroke="#DDDEE0"/>
<rect x="20" y="84" width="142" height="8" rx="4" fill="#EBEBEB"/>
<rect x="19" y="84" width="56" height="8" rx="4" fill="#FFAA25"/>
<rect x="196" y="84" width="142" height="8" rx="4" fill="#EBEBEB"/>
<rect x="195" y="84" width="11" height="8" rx="4" fill="#FA0067"/>
<rect x="376" y="84" width="142" height="8" rx="4" fill="#EBEBEB"/>
<rect x="376" y="84" width="38" height="8" rx="4" fill="#00B749"/>
<path d="M21.812 28.156C23.36 28.156 24.728 27.364 25.424 26.14L24.224 25.456C23.792 26.284 22.868 26.812 21.812 26.812C20 26.812 18.8 25.528 18.8 23.8C18.8 22.072 20 20.788 21.812 20.788C22.868 20.788 23.78 21.316 24.224 22.144L25.424 21.448C24.716 20.224 23.348 19.444 21.812 19.444C19.256 19.444 17.42 21.364 17.42 23.8C17.42 26.236 19.256 28.156 21.812 28.156ZM31.9839 28H33.4719L30.4359 19.6H28.7799L25.7319 28H27.2319L27.8199 26.308H31.3959L31.9839 28ZM28.2759 25.012L29.6079 21.22L30.9399 25.012H28.2759ZM36.9602 28.156C38.7122 28.156 39.9362 27.22 39.9362 25.684C39.9362 24.016 38.5322 23.584 37.1402 23.14C35.9162 22.756 35.4482 22.48 35.4482 21.832C35.4482 21.196 35.9642 20.788 36.7682 20.788C37.7042 20.788 38.2322 21.292 38.5322 21.964L39.6962 21.292C39.1682 20.176 38.1482 19.444 36.7682 19.444C35.3522 19.444 34.0682 20.32 34.0682 21.868C34.0682 23.452 35.3402 23.932 36.6482 24.328C37.8962 24.712 38.5562 24.964 38.5562 25.708C38.5562 26.32 38.0882 26.812 36.9962 26.812C35.8562 26.812 35.2082 26.248 34.9082 25.396L33.7202 26.092C34.1642 27.34 35.3042 28.156 36.9602 28.156ZM45.0026 28.156C47.4386 28.156 49.3586 26.236 49.3586 23.8C49.3586 21.364 47.4386 19.444 45.0026 19.444C42.5786 19.444 40.6466 21.364 40.6466 23.8C40.6466 26.236 42.5786 28.156 45.0026 28.156ZM45.0026 26.812C43.3226 26.812 42.0266 25.528 42.0266 23.8C42.0266 22.072 43.3226 20.788 45.0026 20.788C46.6826 20.788 47.9786 22.072 47.9786 23.8C47.9786 25.528 46.6826 26.812 45.0026 26.812ZM53.0969 28.156C54.8489 28.156 56.0729 27.22 56.0729 25.684C56.0729 24.016 54.6689 23.584 53.2769 23.14C52.0529 22.756 51.5849 22.48 51.5849 21.832C51.5849 21.196 52.1009 20.788 52.9049 20.788C53.8409 20.788 54.3689 21.292 54.6689 21.964L55.8329 21.292C55.3049 20.176 54.2849 19.444 52.9049 19.444C51.4889 19.444 50.2049 20.32 50.2049 21.868C50.2049 23.452 51.4769 23.932 52.7849 24.328C54.0329 24.712 54.6929 24.964 54.6929 25.708C54.6929 26.32 54.2249 26.812 53.1329 26.812C51.9929 26.812 51.3449 26.248 51.0449 25.396L49.8569 26.092C50.3009 27.34 51.4409 28.156 53.0969 28.156ZM64.2456 28.156C65.7936 28.156 67.1616 27.364 67.8576 26.14L66.6576 25.456C66.2256 26.284 65.3016 26.812 64.2456 26.812C62.4336 26.812 61.2336 25.528 61.2336 23.8C61.2336 22.072 62.4336 20.788 64.2456 20.788C65.3016 20.788 66.2136 21.316 66.6576 22.144L67.8576 21.448C67.1496 20.224 65.7816 19.444 64.2456 19.444C61.6896 19.444 59.8536 21.364 59.8536 23.8C59.8536 26.236 61.6896 28.156 64.2456 28.156ZM72.8815 28.156C75.3175 28.156 77.2375 26.236 77.2375 23.8C77.2375 21.364 75.3175 19.444 72.8815 19.444C70.4575 19.444 68.5255 21.364 68.5255 23.8C68.5255 26.236 70.4575 28.156 72.8815 28.156ZM72.8815 26.812C71.2015 26.812 69.9055 25.528 69.9055 23.8C69.9055 22.072 71.2015 20.788 72.8815 20.788C74.5615 20.788 75.8575 22.072 75.8575 23.8C75.8575 25.528 74.5615 26.812 72.8815 26.812ZM83.5363 19.6V25.3L79.5763 19.6H78.4963V28H79.8763V22.3L83.8363 28H84.9163V19.6H83.5363ZM91.5139 20.92V19.6H86.5939V28H87.9739V24.592H91.3939V23.272H87.9739V20.92H91.5139ZM92.8048 19.6V28H94.1848V19.6H92.8048ZM100.651 28H102.163L100.255 24.736C101.239 24.34 101.923 23.38 101.923 22.3C101.923 20.8 100.723 19.6 99.2234 19.6H95.8634V28H97.2434V24.94H98.8754L100.651 28ZM97.2434 20.896H99.2234C99.9554 20.896 100.543 21.508 100.543 22.3C100.543 23.08 99.9554 23.704 99.2234 23.704H97.2434V20.896ZM111.263 19.6H109.787L107.243 23.8L104.711 19.6H103.223V28H104.603V22L107.159 26.236H107.327L109.883 22.012V28H111.263V19.6ZM118.41 28H119.898L116.862 19.6H115.206L112.158 28H113.658L114.246 26.308H117.822L118.41 28ZM114.702 25.012L116.034 21.22L117.366 25.012H114.702ZM124.101 19.6H120.801V28H124.101C126.417 28 128.121 26.14 128.121 23.8C128.121 21.448 126.417 19.6 124.101 19.6ZM124.101 26.68H122.181V20.92H124.101C125.697 20.92 126.789 22.132 126.789 23.8C126.789 25.456 125.697 26.68 124.101 26.68ZM133.315 28.156C135.751 28.156 137.671 26.236 137.671 23.8C137.671 21.364 135.751 19.444 133.315 19.444C130.891 19.444 128.959 21.364 128.959 23.8C128.959 26.236 130.891 28.156 133.315 28.156ZM133.315 26.812C131.635 26.812 130.339 25.528 130.339 23.8C130.339 22.072 131.635 20.788 133.315 20.788C134.995 20.788 136.291 22.072 136.291 23.8C136.291 25.528 134.995 26.812 133.315 26.812ZM141.409 28.156C143.161 28.156 144.385 27.22 144.385 25.684C144.385 24.016 142.981 23.584 141.589 23.14C140.365 22.756 139.897 22.48 139.897 21.832C139.897 21.196 140.413 20.788 141.217 20.788C142.153 20.788 142.681 21.292 142.981 21.964L144.145 21.292C143.617 20.176 142.597 19.444 141.217 19.444C139.801 19.444 138.517 20.32 138.517 21.868C138.517 23.452 139.789 23.932 141.097 24.328C142.345 24.712 143.005 24.964 143.005 25.708C143.005 26.32 142.537 26.812 141.445 26.812C140.305 26.812 139.657 26.248 139.357 25.396L138.169 26.092C138.613 27.34 139.753 28.156 141.409 28.156Z" fill="#101010"/>
<path d="M201.76 20.92V19.6H196.84V28H198.22V24.592H201.64V23.272H198.22V20.92H201.76ZM208.16 28H209.648L206.612 19.6H204.956L201.908 28H203.408L203.996 26.308H207.572L208.16 28ZM204.452 25.012L205.784 21.22L207.116 25.012H204.452ZM211.931 26.68V19.6H210.551V28H215.351V26.68H211.931ZM217.755 26.68V19.6H216.375V28H221.175V26.68H217.755ZM223.579 26.68V24.412H226.939V23.104H223.579V20.92H227.239V19.6H222.199V28H227.299V26.68H223.579ZM232.464 28.156C234.012 28.156 235.38 27.364 236.076 26.14L234.876 25.456C234.444 26.284 233.52 26.812 232.464 26.812C230.652 26.812 229.452 25.528 229.452 23.8C229.452 22.072 230.652 20.788 232.464 20.788C233.52 20.788 234.432 21.316 234.876 22.144L236.076 21.448C235.368 20.224 234 19.444 232.464 19.444C229.908 19.444 228.072 21.364 228.072 23.8C228.072 26.236 229.908 28.156 232.464 28.156ZM237.223 19.6V28H238.603V19.6H237.223ZM243.581 19.6H240.281V28H243.581C245.897 28 247.601 26.14 247.601 23.8C247.601 21.448 245.897 19.6 243.581 19.6ZM243.581 26.68H241.661V20.92H243.581C245.177 20.92 246.269 22.132 246.269 23.8C246.269 25.456 245.177 26.68 243.581 26.68ZM252.796 28.156C255.232 28.156 257.152 26.236 257.152 23.8C257.152 21.364 255.232 19.444 252.796 19.444C250.372 19.444 248.44 21.364 248.44 23.8C248.44 26.236 250.372 28.156 252.796 28.156ZM252.796 26.812C251.116 26.812 249.82 25.528 249.82 23.8C249.82 22.072 251.116 20.788 252.796 20.788C254.476 20.788 255.772 22.072 255.772 23.8C255.772 25.528 254.476 26.812 252.796 26.812ZM260.89 28.156C262.642 28.156 263.866 27.22 263.866 25.684C263.866 24.016 262.462 23.584 261.07 23.14C259.846 22.756 259.378 22.48 259.378 21.832C259.378 21.196 259.894 20.788 260.698 20.788C261.634 20.788 262.162 21.292 262.462 21.964L263.626 21.292C263.098 20.176 262.078 19.444 260.698 19.444C259.282 19.444 257.998 20.32 257.998 21.868C257.998 23.452 259.27 23.932 260.578 24.328C261.826 24.712 262.486 24.964 262.486 25.708C262.486 26.32 262.018 26.812 260.926 26.812C259.786 26.812 259.138 26.248 258.838 25.396L257.65 26.092C258.094 27.34 259.234 28.156 260.89 28.156Z" fill="#101010"/>
<path d="M380.628 28H382.14L380.232 24.736C381.216 24.34 381.9 23.38 381.9 22.3C381.9 20.8 380.7 19.6 379.2 19.6H375.84V28H377.22V24.94H378.852L380.628 28ZM377.22 20.896H379.2C379.932 20.896 380.52 21.508 380.52 22.3C380.52 23.08 379.932 23.704 379.2 23.704H377.22V20.896ZM384.579 26.68V24.412H387.939V23.104H384.579V20.92H388.239V19.6H383.199V28H388.299V26.68H384.579ZM393.464 28.156C395.012 28.156 396.38 27.364 397.076 26.14L395.876 25.456C395.444 26.284 394.52 26.812 393.464 26.812C391.652 26.812 390.452 25.528 390.452 23.8C390.452 22.072 391.652 20.788 393.464 20.788C394.52 20.788 395.432 21.316 395.876 22.144L397.076 21.448C396.368 20.224 395 19.444 393.464 19.444C390.908 19.444 389.072 21.364 389.072 23.8C389.072 26.236 390.908 28.156 393.464 28.156ZM401.319 28.156C403.155 28.156 404.499 27.028 404.499 25.216V19.6H403.119V25.132C403.119 26.116 402.555 26.812 401.319 26.812C400.083 26.812 399.519 26.116 399.519 25.132V19.6H398.139V25.216C398.139 27.028 399.471 28.156 401.319 28.156ZM409.182 19.6H406.086V28H407.466V25.12H409.182C410.766 25.12 411.966 23.908 411.966 22.36C411.966 20.8 410.766 19.6 409.182 19.6ZM409.182 23.824H407.466V20.896H409.182C409.998 20.896 410.586 21.508 410.586 22.36C410.586 23.2 409.998 23.824 409.182 23.824ZM414.544 26.68V24.412H417.904V23.104H414.544V20.92H418.204V19.6H413.164V28H418.264V26.68H414.544ZM424.316 28H425.828L423.92 24.736C424.904 24.34 425.588 23.38 425.588 22.3C425.588 20.8 424.388 19.6 422.888 19.6H419.528V28H420.908V24.94H422.54L424.316 28ZM420.908 20.896H422.888C423.62 20.896 424.208 21.508 424.208 22.3C424.208 23.08 423.62 23.704 422.888 23.704H420.908V20.896ZM432.359 28H433.847L430.811 19.6H429.155L426.107 28H427.607L428.195 26.308H431.771L432.359 28ZM428.651 25.012L429.983 21.22L431.315 25.012H428.651ZM438.05 19.6H434.75V28H438.05C440.366 28 442.07 26.14 442.07 23.8C442.07 21.448 440.366 19.6 438.05 19.6ZM438.05 26.68H436.13V20.92H438.05C439.646 20.92 440.738 22.132 440.738 23.8C440.738 25.456 439.646 26.68 438.05 26.68ZM447.264 28.156C449.7 28.156 451.62 26.236 451.62 23.8C451.62 21.364 449.7 19.444 447.264 19.444C444.84 19.444 442.908 21.364 442.908 23.8C442.908 26.236 444.84 28.156 447.264 28.156ZM447.264 26.812C445.584 26.812 444.288 25.528 444.288 23.8C444.288 22.072 445.584 20.788 447.264 20.788C448.944 20.788 450.24 22.072 450.24 23.8C450.24 25.528 448.944 26.812 447.264 26.812ZM455.359 28.156C457.111 28.156 458.335 27.22 458.335 25.684C458.335 24.016 456.931 23.584 455.539 23.14C454.315 22.756 453.847 22.48 453.847 21.832C453.847 21.196 454.363 20.788 455.167 20.788C456.103 20.788 456.631 21.292 456.931 21.964L458.095 21.292C457.567 20.176 456.547 19.444 455.167 19.444C453.751 19.444 452.467 20.32 452.467 21.868C452.467 23.452 453.739 23.932 455.047 24.328C456.295 24.712 456.955 24.964 456.955 25.708C456.955 26.32 456.487 26.812 455.395 26.812C454.255 26.812 453.607 26.248 453.307 25.396L452.119 26.092C452.563 27.34 453.703 28.156 455.359 28.156Z" fill="#101010"/>
<path d="M17.24 31.2V34.896H24.008L18.728 48H22.808L28.28 34.416V31.2H17.24ZM28.5163 48.336C29.7643 48.336 30.7963 47.304 30.7963 46.056C30.7963 44.808 29.7643 43.776 28.5163 43.776C27.2683 43.776 26.2363 44.808 26.2363 46.056C26.2363 47.304 27.2683 48.336 28.5163 48.336ZM32.1228 31.2V34.896H38.8908L33.6108 48H37.6908L43.1628 34.416V31.2H32.1228ZM49.7619 37.104H48.3939L48.5619 34.8H54.6819V31.2H44.9619L44.2659 40.848H49.5219C50.9859 40.848 51.6819 41.688 51.6819 42.72C51.6819 43.752 50.9859 44.592 49.4019 44.592C47.8179 44.592 47.0979 43.92 46.7139 42.816L43.4019 44.736C44.4339 47.208 46.7379 48.336 49.4019 48.336C52.6419 48.336 55.5219 46.416 55.5219 42.72C55.5219 39.024 52.8819 37.104 49.7619 37.104ZM64.7868 38.016L67.6908 34.32V31.2H56.8908V34.8H63.0348L59.9868 38.664L61.4508 40.848H62.2428C63.8268 40.848 64.5228 41.688 64.5228 42.72C64.5228 43.752 63.8268 44.592 62.2428 44.592C60.7788 44.592 60.0588 43.92 59.6748 42.816L56.3628 44.736C57.3948 47.208 59.6988 48.336 62.2428 48.336C65.4828 48.336 68.3628 46.416 68.3628 42.72C68.3628 40.392 66.8508 38.736 64.7868 38.016Z" fill="#A0A6AF"/>
<path d="M26.1975 65.512C27.0015 65.788 27.6495 66.238 28.1415 66.862C28.6335 67.474 28.8795 68.2 28.8795 69.04C28.8795 70.36 28.4355 71.392 27.5475 72.136C26.6595 72.88 25.5735 73.252 24.2895 73.252C23.2935 73.252 22.3995 73.024 21.6075 72.568C20.8275 72.112 20.2515 71.44 19.8795 70.552L22.3635 69.112C22.6755 70 23.3175 70.444 24.2895 70.444C24.8535 70.444 25.2795 70.312 25.5675 70.048C25.8555 69.784 25.9995 69.448 25.9995 69.04C25.9995 68.632 25.8555 68.296 25.5675 68.032C25.2795 67.768 24.8535 67.636 24.2895 67.636H23.6955L22.5975 65.998L24.8835 63.1H20.2755V60.4H28.3755V62.74L26.1975 65.512ZM39.8518 68.32V70.984H38.5918V73H35.6758V70.984H29.9518V68.32L33.9658 60.4H37.0618L33.0478 68.32H35.6758V65.62H38.5918V68.32H39.8518ZM44.4432 70.21L43.0032 75.52H40.8432L41.5632 70.21H44.4432ZM45.4339 60.4H53.7139V62.812L49.6099 73H46.5499L50.5099 63.172H45.4339V60.4ZM58.8834 64.378C60.1314 64.474 61.1394 64.93 61.9074 65.746C62.6874 66.562 63.0774 67.582 63.0774 68.806C63.0774 70.114 62.6394 71.182 61.7634 72.01C60.8994 72.838 59.7774 73.252 58.3974 73.252C57.0054 73.252 55.8774 72.838 55.0134 72.01C54.1494 71.182 53.7174 70.114 53.7174 68.806C53.7174 67.834 53.9634 66.982 54.4554 66.25L58.3074 60.4H61.6194L58.8834 64.378ZM57.1194 70.084C57.4674 70.396 57.8934 70.552 58.3974 70.552C58.9014 70.552 59.3274 70.396 59.6754 70.084C60.0234 69.76 60.1974 69.334 60.1974 68.806C60.1974 68.278 60.0234 67.858 59.6754 67.546C59.3274 67.222 58.9014 67.06 58.3974 67.06C57.8934 67.06 57.4674 67.216 57.1194 67.528C56.7714 67.84 56.5974 68.266 56.5974 68.806C56.5974 69.346 56.7714 69.772 57.1194 70.084ZM68.9508 65.386C68.3628 65.974 67.6248 66.268 66.7368 66.268C65.8488 66.268 65.1048 65.974 64.5048 65.386C63.9048 64.786 63.6048 64.06 63.6048 63.208C63.6048 62.356 63.9048 61.636 64.5048 61.048C65.1048 60.448 65.8488 60.148 66.7368 60.148C67.6248 60.148 68.3628 60.442 68.9508 61.03C69.5508 61.606 69.8508 62.332 69.8508 63.208C69.8508 64.06 69.5508 64.786 68.9508 65.386ZM65.0988 71.02L73.2348 62.02L74.4228 62.704L66.2868 71.722L65.0988 71.02ZM66.0348 63.91C66.2148 64.102 66.4428 64.198 66.7188 64.198C66.9948 64.198 67.2228 64.102 67.4028 63.91C67.5948 63.706 67.6908 63.472 67.6908 63.208C67.6908 62.92 67.6008 62.686 67.4208 62.506C67.2408 62.314 67.0068 62.218 66.7188 62.218C66.4428 62.218 66.2148 62.314 66.0348 62.506C65.8548 62.698 65.7648 62.932 65.7648 63.208C65.7648 63.484 65.8548 63.718 66.0348 63.91ZM75.3768 72.334C74.7888 72.922 74.0508 73.216 73.1628 73.216C72.2748 73.216 71.5308 72.922 70.9308 72.334C70.3308 71.734 70.0308 71.008 70.0308 70.156C70.0308 69.304 70.3308 68.584 70.9308 67.996C71.5308 67.396 72.2748 67.096 73.1628 67.096C74.0508 67.096 74.7888 67.396 75.3768 67.996C75.9768 68.584 76.2768 69.304 76.2768 70.156C76.2768 71.008 75.9768 71.734 75.3768 72.334ZM72.4608 70.858C72.6408 71.05 72.8688 71.146 73.1448 71.146C73.4208 71.146 73.6488 71.05 73.8288 70.858C74.0208 70.654 74.1168 70.42 74.1168 70.156C74.1168 69.868 74.0268 69.634 73.8468 69.454C73.6668 69.262 73.4328 69.166 73.1448 69.166C72.8688 69.166 72.6408 69.262 72.4608 69.454C72.2808 69.646 72.1908 69.88 72.1908 70.156C72.1908 70.432 72.2808 70.666 72.4608 70.858Z" fill="#FFAA25"/>
<path d="M202.678 65.512L204.856 62.74V60.4H196.756V63.1H201.364L199.078 65.998L200.176 67.636H200.77C201.958 67.636 202.48 68.266 202.48 69.04C202.48 69.814 201.958 70.444 200.77 70.444C199.672 70.444 199.132 69.94 198.844 69.112L196.36 70.552C197.134 72.406 198.862 73.252 200.77 73.252C203.2 73.252 205.36 71.812 205.36 69.04C205.36 67.294 204.226 66.052 202.678 65.512ZM209.955 70.21H207.075L206.355 75.52H208.515L209.955 70.21ZM210.946 60.4V63.172H216.022L212.062 73H215.122L219.226 62.812V60.4H210.946ZM223.442 66.268C225.224 66.268 226.556 64.9 226.556 63.208C226.556 61.462 225.224 60.148 223.442 60.148C221.642 60.148 220.31 61.516 220.31 63.208C220.31 64.9 221.642 66.268 223.442 66.268ZM221.804 71.02L222.992 71.722L231.128 62.704L229.94 62.02L221.804 71.02ZM223.424 64.198C222.866 64.198 222.47 63.766 222.47 63.208C222.47 62.65 222.866 62.218 223.424 62.218C224 62.218 224.396 62.65 224.396 63.208C224.396 63.73 224 64.198 223.424 64.198ZM229.868 73.216C231.65 73.216 232.982 71.848 232.982 70.156C232.982 68.464 231.65 67.096 229.868 67.096C228.068 67.096 226.736 68.464 226.736 70.156C226.736 71.848 228.068 73.216 229.868 73.216ZM229.85 71.146C229.292 71.146 228.896 70.714 228.896 70.156C228.896 69.598 229.292 69.166 229.85 69.166C230.426 69.166 230.822 69.598 230.822 70.156C230.822 70.678 230.426 71.146 229.85 71.146Z" fill="#FA0067"/>
<path d="M381.13 64.828H380.104L380.23 63.1H384.82V60.4H377.53L377.008 67.636H380.95C382.048 67.636 382.57 68.266 382.57 69.04C382.57 69.814 382.048 70.444 380.86 70.444C379.672 70.444 379.132 69.94 378.844 69.112L376.36 70.552C377.134 72.406 378.862 73.252 380.86 73.252C383.29 73.252 385.45 71.812 385.45 69.04C385.45 66.268 383.47 64.828 381.13 64.828ZM389.955 70.21H387.075L386.355 75.52H388.515L389.955 70.21ZM401.026 68.32H399.766V65.62H396.85V68.32H394.222L398.236 60.4H395.14L391.126 68.32V70.984H396.85V73H399.766V70.984H401.026V68.32ZM404.163 66.268C405.945 66.268 407.277 64.9 407.277 63.208C407.277 61.462 405.945 60.148 404.163 60.148C402.363 60.148 401.031 61.516 401.031 63.208C401.031 64.9 402.363 66.268 404.163 66.268ZM402.525 71.02L403.713 71.722L411.849 62.704L410.661 62.02L402.525 71.02ZM404.145 64.198C403.587 64.198 403.191 63.766 403.191 63.208C403.191 62.65 403.587 62.218 404.145 62.218C404.721 62.218 405.117 62.65 405.117 63.208C405.117 63.73 404.721 64.198 404.145 64.198ZM410.589 73.216C412.371 73.216 413.703 71.848 413.703 70.156C413.703 68.464 412.371 67.096 410.589 67.096C408.789 67.096 407.457 68.464 407.457 70.156C407.457 71.848 408.789 73.216 410.589 73.216ZM410.571 71.146C410.013 71.146 409.617 70.714 409.617 70.156C409.617 69.598 410.013 69.166 410.571 69.166C411.147 69.166 411.543 69.598 411.543 70.156C411.543 70.678 411.147 71.146 410.571 71.146Z" fill="#00B749"/>
<path d="M196.528 50H207.952V46.304H202.312L205.096 43.496C206.632 41.96 207.712 40.232 207.712 38.216C207.712 34.832 205.024 32.864 202.024 32.864C199.696 32.864 197.44 34.04 196.36 36.536L199.6 38.432C200.056 37.376 200.896 36.608 202.072 36.608C203.2 36.608 203.872 37.328 203.872 38.384C203.872 39.368 203.152 40.352 202.168 41.36L196.528 47.216V50ZM219.552 41.24C220.536 40.472 221.16 39.368 221.16 37.856C221.16 34.592 218.664 32.864 215.568 32.864C212.472 32.864 209.976 34.592 209.976 37.856C209.976 39.368 210.6 40.472 211.584 41.24C210.168 42.152 209.4 43.616 209.4 45.272C209.4 48.344 211.608 50.336 215.568 50.336C219.528 50.336 221.736 48.344 221.736 45.272C221.736 43.616 220.968 42.152 219.552 41.24ZM215.568 36.464C216.648 36.464 217.32 37.16 217.32 38.096C217.32 39.032 216.648 39.728 215.568 39.728C214.488 39.728 213.816 39.032 213.816 38.096C213.816 37.16 214.488 36.464 215.568 36.464ZM215.568 46.736C214.224 46.736 213.24 45.992 213.24 44.72C213.24 43.448 214.224 42.704 215.568 42.704C216.912 42.704 217.896 43.448 217.896 44.72C217.896 45.992 216.912 46.736 215.568 46.736ZM233.333 41.24C234.317 40.472 234.941 39.368 234.941 37.856C234.941 34.592 232.445 32.864 229.349 32.864C226.253 32.864 223.757 34.592 223.757 37.856C223.757 39.368 224.381 40.472 225.365 41.24C223.949 42.152 223.181 43.616 223.181 45.272C223.181 48.344 225.389 50.336 229.349 50.336C233.309 50.336 235.517 48.344 235.517 45.272C235.517 43.616 234.749 42.152 233.333 41.24ZM229.349 36.464C230.429 36.464 231.101 37.16 231.101 38.096C231.101 39.032 230.429 39.728 229.349 39.728C228.269 39.728 227.597 39.032 227.597 38.096C227.597 37.16 228.269 36.464 229.349 36.464ZM229.349 46.736C228.005 46.736 227.021 45.992 227.021 44.72C227.021 43.448 228.005 42.704 229.349 42.704C230.693 42.704 231.677 43.448 231.677 44.72C231.677 45.992 230.693 46.736 229.349 46.736Z" fill="#A0A6AF"/>
<path d="M379.632 33.2L375.24 34.784L376.176 38.072L379.152 37.256V50H382.992V33.2H379.632ZM395.552 41.24C396.536 40.472 397.16 39.368 397.16 37.856C397.16 34.592 394.664 32.864 391.568 32.864C388.472 32.864 385.976 34.592 385.976 37.856C385.976 39.368 386.6 40.472 387.584 41.24C386.168 42.152 385.4 43.616 385.4 45.272C385.4 48.344 387.608 50.336 391.568 50.336C395.528 50.336 397.736 48.344 397.736 45.272C397.736 43.616 396.968 42.152 395.552 41.24ZM391.568 36.464C392.648 36.464 393.32 37.16 393.32 38.096C393.32 39.032 392.648 39.728 391.568 39.728C390.488 39.728 389.816 39.032 389.816 38.096C389.816 37.16 390.488 36.464 391.568 36.464ZM391.568 46.736C390.224 46.736 389.24 45.992 389.24 44.72C389.24 43.448 390.224 42.704 391.568 42.704C392.912 42.704 393.896 43.448 393.896 44.72C393.896 45.992 392.912 46.736 391.568 46.736ZM411.421 38.792C411.421 35.312 408.901 32.864 405.181 32.864C401.485 32.864 398.941 35.312 398.941 38.792C398.941 42.056 401.197 44.432 404.533 44.696L400.885 50H405.301L410.437 42.2C411.061 41.264 411.421 40.088 411.421 38.792ZM402.781 38.792C402.781 37.328 403.909 36.464 405.181 36.464C406.477 36.464 407.581 37.304 407.581 38.792C407.581 40.28 406.477 41.12 405.181 41.12C403.909 41.12 402.781 40.256 402.781 38.792Z" fill="#A0A6AF"/>
<path d="M80 56H104V80H80V56Z" fill="white"/>
<path fill-rule="evenodd" clip-rule="evenodd" d="M92.875 59.7593C92.875 59.409 92.4833 59.125 92 59.125C91.5168 59.125 91.125 59.409 91.125 59.7593V75.9907C91.125 76.341 91.5168 76.625 92 76.625C92.4833 76.625 92.875 76.341 92.875 75.9907V59.7593Z" fill="#B7BDC2"/>
<path fill-rule="evenodd" clip-rule="evenodd" d="M100.125 61.266V62.2783C100.125 62.6925 100.461 63.0283 100.875 63.0283C101.289 63.0283 101.625 62.6925 101.625 62.2783V59.4404C101.625 59.0262 101.289 58.6904 100.875 58.6904H98.011C97.5968 58.6904 97.261 59.0262 97.261 59.4404C97.261 59.8547 97.5968 60.1904 98.011 60.1904H98.7858L93.5023 65.2895C93.0791 65.0615 92.5947 64.9317 92.0806 64.9317C90.431 64.9317 89.0891 66.2649 89.0891 67.9034C89.0891 69.542 90.431 70.875 92.0806 70.875C93.7299 70.875 95.072 69.542 95.072 67.9034C95.072 67.3924 94.9413 66.9114 94.7118 66.491L100.109 61.2825C100.114 61.2771 100.12 61.2715 100.125 61.266Z" fill="#1D9C44"/>
<path fill-rule="evenodd" clip-rule="evenodd" d="M92.0785 66.6309C92.7847 66.6309 93.3594 67.2018 93.3594 67.9034C93.3594 68.6049 92.7847 69.1758 92.0785 69.1758C91.3722 69.1758 90.7976 68.6049 90.7976 67.9034C90.7976 67.2018 91.3722 66.6309 92.0785 66.6309Z" fill="white"/>
<path d="M239 56H263V80H239V56Z" fill="white"/>
<path fill-rule="evenodd" clip-rule="evenodd" d="M251.875 59.7593C251.875 59.409 251.483 59.125 251 59.125C250.517 59.125 250.125 59.409 250.125 59.7593V75.9907C250.125 76.341 250.517 76.625 251 76.625C251.483 76.625 251.875 76.341 251.875 75.9907V59.7593Z" fill="#B7BDC2"/>
<path fill-rule="evenodd" clip-rule="evenodd" d="M259.125 61.266V62.2783C259.125 62.6925 259.461 63.0283 259.875 63.0283C260.289 63.0283 260.625 62.6925 260.625 62.2783V59.4404C260.625 59.0262 260.289 58.6904 259.875 58.6904H257.011C256.597 58.6904 256.261 59.0262 256.261 59.4404C256.261 59.8547 256.597 60.1904 257.011 60.1904H257.786L252.502 65.2895C252.079 65.0615 251.595 64.9317 251.081 64.9317C249.431 64.9317 248.089 66.2649 248.089 67.9034C248.089 69.542 249.431 70.875 251.081 70.875C252.73 70.875 254.072 69.542 254.072 67.9034C254.072 67.3924 253.941 66.9114 253.712 66.491L259.109 61.2825C259.114 61.2771 259.12 61.2715 259.125 61.266Z" fill="#1D9C44"/>
<path fill-rule="evenodd" clip-rule="evenodd" d="M251.078 66.6309C251.785 66.6309 252.359 67.2018 252.359 67.9034C252.359 68.6049 251.785 69.1758 251.078 69.1758C250.372 69.1758 249.798 68.6049 249.798 67.9034C249.798 67.2018 250.372 66.6309 251.078 66.6309Z" fill="white"/>
<path d="M418 56H442V80H418V56Z" fill="white"/>
<path fill-rule="evenodd" clip-rule="evenodd" d="M430.875 59.7593C430.875 59.409 430.483 59.125 430 59.125C429.517 59.125 429.125 59.409 429.125 59.7593V75.9907C429.125 76.341 429.517 76.625 430 76.625C430.483 76.625 430.875 76.341 430.875 75.9907V59.7593Z" fill="#B7BDC2"/>
<path fill-rule="evenodd" clip-rule="evenodd" d="M438.966 68.759L438.237 69.5142C437.949 69.8121 437.958 70.2869 438.256 70.5747C438.554 70.8624 439.028 70.8541 439.316 70.5562L441.288 68.5148C441.575 68.2168 441.567 67.742 441.269 67.4543L439.209 65.4647C438.911 65.177 438.436 65.1853 438.148 65.4833C437.861 65.7812 437.869 66.256 438.167 66.5438L438.696 67.0543L432.93 67.0525C432.784 66.5946 432.526 66.1648 432.156 65.8076C430.97 64.6617 429.078 64.6886 427.94 65.8672C426.802 67.0459 426.841 68.937 428.028 70.0828C429.214 71.2286 431.106 71.202 432.244 70.0232C432.599 69.6557 432.839 69.2189 432.966 68.7571L438.966 68.759Z" fill="#53585F"/>
<path fill-rule="evenodd" clip-rule="evenodd" d="M430.078 66.6309C430.785 66.6309 431.359 67.2018 431.359 67.9034C431.359 68.6049 430.785 69.1758 430.078 69.1758C429.372 69.1758 428.798 68.6049 428.798 67.9034C428.798 67.2018 429.372 66.6309 430.078 66.6309Z" fill="white"/>
<line x1="180.5" y1="19" x2="180.5" y2="99" stroke="#EBEBEB"/>
<line x1="359.5" y1="19" x2="359.5" y2="99" stroke="#EBEBEB"/>
</svg>
