<svg width="532" height="105" viewBox="0 0 532 105" fill="none" xmlns="http://www.w3.org/2000/svg">
<rect x="0.5" y="0.5" width="531" height="104" rx="2.5" fill="white" stroke="#DDDEE0"/>
<rect x="20" y="84" width="142" height="8" rx="4" fill="#EBEBEB"/>
<rect x="19" y="84" width="28" height="8" rx="4" fill="#FFAA25"/>
<rect x="196" y="84" width="142" height="8" rx="4" fill="#EBEBEB"/>
<rect x="195" y="84" width="11" height="8" rx="4" fill="#FA0067"/>
<rect x="376" y="84" width="142" height="8" rx="4" fill="#EBEBEB"/>
<rect x="376" y="84" width="38" height="8" rx="4" fill="#00B749"/>
<path d="M21.812 28.156C23.36 28.156 24.728 27.364 25.424 26.14L24.224 25.456C23.792 26.284 22.868 26.812 21.812 26.812C20 26.812 18.8 25.528 18.8 23.8C18.8 22.072 20 20.788 21.812 20.788C22.868 20.788 23.78 21.316 24.224 22.144L25.424 21.448C24.716 20.224 23.348 19.444 21.812 19.444C19.256 19.444 17.42 21.364 17.42 23.8C17.42 26.236 19.256 28.156 21.812 28.156ZM31.9839 28H33.4719L30.4359 19.6H28.7799L25.7319 28H27.2319L27.8199 26.308H31.3959L31.9839 28ZM28.2759 25.012L29.6079 21.22L30.9399 25.012H28.2759ZM36.9602 28.156C38.7122 28.156 39.9362 27.22 39.9362 25.684C39.9362 24.016 38.5322 23.584 37.1402 23.14C35.9162 22.756 35.4482 22.48 35.4482 21.832C35.4482 21.196 35.9642 20.788 36.7682 20.788C37.7042 20.788 38.2322 21.292 38.5322 21.964L39.6962 21.292C39.1682 20.176 38.1482 19.444 36.7682 19.444C35.3522 19.444 34.0682 20.32 34.0682 21.868C34.0682 23.452 35.3402 23.932 36.6482 24.328C37.8962 24.712 38.5562 24.964 38.5562 25.708C38.5562 26.32 38.0882 26.812 36.9962 26.812C35.8562 26.812 35.2082 26.248 34.9082 25.396L33.7202 26.092C34.1642 27.34 35.3042 28.156 36.9602 28.156ZM45.0026 28.156C47.4386 28.156 49.3586 26.236 49.3586 23.8C49.3586 21.364 47.4386 19.444 45.0026 19.444C42.5786 19.444 40.6466 21.364 40.6466 23.8C40.6466 26.236 42.5786 28.156 45.0026 28.156ZM45.0026 26.812C43.3226 26.812 42.0266 25.528 42.0266 23.8C42.0266 22.072 43.3226 20.788 45.0026 20.788C46.6826 20.788 47.9786 22.072 47.9786 23.8C47.9786 25.528 46.6826 26.812 45.0026 26.812ZM53.0969 28.156C54.8489 28.156 56.0729 27.22 56.0729 25.684C56.0729 24.016 54.6689 23.584 53.2769 23.14C52.0529 22.756 51.5849 22.48 51.5849 21.832C51.5849 21.196 52.1009 20.788 52.9049 20.788C53.8409 20.788 54.3689 21.292 54.6689 21.964L55.8329 21.292C55.3049 20.176 54.2849 19.444 52.9049 19.444C51.4889 19.444 50.2049 20.32 50.2049 21.868C50.2049 23.452 51.4769 23.932 52.7849 24.328C54.0329 24.712 54.6929 24.964 54.6929 25.708C54.6929 26.32 54.2249 26.812 53.1329 26.812C51.9929 26.812 51.3449 26.248 51.0449 25.396L49.8569 26.092C50.3009 27.34 51.4409 28.156 53.0969 28.156ZM64.2456 28.156C65.7936 28.156 67.1616 27.364 67.8576 26.14L66.6576 25.456C66.2256 26.284 65.3016 26.812 64.2456 26.812C62.4336 26.812 61.2336 25.528 61.2336 23.8C61.2336 22.072 62.4336 20.788 64.2456 20.788C65.3016 20.788 66.2136 21.316 66.6576 22.144L67.8576 21.448C67.1496 20.224 65.7816 19.444 64.2456 19.444C61.6896 19.444 59.8536 21.364 59.8536 23.8C59.8536 26.236 61.6896 28.156 64.2456 28.156ZM72.8815 28.156C75.3175 28.156 77.2375 26.236 77.2375 23.8C77.2375 21.364 75.3175 19.444 72.8815 19.444C70.4575 19.444 68.5255 21.364 68.5255 23.8C68.5255 26.236 70.4575 28.156 72.8815 28.156ZM72.8815 26.812C71.2015 26.812 69.9055 25.528 69.9055 23.8C69.9055 22.072 71.2015 20.788 72.8815 20.788C74.5615 20.788 75.8575 22.072 75.8575 23.8C75.8575 25.528 74.5615 26.812 72.8815 26.812ZM83.5363 19.6V25.3L79.5763 19.6H78.4963V28H79.8763V22.3L83.8363 28H84.9163V19.6H83.5363ZM91.5139 20.92V19.6H86.5939V28H87.9739V24.592H91.3939V23.272H87.9739V20.92H91.5139ZM92.8048 19.6V28H94.1848V19.6H92.8048ZM100.651 28H102.163L100.255 24.736C101.239 24.34 101.923 23.38 101.923 22.3C101.923 20.8 100.723 19.6 99.2234 19.6H95.8634V28H97.2434V24.94H98.8754L100.651 28ZM97.2434 20.896H99.2234C99.9554 20.896 100.543 21.508 100.543 22.3C100.543 23.08 99.9554 23.704 99.2234 23.704H97.2434V20.896ZM111.263 19.6H109.787L107.243 23.8L104.711 19.6H103.223V28H104.603V22L107.159 26.236H107.327L109.883 22.012V28H111.263V19.6ZM118.41 28H119.898L116.862 19.6H115.206L112.158 28H113.658L114.246 26.308H117.822L118.41 28ZM114.702 25.012L116.034 21.22L117.366 25.012H114.702ZM124.101 19.6H120.801V28H124.101C126.417 28 128.121 26.14 128.121 23.8C128.121 21.448 126.417 19.6 124.101 19.6ZM124.101 26.68H122.181V20.92H124.101C125.697 20.92 126.789 22.132 126.789 23.8C126.789 25.456 125.697 26.68 124.101 26.68ZM133.315 28.156C135.751 28.156 137.671 26.236 137.671 23.8C137.671 21.364 135.751 19.444 133.315 19.444C130.891 19.444 128.959 21.364 128.959 23.8C128.959 26.236 130.891 28.156 133.315 28.156ZM133.315 26.812C131.635 26.812 130.339 25.528 130.339 23.8C130.339 22.072 131.635 20.788 133.315 20.788C134.995 20.788 136.291 22.072 136.291 23.8C136.291 25.528 134.995 26.812 133.315 26.812ZM141.409 28.156C143.161 28.156 144.385 27.22 144.385 25.684C144.385 24.016 142.981 23.584 141.589 23.14C140.365 22.756 139.897 22.48 139.897 21.832C139.897 21.196 140.413 20.788 141.217 20.788C142.153 20.788 142.681 21.292 142.981 21.964L144.145 21.292C143.617 20.176 142.597 19.444 141.217 19.444C139.801 19.444 138.517 20.32 138.517 21.868C138.517 23.452 139.789 23.932 141.097 24.328C142.345 24.712 143.005 24.964 143.005 25.708C143.005 26.32 142.537 26.812 141.445 26.812C140.305 26.812 139.657 26.248 139.357 25.396L138.169 26.092C138.613 27.34 139.753 28.156 141.409 28.156Z" fill="#101010"/>
<path d="M201.76 20.92V19.6H196.84V28H198.22V24.592H201.64V23.272H198.22V20.92H201.76ZM208.16 28H209.648L206.612 19.6H204.956L201.908 28H203.408L203.996 26.308H207.572L208.16 28ZM204.452 25.012L205.784 21.22L207.116 25.012H204.452ZM211.931 26.68V19.6H210.551V28H215.351V26.68H211.931ZM217.755 26.68V19.6H216.375V28H221.175V26.68H217.755ZM223.579 26.68V24.412H226.939V23.104H223.579V20.92H227.239V19.6H222.199V28H227.299V26.68H223.579ZM232.464 28.156C234.012 28.156 235.38 27.364 236.076 26.14L234.876 25.456C234.444 26.284 233.52 26.812 232.464 26.812C230.652 26.812 229.452 25.528 229.452 23.8C229.452 22.072 230.652 20.788 232.464 20.788C233.52 20.788 234.432 21.316 234.876 22.144L236.076 21.448C235.368 20.224 234 19.444 232.464 19.444C229.908 19.444 228.072 21.364 228.072 23.8C228.072 26.236 229.908 28.156 232.464 28.156ZM237.223 19.6V28H238.603V19.6H237.223ZM243.581 19.6H240.281V28H243.581C245.897 28 247.601 26.14 247.601 23.8C247.601 21.448 245.897 19.6 243.581 19.6ZM243.581 26.68H241.661V20.92H243.581C245.177 20.92 246.269 22.132 246.269 23.8C246.269 25.456 245.177 26.68 243.581 26.68ZM252.796 28.156C255.232 28.156 257.152 26.236 257.152 23.8C257.152 21.364 255.232 19.444 252.796 19.444C250.372 19.444 248.44 21.364 248.44 23.8C248.44 26.236 250.372 28.156 252.796 28.156ZM252.796 26.812C251.116 26.812 249.82 25.528 249.82 23.8C249.82 22.072 251.116 20.788 252.796 20.788C254.476 20.788 255.772 22.072 255.772 23.8C255.772 25.528 254.476 26.812 252.796 26.812ZM260.89 28.156C262.642 28.156 263.866 27.22 263.866 25.684C263.866 24.016 262.462 23.584 261.07 23.14C259.846 22.756 259.378 22.48 259.378 21.832C259.378 21.196 259.894 20.788 260.698 20.788C261.634 20.788 262.162 21.292 262.462 21.964L263.626 21.292C263.098 20.176 262.078 19.444 260.698 19.444C259.282 19.444 257.998 20.32 257.998 21.868C257.998 23.452 259.27 23.932 260.578 24.328C261.826 24.712 262.486 24.964 262.486 25.708C262.486 26.32 262.018 26.812 260.926 26.812C259.786 26.812 259.138 26.248 258.838 25.396L257.65 26.092C258.094 27.34 259.234 28.156 260.89 28.156Z" fill="#101010"/>
<path d="M380.628 28H382.14L380.232 24.736C381.216 24.34 381.9 23.38 381.9 22.3C381.9 20.8 380.7 19.6 379.2 19.6H375.84V28H377.22V24.94H378.852L380.628 28ZM377.22 20.896H379.2C379.932 20.896 380.52 21.508 380.52 22.3C380.52 23.08 379.932 23.704 379.2 23.704H377.22V20.896ZM384.579 26.68V24.412H387.939V23.104H384.579V20.92H388.239V19.6H383.199V28H388.299V26.68H384.579ZM393.464 28.156C395.012 28.156 396.38 27.364 397.076 26.14L395.876 25.456C395.444 26.284 394.52 26.812 393.464 26.812C391.652 26.812 390.452 25.528 390.452 23.8C390.452 22.072 391.652 20.788 393.464 20.788C394.52 20.788 395.432 21.316 395.876 22.144L397.076 21.448C396.368 20.224 395 19.444 393.464 19.444C390.908 19.444 389.072 21.364 389.072 23.8C389.072 26.236 390.908 28.156 393.464 28.156ZM401.319 28.156C403.155 28.156 404.499 27.028 404.499 25.216V19.6H403.119V25.132C403.119 26.116 402.555 26.812 401.319 26.812C400.083 26.812 399.519 26.116 399.519 25.132V19.6H398.139V25.216C398.139 27.028 399.471 28.156 401.319 28.156ZM409.182 19.6H406.086V28H407.466V25.12H409.182C410.766 25.12 411.966 23.908 411.966 22.36C411.966 20.8 410.766 19.6 409.182 19.6ZM409.182 23.824H407.466V20.896H409.182C409.998 20.896 410.586 21.508 410.586 22.36C410.586 23.2 409.998 23.824 409.182 23.824ZM414.544 26.68V24.412H417.904V23.104H414.544V20.92H418.204V19.6H413.164V28H418.264V26.68H414.544ZM424.316 28H425.828L423.92 24.736C424.904 24.34 425.588 23.38 425.588 22.3C425.588 20.8 424.388 19.6 422.888 19.6H419.528V28H420.908V24.94H422.54L424.316 28ZM420.908 20.896H422.888C423.62 20.896 424.208 21.508 424.208 22.3C424.208 23.08 423.62 23.704 422.888 23.704H420.908V20.896ZM432.359 28H433.847L430.811 19.6H429.155L426.107 28H427.607L428.195 26.308H431.771L432.359 28ZM428.651 25.012L429.983 21.22L431.315 25.012H428.651ZM438.05 19.6H434.75V28H438.05C440.366 28 442.07 26.14 442.07 23.8C442.07 21.448 440.366 19.6 438.05 19.6ZM438.05 26.68H436.13V20.92H438.05C439.646 20.92 440.738 22.132 440.738 23.8C440.738 25.456 439.646 26.68 438.05 26.68ZM447.264 28.156C449.7 28.156 451.62 26.236 451.62 23.8C451.62 21.364 449.7 19.444 447.264 19.444C444.84 19.444 442.908 21.364 442.908 23.8C442.908 26.236 444.84 28.156 447.264 28.156ZM447.264 26.812C445.584 26.812 444.288 25.528 444.288 23.8C444.288 22.072 445.584 20.788 447.264 20.788C448.944 20.788 450.24 22.072 450.24 23.8C450.24 25.528 448.944 26.812 447.264 26.812ZM455.359 28.156C457.111 28.156 458.335 27.22 458.335 25.684C458.335 24.016 456.931 23.584 455.539 23.14C454.315 22.756 453.847 22.48 453.847 21.832C453.847 21.196 454.363 20.788 455.167 20.788C456.103 20.788 456.631 21.292 456.931 21.964L458.095 21.292C457.567 20.176 456.547 19.444 455.167 19.444C453.751 19.444 452.467 20.32 452.467 21.868C452.467 23.452 453.739 23.932 455.047 24.328C456.295 24.712 456.955 24.964 456.955 25.708C456.955 26.32 456.487 26.812 455.395 26.812C454.255 26.812 453.607 26.248 453.307 25.396L452.119 26.092C452.563 27.34 453.703 28.156 455.359 28.156Z" fill="#101010"/>
<path d="M21.632 31.2L17.24 32.784L18.176 36.072L21.152 35.256V48H24.992V31.2H21.632ZM39.6397 36.792C39.6397 33.312 37.1197 30.864 33.3997 30.864C29.7037 30.864 27.1597 33.312 27.1597 36.792C27.1597 40.056 29.4157 42.432 32.7517 42.696L29.1037 48H33.5197L38.6557 40.2C39.2797 39.264 39.6397 38.088 39.6397 36.792ZM30.9997 36.792C30.9997 35.328 32.1277 34.464 33.3997 34.464C34.6957 34.464 35.7997 35.304 35.7997 36.792C35.7997 38.28 34.6957 39.12 33.3997 39.12C32.1277 39.12 30.9997 38.256 30.9997 36.792ZM40.1178 48.336C41.3658 48.336 42.3978 47.304 42.3978 46.056C42.3978 44.808 41.3658 43.776 40.1178 43.776C38.8698 43.776 37.8378 44.808 37.8378 46.056C37.8378 47.304 38.8698 48.336 40.1178 48.336ZM54.7569 36.792C54.7569 33.312 52.2369 30.864 48.5169 30.864C44.8209 30.864 42.2769 33.312 42.2769 36.792C42.2769 40.056 44.5329 42.432 47.8689 42.696L44.2209 48H48.6369L53.7729 40.2C54.3969 39.264 54.7569 38.088 54.7569 36.792ZM46.1169 36.792C46.1169 35.328 47.2449 34.464 48.5169 34.464C49.8129 34.464 50.9169 35.304 50.9169 36.792C50.9169 38.28 49.8129 39.12 48.5169 39.12C47.2449 39.12 46.1169 38.256 46.1169 36.792ZM66.0986 39.24C67.0826 38.472 67.7066 37.368 67.7066 35.856C67.7066 32.592 65.2106 30.864 62.1146 30.864C59.0186 30.864 56.5226 32.592 56.5226 35.856C56.5226 37.368 57.1466 38.472 58.1306 39.24C56.7146 40.152 55.9466 41.616 55.9466 43.272C55.9466 46.344 58.1546 48.336 62.1146 48.336C66.0746 48.336 68.2826 46.344 68.2826 43.272C68.2826 41.616 67.5146 40.152 66.0986 39.24ZM62.1146 34.464C63.1946 34.464 63.8666 35.16 63.8666 36.096C63.8666 37.032 63.1946 37.728 62.1146 37.728C61.0346 37.728 60.3626 37.032 60.3626 36.096C60.3626 35.16 61.0346 34.464 62.1146 34.464ZM62.1146 44.736C60.7706 44.736 59.7866 43.992 59.7866 42.72C59.7866 41.448 60.7706 40.704 62.1146 40.704C63.4586 40.704 64.4426 41.448 64.4426 42.72C64.4426 43.992 63.4586 44.736 62.1146 44.736ZM76.5678 48.336C80.9118 48.336 83.4078 44.784 83.4078 39.6C83.4078 34.416 80.9118 30.864 76.5678 30.864C72.2238 30.864 69.7278 34.416 69.7278 39.6C69.7278 44.784 72.2238 48.336 76.5678 48.336ZM76.5678 44.592C74.5518 44.592 73.5678 42.84 73.5678 39.6C73.5678 36.36 74.5518 34.608 76.5678 34.608C78.5838 34.608 79.5678 36.36 79.5678 39.6C79.5678 42.84 78.5838 44.592 76.5678 44.592Z" fill="#A0A6AF"/>
<path d="M22.474 59.4L19.18 60.588L19.882 63.054L22.114 62.442V72H24.994V59.4H22.474ZM31.7858 63.378L34.5218 59.4H31.2098L27.3578 65.25C26.8898 65.952 26.6198 66.834 26.6198 67.806C26.6198 70.416 28.5098 72.252 31.2998 72.252C34.0718 72.252 35.9798 70.416 35.9798 67.806C35.9798 65.358 34.2878 63.576 31.7858 63.378ZM31.2998 69.552C30.3278 69.552 29.4998 68.922 29.4998 67.806C29.4998 66.69 30.3278 66.06 31.2998 66.06C32.2538 66.06 33.0998 66.708 33.0998 67.806C33.0998 68.904 32.2538 69.552 31.2998 69.552ZM40.3905 69.21H37.5105L36.7905 74.52H38.9505L40.3905 69.21ZM46.3312 63.828H45.3052L45.4312 62.1H50.0212V59.4H42.7312L42.2092 66.636H46.1512C47.2492 66.636 47.7712 67.266 47.7712 68.04C47.7712 68.814 47.2492 69.444 46.0612 69.444C44.8732 69.444 44.3332 68.94 44.0452 68.112L41.5612 69.552C42.3352 71.406 44.0632 72.252 46.0612 72.252C48.4912 72.252 50.6512 70.812 50.6512 68.04C50.6512 65.268 48.6712 63.828 46.3312 63.828ZM54.5981 65.268C56.3801 65.268 57.7121 63.9 57.7121 62.208C57.7121 60.462 56.3801 59.148 54.5981 59.148C52.7981 59.148 51.4661 60.516 51.4661 62.208C51.4661 63.9 52.7981 65.268 54.5981 65.268ZM52.9601 70.02L54.1481 70.722L62.2841 61.704L61.0961 61.02L52.9601 70.02ZM54.5801 63.198C54.0221 63.198 53.6261 62.766 53.6261 62.208C53.6261 61.65 54.0221 61.218 54.5801 61.218C55.1561 61.218 55.5521 61.65 55.5521 62.208C55.5521 62.73 55.1561 63.198 54.5801 63.198ZM61.0241 72.216C62.8061 72.216 64.1381 70.848 64.1381 69.156C64.1381 67.464 62.8061 66.096 61.0241 66.096C59.2241 66.096 57.8921 67.464 57.8921 69.156C57.8921 70.848 59.2241 72.216 61.0241 72.216ZM61.0061 70.146C60.4481 70.146 60.0521 69.714 60.0521 69.156C60.0521 68.598 60.4481 68.166 61.0061 68.166C61.5821 68.166 61.9781 68.598 61.9781 69.156C61.9781 69.678 61.5821 70.146 61.0061 70.146Z" fill="#FFAA25"/>
<path d="M202.678 64.512L204.856 61.74V59.4H196.756V62.1H201.364L199.078 64.998L200.176 66.636H200.77C201.958 66.636 202.48 67.266 202.48 68.04C202.48 68.814 201.958 69.444 200.77 69.444C199.672 69.444 199.132 68.94 198.844 68.112L196.36 69.552C197.134 71.406 198.862 72.252 200.77 72.252C203.2 72.252 205.36 70.812 205.36 68.04C205.36 66.294 204.226 65.052 202.678 64.512ZM211.566 72.252C214.824 72.252 216.696 69.588 216.696 65.7C216.696 61.812 214.824 59.148 211.566 59.148C208.308 59.148 206.436 61.812 206.436 65.7C206.436 69.588 208.308 72.252 211.566 72.252ZM211.566 69.444C210.054 69.444 209.316 68.13 209.316 65.7C209.316 63.27 210.054 61.956 211.566 61.956C213.078 61.956 213.816 63.27 213.816 65.7C213.816 68.13 213.078 69.444 211.566 69.444ZM221.099 69.21H218.219L217.499 74.52H219.659L221.099 69.21ZM227.436 63.378L230.172 59.4H226.86L223.008 65.25C222.54 65.952 222.27 66.834 222.27 67.806C222.27 70.416 224.16 72.252 226.95 72.252C229.722 72.252 231.63 70.416 231.63 67.806C231.63 65.358 229.938 63.576 227.436 63.378ZM226.95 69.552C225.978 69.552 225.15 68.922 225.15 67.806C225.15 66.69 225.978 66.06 226.95 66.06C227.904 66.06 228.75 66.708 228.75 67.806C228.75 68.904 227.904 69.552 226.95 69.552ZM235.29 65.268C237.072 65.268 238.404 63.9 238.404 62.208C238.404 60.462 237.072 59.148 235.29 59.148C233.49 59.148 232.158 60.516 232.158 62.208C232.158 63.9 233.49 65.268 235.29 65.268ZM233.652 70.02L234.84 70.722L242.976 61.704L241.788 61.02L233.652 70.02ZM235.272 63.198C234.714 63.198 234.318 62.766 234.318 62.208C234.318 61.65 234.714 61.218 235.272 61.218C235.848 61.218 236.244 61.65 236.244 62.208C236.244 62.73 235.848 63.198 235.272 63.198ZM241.716 72.216C243.498 72.216 244.83 70.848 244.83 69.156C244.83 67.464 243.498 66.096 241.716 66.096C239.916 66.096 238.584 67.464 238.584 69.156C238.584 70.848 239.916 72.216 241.716 72.216ZM241.698 70.146C241.14 70.146 240.744 69.714 240.744 69.156C240.744 68.598 241.14 68.166 241.698 68.166C242.274 68.166 242.67 68.598 242.67 69.156C242.67 69.678 242.274 70.146 241.698 70.146Z" fill="#FA0067"/>
<path d="M386.26 67.32H385V64.62H382.084V67.32H379.456L383.47 59.4H380.374L376.36 67.32V69.984H382.084V72H385V69.984H386.26V67.32ZM393.119 64.512L395.297 61.74V59.4H387.197V62.1H391.805L389.519 64.998L390.617 66.636H391.211C392.399 66.636 392.921 67.266 392.921 68.04C392.921 68.814 392.399 69.444 391.211 69.444C390.113 69.444 389.573 68.94 389.285 68.112L386.801 69.552C387.575 71.406 389.303 72.252 391.211 72.252C393.641 72.252 395.801 70.812 395.801 68.04C395.801 66.294 394.667 65.052 393.119 64.512ZM400.396 69.21H397.516L396.796 74.52H398.956L400.396 69.21ZM401.603 72H410.171V69.228H405.941L408.029 67.122C409.181 65.97 409.991 64.674 409.991 63.162C409.991 60.624 407.975 59.148 405.725 59.148C403.979 59.148 402.287 60.03 401.477 61.902L403.907 63.324C404.249 62.532 404.879 61.956 405.761 61.956C406.607 61.956 407.111 62.496 407.111 63.288C407.111 64.026 406.571 64.764 405.833 65.52L401.603 69.912V72ZM414.481 65.268C416.263 65.268 417.595 63.9 417.595 62.208C417.595 60.462 416.263 59.148 414.481 59.148C412.681 59.148 411.349 60.516 411.349 62.208C411.349 63.9 412.681 65.268 414.481 65.268ZM412.843 70.02L414.031 70.722L422.167 61.704L420.979 61.02L412.843 70.02ZM414.463 63.198C413.905 63.198 413.509 62.766 413.509 62.208C413.509 61.65 413.905 61.218 414.463 61.218C415.039 61.218 415.435 61.65 415.435 62.208C415.435 62.73 415.039 63.198 414.463 63.198ZM420.907 72.216C422.689 72.216 424.021 70.848 424.021 69.156C424.021 67.464 422.689 66.096 420.907 66.096C419.107 66.096 417.775 67.464 417.775 69.156C417.775 70.848 419.107 72.216 420.907 72.216ZM420.889 70.146C420.331 70.146 419.935 69.714 419.935 69.156C419.935 68.598 420.331 68.166 420.889 68.166C421.465 68.166 421.861 68.598 421.861 69.156C421.861 69.678 421.465 70.146 420.889 70.146Z" fill="#00B749"/>
<path d="M200.632 33.2L196.24 34.784L197.176 38.072L200.152 37.256V50H203.992V33.2H200.632ZM209.04 50.336C210.288 50.336 211.32 49.304 211.32 48.056C211.32 46.808 210.288 45.776 209.04 45.776C207.792 45.776 206.76 46.808 206.76 48.056C206.76 49.304 207.792 50.336 209.04 50.336ZM219.24 50.336C223.584 50.336 226.08 46.784 226.08 41.6C226.08 36.416 223.584 32.864 219.24 32.864C214.896 32.864 212.4 36.416 212.4 41.6C212.4 46.784 214.896 50.336 219.24 50.336ZM219.24 46.592C217.224 46.592 216.24 44.84 216.24 41.6C216.24 38.36 217.224 36.608 219.24 36.608C221.256 36.608 222.24 38.36 222.24 41.6C222.24 44.84 221.256 46.592 219.24 46.592ZM234.357 50.336C238.701 50.336 241.197 46.784 241.197 41.6C241.197 36.416 238.701 32.864 234.357 32.864C230.013 32.864 227.517 36.416 227.517 41.6C227.517 46.784 230.013 50.336 234.357 50.336ZM234.357 46.592C232.341 46.592 231.357 44.84 231.357 41.6C231.357 38.36 232.341 36.608 234.357 36.608C236.373 36.608 237.357 38.36 237.357 41.6C237.357 44.84 236.373 46.592 234.357 46.592ZM241.973 50H253.397V46.304H247.757L250.541 43.496C252.077 41.96 253.157 40.232 253.157 38.216C253.157 34.832 250.469 32.864 247.469 32.864C245.141 32.864 242.885 34.04 241.805 36.536L245.045 38.432C245.501 37.376 246.341 36.608 247.517 36.608C248.645 36.608 249.317 37.328 249.317 38.384C249.317 39.368 248.597 40.352 247.613 41.36L241.973 47.216V50Z" fill="#A0A6AF"/>
<path d="M379.632 33.2L375.24 34.784L376.176 38.072L379.152 37.256V50H382.992V33.2H379.632ZM388.04 50.336C389.288 50.336 390.32 49.304 390.32 48.056C390.32 46.808 389.288 45.776 388.04 45.776C386.792 45.776 385.76 46.808 385.76 48.056C385.76 49.304 386.792 50.336 388.04 50.336ZM398.246 39.104H396.878L397.046 36.8H403.166V33.2H393.446L392.75 42.848H398.006C399.47 42.848 400.166 43.688 400.166 44.72C400.166 45.752 399.47 46.592 397.886 46.592C396.302 46.592 395.582 45.92 395.198 44.816L391.886 46.736C392.918 49.208 395.222 50.336 397.886 50.336C401.126 50.336 404.006 48.416 404.006 44.72C404.006 41.024 401.366 39.104 398.246 39.104ZM415.474 41.24C416.458 40.472 417.082 39.368 417.082 37.856C417.082 34.592 414.586 32.864 411.49 32.864C408.394 32.864 405.898 34.592 405.898 37.856C405.898 39.368 406.522 40.472 407.506 41.24C406.09 42.152 405.322 43.616 405.322 45.272C405.322 48.344 407.53 50.336 411.49 50.336C415.45 50.336 417.658 48.344 417.658 45.272C417.658 43.616 416.89 42.152 415.474 41.24ZM411.49 36.464C412.57 36.464 413.242 37.16 413.242 38.096C413.242 39.032 412.57 39.728 411.49 39.728C410.41 39.728 409.738 39.032 409.738 38.096C409.738 37.16 410.41 36.464 411.49 36.464ZM411.49 46.736C410.146 46.736 409.162 45.992 409.162 44.72C409.162 43.448 410.146 42.704 411.49 42.704C412.834 42.704 413.818 43.448 413.818 44.72C413.818 45.992 412.834 46.736 411.49 46.736ZM425.106 39.104H423.738L423.906 36.8H430.026V33.2H420.306L419.61 42.848H424.866C426.33 42.848 427.026 43.688 427.026 44.72C427.026 45.752 426.33 46.592 424.746 46.592C423.162 46.592 422.442 45.92 422.058 44.816L418.746 46.736C419.778 49.208 422.082 50.336 424.746 50.336C427.986 50.336 430.866 48.416 430.866 44.72C430.866 41.024 428.226 39.104 425.106 39.104Z" fill="#A0A6AF"/>
<path d="M70 54H94V78H70V54Z" fill="white"/>
<path fill-rule="evenodd" clip-rule="evenodd" d="M82.875 57.7593C82.875 57.409 82.4833 57.125 82 57.125C81.5168 57.125 81.125 57.409 81.125 57.7593V73.9907C81.125 74.341 81.5168 74.625 82 74.625C82.4833 74.625 82.875 74.341 82.875 73.9907V57.7593Z" fill="#B7BDC2"/>
<path fill-rule="evenodd" clip-rule="evenodd" d="M90.125 72.5495V71.5371C90.125 71.1229 90.4608 70.7871 90.875 70.7871C91.2892 70.7871 91.625 71.1229 91.625 71.5371V74.375C91.625 74.7892 91.2892 75.125 90.875 75.125H88.011C87.5968 75.125 87.261 74.7892 87.261 74.375C87.261 73.9608 87.5968 73.625 88.011 73.625H88.7858L83.5023 68.526C83.0791 68.754 82.5947 68.8837 82.0806 68.8837C80.431 68.8837 79.0891 67.5506 79.0891 65.9121C79.0891 64.2734 80.431 62.9404 82.0806 62.9404C83.7299 62.9404 85.072 64.2734 85.072 65.9121C85.072 66.423 84.9413 66.9041 84.7118 67.3244L90.1088 72.5329C90.1143 72.5384 90.1197 72.5439 90.125 72.5495Z" fill="#F45614"/>
<path fill-rule="evenodd" clip-rule="evenodd" d="M82.0785 64.6309C82.7847 64.6309 83.3594 65.2018 83.3594 65.9034C83.3594 66.6049 82.7847 67.1758 82.0785 67.1758C81.3722 67.1758 80.7976 66.6049 80.7976 65.9034C80.7976 65.2018 81.3722 64.6309 82.0785 64.6309Z" fill="white"/>
<path d="M246 54H270V78H246V54Z" fill="white"/>
<path fill-rule="evenodd" clip-rule="evenodd" d="M258.875 57.7593C258.875 57.409 258.483 57.125 258 57.125C257.517 57.125 257.125 57.409 257.125 57.7593V73.9907C257.125 74.341 257.517 74.625 258 74.625C258.483 74.625 258.875 74.341 258.875 73.9907V57.7593Z" fill="#B7BDC2"/>
<path fill-rule="evenodd" clip-rule="evenodd" d="M266.125 59.266V60.2783C266.125 60.6925 266.461 61.0283 266.875 61.0283C267.289 61.0283 267.625 60.6925 267.625 60.2783V57.4404C267.625 57.0262 267.289 56.6904 266.875 56.6904H264.011C263.597 56.6904 263.261 57.0262 263.261 57.4404C263.261 57.8547 263.597 58.1904 264.011 58.1904H264.786L259.502 63.2895C259.079 63.0615 258.595 62.9317 258.081 62.9317C256.431 62.9317 255.089 64.2649 255.089 65.9034C255.089 67.542 256.431 68.875 258.081 68.875C259.73 68.875 261.072 67.542 261.072 65.9034C261.072 65.3924 260.941 64.9114 260.712 64.491L266.109 59.2825C266.114 59.2771 266.12 59.2715 266.125 59.266Z" fill="#1D9C44"/>
<path fill-rule="evenodd" clip-rule="evenodd" d="M258.078 64.6309C258.785 64.6309 259.359 65.2018 259.359 65.9034C259.359 66.6049 258.785 67.1758 258.078 67.1758C257.372 67.1758 256.798 66.6049 256.798 65.9034C256.798 65.2018 257.372 64.6309 258.078 64.6309Z" fill="white"/>
<path d="M429 54H453V78H429V54Z" fill="white"/>
<path fill-rule="evenodd" clip-rule="evenodd" d="M441.875 57.7593C441.875 57.409 441.483 57.125 441 57.125C440.517 57.125 440.125 57.409 440.125 57.7593V73.9907C440.125 74.341 440.517 74.625 441 74.625C441.483 74.625 441.875 74.341 441.875 73.9907V57.7593Z" fill="#B7BDC2"/>
<path fill-rule="evenodd" clip-rule="evenodd" d="M449.125 59.266V60.2783C449.125 60.6925 449.461 61.0283 449.875 61.0283C450.289 61.0283 450.625 60.6925 450.625 60.2783V57.4404C450.625 57.0262 450.289 56.6904 449.875 56.6904H447.011C446.597 56.6904 446.261 57.0262 446.261 57.4404C446.261 57.8547 446.597 58.1904 447.011 58.1904H447.786L442.502 63.2895C442.079 63.0615 441.595 62.9317 441.081 62.9317C439.431 62.9317 438.089 64.2649 438.089 65.9034C438.089 67.542 439.431 68.875 441.081 68.875C442.73 68.875 444.072 67.542 444.072 65.9034C444.072 65.3924 443.941 64.9114 443.712 64.491L449.109 59.2825C449.114 59.2771 449.12 59.2715 449.125 59.266Z" fill="#1D9C44"/>
<path fill-rule="evenodd" clip-rule="evenodd" d="M441.078 64.6309C441.785 64.6309 442.359 65.2018 442.359 65.9034C442.359 66.6049 441.785 67.1758 441.078 67.1758C440.372 67.1758 439.798 66.6049 439.798 65.9034C439.798 65.2018 440.372 64.6309 441.078 64.6309Z" fill="white"/>
<line x1="180.5" y1="19" x2="180.5" y2="99" stroke="#EBEBEB"/>
<line x1="359.5" y1="19" x2="359.5" y2="99" stroke="#EBEBEB"/>
</svg>
