<svg width="532" height="105" viewBox="0 0 532 105" fill="none" xmlns="http://www.w3.org/2000/svg">
<rect x="0.5" y="0.5" width="531" height="104" rx="2.5" fill="white" stroke="#DDDEE0"/>
<rect x="20" y="84" width="142" height="8" rx="4" fill="#EBEBEB"/>
<rect x="19" y="84" width="36" height="8" rx="4" fill="#FFAA25"/>
<rect x="196" y="84" width="142" height="8" rx="4" fill="#EBEBEB"/>
<rect x="195" y="84" width="20" height="8" rx="4" fill="#FA0067"/>
<rect x="376" y="84" width="142" height="8" rx="4" fill="#EBEBEB"/>
<rect x="376" y="84" width="50" height="8" rx="4" fill="#00B749"/>
<path d="M21.812 28.156C23.36 28.156 24.728 27.364 25.424 26.14L24.224 25.456C23.792 26.284 22.868 26.812 21.812 26.812C20 26.812 18.8 25.528 18.8 23.8C18.8 22.072 20 20.788 21.812 20.788C22.868 20.788 23.78 21.316 24.224 22.144L25.424 21.448C24.716 20.224 23.348 19.444 21.812 19.444C19.256 19.444 17.42 21.364 17.42 23.8C17.42 26.236 19.256 28.156 21.812 28.156ZM31.9839 28H33.4719L30.4359 19.6H28.7799L25.7319 28H27.2319L27.8199 26.308H31.3959L31.9839 28ZM28.2759 25.012L29.6079 21.22L30.9399 25.012H28.2759ZM36.9602 28.156C38.7122 28.156 39.9362 27.22 39.9362 25.684C39.9362 24.016 38.5322 23.584 37.1402 23.14C35.9162 22.756 35.4482 22.48 35.4482 21.832C35.4482 21.196 35.9642 20.788 36.7682 20.788C37.7042 20.788 38.2322 21.292 38.5322 21.964L39.6962 21.292C39.1682 20.176 38.1482 19.444 36.7682 19.444C35.3522 19.444 34.0682 20.32 34.0682 21.868C34.0682 23.452 35.3402 23.932 36.6482 24.328C37.8962 24.712 38.5562 24.964 38.5562 25.708C38.5562 26.32 38.0882 26.812 36.9962 26.812C35.8562 26.812 35.2082 26.248 34.9082 25.396L33.7202 26.092C34.1642 27.34 35.3042 28.156 36.9602 28.156ZM45.0026 28.156C47.4386 28.156 49.3586 26.236 49.3586 23.8C49.3586 21.364 47.4386 19.444 45.0026 19.444C42.5786 19.444 40.6466 21.364 40.6466 23.8C40.6466 26.236 42.5786 28.156 45.0026 28.156ZM45.0026 26.812C43.3226 26.812 42.0266 25.528 42.0266 23.8C42.0266 22.072 43.3226 20.788 45.0026 20.788C46.6826 20.788 47.9786 22.072 47.9786 23.8C47.9786 25.528 46.6826 26.812 45.0026 26.812ZM53.0969 28.156C54.8489 28.156 56.0729 27.22 56.0729 25.684C56.0729 24.016 54.6689 23.584 53.2769 23.14C52.0529 22.756 51.5849 22.48 51.5849 21.832C51.5849 21.196 52.1009 20.788 52.9049 20.788C53.8409 20.788 54.3689 21.292 54.6689 21.964L55.8329 21.292C55.3049 20.176 54.2849 19.444 52.9049 19.444C51.4889 19.444 50.2049 20.32 50.2049 21.868C50.2049 23.452 51.4769 23.932 52.7849 24.328C54.0329 24.712 54.6929 24.964 54.6929 25.708C54.6929 26.32 54.2249 26.812 53.1329 26.812C51.9929 26.812 51.3449 26.248 51.0449 25.396L49.8569 26.092C50.3009 27.34 51.4409 28.156 53.0969 28.156ZM64.2456 28.156C65.7936 28.156 67.1616 27.364 67.8576 26.14L66.6576 25.456C66.2256 26.284 65.3016 26.812 64.2456 26.812C62.4336 26.812 61.2336 25.528 61.2336 23.8C61.2336 22.072 62.4336 20.788 64.2456 20.788C65.3016 20.788 66.2136 21.316 66.6576 22.144L67.8576 21.448C67.1496 20.224 65.7816 19.444 64.2456 19.444C61.6896 19.444 59.8536 21.364 59.8536 23.8C59.8536 26.236 61.6896 28.156 64.2456 28.156ZM72.8815 28.156C75.3175 28.156 77.2375 26.236 77.2375 23.8C77.2375 21.364 75.3175 19.444 72.8815 19.444C70.4575 19.444 68.5255 21.364 68.5255 23.8C68.5255 26.236 70.4575 28.156 72.8815 28.156ZM72.8815 26.812C71.2015 26.812 69.9055 25.528 69.9055 23.8C69.9055 22.072 71.2015 20.788 72.8815 20.788C74.5615 20.788 75.8575 22.072 75.8575 23.8C75.8575 25.528 74.5615 26.812 72.8815 26.812ZM83.5363 19.6V25.3L79.5763 19.6H78.4963V28H79.8763V22.3L83.8363 28H84.9163V19.6H83.5363ZM91.5139 20.92V19.6H86.5939V28H87.9739V24.592H91.3939V23.272H87.9739V20.92H91.5139ZM92.8048 19.6V28H94.1848V19.6H92.8048ZM100.651 28H102.163L100.255 24.736C101.239 24.34 101.923 23.38 101.923 22.3C101.923 20.8 100.723 19.6 99.2234 19.6H95.8634V28H97.2434V24.94H98.8754L100.651 28ZM97.2434 20.896H99.2234C99.9554 20.896 100.543 21.508 100.543 22.3C100.543 23.08 99.9554 23.704 99.2234 23.704H97.2434V20.896ZM111.263 19.6H109.787L107.243 23.8L104.711 19.6H103.223V28H104.603V22L107.159 26.236H107.327L109.883 22.012V28H111.263V19.6ZM118.41 28H119.898L116.862 19.6H115.206L112.158 28H113.658L114.246 26.308H117.822L118.41 28ZM114.702 25.012L116.034 21.22L117.366 25.012H114.702ZM124.101 19.6H120.801V28H124.101C126.417 28 128.121 26.14 128.121 23.8C128.121 21.448 126.417 19.6 124.101 19.6ZM124.101 26.68H122.181V20.92H124.101C125.697 20.92 126.789 22.132 126.789 23.8C126.789 25.456 125.697 26.68 124.101 26.68ZM133.315 28.156C135.751 28.156 137.671 26.236 137.671 23.8C137.671 21.364 135.751 19.444 133.315 19.444C130.891 19.444 128.959 21.364 128.959 23.8C128.959 26.236 130.891 28.156 133.315 28.156ZM133.315 26.812C131.635 26.812 130.339 25.528 130.339 23.8C130.339 22.072 131.635 20.788 133.315 20.788C134.995 20.788 136.291 22.072 136.291 23.8C136.291 25.528 134.995 26.812 133.315 26.812ZM141.409 28.156C143.161 28.156 144.385 27.22 144.385 25.684C144.385 24.016 142.981 23.584 141.589 23.14C140.365 22.756 139.897 22.48 139.897 21.832C139.897 21.196 140.413 20.788 141.217 20.788C142.153 20.788 142.681 21.292 142.981 21.964L144.145 21.292C143.617 20.176 142.597 19.444 141.217 19.444C139.801 19.444 138.517 20.32 138.517 21.868C138.517 23.452 139.789 23.932 141.097 24.328C142.345 24.712 143.005 24.964 143.005 25.708C143.005 26.32 142.537 26.812 141.445 26.812C140.305 26.812 139.657 26.248 139.357 25.396L138.169 26.092C138.613 27.34 139.753 28.156 141.409 28.156Z" fill="#101010"/>
<path d="M201.76 20.92V19.6H196.84V28H198.22V24.592H201.64V23.272H198.22V20.92H201.76ZM208.16 28H209.648L206.612 19.6H204.956L201.908 28H203.408L203.996 26.308H207.572L208.16 28ZM204.452 25.012L205.784 21.22L207.116 25.012H204.452ZM211.931 26.68V19.6H210.551V28H215.351V26.68H211.931ZM217.755 26.68V19.6H216.375V28H221.175V26.68H217.755ZM223.579 26.68V24.412H226.939V23.104H223.579V20.92H227.239V19.6H222.199V28H227.299V26.68H223.579ZM232.464 28.156C234.012 28.156 235.38 27.364 236.076 26.14L234.876 25.456C234.444 26.284 233.52 26.812 232.464 26.812C230.652 26.812 229.452 25.528 229.452 23.8C229.452 22.072 230.652 20.788 232.464 20.788C233.52 20.788 234.432 21.316 234.876 22.144L236.076 21.448C235.368 20.224 234 19.444 232.464 19.444C229.908 19.444 228.072 21.364 228.072 23.8C228.072 26.236 229.908 28.156 232.464 28.156ZM237.223 19.6V28H238.603V19.6H237.223ZM243.581 19.6H240.281V28H243.581C245.897 28 247.601 26.14 247.601 23.8C247.601 21.448 245.897 19.6 243.581 19.6ZM243.581 26.68H241.661V20.92H243.581C245.177 20.92 246.269 22.132 246.269 23.8C246.269 25.456 245.177 26.68 243.581 26.68ZM252.796 28.156C255.232 28.156 257.152 26.236 257.152 23.8C257.152 21.364 255.232 19.444 252.796 19.444C250.372 19.444 248.44 21.364 248.44 23.8C248.44 26.236 250.372 28.156 252.796 28.156ZM252.796 26.812C251.116 26.812 249.82 25.528 249.82 23.8C249.82 22.072 251.116 20.788 252.796 20.788C254.476 20.788 255.772 22.072 255.772 23.8C255.772 25.528 254.476 26.812 252.796 26.812ZM260.89 28.156C262.642 28.156 263.866 27.22 263.866 25.684C263.866 24.016 262.462 23.584 261.07 23.14C259.846 22.756 259.378 22.48 259.378 21.832C259.378 21.196 259.894 20.788 260.698 20.788C261.634 20.788 262.162 21.292 262.462 21.964L263.626 21.292C263.098 20.176 262.078 19.444 260.698 19.444C259.282 19.444 257.998 20.32 257.998 21.868C257.998 23.452 259.27 23.932 260.578 24.328C261.826 24.712 262.486 24.964 262.486 25.708C262.486 26.32 262.018 26.812 260.926 26.812C259.786 26.812 259.138 26.248 258.838 25.396L257.65 26.092C258.094 27.34 259.234 28.156 260.89 28.156Z" fill="#101010"/>
<path d="M380.628 28H382.14L380.232 24.736C381.216 24.34 381.9 23.38 381.9 22.3C381.9 20.8 380.7 19.6 379.2 19.6H375.84V28H377.22V24.94H378.852L380.628 28ZM377.22 20.896H379.2C379.932 20.896 380.52 21.508 380.52 22.3C380.52 23.08 379.932 23.704 379.2 23.704H377.22V20.896ZM384.579 26.68V24.412H387.939V23.104H384.579V20.92H388.239V19.6H383.199V28H388.299V26.68H384.579ZM393.464 28.156C395.012 28.156 396.38 27.364 397.076 26.14L395.876 25.456C395.444 26.284 394.52 26.812 393.464 26.812C391.652 26.812 390.452 25.528 390.452 23.8C390.452 22.072 391.652 20.788 393.464 20.788C394.52 20.788 395.432 21.316 395.876 22.144L397.076 21.448C396.368 20.224 395 19.444 393.464 19.444C390.908 19.444 389.072 21.364 389.072 23.8C389.072 26.236 390.908 28.156 393.464 28.156ZM401.319 28.156C403.155 28.156 404.499 27.028 404.499 25.216V19.6H403.119V25.132C403.119 26.116 402.555 26.812 401.319 26.812C400.083 26.812 399.519 26.116 399.519 25.132V19.6H398.139V25.216C398.139 27.028 399.471 28.156 401.319 28.156ZM409.182 19.6H406.086V28H407.466V25.12H409.182C410.766 25.12 411.966 23.908 411.966 22.36C411.966 20.8 410.766 19.6 409.182 19.6ZM409.182 23.824H407.466V20.896H409.182C409.998 20.896 410.586 21.508 410.586 22.36C410.586 23.2 409.998 23.824 409.182 23.824ZM414.544 26.68V24.412H417.904V23.104H414.544V20.92H418.204V19.6H413.164V28H418.264V26.68H414.544ZM424.316 28H425.828L423.92 24.736C424.904 24.34 425.588 23.38 425.588 22.3C425.588 20.8 424.388 19.6 422.888 19.6H419.528V28H420.908V24.94H422.54L424.316 28ZM420.908 20.896H422.888C423.62 20.896 424.208 21.508 424.208 22.3C424.208 23.08 423.62 23.704 422.888 23.704H420.908V20.896ZM432.359 28H433.847L430.811 19.6H429.155L426.107 28H427.607L428.195 26.308H431.771L432.359 28ZM428.651 25.012L429.983 21.22L431.315 25.012H428.651ZM438.05 19.6H434.75V28H438.05C440.366 28 442.07 26.14 442.07 23.8C442.07 21.448 440.366 19.6 438.05 19.6ZM438.05 26.68H436.13V20.92H438.05C439.646 20.92 440.738 22.132 440.738 23.8C440.738 25.456 439.646 26.68 438.05 26.68ZM447.264 28.156C449.7 28.156 451.62 26.236 451.62 23.8C451.62 21.364 449.7 19.444 447.264 19.444C444.84 19.444 442.908 21.364 442.908 23.8C442.908 26.236 444.84 28.156 447.264 28.156ZM447.264 26.812C445.584 26.812 444.288 25.528 444.288 23.8C444.288 22.072 445.584 20.788 447.264 20.788C448.944 20.788 450.24 22.072 450.24 23.8C450.24 25.528 448.944 26.812 447.264 26.812ZM455.359 28.156C457.111 28.156 458.335 27.22 458.335 25.684C458.335 24.016 456.931 23.584 455.539 23.14C454.315 22.756 453.847 22.48 453.847 21.832C453.847 21.196 454.363 20.788 455.167 20.788C456.103 20.788 456.631 21.292 456.931 21.964L458.095 21.292C457.567 20.176 456.547 19.444 455.167 19.444C453.751 19.444 452.467 20.32 452.467 21.868C452.467 23.452 453.739 23.932 455.047 24.328C456.295 24.712 456.955 24.964 456.955 25.708C456.955 26.32 456.487 26.812 455.395 26.812C454.255 26.812 453.607 26.248 453.307 25.396L452.119 26.092C452.563 27.34 453.703 28.156 455.359 28.156Z" fill="#101010"/>
<path d="M17.528 49H28.952V45.304H23.312L26.096 42.496C27.632 40.96 28.712 39.232 28.712 37.216C28.712 33.832 26.024 31.864 23.024 31.864C20.696 31.864 18.44 33.04 17.36 35.536L20.6 37.432C21.056 36.376 21.896 35.608 23.072 35.608C24.2 35.608 24.872 36.328 24.872 37.384C24.872 38.368 24.152 39.352 23.168 40.36L17.528 46.216V49ZM33.9601 32.2L29.5681 33.784L30.5041 37.072L33.4801 36.256V49H37.3201V32.2H33.9601ZM51.9678 37.792C51.9678 34.312 49.4478 31.864 45.7278 31.864C42.0318 31.864 39.4878 34.312 39.4878 37.792C39.4878 41.056 41.7438 43.432 45.0798 43.696L41.4318 49H45.8478L50.9838 41.2C51.6078 40.264 51.9678 39.088 51.9678 37.792ZM43.3278 37.792C43.3278 36.328 44.4558 35.464 45.7278 35.464C47.0238 35.464 48.1278 36.304 48.1278 37.792C48.1278 39.28 47.0238 40.12 45.7278 40.12C44.4558 40.12 43.3278 39.256 43.3278 37.792ZM52.4459 49.336C53.6939 49.336 54.7259 48.304 54.7259 47.056C54.7259 45.808 53.6939 44.776 52.4459 44.776C51.1979 44.776 50.1659 45.808 50.1659 47.056C50.1659 48.304 51.1979 49.336 52.4459 49.336ZM56.0525 32.2V35.896H62.8205L57.5405 49H61.6205L67.0925 35.416V32.2H56.0525ZM73.9852 37.504L77.6332 32.2H73.2172L68.0812 40C67.4572 40.936 67.0972 42.112 67.0972 43.408C67.0972 46.888 69.6172 49.336 73.3372 49.336C77.0332 49.336 79.5772 46.888 79.5772 43.408C79.5772 40.144 77.3212 37.768 73.9852 37.504ZM73.3372 45.736C72.0412 45.736 70.9372 44.896 70.9372 43.408C70.9372 41.92 72.0412 41.08 73.3372 41.08C74.6092 41.08 75.7372 41.944 75.7372 43.408C75.7372 44.872 74.6092 45.736 73.3372 45.736ZM93.9613 42.76H92.2812V39.16H88.3933V42.76H84.8893L90.2413 32.2H86.1133L80.7613 42.76V46.312H88.3933V49H92.2812V46.312H93.9613V42.76Z" fill="#A0A6AF"/>
<path d="M24.678 65.512L26.856 62.74V60.4H18.756V63.1H23.364L21.078 65.998L22.176 67.636H22.77C23.958 67.636 24.48 68.266 24.48 69.04C24.48 69.814 23.958 70.444 22.77 70.444C21.672 70.444 21.132 69.94 20.844 69.112L18.36 70.552C19.134 72.406 20.862 73.252 22.77 73.252C25.2 73.252 27.36 71.812 27.36 69.04C27.36 67.294 26.226 66.052 24.678 65.512ZM31.9549 70.21H29.0749L28.3549 75.52H30.5149L31.9549 70.21ZM33.1616 73H41.7296V70.228H37.4996L39.5876 68.122C40.7396 66.97 41.5496 65.674 41.5496 64.162C41.5496 61.624 39.5336 60.148 37.2836 60.148C35.5376 60.148 33.8456 61.03 33.0356 62.902L35.4656 64.324C35.8076 63.532 36.4376 62.956 37.3196 62.956C38.1656 62.956 38.6696 63.496 38.6696 64.288C38.6696 65.026 38.1296 65.764 37.3916 66.52L33.1616 70.912V73ZM46.0395 66.268C47.8215 66.268 49.1535 64.9 49.1535 63.208C49.1535 61.462 47.8215 60.148 46.0395 60.148C44.2395 60.148 42.9075 61.516 42.9075 63.208C42.9075 64.9 44.2395 66.268 46.0395 66.268ZM44.4015 71.02L45.5895 71.722L53.7255 62.704L52.5375 62.02L44.4015 71.02ZM46.0215 64.198C45.4635 64.198 45.0675 63.766 45.0675 63.208C45.0675 62.65 45.4635 62.218 46.0215 62.218C46.5975 62.218 46.9935 62.65 46.9935 63.208C46.9935 63.73 46.5975 64.198 46.0215 64.198ZM52.4655 73.216C54.2475 73.216 55.5795 71.848 55.5795 70.156C55.5795 68.464 54.2475 67.096 52.4655 67.096C50.6655 67.096 49.3335 68.464 49.3335 70.156C49.3335 71.848 50.6655 73.216 52.4655 73.216ZM52.4475 71.146C51.8895 71.146 51.4935 70.714 51.4935 70.156C51.4935 69.598 51.8895 69.166 52.4475 69.166C53.0235 69.166 53.4195 69.598 53.4195 70.156C53.4195 70.678 53.0235 71.146 52.4475 71.146Z" fill="#FFAA25"/>
<path d="M199.474 60.4L196.18 61.588L196.882 64.054L199.114 63.442V73H201.994V60.4H199.474ZM207.67 70.21H204.79L204.07 75.52H206.23L207.67 70.21ZM208.66 60.4V63.172H213.736L209.776 73H212.836L216.94 62.812V60.4H208.66ZM221.157 66.268C222.939 66.268 224.271 64.9 224.271 63.208C224.271 61.462 222.939 60.148 221.157 60.148C219.357 60.148 218.025 61.516 218.025 63.208C218.025 64.9 219.357 66.268 221.157 66.268ZM219.519 71.02L220.707 71.722L228.843 62.704L227.655 62.02L219.519 71.02ZM221.139 64.198C220.581 64.198 220.185 63.766 220.185 63.208C220.185 62.65 220.581 62.218 221.139 62.218C221.715 62.218 222.111 62.65 222.111 63.208C222.111 63.73 221.715 64.198 221.139 64.198ZM227.583 73.216C229.365 73.216 230.697 71.848 230.697 70.156C230.697 68.464 229.365 67.096 227.583 67.096C225.783 67.096 224.451 68.464 224.451 70.156C224.451 71.848 225.783 73.216 227.583 73.216ZM227.565 71.146C227.007 71.146 226.611 70.714 226.611 70.156C226.611 69.598 227.007 69.166 227.565 69.166C228.141 69.166 228.537 69.598 228.537 70.156C228.537 70.678 228.141 71.146 227.565 71.146Z" fill="#FA0067"/>
<path d="M382.678 65.512L384.856 62.74V60.4H376.756V63.1H381.364L379.078 65.998L380.176 67.636H380.77C381.958 67.636 382.48 68.266 382.48 69.04C382.48 69.814 381.958 70.444 380.77 70.444C379.672 70.444 379.132 69.94 378.844 69.112L376.36 70.552C377.134 72.406 378.862 73.252 380.77 73.252C383.2 73.252 385.36 71.812 385.36 69.04C385.36 67.294 384.226 66.052 382.678 65.512ZM389.955 70.21H387.075L386.355 75.52H388.515L389.955 70.21ZM395.896 64.828H394.87L394.996 63.1H399.586V60.4H392.296L391.774 67.636H395.716C396.814 67.636 397.336 68.266 397.336 69.04C397.336 69.814 396.814 70.444 395.626 70.444C394.438 70.444 393.898 69.94 393.61 69.112L391.126 70.552C391.9 72.406 393.628 73.252 395.626 73.252C398.056 73.252 400.216 71.812 400.216 69.04C400.216 66.268 398.236 64.828 395.896 64.828ZM404.163 66.268C405.945 66.268 407.277 64.9 407.277 63.208C407.277 61.462 405.945 60.148 404.163 60.148C402.363 60.148 401.031 61.516 401.031 63.208C401.031 64.9 402.363 66.268 404.163 66.268ZM402.525 71.02L403.713 71.722L411.849 62.704L410.661 62.02L402.525 71.02ZM404.145 64.198C403.587 64.198 403.191 63.766 403.191 63.208C403.191 62.65 403.587 62.218 404.145 62.218C404.721 62.218 405.117 62.65 405.117 63.208C405.117 63.73 404.721 64.198 404.145 64.198ZM410.589 73.216C412.371 73.216 413.703 71.848 413.703 70.156C413.703 68.464 412.371 67.096 410.589 67.096C408.789 67.096 407.457 68.464 407.457 70.156C407.457 71.848 408.789 73.216 410.589 73.216ZM410.571 71.146C410.013 71.146 409.617 70.714 409.617 70.156C409.617 69.598 410.013 69.166 410.571 69.166C411.147 69.166 411.543 69.598 411.543 70.156C411.543 70.678 411.147 71.146 410.571 71.146Z" fill="#00B749"/>
<path d="M196.528 51H207.952V47.304H202.312L205.096 44.496C206.632 42.96 207.712 41.232 207.712 39.216C207.712 35.832 205.024 33.864 202.024 33.864C199.696 33.864 197.44 35.04 196.36 37.536L199.6 39.432C200.056 38.376 200.896 37.608 202.072 37.608C203.2 37.608 203.872 38.328 203.872 39.384C203.872 40.368 203.152 41.352 202.168 42.36L196.528 48.216V51ZM209.325 51H220.749V47.304H215.109L217.893 44.496C219.429 42.96 220.509 41.232 220.509 39.216C220.509 35.832 217.821 33.864 214.821 33.864C212.493 33.864 210.237 35.04 209.157 37.536L212.397 39.432C212.853 38.376 213.693 37.608 214.869 37.608C215.997 37.608 216.669 38.328 216.669 39.384C216.669 40.368 215.949 41.352 214.965 42.36L209.325 48.216V51ZM224.954 51.336C226.202 51.336 227.234 50.304 227.234 49.056C227.234 47.808 226.202 46.776 224.954 46.776C223.706 46.776 222.674 47.808 222.674 49.056C222.674 50.304 223.706 51.336 224.954 51.336ZM235.16 40.104H233.792L233.96 37.8H240.08V34.2H230.36L229.664 43.848H234.92C236.384 43.848 237.08 44.688 237.08 45.72C237.08 46.752 236.384 47.592 234.8 47.592C233.216 47.592 232.496 46.92 232.112 45.816L228.8 47.736C229.832 50.208 232.136 51.336 234.8 51.336C238.04 51.336 240.92 49.416 240.92 45.72C240.92 42.024 238.28 40.104 235.16 40.104ZM241.809 51H253.233V47.304H247.593L250.377 44.496C251.913 42.96 252.993 41.232 252.993 39.216C252.993 35.832 250.305 33.864 247.305 33.864C244.977 33.864 242.721 35.04 241.641 37.536L244.881 39.432C245.337 38.376 246.177 37.608 247.353 37.608C248.481 37.608 249.153 38.328 249.153 39.384C249.153 40.368 248.433 41.352 247.449 42.36L241.809 48.216V51ZM267.524 44.76H265.844V41.16H261.956V44.76H258.452L263.804 34.2H259.676L254.324 44.76V48.312H261.956V51H265.844V48.312H267.524V44.76Z" fill="#A0A6AF"/>
<path d="M387.96 39.792C387.96 36.312 385.44 33.864 381.72 33.864C378.024 33.864 375.48 36.312 375.48 39.792C375.48 43.056 377.736 45.432 381.072 45.696L377.424 51H381.84L386.976 43.2C387.6 42.264 387.96 41.088 387.96 39.792ZM379.32 39.792C379.32 38.328 380.448 37.464 381.72 37.464C383.016 37.464 384.12 38.304 384.12 39.792C384.12 41.28 383.016 42.12 381.72 42.12C380.448 42.12 379.32 41.256 379.32 39.792ZM388.723 51H400.147V47.304H394.507L397.291 44.496C398.827 42.96 399.907 41.232 399.907 39.216C399.907 35.832 397.219 33.864 394.219 33.864C391.891 33.864 389.635 35.04 388.555 37.536L391.795 39.432C392.251 38.376 393.091 37.608 394.267 37.608C395.395 37.608 396.067 38.328 396.067 39.384C396.067 40.368 395.347 41.352 394.363 42.36L388.723 48.216V51ZM404.352 51.336C405.6 51.336 406.632 50.304 406.632 49.056C406.632 47.808 405.6 46.776 404.352 46.776C403.104 46.776 402.072 47.808 402.072 49.056C402.072 50.304 403.104 51.336 404.352 51.336ZM416.623 41.016L419.527 37.32V34.2H408.727V37.8H414.871L411.823 41.664L413.287 43.848H414.079C415.663 43.848 416.359 44.688 416.359 45.72C416.359 46.752 415.663 47.592 414.079 47.592C412.615 47.592 411.895 46.92 411.511 45.816L408.199 47.736C409.231 50.208 411.535 51.336 414.079 51.336C417.319 51.336 420.199 49.416 420.199 45.72C420.199 43.392 418.687 41.736 416.623 41.016ZM427.637 40.104H426.269L426.437 37.8H432.557V34.2H422.837L422.141 43.848H427.397C428.861 43.848 429.557 44.688 429.557 45.72C429.557 46.752 428.861 47.592 427.277 47.592C425.693 47.592 424.973 46.92 424.589 45.816L421.277 47.736C422.309 50.208 424.613 51.336 427.277 51.336C430.517 51.336 433.397 49.416 433.397 45.72C433.397 42.024 430.757 40.104 427.637 40.104ZM440.598 40.104H439.23L439.398 37.8H445.518V34.2H435.798L435.102 43.848H440.358C441.822 43.848 442.518 44.688 442.518 45.72C442.518 46.752 441.822 47.592 440.238 47.592C438.654 47.592 437.934 46.92 437.55 45.816L434.238 47.736C435.27 50.208 437.574 51.336 440.238 51.336C443.478 51.336 446.358 49.416 446.358 45.72C446.358 42.024 443.718 40.104 440.598 40.104Z" fill="#A0A6AF"/>
<path d="M58 56H82V80H58V56Z" fill="white"/>
<path fill-rule="evenodd" clip-rule="evenodd" d="M70.875 59.7592C70.875 59.4089 70.4833 59.1249 70 59.1249C69.5168 59.1249 69.125 59.4089 69.125 59.7592V75.9906C69.125 76.3409 69.5168 76.6249 70 76.6249C70.4833 76.6249 70.875 76.3409 70.875 75.9906V59.7592Z" fill="#B7BDC2"/>
<path fill-rule="evenodd" clip-rule="evenodd" d="M78.125 61.266V62.2784C78.125 62.6926 78.4608 63.0284 78.875 63.0284C79.2892 63.0284 79.625 62.6926 79.625 62.2784V59.4405C79.625 59.0263 79.2892 58.6905 78.875 58.6905H76.011C75.5968 58.6905 75.261 59.0263 75.261 59.4405C75.261 59.8547 75.5968 60.1905 76.011 60.1905H76.7858L71.5023 65.2895C71.0791 65.0615 70.5947 64.9318 70.0806 64.9318C68.431 64.9318 67.0891 66.2649 67.0891 67.9034C67.0891 69.5421 68.431 70.8751 70.0806 70.8751C71.7299 70.8751 73.072 69.5421 73.072 67.9034C73.072 67.3925 72.9413 66.9114 72.7118 66.4911L78.1088 61.2826C78.1143 61.2771 78.1197 61.2716 78.125 61.266Z" fill="#1D9C44"/>
<path fill-rule="evenodd" clip-rule="evenodd" d="M70.0785 66.631C70.7847 66.631 71.3594 67.2018 71.3594 67.9034C71.3594 68.605 70.7847 69.1758 70.0785 69.1758C69.3722 69.1758 68.7976 68.605 68.7976 67.9034C68.7976 67.2018 69.3722 66.631 70.0785 66.631Z" fill="white"/>
<path d="M417 56H441V80H417V56Z" fill="white"/>
<path fill-rule="evenodd" clip-rule="evenodd" d="M429.875 59.7592C429.875 59.4089 429.483 59.1249 429 59.1249C428.517 59.1249 428.125 59.4089 428.125 59.7592V75.9906C428.125 76.3409 428.517 76.6249 429 76.6249C429.483 76.6249 429.875 76.3409 429.875 75.9906V59.7592Z" fill="#B7BDC2"/>
<path fill-rule="evenodd" clip-rule="evenodd" d="M437.125 74.5495V73.5372C437.125 73.1229 437.461 72.7872 437.875 72.7872C438.289 72.7872 438.625 73.1229 438.625 73.5372V76.375C438.625 76.7893 438.289 77.125 437.875 77.125H435.011C434.597 77.125 434.261 76.7893 434.261 76.375C434.261 75.9608 434.597 75.625 435.011 75.625H435.786L430.502 70.526C430.079 70.754 429.595 70.8838 429.081 70.8838C427.431 70.8838 426.089 69.5506 426.089 67.9121C426.089 66.2735 427.431 64.9405 429.081 64.9405C430.73 64.9405 432.072 66.2735 432.072 67.9121C432.072 68.4231 431.941 68.9041 431.712 69.3244L437.109 74.533C437.114 74.5384 437.12 74.544 437.125 74.5495Z" fill="#F45614"/>
<path fill-rule="evenodd" clip-rule="evenodd" d="M429.078 66.631C429.785 66.631 430.359 67.2018 430.359 67.9034C430.359 68.605 429.785 69.1758 429.078 69.1758C428.372 69.1758 427.798 68.605 427.798 67.9034C427.798 67.2018 428.372 66.631 429.078 66.631Z" fill="white"/>
<path d="M239 56H263V80H239V56Z" fill="white"/>
<path fill-rule="evenodd" clip-rule="evenodd" d="M251.875 59.7592C251.875 59.4089 251.483 59.1249 251 59.1249C250.517 59.1249 250.125 59.4089 250.125 59.7592V75.9906C250.125 76.3409 250.517 76.6249 251 76.6249C251.483 76.6249 251.875 76.3409 251.875 75.9906V59.7592Z" fill="#B7BDC2"/>
<path fill-rule="evenodd" clip-rule="evenodd" d="M259.125 61.266V62.2784C259.125 62.6926 259.461 63.0284 259.875 63.0284C260.289 63.0284 260.625 62.6926 260.625 62.2784V59.4405C260.625 59.0263 260.289 58.6905 259.875 58.6905H257.011C256.597 58.6905 256.261 59.0263 256.261 59.4405C256.261 59.8547 256.597 60.1905 257.011 60.1905H257.786L252.502 65.2895C252.079 65.0615 251.595 64.9318 251.081 64.9318C249.431 64.9318 248.089 66.2649 248.089 67.9034C248.089 69.5421 249.431 70.8751 251.081 70.8751C252.73 70.8751 254.072 69.5421 254.072 67.9034C254.072 67.3925 253.941 66.9114 253.712 66.4911L259.109 61.2826C259.114 61.2771 259.12 61.2716 259.125 61.266Z" fill="#1D9C44"/>
<path fill-rule="evenodd" clip-rule="evenodd" d="M251.078 66.631C251.785 66.631 252.359 67.2018 252.359 67.9034C252.359 68.605 251.785 69.1758 251.078 69.1758C250.372 69.1758 249.798 68.605 249.798 67.9034C249.798 67.2018 250.372 66.631 251.078 66.631Z" fill="white"/>
<line x1="180.5" y1="19" x2="180.5" y2="99" stroke="#EBEBEB"/>
<line x1="359.5" y1="19" x2="359.5" y2="99" stroke="#EBEBEB"/>
</svg>
