<svg width="532" height="105" viewBox="0 0 532 105" fill="none" xmlns="http://www.w3.org/2000/svg">
<rect x="0.5" y="0.5" width="531" height="104" rx="2.5" fill="white" stroke="#DDDEE0"/>
<rect x="17" y="64" width="214" height="8" rx="4" fill="#EBEBEB"/>
<rect x="16" y="64" width="135" height="8" rx="4" fill="#FFAA25"/>
<rect x="291" y="64" width="214" height="8" rx="4" fill="#EBEBEB"/>
<path d="M21.812 32.156C20.548 32.156 19.5 31.74 18.668 30.908C17.836 30.068 17.42 29.032 17.42 27.8C17.42 26.568 17.836 25.536 18.668 24.704C19.5 23.864 20.548 23.444 21.812 23.444C22.572 23.444 23.272 23.624 23.912 23.984C24.56 24.344 25.064 24.832 25.424 25.448L24.224 26.144C24 25.728 23.672 25.4 23.24 25.16C22.816 24.912 22.34 24.788 21.812 24.788C20.916 24.788 20.188 25.072 19.628 25.64C19.076 26.208 18.8 26.928 18.8 27.8C18.8 28.672 19.076 29.392 19.628 29.96C20.188 30.528 20.916 30.812 21.812 30.812C22.34 30.812 22.82 30.692 23.252 30.452C23.684 30.204 24.008 29.872 24.224 29.456L25.424 30.14C25.072 30.756 24.572 31.248 23.924 31.616C23.284 31.976 22.58 32.156 21.812 32.156ZM31.9839 32L31.3959 30.308H27.8199L27.2319 32H25.7319L28.7799 23.6H30.4359L33.4719 32H31.9839ZM28.2759 29.012H30.9399L29.6079 25.22L28.2759 29.012ZM36.9602 32.156C36.1522 32.156 35.4642 31.972 34.8962 31.604C34.3362 31.236 33.9442 30.732 33.7202 30.092L34.9082 29.396C35.2442 30.34 35.9402 30.812 36.9962 30.812C37.5162 30.812 37.9042 30.712 38.1602 30.512C38.4242 30.304 38.5562 30.036 38.5562 29.708C38.5562 29.364 38.4162 29.104 38.1362 28.928C37.8562 28.744 37.3602 28.544 36.6482 28.328C36.2482 28.208 35.9242 28.096 35.6762 27.992C35.4282 27.888 35.1642 27.744 34.8842 27.56C34.6122 27.368 34.4082 27.132 34.2722 26.852C34.1362 26.572 34.0682 26.244 34.0682 25.868C34.0682 25.124 34.3322 24.536 34.8602 24.104C35.3882 23.664 36.0242 23.444 36.7682 23.444C37.4402 23.444 38.0282 23.608 38.5322 23.936C39.0362 24.264 39.4242 24.716 39.6962 25.292L38.5322 25.964C38.1802 25.18 37.5922 24.788 36.7682 24.788C36.3682 24.788 36.0482 24.884 35.8082 25.076C35.5682 25.26 35.4482 25.512 35.4482 25.832C35.4482 26.144 35.5682 26.392 35.8082 26.576C36.0562 26.752 36.5002 26.94 37.1402 27.14C37.4602 27.244 37.6922 27.324 37.8362 27.38C37.9882 27.428 38.1962 27.508 38.4602 27.62C38.7322 27.732 38.9362 27.844 39.0722 27.956C39.2082 28.068 39.3522 28.208 39.5042 28.376C39.6642 28.544 39.7762 28.736 39.8402 28.952C39.9042 29.168 39.9362 29.412 39.9362 29.684C39.9362 30.444 39.6602 31.048 39.1082 31.496C38.5642 31.936 37.8482 32.156 36.9602 32.156ZM48.0866 30.896C47.2466 31.736 46.2186 32.156 45.0026 32.156C43.7866 32.156 42.7546 31.736 41.9066 30.896C41.0666 30.048 40.6466 29.016 40.6466 27.8C40.6466 26.584 41.0666 25.556 41.9066 24.716C42.7546 23.868 43.7866 23.444 45.0026 23.444C46.2186 23.444 47.2466 23.868 48.0866 24.716C48.9346 25.556 49.3586 26.584 49.3586 27.8C49.3586 29.016 48.9346 30.048 48.0866 30.896ZM42.8786 29.96C43.4546 30.528 44.1626 30.812 45.0026 30.812C45.8426 30.812 46.5466 30.528 47.1146 29.96C47.6906 29.384 47.9786 28.664 47.9786 27.8C47.9786 26.936 47.6906 26.22 47.1146 25.652C46.5466 25.076 45.8426 24.788 45.0026 24.788C44.1626 24.788 43.4546 25.076 42.8786 25.652C42.3106 26.22 42.0266 26.936 42.0266 27.8C42.0266 28.664 42.3106 29.384 42.8786 29.96ZM53.0969 32.156C52.2889 32.156 51.6009 31.972 51.0329 31.604C50.4729 31.236 50.0809 30.732 49.8569 30.092L51.0449 29.396C51.3809 30.34 52.0769 30.812 53.1329 30.812C53.6529 30.812 54.0409 30.712 54.2969 30.512C54.5609 30.304 54.6929 30.036 54.6929 29.708C54.6929 29.364 54.5529 29.104 54.2729 28.928C53.9929 28.744 53.4969 28.544 52.7849 28.328C52.3849 28.208 52.0609 28.096 51.8129 27.992C51.5649 27.888 51.3009 27.744 51.0209 27.56C50.7489 27.368 50.5449 27.132 50.4089 26.852C50.2729 26.572 50.2049 26.244 50.2049 25.868C50.2049 25.124 50.4689 24.536 50.9969 24.104C51.5249 23.664 52.1609 23.444 52.9049 23.444C53.5769 23.444 54.1649 23.608 54.6689 23.936C55.1729 24.264 55.5609 24.716 55.8329 25.292L54.6689 25.964C54.3169 25.18 53.7289 24.788 52.9049 24.788C52.5049 24.788 52.1849 24.884 51.9449 25.076C51.7049 25.26 51.5849 25.512 51.5849 25.832C51.5849 26.144 51.7049 26.392 51.9449 26.576C52.1929 26.752 52.6369 26.94 53.2769 27.14C53.5969 27.244 53.8289 27.324 53.9729 27.38C54.1249 27.428 54.3329 27.508 54.5969 27.62C54.8689 27.732 55.0729 27.844 55.2089 27.956C55.3449 28.068 55.4889 28.208 55.6409 28.376C55.8009 28.544 55.9129 28.736 55.9769 28.952C56.0409 29.168 56.0729 29.412 56.0729 29.684C56.0729 30.444 55.7969 31.048 55.2449 31.496C54.7009 31.936 53.9849 32.156 53.0969 32.156ZM64.2456 32.156C62.9816 32.156 61.9336 31.74 61.1016 30.908C60.2696 30.068 59.8536 29.032 59.8536 27.8C59.8536 26.568 60.2696 25.536 61.1016 24.704C61.9336 23.864 62.9816 23.444 64.2456 23.444C65.0056 23.444 65.7056 23.624 66.3456 23.984C66.9936 24.344 67.4976 24.832 67.8576 25.448L66.6576 26.144C66.4336 25.728 66.1056 25.4 65.6736 25.16C65.2496 24.912 64.7736 24.788 64.2456 24.788C63.3496 24.788 62.6216 25.072 62.0616 25.64C61.5096 26.208 61.2336 26.928 61.2336 27.8C61.2336 28.672 61.5096 29.392 62.0616 29.96C62.6216 30.528 63.3496 30.812 64.2456 30.812C64.7736 30.812 65.2536 30.692 65.6856 30.452C66.1176 30.204 66.4416 29.872 66.6576 29.456L67.8576 30.14C67.5056 30.756 67.0056 31.248 66.3576 31.616C65.7176 31.976 65.0136 32.156 64.2456 32.156ZM75.9655 30.896C75.1255 31.736 74.0975 32.156 72.8815 32.156C71.6655 32.156 70.6335 31.736 69.7855 30.896C68.9455 30.048 68.5255 29.016 68.5255 27.8C68.5255 26.584 68.9455 25.556 69.7855 24.716C70.6335 23.868 71.6655 23.444 72.8815 23.444C74.0975 23.444 75.1255 23.868 75.9655 24.716C76.8135 25.556 77.2375 26.584 77.2375 27.8C77.2375 29.016 76.8135 30.048 75.9655 30.896ZM70.7575 29.96C71.3335 30.528 72.0415 30.812 72.8815 30.812C73.7215 30.812 74.4255 30.528 74.9935 29.96C75.5695 29.384 75.8575 28.664 75.8575 27.8C75.8575 26.936 75.5695 26.22 74.9935 25.652C74.4255 25.076 73.7215 24.788 72.8815 24.788C72.0415 24.788 71.3335 25.076 70.7575 25.652C70.1895 26.22 69.9055 26.936 69.9055 27.8C69.9055 28.664 70.1895 29.384 70.7575 29.96ZM83.5363 23.6H84.9163V32H83.8363L79.8763 26.3V32H78.4963V23.6H79.5763L83.5363 29.3V23.6ZM91.5139 24.92H87.9739V27.272H91.3939V28.592H87.9739V32H86.5939V23.6H91.5139V24.92ZM92.8048 23.6H94.1848V32H92.8048V23.6ZM100.651 32L98.8754 28.94H97.2434V32H95.8634V23.6H99.2234C99.9754 23.6 100.611 23.864 101.131 24.392C101.659 24.912 101.923 25.548 101.923 26.3C101.923 26.836 101.767 27.328 101.455 27.776C101.151 28.216 100.751 28.536 100.255 28.736L102.163 32H100.651ZM97.2434 24.896V27.704H99.2234C99.5914 27.704 99.9034 27.568 100.159 27.296C100.415 27.024 100.543 26.692 100.543 26.3C100.543 25.908 100.415 25.576 100.159 25.304C99.9034 25.032 99.5914 24.896 99.2234 24.896H97.2434ZM111.263 23.6V32H109.883V26.012L107.327 30.236H107.159L104.603 26V32H103.223V23.6H104.711L107.243 27.8L109.787 23.6H111.263ZM118.41 32L117.822 30.308H114.246L113.658 32H112.158L115.206 23.6H116.862L119.898 32H118.41ZM114.702 29.012H117.366L116.034 25.22L114.702 29.012ZM124.101 23.6C125.253 23.6 126.209 24.004 126.969 24.812C127.737 25.62 128.121 26.616 128.121 27.8C128.121 28.976 127.737 29.972 126.969 30.788C126.209 31.596 125.253 32 124.101 32H120.801V23.6H124.101ZM124.101 30.68C124.893 30.68 125.537 30.408 126.033 29.864C126.537 29.32 126.789 28.632 126.789 27.8C126.789 26.96 126.537 26.272 126.033 25.736C125.537 25.192 124.893 24.92 124.101 24.92H122.181V30.68H124.101ZM136.399 30.896C135.559 31.736 134.531 32.156 133.315 32.156C132.099 32.156 131.067 31.736 130.219 30.896C129.379 30.048 128.959 29.016 128.959 27.8C128.959 26.584 129.379 25.556 130.219 24.716C131.067 23.868 132.099 23.444 133.315 23.444C134.531 23.444 135.559 23.868 136.399 24.716C137.247 25.556 137.671 26.584 137.671 27.8C137.671 29.016 137.247 30.048 136.399 30.896ZM131.191 29.96C131.767 30.528 132.475 30.812 133.315 30.812C134.155 30.812 134.859 30.528 135.427 29.96C136.003 29.384 136.291 28.664 136.291 27.8C136.291 26.936 136.003 26.22 135.427 25.652C134.859 25.076 134.155 24.788 133.315 24.788C132.475 24.788 131.767 25.076 131.191 25.652C130.623 26.22 130.339 26.936 130.339 27.8C130.339 28.664 130.623 29.384 131.191 29.96ZM141.409 32.156C140.601 32.156 139.913 31.972 139.345 31.604C138.785 31.236 138.393 30.732 138.169 30.092L139.357 29.396C139.693 30.34 140.389 30.812 141.445 30.812C141.965 30.812 142.353 30.712 142.609 30.512C142.873 30.304 143.005 30.036 143.005 29.708C143.005 29.364 142.865 29.104 142.585 28.928C142.305 28.744 141.809 28.544 141.097 28.328C140.697 28.208 140.373 28.096 140.125 27.992C139.877 27.888 139.613 27.744 139.333 27.56C139.061 27.368 138.857 27.132 138.721 26.852C138.585 26.572 138.517 26.244 138.517 25.868C138.517 25.124 138.781 24.536 139.309 24.104C139.837 23.664 140.473 23.444 141.217 23.444C141.889 23.444 142.477 23.608 142.981 23.936C143.485 24.264 143.873 24.716 144.145 25.292L142.981 25.964C142.629 25.18 142.041 24.788 141.217 24.788C140.817 24.788 140.497 24.884 140.257 25.076C140.017 25.26 139.897 25.512 139.897 25.832C139.897 26.144 140.017 26.392 140.257 26.576C140.505 26.752 140.949 26.94 141.589 27.14C141.909 27.244 142.141 27.324 142.285 27.38C142.437 27.428 142.645 27.508 142.909 27.62C143.181 27.732 143.385 27.844 143.521 27.956C143.657 28.068 143.801 28.208 143.953 28.376C144.113 28.544 144.225 28.736 144.289 28.952C144.353 29.168 144.385 29.412 144.385 29.684C144.385 30.444 144.109 31.048 143.557 31.496C143.013 31.936 142.297 32.156 141.409 32.156ZM149.966 30.68H153.686V32H148.586V23.6H153.626V24.92H149.966V27.104H153.326V28.412H149.966V30.68ZM157.745 32.156C156.937 32.156 156.249 31.972 155.681 31.604C155.121 31.236 154.729 30.732 154.505 30.092L155.693 29.396C156.029 30.34 156.725 30.812 157.781 30.812C158.301 30.812 158.689 30.712 158.945 30.512C159.209 30.304 159.341 30.036 159.341 29.708C159.341 29.364 159.201 29.104 158.921 28.928C158.641 28.744 158.145 28.544 157.433 28.328C157.033 28.208 156.709 28.096 156.461 27.992C156.213 27.888 155.949 27.744 155.669 27.56C155.397 27.368 155.193 27.132 155.057 26.852C154.921 26.572 154.853 26.244 154.853 25.868C154.853 25.124 155.117 24.536 155.645 24.104C156.173 23.664 156.809 23.444 157.553 23.444C158.225 23.444 158.813 23.608 159.317 23.936C159.821 24.264 160.209 24.716 160.481 25.292L159.317 25.964C158.965 25.18 158.377 24.788 157.553 24.788C157.153 24.788 156.833 24.884 156.593 25.076C156.353 25.26 156.233 25.512 156.233 25.832C156.233 26.144 156.353 26.392 156.593 26.576C156.841 26.752 157.285 26.94 157.925 27.14C158.245 27.244 158.477 27.324 158.621 27.38C158.773 27.428 158.981 27.508 159.245 27.62C159.517 27.732 159.721 27.844 159.857 27.956C159.993 28.068 160.137 28.208 160.289 28.376C160.449 28.544 160.561 28.736 160.625 28.952C160.689 29.168 160.721 29.412 160.721 29.684C160.721 30.444 160.445 31.048 159.893 31.496C159.349 31.936 158.633 32.156 157.745 32.156ZM164.948 23.6C165.74 23.6 166.4 23.864 166.928 24.392C167.464 24.92 167.732 25.576 167.732 26.36C167.732 27.136 167.464 27.792 166.928 28.328C166.4 28.856 165.74 29.12 164.948 29.12H163.232V32H161.852V23.6H164.948ZM164.948 27.824C165.356 27.824 165.692 27.688 165.956 27.416C166.22 27.136 166.352 26.784 166.352 26.36C166.352 25.936 166.22 25.588 165.956 25.316C165.692 25.036 165.356 24.896 164.948 24.896H163.232V27.824H164.948ZM173.558 32L172.97 30.308H169.394L168.806 32H167.306L170.354 23.6H172.01L175.046 32H173.558ZM169.85 29.012H172.514L171.182 25.22L169.85 29.012ZM177.185 22.796C177.185 22.236 177.289 21.816 177.497 21.536C177.705 21.256 177.957 21.12 178.253 21.128C178.557 21.136 178.877 21.252 179.213 21.476C179.469 21.684 179.657 21.776 179.777 21.752C179.897 21.72 179.957 21.536 179.957 21.2H181.025C181.025 21.76 180.921 22.18 180.713 22.46C180.513 22.74 180.261 22.876 179.957 22.868C179.661 22.86 179.345 22.744 179.009 22.52C178.745 22.312 178.553 22.224 178.433 22.256C178.313 22.28 178.253 22.46 178.253 22.796H177.185ZM180.989 23.6H182.369V32H181.289L177.329 26.3V32H175.949V23.6H177.029L180.989 29.3V23.6ZM189.519 32L188.931 30.308H185.355L184.767 32H183.267L186.315 23.6H187.971L191.007 32H189.519ZM185.811 29.012H188.475L187.143 25.22L185.811 29.012Z" fill="#101010"/>
<path d="M295.76 24.92V23.6H290.84V32H292.22V28.592H295.64V27.272H292.22V24.92H295.76ZM302.16 32H303.648L300.612 23.6H298.956L295.908 32H297.408L297.996 30.308H301.572L302.16 32ZM298.452 29.012L299.784 25.22L301.116 29.012H298.452ZM305.931 30.68V23.6H304.551V32H309.351V30.68H305.931ZM311.755 30.68V23.6H310.375V32H315.175V30.68H311.755ZM317.579 30.68V28.412H320.939V27.104H317.579V24.92H321.239V23.6H316.199V32H321.299V30.68H317.579ZM326.464 32.156C328.012 32.156 329.38 31.364 330.076 30.14L328.876 29.456C328.444 30.284 327.52 30.812 326.464 30.812C324.652 30.812 323.452 29.528 323.452 27.8C323.452 26.072 324.652 24.788 326.464 24.788C327.52 24.788 328.432 25.316 328.876 26.144L330.076 25.448C329.368 24.224 328 23.444 326.464 23.444C323.908 23.444 322.072 25.364 322.072 27.8C322.072 30.236 323.908 32.156 326.464 32.156ZM331.223 23.6V32H332.603V23.6H331.223ZM342.321 23.6H340.845L338.301 27.8L335.769 23.6H334.281V32H335.661V26L338.217 30.236H338.385L340.941 26.012V32H342.321V23.6ZM343.996 23.6V32H345.376V23.6H343.996ZM348.435 30.68V28.412H351.795V27.104H348.435V24.92H352.095V23.6H347.055V32H352.155V30.68H348.435ZM358.458 23.6V29.3L354.498 23.6H353.418V32H354.798V26.3L358.758 32H359.838V23.6H358.458ZM366.976 23.6H360.856V24.92H363.232V32H364.612V24.92H366.976V23.6ZM371.452 32.156C373.888 32.156 375.808 30.236 375.808 27.8C375.808 25.364 373.888 23.444 371.452 23.444C369.028 23.444 367.096 25.364 367.096 27.8C367.096 30.236 369.028 32.156 371.452 32.156ZM371.452 30.812C369.772 30.812 368.476 29.528 368.476 27.8C368.476 26.072 369.772 24.788 371.452 24.788C373.132 24.788 374.428 26.072 374.428 27.8C374.428 29.528 373.132 30.812 371.452 30.812ZM379.546 32.156C381.298 32.156 382.522 31.22 382.522 29.684C382.522 28.016 381.118 27.584 379.726 27.14C378.502 26.756 378.034 26.48 378.034 25.832C378.034 25.196 378.55 24.788 379.354 24.788C380.29 24.788 380.818 25.292 381.118 25.964L382.282 25.292C381.754 24.176 380.734 23.444 379.354 23.444C377.938 23.444 376.654 24.32 376.654 25.868C376.654 27.452 377.926 27.932 379.234 28.328C380.482 28.712 381.142 28.964 381.142 29.708C381.142 30.32 380.674 30.812 379.582 30.812C378.442 30.812 377.794 30.248 377.494 29.396L376.306 30.092C376.75 31.34 377.89 32.156 379.546 32.156ZM388.103 30.68V28.412H391.463V27.104H388.103V24.92H391.763V23.6H386.723V32H391.823V30.68H388.103ZM395.882 32.156C397.634 32.156 398.858 31.22 398.858 29.684C398.858 28.016 397.454 27.584 396.062 27.14C394.838 26.756 394.37 26.48 394.37 25.832C394.37 25.196 394.886 24.788 395.69 24.788C396.626 24.788 397.154 25.292 397.454 25.964L398.618 25.292C398.09 24.176 397.07 23.444 395.69 23.444C394.274 23.444 392.99 24.32 392.99 25.868C392.99 27.452 394.262 27.932 395.57 28.328C396.818 28.712 397.478 28.964 397.478 29.708C397.478 30.32 397.01 30.812 395.918 30.812C394.778 30.812 394.13 30.248 393.83 29.396L392.642 30.092C393.086 31.34 394.226 32.156 395.882 32.156ZM403.084 23.6H399.988V32H401.368V29.12H403.084C404.668 29.12 405.868 27.908 405.868 26.36C405.868 24.8 404.668 23.6 403.084 23.6ZM403.084 27.824H401.368V24.896H403.084C403.9 24.896 404.488 25.508 404.488 26.36C404.488 27.2 403.9 27.824 403.084 27.824ZM411.695 32H413.183L410.147 23.6H408.491L405.443 32H406.943L407.531 30.308H411.107L411.695 32ZM407.987 29.012L409.319 25.22L410.651 29.012H407.987ZM415.322 22.796H416.39C416.39 22.088 416.618 22.148 417.146 22.52C418.106 23.168 419.162 22.964 419.162 21.2H418.094C418.094 21.908 417.866 21.848 417.35 21.476C416.39 20.828 415.322 21.032 415.322 22.796ZM419.126 23.6V29.3L415.166 23.6H414.086V32H415.466V26.3L419.426 32H420.506V23.6H419.126ZM427.656 32H429.144L426.108 23.6H424.452L421.404 32H422.904L423.492 30.308H427.068L427.656 32ZM423.948 29.012L425.28 25.22L426.612 29.012H423.948Z" fill="#101010"/>
<path d="M21.632 35.2L17.24 36.784L18.176 40.072L21.152 39.256V52H24.992V35.2H21.632ZM34.0477 40.504L37.6957 35.2H33.2797L28.1437 43C27.5197 43.936 27.1597 45.112 27.1597 46.408C27.1597 49.888 29.6797 52.336 33.3997 52.336C37.0957 52.336 39.6397 49.888 39.6397 46.408C39.6397 43.144 37.3837 40.768 34.0477 40.504ZM33.3997 48.736C32.1037 48.736 30.9997 47.896 30.9997 46.408C30.9997 44.92 32.1037 44.08 33.3997 44.08C34.6717 44.08 35.7997 44.944 35.7997 46.408C35.7997 47.872 34.6717 48.736 33.3997 48.736Z" fill="#A0A6AF"/>
<path d="M177.526 45.378C178.774 45.474 179.782 45.93 180.55 46.746C181.33 47.562 181.72 48.582 181.72 49.806C181.72 51.114 181.282 52.182 180.406 53.01C179.542 53.838 178.42 54.252 177.04 54.252C175.648 54.252 174.52 53.838 173.656 53.01C172.792 52.182 172.36 51.114 172.36 49.806C172.36 48.834 172.606 47.982 173.098 47.25L176.95 41.4H180.262L177.526 45.378ZM175.762 51.084C176.11 51.396 176.536 51.552 177.04 51.552C177.544 51.552 177.97 51.396 178.318 51.084C178.666 50.76 178.84 50.334 178.84 49.806C178.84 49.278 178.666 48.858 178.318 48.546C177.97 48.222 177.544 48.06 177.04 48.06C176.536 48.06 176.11 48.216 175.762 48.528C175.414 48.84 175.24 49.266 175.24 49.806C175.24 50.346 175.414 50.772 175.762 51.084ZM191.504 52.47C190.604 53.658 189.35 54.252 187.742 54.252C186.134 54.252 184.874 53.658 183.962 52.47C183.062 51.27 182.612 49.68 182.612 47.7C182.612 45.72 183.062 44.136 183.962 42.948C184.874 41.748 186.134 41.148 187.742 41.148C189.35 41.148 190.604 41.748 191.504 42.948C192.416 44.136 192.872 45.72 192.872 47.7C192.872 49.68 192.416 51.27 191.504 52.47ZM185.492 47.7C185.492 50.196 186.242 51.444 187.742 51.444C189.242 51.444 189.992 50.196 189.992 47.7C189.992 45.204 189.242 43.956 187.742 43.956C186.242 43.956 185.492 45.204 185.492 47.7ZM199.125 46.386C198.537 46.974 197.799 47.268 196.911 47.268C196.023 47.268 195.279 46.974 194.679 46.386C194.079 45.786 193.779 45.06 193.779 44.208C193.779 43.356 194.079 42.636 194.679 42.048C195.279 41.448 196.023 41.148 196.911 41.148C197.799 41.148 198.537 41.442 199.125 42.03C199.725 42.606 200.025 43.332 200.025 44.208C200.025 45.06 199.725 45.786 199.125 46.386ZM195.273 52.02L203.409 43.02L204.597 43.704L196.461 52.722L195.273 52.02ZM196.209 44.91C196.389 45.102 196.617 45.198 196.893 45.198C197.169 45.198 197.397 45.102 197.577 44.91C197.769 44.706 197.865 44.472 197.865 44.208C197.865 43.92 197.775 43.686 197.595 43.506C197.415 43.314 197.181 43.218 196.893 43.218C196.617 43.218 196.389 43.314 196.209 43.506C196.029 43.698 195.939 43.932 195.939 44.208C195.939 44.484 196.029 44.718 196.209 44.91ZM205.551 53.334C204.963 53.922 204.225 54.216 203.337 54.216C202.449 54.216 201.705 53.922 201.105 53.334C200.505 52.734 200.205 52.008 200.205 51.156C200.205 50.304 200.505 49.584 201.105 48.996C201.705 48.396 202.449 48.096 203.337 48.096C204.225 48.096 204.963 48.396 205.551 48.996C206.151 49.584 206.451 50.304 206.451 51.156C206.451 52.008 206.151 52.734 205.551 53.334ZM202.635 51.858C202.815 52.05 203.043 52.146 203.319 52.146C203.595 52.146 203.823 52.05 204.003 51.858C204.195 51.654 204.291 51.42 204.291 51.156C204.291 50.868 204.201 50.634 204.021 50.454C203.841 50.262 203.607 50.166 203.319 50.166C203.043 50.166 202.815 50.262 202.635 50.454C202.455 50.646 202.365 50.88 202.365 51.156C202.365 51.432 202.455 51.666 202.635 51.858Z" fill="#FFAA25"/>
<path d="M473.332 53.252C476.59 53.252 478.462 50.588 478.462 46.7C478.462 42.812 476.59 40.148 473.332 40.148C470.074 40.148 468.202 42.812 468.202 46.7C468.202 50.588 470.074 53.252 473.332 53.252ZM473.332 50.444C471.82 50.444 471.082 49.13 471.082 46.7C471.082 44.27 471.82 42.956 473.332 42.956C474.844 42.956 475.582 44.27 475.582 46.7C475.582 49.13 474.844 50.444 473.332 50.444Z" fill="#FA0067"/>
<path d="M297.56 54.336C301.904 54.336 304.4 50.784 304.4 45.6C304.4 40.416 301.904 36.864 297.56 36.864C293.216 36.864 290.72 40.416 290.72 45.6C290.72 50.784 293.216 54.336 297.56 54.336ZM297.56 50.592C295.544 50.592 294.56 48.84 294.56 45.6C294.56 42.36 295.544 40.608 297.56 40.608C299.576 40.608 300.56 42.36 300.56 45.6C300.56 48.84 299.576 50.592 297.56 50.592Z" fill="#A0A6AF"/>
<path d="M210 36H234V60H210V36Z" fill="white"/>
<path fill-rule="evenodd" clip-rule="evenodd" d="M222.875 39.7593C222.875 39.409 222.483 39.125 222 39.125C221.517 39.125 221.125 39.409 221.125 39.7593V55.9907C221.125 56.341 221.517 56.625 222 56.625C222.483 56.625 222.875 56.341 222.875 55.9907V39.7593Z" fill="#B7BDC2"/>
<path fill-rule="evenodd" clip-rule="evenodd" d="M230.125 41.266V42.2783C230.125 42.6925 230.461 43.0283 230.875 43.0283C231.289 43.0283 231.625 42.6925 231.625 42.2783V39.4404C231.625 39.0262 231.289 38.6904 230.875 38.6904H228.011C227.597 38.6904 227.261 39.0262 227.261 39.4404C227.261 39.8547 227.597 40.1904 228.011 40.1904H228.786L223.502 45.2895C223.079 45.0615 222.595 44.9317 222.081 44.9317C220.431 44.9317 219.089 46.2649 219.089 47.9034C219.089 49.542 220.431 50.875 222.081 50.875C223.73 50.875 225.072 49.542 225.072 47.9034C225.072 47.3924 224.941 46.9114 224.712 46.491L230.109 41.2825C230.114 41.2771 230.12 41.2715 230.125 41.266Z" fill="#1D9C44"/>
<path fill-rule="evenodd" clip-rule="evenodd" d="M222.078 46.6309C222.785 46.6309 223.359 47.2018 223.359 47.9034C223.359 48.6049 222.785 49.1758 222.078 49.1758C221.372 49.1758 220.798 48.6049 220.798 47.9034C220.798 47.2018 221.372 46.6309 222.078 46.6309Z" fill="white"/>
<path d="M481 35H505V59H481V35Z" fill="white"/>
<path fill-rule="evenodd" clip-rule="evenodd" d="M493.875 38.7593C493.875 38.409 493.483 38.125 493 38.125C492.517 38.125 492.125 38.409 492.125 38.7593V54.9907C492.125 55.341 492.517 55.625 493 55.625C493.483 55.625 493.875 55.341 493.875 54.9907V38.7593Z" fill="#B7BDC2"/>
<path fill-rule="evenodd" clip-rule="evenodd" d="M501.966 47.7591L501.237 48.5143C500.949 48.8123 500.958 49.2871 501.256 49.5748C501.554 49.8625 502.028 49.8542 502.316 49.5563L504.288 47.5149C504.575 47.2169 504.567 46.7421 504.269 46.4544L502.209 44.4649C501.911 44.1771 501.436 44.1854 501.148 44.4834C500.861 44.7813 500.869 45.2561 501.167 45.5439L501.696 46.0545L495.93 46.0527C495.784 45.5947 495.526 45.1649 495.156 44.8077C493.97 43.6618 492.078 43.6887 490.94 44.8673C489.802 46.0461 489.841 47.9371 491.028 49.0829C492.214 50.2287 494.106 50.2021 495.244 49.0233C495.599 48.6558 495.839 48.219 495.966 47.7572L501.966 47.7591Z" fill="#53585F"/>
<path fill-rule="evenodd" clip-rule="evenodd" d="M493.078 45.6309C493.785 45.6309 494.359 46.2018 494.359 46.9034C494.359 47.6049 493.785 48.1758 493.078 48.1758C492.372 48.1758 491.798 47.6049 491.798 46.9034C491.798 46.2018 492.372 45.6309 493.078 45.6309Z" fill="white"/>
<line x1="258.5" y1="23" x2="258.5" y2="73" stroke="#EBEBEB"/>
</svg>
