<svg width="532" height="105" viewBox="0 0 532 105" fill="none" xmlns="http://www.w3.org/2000/svg">
<rect x="0.5" y="0.5" width="531" height="104" rx="2.5" fill="white" stroke="#DDDEE0"/>
<rect x="20" y="84" width="142" height="8" rx="4" fill="#EBEBEB"/>
<rect x="19" y="84" width="36" height="8" rx="4" fill="#FFAA25"/>
<rect x="196" y="84" width="142" height="8" rx="4" fill="#EBEBEB"/>
<rect x="195" y="84" width="20" height="8" rx="4" fill="#FA0067"/>
<rect x="376" y="84" width="142" height="8" rx="4" fill="#EBEBEB"/>
<rect x="376" y="84" width="50" height="8" rx="4" fill="#00B749"/>
<path d="M21.812 28.156C23.36 28.156 24.728 27.364 25.424 26.14L24.224 25.456C23.792 26.284 22.868 26.812 21.812 26.812C20 26.812 18.8 25.528 18.8 23.8C18.8 22.072 20 20.788 21.812 20.788C22.868 20.788 23.78 21.316 24.224 22.144L25.424 21.448C24.716 20.224 23.348 19.444 21.812 19.444C19.256 19.444 17.42 21.364 17.42 23.8C17.42 26.236 19.256 28.156 21.812 28.156ZM31.9839 28H33.4719L30.4359 19.6H28.7799L25.7319 28H27.2319L27.8199 26.308H31.3959L31.9839 28ZM28.2759 25.012L29.6079 21.22L30.9399 25.012H28.2759ZM36.9602 28.156C38.7122 28.156 39.9362 27.22 39.9362 25.684C39.9362 24.016 38.5322 23.584 37.1402 23.14C35.9162 22.756 35.4482 22.48 35.4482 21.832C35.4482 21.196 35.9642 20.788 36.7682 20.788C37.7042 20.788 38.2322 21.292 38.5322 21.964L39.6962 21.292C39.1682 20.176 38.1482 19.444 36.7682 19.444C35.3522 19.444 34.0682 20.32 34.0682 21.868C34.0682 23.452 35.3402 23.932 36.6482 24.328C37.8962 24.712 38.5562 24.964 38.5562 25.708C38.5562 26.32 38.0882 26.812 36.9962 26.812C35.8562 26.812 35.2082 26.248 34.9082 25.396L33.7202 26.092C34.1642 27.34 35.3042 28.156 36.9602 28.156ZM45.0026 28.156C47.4386 28.156 49.3586 26.236 49.3586 23.8C49.3586 21.364 47.4386 19.444 45.0026 19.444C42.5786 19.444 40.6466 21.364 40.6466 23.8C40.6466 26.236 42.5786 28.156 45.0026 28.156ZM45.0026 26.812C43.3226 26.812 42.0266 25.528 42.0266 23.8C42.0266 22.072 43.3226 20.788 45.0026 20.788C46.6826 20.788 47.9786 22.072 47.9786 23.8C47.9786 25.528 46.6826 26.812 45.0026 26.812ZM53.0969 28.156C54.8489 28.156 56.0729 27.22 56.0729 25.684C56.0729 24.016 54.6689 23.584 53.2769 23.14C52.0529 22.756 51.5849 22.48 51.5849 21.832C51.5849 21.196 52.1009 20.788 52.9049 20.788C53.8409 20.788 54.3689 21.292 54.6689 21.964L55.8329 21.292C55.3049 20.176 54.2849 19.444 52.9049 19.444C51.4889 19.444 50.2049 20.32 50.2049 21.868C50.2049 23.452 51.4769 23.932 52.7849 24.328C54.0329 24.712 54.6929 24.964 54.6929 25.708C54.6929 26.32 54.2249 26.812 53.1329 26.812C51.9929 26.812 51.3449 26.248 51.0449 25.396L49.8569 26.092C50.3009 27.34 51.4409 28.156 53.0969 28.156ZM64.2456 28.156C65.7936 28.156 67.1616 27.364 67.8576 26.14L66.6576 25.456C66.2256 26.284 65.3016 26.812 64.2456 26.812C62.4336 26.812 61.2336 25.528 61.2336 23.8C61.2336 22.072 62.4336 20.788 64.2456 20.788C65.3016 20.788 66.2136 21.316 66.6576 22.144L67.8576 21.448C67.1496 20.224 65.7816 19.444 64.2456 19.444C61.6896 19.444 59.8536 21.364 59.8536 23.8C59.8536 26.236 61.6896 28.156 64.2456 28.156ZM72.8815 28.156C75.3175 28.156 77.2375 26.236 77.2375 23.8C77.2375 21.364 75.3175 19.444 72.8815 19.444C70.4575 19.444 68.5255 21.364 68.5255 23.8C68.5255 26.236 70.4575 28.156 72.8815 28.156ZM72.8815 26.812C71.2015 26.812 69.9055 25.528 69.9055 23.8C69.9055 22.072 71.2015 20.788 72.8815 20.788C74.5615 20.788 75.8575 22.072 75.8575 23.8C75.8575 25.528 74.5615 26.812 72.8815 26.812ZM83.5363 19.6V25.3L79.5763 19.6H78.4963V28H79.8763V22.3L83.8363 28H84.9163V19.6H83.5363ZM91.5139 20.92V19.6H86.5939V28H87.9739V24.592H91.3939V23.272H87.9739V20.92H91.5139ZM92.8048 19.6V28H94.1848V19.6H92.8048ZM100.651 28H102.163L100.255 24.736C101.239 24.34 101.923 23.38 101.923 22.3C101.923 20.8 100.723 19.6 99.2234 19.6H95.8634V28H97.2434V24.94H98.8754L100.651 28ZM97.2434 20.896H99.2234C99.9554 20.896 100.543 21.508 100.543 22.3C100.543 23.08 99.9554 23.704 99.2234 23.704H97.2434V20.896ZM111.263 19.6H109.787L107.243 23.8L104.711 19.6H103.223V28H104.603V22L107.159 26.236H107.327L109.883 22.012V28H111.263V19.6ZM118.41 28H119.898L116.862 19.6H115.206L112.158 28H113.658L114.246 26.308H117.822L118.41 28ZM114.702 25.012L116.034 21.22L117.366 25.012H114.702ZM124.101 19.6H120.801V28H124.101C126.417 28 128.121 26.14 128.121 23.8C128.121 21.448 126.417 19.6 124.101 19.6ZM124.101 26.68H122.181V20.92H124.101C125.697 20.92 126.789 22.132 126.789 23.8C126.789 25.456 125.697 26.68 124.101 26.68ZM133.315 28.156C135.751 28.156 137.671 26.236 137.671 23.8C137.671 21.364 135.751 19.444 133.315 19.444C130.891 19.444 128.959 21.364 128.959 23.8C128.959 26.236 130.891 28.156 133.315 28.156ZM133.315 26.812C131.635 26.812 130.339 25.528 130.339 23.8C130.339 22.072 131.635 20.788 133.315 20.788C134.995 20.788 136.291 22.072 136.291 23.8C136.291 25.528 134.995 26.812 133.315 26.812ZM141.409 28.156C143.161 28.156 144.385 27.22 144.385 25.684C144.385 24.016 142.981 23.584 141.589 23.14C140.365 22.756 139.897 22.48 139.897 21.832C139.897 21.196 140.413 20.788 141.217 20.788C142.153 20.788 142.681 21.292 142.981 21.964L144.145 21.292C143.617 20.176 142.597 19.444 141.217 19.444C139.801 19.444 138.517 20.32 138.517 21.868C138.517 23.452 139.789 23.932 141.097 24.328C142.345 24.712 143.005 24.964 143.005 25.708C143.005 26.32 142.537 26.812 141.445 26.812C140.305 26.812 139.657 26.248 139.357 25.396L138.169 26.092C138.613 27.34 139.753 28.156 141.409 28.156Z" fill="#101010"/>
<path d="M201.76 20.92V19.6H196.84V28H198.22V24.592H201.64V23.272H198.22V20.92H201.76ZM208.16 28H209.648L206.612 19.6H204.956L201.908 28H203.408L203.996 26.308H207.572L208.16 28ZM204.452 25.012L205.784 21.22L207.116 25.012H204.452ZM211.931 26.68V19.6H210.551V28H215.351V26.68H211.931ZM217.755 26.68V19.6H216.375V28H221.175V26.68H217.755ZM223.579 26.68V24.412H226.939V23.104H223.579V20.92H227.239V19.6H222.199V28H227.299V26.68H223.579ZM232.464 28.156C234.012 28.156 235.38 27.364 236.076 26.14L234.876 25.456C234.444 26.284 233.52 26.812 232.464 26.812C230.652 26.812 229.452 25.528 229.452 23.8C229.452 22.072 230.652 20.788 232.464 20.788C233.52 20.788 234.432 21.316 234.876 22.144L236.076 21.448C235.368 20.224 234 19.444 232.464 19.444C229.908 19.444 228.072 21.364 228.072 23.8C228.072 26.236 229.908 28.156 232.464 28.156ZM237.223 19.6V28H238.603V19.6H237.223ZM243.581 19.6H240.281V28H243.581C245.897 28 247.601 26.14 247.601 23.8C247.601 21.448 245.897 19.6 243.581 19.6ZM243.581 26.68H241.661V20.92H243.581C245.177 20.92 246.269 22.132 246.269 23.8C246.269 25.456 245.177 26.68 243.581 26.68ZM252.796 28.156C255.232 28.156 257.152 26.236 257.152 23.8C257.152 21.364 255.232 19.444 252.796 19.444C250.372 19.444 248.44 21.364 248.44 23.8C248.44 26.236 250.372 28.156 252.796 28.156ZM252.796 26.812C251.116 26.812 249.82 25.528 249.82 23.8C249.82 22.072 251.116 20.788 252.796 20.788C254.476 20.788 255.772 22.072 255.772 23.8C255.772 25.528 254.476 26.812 252.796 26.812ZM260.89 28.156C262.642 28.156 263.866 27.22 263.866 25.684C263.866 24.016 262.462 23.584 261.07 23.14C259.846 22.756 259.378 22.48 259.378 21.832C259.378 21.196 259.894 20.788 260.698 20.788C261.634 20.788 262.162 21.292 262.462 21.964L263.626 21.292C263.098 20.176 262.078 19.444 260.698 19.444C259.282 19.444 257.998 20.32 257.998 21.868C257.998 23.452 259.27 23.932 260.578 24.328C261.826 24.712 262.486 24.964 262.486 25.708C262.486 26.32 262.018 26.812 260.926 26.812C259.786 26.812 259.138 26.248 258.838 25.396L257.65 26.092C258.094 27.34 259.234 28.156 260.89 28.156Z" fill="#101010"/>
<path d="M380.628 28H382.14L380.232 24.736C381.216 24.34 381.9 23.38 381.9 22.3C381.9 20.8 380.7 19.6 379.2 19.6H375.84V28H377.22V24.94H378.852L380.628 28ZM377.22 20.896H379.2C379.932 20.896 380.52 21.508 380.52 22.3C380.52 23.08 379.932 23.704 379.2 23.704H377.22V20.896ZM384.579 26.68V24.412H387.939V23.104H384.579V20.92H388.239V19.6H383.199V28H388.299V26.68H384.579ZM393.464 28.156C395.012 28.156 396.38 27.364 397.076 26.14L395.876 25.456C395.444 26.284 394.52 26.812 393.464 26.812C391.652 26.812 390.452 25.528 390.452 23.8C390.452 22.072 391.652 20.788 393.464 20.788C394.52 20.788 395.432 21.316 395.876 22.144L397.076 21.448C396.368 20.224 395 19.444 393.464 19.444C390.908 19.444 389.072 21.364 389.072 23.8C389.072 26.236 390.908 28.156 393.464 28.156ZM401.319 28.156C403.155 28.156 404.499 27.028 404.499 25.216V19.6H403.119V25.132C403.119 26.116 402.555 26.812 401.319 26.812C400.083 26.812 399.519 26.116 399.519 25.132V19.6H398.139V25.216C398.139 27.028 399.471 28.156 401.319 28.156ZM409.182 19.6H406.086V28H407.466V25.12H409.182C410.766 25.12 411.966 23.908 411.966 22.36C411.966 20.8 410.766 19.6 409.182 19.6ZM409.182 23.824H407.466V20.896H409.182C409.998 20.896 410.586 21.508 410.586 22.36C410.586 23.2 409.998 23.824 409.182 23.824ZM414.544 26.68V24.412H417.904V23.104H414.544V20.92H418.204V19.6H413.164V28H418.264V26.68H414.544ZM424.316 28H425.828L423.92 24.736C424.904 24.34 425.588 23.38 425.588 22.3C425.588 20.8 424.388 19.6 422.888 19.6H419.528V28H420.908V24.94H422.54L424.316 28ZM420.908 20.896H422.888C423.62 20.896 424.208 21.508 424.208 22.3C424.208 23.08 423.62 23.704 422.888 23.704H420.908V20.896ZM432.359 28H433.847L430.811 19.6H429.155L426.107 28H427.607L428.195 26.308H431.771L432.359 28ZM428.651 25.012L429.983 21.22L431.315 25.012H428.651ZM438.05 19.6H434.75V28H438.05C440.366 28 442.07 26.14 442.07 23.8C442.07 21.448 440.366 19.6 438.05 19.6ZM438.05 26.68H436.13V20.92H438.05C439.646 20.92 440.738 22.132 440.738 23.8C440.738 25.456 439.646 26.68 438.05 26.68ZM447.264 28.156C449.7 28.156 451.62 26.236 451.62 23.8C451.62 21.364 449.7 19.444 447.264 19.444C444.84 19.444 442.908 21.364 442.908 23.8C442.908 26.236 444.84 28.156 447.264 28.156ZM447.264 26.812C445.584 26.812 444.288 25.528 444.288 23.8C444.288 22.072 445.584 20.788 447.264 20.788C448.944 20.788 450.24 22.072 450.24 23.8C450.24 25.528 448.944 26.812 447.264 26.812ZM455.359 28.156C457.111 28.156 458.335 27.22 458.335 25.684C458.335 24.016 456.931 23.584 455.539 23.14C454.315 22.756 453.847 22.48 453.847 21.832C453.847 21.196 454.363 20.788 455.167 20.788C456.103 20.788 456.631 21.292 456.931 21.964L458.095 21.292C457.567 20.176 456.547 19.444 455.167 19.444C453.751 19.444 452.467 20.32 452.467 21.868C452.467 23.452 453.739 23.932 455.047 24.328C456.295 24.712 456.955 24.964 456.955 25.708C456.955 26.32 456.487 26.812 455.395 26.812C454.255 26.812 453.607 26.248 453.307 25.396L452.119 26.092C452.563 27.34 453.703 28.156 455.359 28.156Z" fill="#101010"/>
<path d="M17.528 49H28.952V45.304H23.312L26.096 42.496C27.632 40.96 28.712 39.232 28.712 37.216C28.712 33.832 26.024 31.864 23.024 31.864C20.696 31.864 18.44 33.04 17.36 35.536L20.6 37.432C21.056 36.376 21.896 35.608 23.072 35.608C24.2 35.608 24.872 36.328 24.872 37.384C24.872 38.368 24.152 39.352 23.168 40.36L17.528 46.216V49ZM38.4665 39.016L41.3705 35.32V32.2H30.5705V35.8H36.7145L33.6665 39.664L35.1305 41.848H35.9225C37.5065 41.848 38.2025 42.688 38.2025 43.72C38.2025 44.752 37.5065 45.592 35.9225 45.592C34.4585 45.592 33.7385 44.92 33.3545 43.816L30.0425 45.736C31.0745 48.208 33.3785 49.336 35.9225 49.336C39.1625 49.336 42.0425 47.416 42.0425 43.72C42.0425 41.392 40.5305 39.736 38.4665 39.016ZM50.1258 37.504L53.7738 32.2H49.3578L44.2218 40C43.5978 40.936 43.2378 42.112 43.2378 43.408C43.2378 46.888 45.7578 49.336 49.4778 49.336C53.1738 49.336 55.7178 46.888 55.7178 43.408C55.7178 40.144 53.4618 37.768 50.1258 37.504ZM49.4778 45.736C48.1818 45.736 47.0778 44.896 47.0778 43.408C47.0778 41.92 48.1818 41.08 49.4778 41.08C50.7498 41.08 51.8778 41.944 51.8778 43.408C51.8778 44.872 50.7498 45.736 49.4778 45.736ZM59.0788 49.336C60.3268 49.336 61.3588 48.304 61.3588 47.056C61.3588 45.808 60.3268 44.776 59.0788 44.776C57.8308 44.776 56.7988 45.808 56.7988 47.056C56.7988 48.304 57.8308 49.336 59.0788 49.336ZM67.0773 32.2L62.6853 33.784L63.6213 37.072L66.5973 36.256V49H70.4373V32.2H67.0773ZM79.685 49.336C84.029 49.336 86.525 45.784 86.525 40.6C86.525 35.416 84.029 31.864 79.685 31.864C75.341 31.864 72.845 35.416 72.845 40.6C72.845 45.784 75.341 49.336 79.685 49.336ZM79.685 45.592C77.669 45.592 76.685 43.84 76.685 40.6C76.685 37.36 77.669 35.608 79.685 35.608C81.701 35.608 82.685 37.36 82.685 40.6C82.685 43.84 81.701 45.592 79.685 45.592ZM98.1142 40.24C99.0982 39.472 99.7222 38.368 99.7222 36.856C99.7222 33.592 97.2262 31.864 94.1302 31.864C91.0342 31.864 88.5382 33.592 88.5382 36.856C88.5382 38.368 89.1622 39.472 90.1462 40.24C88.7302 41.152 87.9622 42.616 87.9622 44.272C87.9622 47.344 90.1702 49.336 94.1302 49.336C98.0902 49.336 100.298 47.344 100.298 44.272C100.298 42.616 99.5302 41.152 98.1142 40.24ZM94.1302 35.464C95.2102 35.464 95.8822 36.16 95.8822 37.096C95.8822 38.032 95.2102 38.728 94.1302 38.728C93.0502 38.728 92.3782 38.032 92.3782 37.096C92.3782 36.16 93.0502 35.464 94.1302 35.464ZM94.1302 45.736C92.7862 45.736 91.8022 44.992 91.8022 43.72C91.8022 42.448 92.7862 41.704 94.1302 41.704C95.4742 41.704 96.4582 42.448 96.4582 43.72C96.4582 44.992 95.4742 45.736 94.1302 45.736Z" fill="#A0A6AF"/>
<path d="M21.474 60.4L18.18 61.588L18.882 64.054L21.114 63.442V73H23.994V60.4H21.474ZM29.6698 70.21H26.7898L26.0698 75.52H28.2298L29.6698 70.21ZM30.6605 60.4V63.172H35.7365L31.7765 73H34.8365L38.9405 62.812V60.4H30.6605ZM43.1567 66.268C44.9387 66.268 46.2707 64.9 46.2707 63.208C46.2707 61.462 44.9387 60.148 43.1567 60.148C41.3567 60.148 40.0247 61.516 40.0247 63.208C40.0247 64.9 41.3567 66.268 43.1567 66.268ZM41.5187 71.02L42.7067 71.722L50.8427 62.704L49.6547 62.02L41.5187 71.02ZM43.1387 64.198C42.5807 64.198 42.1847 63.766 42.1847 63.208C42.1847 62.65 42.5807 62.218 43.1387 62.218C43.7147 62.218 44.1107 62.65 44.1107 63.208C44.1107 63.73 43.7147 64.198 43.1387 64.198ZM49.5827 73.216C51.3647 73.216 52.6967 71.848 52.6967 70.156C52.6967 68.464 51.3647 67.096 49.5827 67.096C47.7827 67.096 46.4507 68.464 46.4507 70.156C46.4507 71.848 47.7827 73.216 49.5827 73.216ZM49.5647 71.146C49.0067 71.146 48.6107 70.714 48.6107 70.156C48.6107 69.598 49.0067 69.166 49.5647 69.166C50.1407 69.166 50.5367 69.598 50.5367 70.156C50.5367 70.678 50.1407 71.146 49.5647 71.146Z" fill="#FFAA25"/>
<path d="M199.474 60.4L196.18 61.588L196.882 64.054L199.114 63.442V73H201.994V60.4H199.474ZM207.67 70.21H204.79L204.07 75.52H206.23L207.67 70.21ZM216.935 64.594C216.935 61.984 215.045 60.148 212.255 60.148C209.483 60.148 207.575 61.984 207.575 64.594C207.575 67.042 209.267 68.824 211.769 69.022L209.033 73H212.345L216.197 67.15C216.665 66.448 216.935 65.566 216.935 64.594ZM210.455 64.594C210.455 63.496 211.301 62.848 212.255 62.848C213.227 62.848 214.055 63.478 214.055 64.594C214.055 65.71 213.227 66.34 212.255 66.34C211.301 66.34 210.455 65.692 210.455 64.594ZM221.139 66.268C222.921 66.268 224.253 64.9 224.253 63.208C224.253 61.462 222.921 60.148 221.139 60.148C219.339 60.148 218.007 61.516 218.007 63.208C218.007 64.9 219.339 66.268 221.139 66.268ZM219.501 71.02L220.689 71.722L228.825 62.704L227.637 62.02L219.501 71.02ZM221.121 64.198C220.563 64.198 220.167 63.766 220.167 63.208C220.167 62.65 220.563 62.218 221.121 62.218C221.697 62.218 222.093 62.65 222.093 63.208C222.093 63.73 221.697 64.198 221.121 64.198ZM227.565 73.216C229.347 73.216 230.679 71.848 230.679 70.156C230.679 68.464 229.347 67.096 227.565 67.096C225.765 67.096 224.433 68.464 224.433 70.156C224.433 71.848 225.765 73.216 227.565 73.216ZM227.547 71.146C226.989 71.146 226.593 70.714 226.593 70.156C226.593 69.598 226.989 69.166 227.547 69.166C228.123 69.166 228.519 69.598 228.519 70.156C228.519 70.678 228.123 71.146 227.547 71.146Z" fill="#FA0067"/>
<path opacity="0.7" d="M381.526 64.378L384.262 60.4H380.95L377.098 66.25C376.63 66.952 376.36 67.834 376.36 68.806C376.36 71.416 378.25 73.252 381.04 73.252C383.812 73.252 385.72 71.416 385.72 68.806C385.72 66.358 384.028 64.576 381.526 64.378ZM381.04 70.552C380.068 70.552 379.24 69.922 379.24 68.806C379.24 67.69 380.068 67.06 381.04 67.06C381.994 67.06 382.84 67.708 382.84 68.806C382.84 69.904 381.994 70.552 381.04 70.552ZM390.131 70.21H387.251L386.531 75.52H388.691L390.131 70.21ZM399.095 66.43C399.833 65.854 400.301 65.026 400.301 63.892C400.301 61.444 398.429 60.148 396.107 60.148C393.785 60.148 391.913 61.444 391.913 63.892C391.913 65.026 392.381 65.854 393.119 66.43C392.057 67.114 391.481 68.212 391.481 69.454C391.481 71.758 393.137 73.252 396.107 73.252C399.077 73.252 400.733 71.758 400.733 69.454C400.733 68.212 400.157 67.114 399.095 66.43ZM396.107 62.848C396.917 62.848 397.421 63.37 397.421 64.072C397.421 64.774 396.917 65.296 396.107 65.296C395.297 65.296 394.793 64.774 394.793 64.072C394.793 63.37 395.297 62.848 396.107 62.848ZM396.107 70.552C395.099 70.552 394.361 69.994 394.361 69.04C394.361 68.086 395.099 67.528 396.107 67.528C397.115 67.528 397.853 68.086 397.853 69.04C397.853 69.994 397.115 70.552 396.107 70.552ZM404.778 66.268C406.56 66.268 407.892 64.9 407.892 63.208C407.892 61.462 406.56 60.148 404.778 60.148C402.978 60.148 401.646 61.516 401.646 63.208C401.646 64.9 402.978 66.268 404.778 66.268ZM403.14 71.02L404.328 71.722L412.464 62.704L411.276 62.02L403.14 71.02ZM404.76 64.198C404.202 64.198 403.806 63.766 403.806 63.208C403.806 62.65 404.202 62.218 404.76 62.218C405.336 62.218 405.732 62.65 405.732 63.208C405.732 63.73 405.336 64.198 404.76 64.198ZM411.204 73.216C412.986 73.216 414.318 71.848 414.318 70.156C414.318 68.464 412.986 67.096 411.204 67.096C409.404 67.096 408.072 68.464 408.072 70.156C408.072 71.848 409.404 73.216 411.204 73.216ZM411.186 71.146C410.628 71.146 410.232 70.714 410.232 70.156C410.232 69.598 410.628 69.166 411.186 69.166C411.762 69.166 412.158 69.598 412.158 70.156C412.158 70.678 411.762 71.146 411.186 71.146Z" fill="#00B749"/>
<path d="M196.528 51H207.952V47.304H202.312L205.096 44.496C206.632 42.96 207.712 41.232 207.712 39.216C207.712 35.832 205.024 33.864 202.024 33.864C199.696 33.864 197.44 35.04 196.36 37.536L199.6 39.432C200.056 38.376 200.896 37.608 202.072 37.608C203.2 37.608 203.872 38.328 203.872 39.384C203.872 40.368 203.152 41.352 202.168 42.36L196.528 48.216V51ZM222.243 44.76H220.562V41.16H216.675V44.76H213.171L218.523 34.2H214.395L209.043 44.76V48.312H216.675V51H220.562V48.312H222.243V44.76ZM225.844 51.336C227.092 51.336 228.124 50.304 228.124 49.056C228.124 47.808 227.092 46.776 225.844 46.776C224.596 46.776 223.564 47.808 223.564 49.056C223.564 50.304 224.596 51.336 225.844 51.336ZM229.739 51H241.163V47.304H235.523L238.307 44.496C239.843 42.96 240.923 41.232 240.923 39.216C240.923 35.832 238.235 33.864 235.235 33.864C232.907 33.864 230.651 35.04 229.571 37.536L232.811 39.432C233.267 38.376 234.107 37.608 235.283 37.608C236.411 37.608 237.083 38.328 237.083 39.384C237.083 40.368 236.363 41.352 235.379 42.36L229.739 48.216V51ZM241.779 34.2V37.896H248.547L243.267 51H247.347L252.819 37.416V34.2H241.779ZM259.418 40.104H258.05L258.218 37.8H264.338V34.2H254.618L253.922 43.848H259.178C260.642 43.848 261.338 44.688 261.338 45.72C261.338 46.752 260.642 47.592 259.058 47.592C257.474 47.592 256.754 46.92 256.37 45.816L253.058 47.736C254.09 50.208 256.394 51.336 259.058 51.336C262.298 51.336 265.178 49.416 265.178 45.72C265.178 42.024 262.538 40.104 259.418 40.104Z" fill="#A0A6AF"/>
<path d="M379.632 34.2L375.24 35.784L376.176 39.072L379.152 38.256V51H382.992V34.2H379.632ZM392.24 51.336C396.584 51.336 399.08 47.784 399.08 42.6C399.08 37.416 396.584 33.864 392.24 33.864C387.896 33.864 385.4 37.416 385.4 42.6C385.4 47.784 387.896 51.336 392.24 51.336ZM392.24 47.592C390.224 47.592 389.24 45.84 389.24 42.6C389.24 39.36 390.224 37.608 392.24 37.608C394.256 37.608 395.24 39.36 395.24 42.6C395.24 45.84 394.256 47.592 392.24 47.592ZM410.669 42.24C411.653 41.472 412.277 40.368 412.277 38.856C412.277 35.592 409.781 33.864 406.685 33.864C403.589 33.864 401.093 35.592 401.093 38.856C401.093 40.368 401.717 41.472 402.701 42.24C401.285 43.152 400.517 44.616 400.517 46.272C400.517 49.344 402.725 51.336 406.685 51.336C410.645 51.336 412.853 49.344 412.853 46.272C412.853 44.616 412.085 43.152 410.669 42.24ZM406.685 37.464C407.765 37.464 408.437 38.16 408.437 39.096C408.437 40.032 407.765 40.728 406.685 40.728C405.605 40.728 404.933 40.032 404.933 39.096C404.933 38.16 405.605 37.464 406.685 37.464ZM406.685 47.736C405.341 47.736 404.357 46.992 404.357 45.72C404.357 44.448 405.341 43.704 406.685 43.704C408.029 43.704 409.013 44.448 409.013 45.72C409.013 46.992 408.029 47.736 406.685 47.736ZM416.938 51.336C418.186 51.336 419.218 50.304 419.218 49.056C419.218 47.808 418.186 46.776 416.938 46.776C415.69 46.776 414.658 47.808 414.658 49.056C414.658 50.304 415.69 51.336 416.938 51.336ZM431.577 39.792C431.577 36.312 429.057 33.864 425.337 33.864C421.641 33.864 419.097 36.312 419.097 39.792C419.097 43.056 421.353 45.432 424.689 45.696L421.041 51H425.457L430.593 43.2C431.217 42.264 431.577 41.088 431.577 39.792ZM422.937 39.792C422.937 38.328 424.065 37.464 425.337 37.464C426.633 37.464 427.737 38.304 427.737 39.792C427.737 41.28 426.633 42.12 425.337 42.12C424.065 42.12 422.937 41.256 422.937 39.792ZM445.258 44.76H443.578V41.16H439.69V44.76H436.186L441.538 34.2H437.41L432.058 44.76V48.312H439.69V51H443.578V48.312H445.258V44.76ZM445.271 34.2V37.896H452.039L446.759 51H450.839L456.311 37.416V34.2H445.271Z" fill="#A0A6AF"/>
<path d="M58 56H82V80H58V56Z" fill="white"/>
<path fill-rule="evenodd" clip-rule="evenodd" d="M70.875 59.7593C70.875 59.409 70.4833 59.125 70 59.125C69.5168 59.125 69.125 59.409 69.125 59.7593V75.9907C69.125 76.341 69.5168 76.625 70 76.625C70.4833 76.625 70.875 76.341 70.875 75.9907V59.7593Z" fill="#B7BDC2"/>
<path fill-rule="evenodd" clip-rule="evenodd" d="M78.125 61.266V62.2783C78.125 62.6925 78.4608 63.0283 78.875 63.0283C79.2892 63.0283 79.625 62.6925 79.625 62.2783V59.4404C79.625 59.0262 79.2892 58.6904 78.875 58.6904H76.011C75.5968 58.6904 75.261 59.0262 75.261 59.4404C75.261 59.8547 75.5968 60.1904 76.011 60.1904H76.7858L71.5023 65.2895C71.0791 65.0615 70.5947 64.9317 70.0806 64.9317C68.431 64.9317 67.0891 66.2649 67.0891 67.9034C67.0891 69.542 68.431 70.875 70.0806 70.875C71.7299 70.875 73.072 69.542 73.072 67.9034C73.072 67.3924 72.9413 66.9114 72.7118 66.491L78.1088 61.2825C78.1143 61.2771 78.1197 61.2715 78.125 61.266Z" fill="#1D9C44"/>
<path fill-rule="evenodd" clip-rule="evenodd" d="M70.0785 66.6309C70.7847 66.6309 71.3594 67.2018 71.3594 67.9034C71.3594 68.6049 70.7847 69.1758 70.0785 69.1758C69.3722 69.1758 68.7976 68.6049 68.7976 67.9034C68.7976 67.2018 69.3722 66.6309 70.0785 66.6309Z" fill="white"/>
<path d="M417 56H441V80H417V56Z" fill="white"/>
<path fill-rule="evenodd" clip-rule="evenodd" d="M429.875 59.7593C429.875 59.409 429.483 59.125 429 59.125C428.517 59.125 428.125 59.409 428.125 59.7593V75.9907C428.125 76.341 428.517 76.625 429 76.625C429.483 76.625 429.875 76.341 429.875 75.9907V59.7593Z" fill="#B7BDC2"/>
<path fill-rule="evenodd" clip-rule="evenodd" d="M437.125 61.266V62.2783C437.125 62.6925 437.461 63.0283 437.875 63.0283C438.289 63.0283 438.625 62.6925 438.625 62.2783V59.4404C438.625 59.0262 438.289 58.6904 437.875 58.6904H435.011C434.597 58.6904 434.261 59.0262 434.261 59.4404C434.261 59.8547 434.597 60.1904 435.011 60.1904H435.786L430.502 65.2895C430.079 65.0615 429.595 64.9317 429.081 64.9317C427.431 64.9317 426.089 66.2649 426.089 67.9034C426.089 69.542 427.431 70.875 429.081 70.875C430.73 70.875 432.072 69.542 432.072 67.9034C432.072 67.3924 431.941 66.9114 431.712 66.491L437.109 61.2825C437.114 61.2771 437.12 61.2715 437.125 61.266Z" fill="#1D9C44"/>
<path fill-rule="evenodd" clip-rule="evenodd" d="M429.078 66.6309C429.785 66.6309 430.359 67.2018 430.359 67.9034C430.359 68.6049 429.785 69.1758 429.078 69.1758C428.372 69.1758 427.798 68.6049 427.798 67.9034C427.798 67.2018 428.372 66.6309 429.078 66.6309Z" fill="white"/>
<path d="M239 56H263V80H239V56Z" fill="white"/>
<path fill-rule="evenodd" clip-rule="evenodd" d="M251.875 59.7593C251.875 59.409 251.483 59.125 251 59.125C250.517 59.125 250.125 59.409 250.125 59.7593V75.9907C250.125 76.341 250.517 76.625 251 76.625C251.483 76.625 251.875 76.341 251.875 75.9907V59.7593Z" fill="#B7BDC2"/>
<path fill-rule="evenodd" clip-rule="evenodd" d="M259.125 61.266V62.2783C259.125 62.6925 259.461 63.0283 259.875 63.0283C260.289 63.0283 260.625 62.6925 260.625 62.2783V59.4404C260.625 59.0262 260.289 58.6904 259.875 58.6904H257.011C256.597 58.6904 256.261 59.0262 256.261 59.4404C256.261 59.8547 256.597 60.1904 257.011 60.1904H257.786L252.502 65.2895C252.079 65.0615 251.595 64.9317 251.081 64.9317C249.431 64.9317 248.089 66.2649 248.089 67.9034C248.089 69.542 249.431 70.875 251.081 70.875C252.73 70.875 254.072 69.542 254.072 67.9034C254.072 67.3924 253.941 66.9114 253.712 66.491L259.109 61.2825C259.114 61.2771 259.12 61.2715 259.125 61.266Z" fill="#1D9C44"/>
<path fill-rule="evenodd" clip-rule="evenodd" d="M251.078 66.6309C251.785 66.6309 252.359 67.2018 252.359 67.9034C252.359 68.6049 251.785 69.1758 251.078 69.1758C250.372 69.1758 249.798 68.6049 249.798 67.9034C249.798 67.2018 250.372 66.6309 251.078 66.6309Z" fill="white"/>
<line x1="180.5" y1="19" x2="180.5" y2="99" stroke="#EBEBEB"/>
<line x1="359.5" y1="19" x2="359.5" y2="99" stroke="#EBEBEB"/>
</svg>
