<svg width="532" height="233" viewBox="0 0 532 233" fill="none" xmlns="http://www.w3.org/2000/svg">
<path d="M270.278 49V43.432L281.558 31.72C283.83 29.384 284.966 27.4 284.966 25.768C284.966 24.712 284.646 23.864 284.006 23.224C283.366 22.552 282.486 22.216 281.366 22.216C279.126 22.216 277.478 23.432 276.422 25.864L269.942 22.072C270.966 19.672 272.502 17.848 274.55 16.6C276.598 15.352 278.838 14.728 281.27 14.728C284.406 14.728 287.078 15.704 289.286 17.656C291.526 19.576 292.646 22.168 292.646 25.432C292.646 28.984 290.902 32.504 287.414 35.992L281.846 41.608H293.126V49H270.278ZM308.123 26.008C311.451 26.264 314.139 27.48 316.187 29.656C318.267 31.832 319.307 34.552 319.307 37.816C319.307 41.304 318.139 44.152 315.803 46.36C313.499 48.568 310.507 49.672 306.827 49.672C303.115 49.672 300.107 48.568 297.803 46.36C295.499 44.152 294.347 41.304 294.347 37.816C294.347 35.224 295.003 32.952 296.315 31L306.587 15.4H315.419L308.123 26.008ZM303.419 41.224C304.347 42.056 305.483 42.472 306.827 42.472C308.171 42.472 309.307 42.056 310.235 41.224C311.163 40.36 311.627 39.224 311.627 37.816C311.627 36.408 311.163 35.288 310.235 34.456C309.307 33.592 308.171 33.16 306.827 33.16C305.483 33.16 304.347 33.576 303.419 34.408C302.491 35.24 302.027 36.376 302.027 37.816C302.027 39.256 302.491 40.392 303.419 41.224ZM328.285 48.328C327.389 49.224 326.317 49.672 325.069 49.672C323.821 49.672 322.749 49.224 321.853 48.328C320.957 47.432 320.509 46.36 320.509 45.112C320.509 43.864 320.957 42.792 321.853 41.896C322.749 41 323.821 40.552 325.069 40.552C326.317 40.552 327.389 41 328.285 41.896C329.181 42.792 329.629 43.864 329.629 45.112C329.629 46.36 329.181 47.432 328.285 48.328ZM348.65 29.032C350.794 29.768 352.522 30.968 353.834 32.632C355.146 34.264 355.802 36.2 355.802 38.44C355.802 41.96 354.618 44.712 352.25 46.696C349.882 48.68 346.986 49.672 343.562 49.672C340.906 49.672 338.522 49.064 336.41 47.848C334.33 46.632 332.794 44.84 331.802 42.472L338.426 38.632C339.258 41 340.97 42.184 343.562 42.184C345.066 42.184 346.202 41.832 346.97 41.128C347.738 40.424 348.122 39.528 348.122 38.44C348.122 37.352 347.738 36.456 346.97 35.752C346.202 35.048 345.066 34.696 343.562 34.696H341.978L339.05 30.328L345.146 22.6H332.858V15.4H354.458V21.64L348.65 29.032ZM378.017 31.48C380.929 33.368 382.385 36.056 382.385 39.544C382.385 42.648 381.297 45.112 379.121 46.936C376.977 48.76 373.953 49.672 370.049 49.672C366.145 49.672 363.105 48.76 360.929 46.936C358.785 45.112 357.713 42.648 357.713 39.544C357.713 36.056 359.169 33.368 362.081 31.48C359.937 29.816 358.865 27.56 358.865 24.712C358.865 21.576 359.921 19.128 362.033 17.368C364.145 15.608 366.817 14.728 370.049 14.728C373.281 14.728 375.953 15.608 378.065 17.368C380.177 19.128 381.233 21.576 381.233 24.712C381.233 27.56 380.161 29.816 378.017 31.48ZM372.593 22.84C371.953 22.232 371.105 21.928 370.049 21.928C368.993 21.928 368.145 22.232 367.505 22.84C366.865 23.448 366.545 24.232 366.545 25.192C366.545 26.152 366.865 26.936 367.505 27.544C368.145 28.152 368.993 28.456 370.049 28.456C371.105 28.456 371.953 28.152 372.593 27.544C373.233 26.936 373.553 26.152 373.553 25.192C373.553 24.232 373.233 23.448 372.593 22.84ZM366.689 41.416C367.553 42.12 368.673 42.472 370.049 42.472C371.425 42.472 372.545 42.12 373.409 41.416C374.273 40.68 374.705 39.688 374.705 38.44C374.705 37.192 374.273 36.216 373.409 35.512C372.545 34.776 371.425 34.408 370.049 34.408C368.673 34.408 367.553 34.776 366.689 35.512C365.825 36.216 365.393 37.192 365.393 38.44C365.393 39.688 365.825 40.68 366.689 41.416ZM383.462 49V43.432L394.742 31.72C397.014 29.384 398.15 27.4 398.15 25.768C398.15 24.712 397.83 23.864 397.19 23.224C396.55 22.552 395.67 22.216 394.55 22.216C392.31 22.216 390.662 23.432 389.606 25.864L383.126 22.072C384.15 19.672 385.686 17.848 387.734 16.6C389.782 15.352 392.022 14.728 394.454 14.728C397.59 14.728 400.262 15.704 402.47 17.656C404.71 19.576 405.83 22.168 405.83 25.432C405.83 28.984 404.086 32.504 400.598 35.992L395.03 41.608H406.31V49H383.462Z" fill="#101010"/>
<path d="M74.96 34.228H80V37H72.08V24.4H79.91V27.172H74.96V29.26H79.46V31.996H74.96V34.228ZM87.3489 28H90.0489V37H87.3489V36.154C86.8089 36.886 85.9509 37.252 84.7749 37.252C83.8149 37.252 83.0109 36.922 82.3629 36.262C81.7269 35.602 81.4089 34.69 81.4089 33.526V28H84.1089V33.13C84.1089 33.658 84.2529 34.066 84.5409 34.354C84.8409 34.63 85.2189 34.768 85.6749 34.768C86.1909 34.768 86.5989 34.612 86.8989 34.3C87.1989 33.988 87.3489 33.526 87.3489 32.914V28ZM94.7291 29.602C94.8971 29.026 95.2331 28.588 95.7371 28.288C96.2531 27.976 96.8171 27.82 97.4291 27.82V30.88C96.7691 30.772 96.1511 30.886 95.5751 31.222C95.0111 31.546 94.7291 32.116 94.7291 32.932V37H92.0291V28H94.7291V29.602ZM106.132 35.884C105.208 36.796 104.08 37.252 102.748 37.252C101.416 37.252 100.288 36.796 99.3635 35.884C98.4395 34.96 97.9775 33.832 97.9775 32.5C97.9775 31.168 98.4395 30.046 99.3635 29.134C100.288 28.21 101.416 27.748 102.748 27.748C104.08 27.748 105.208 28.21 106.132 29.134C107.056 30.046 107.518 31.168 107.518 32.5C107.518 33.832 107.056 34.96 106.132 35.884ZM101.272 34.03C101.668 34.426 102.16 34.624 102.748 34.624C103.336 34.624 103.828 34.426 104.224 34.03C104.62 33.634 104.818 33.124 104.818 32.5C104.818 31.876 104.62 31.366 104.224 30.97C103.828 30.574 103.336 30.376 102.748 30.376C102.16 30.376 101.668 30.574 101.272 30.97C100.876 31.366 100.678 31.876 100.678 32.5C100.678 33.124 100.876 33.634 101.272 34.03ZM114.427 27.748C115.615 27.748 116.629 28.21 117.469 29.134C118.309 30.046 118.729 31.168 118.729 32.5C118.729 33.832 118.309 34.96 117.469 35.884C116.629 36.796 115.615 37.252 114.427 37.252C113.275 37.252 112.381 36.886 111.745 36.154V40.6H109.045V28H111.745V28.846C112.381 28.114 113.275 27.748 114.427 27.748ZM112.339 34.102C112.747 34.498 113.263 34.696 113.887 34.696C114.511 34.696 115.021 34.498 115.417 34.102C115.825 33.706 116.029 33.172 116.029 32.5C116.029 31.828 115.825 31.294 115.417 30.898C115.021 30.502 114.511 30.304 113.887 30.304C113.263 30.304 112.747 30.502 112.339 30.898C111.943 31.294 111.745 31.828 111.745 32.5C111.745 33.172 111.943 33.706 112.339 34.102ZM126.794 28H129.494V37H126.794V36.154C126.158 36.886 125.264 37.252 124.112 37.252C122.924 37.252 121.91 36.796 121.07 35.884C120.23 34.96 119.81 33.832 119.81 32.5C119.81 31.168 120.23 30.046 121.07 29.134C121.91 28.21 122.924 27.748 124.112 27.748C125.264 27.748 126.158 28.114 126.794 28.846V28ZM123.104 34.102C123.5 34.498 124.016 34.696 124.652 34.696C125.288 34.696 125.804 34.498 126.2 34.102C126.596 33.706 126.794 33.172 126.794 32.5C126.794 31.828 126.596 31.294 126.2 30.898C125.804 30.502 125.288 30.304 124.652 30.304C124.016 30.304 123.5 30.502 123.104 30.898C122.708 31.294 122.51 31.828 122.51 32.5C122.51 33.172 122.708 33.706 123.104 34.102Z" fill="#3CC3DD"/>
<g clip-path="url(#clip0)">
<path fill-rule="evenodd" clip-rule="evenodd" d="M62.5329 39.4178C61.93 38.6313 60.9501 38.4804 60.2344 38.3702L60.2343 38.3702L60.2239 38.3685L60.2238 38.3685C60.0479 38.3413 59.8674 38.3134 59.7642 38.2847C58.8826 38.0399 58.2433 37.5959 57.9156 37.0002C57.6199 36.4632 57.5854 35.81 57.8126 35.0592C57.8855 34.8181 58.0116 34.5412 58.1452 34.248L58.1478 34.2423C58.5475 33.3658 59.0446 32.275 58.5462 31.1125C58.1231 30.1262 57.2598 29.2396 56.4981 28.4573L56.4968 28.4559L56.4727 28.4312L56.5431 28.3724L56.5478 28.3685L56.5479 28.3684C57.2255 27.802 57.926 27.2164 58.6281 26.6908C58.694 26.6413 58.81 26.5693 58.924 26.4985L58.9241 26.4984L58.9366 26.4907C59.2022 26.3261 59.5032 26.1395 59.7431 25.9045C60.5194 25.1439 60.8479 24.0128 60.5607 23.0897C60.3042 22.2651 59.6168 21.6985 58.6744 21.535C58.4137 21.4897 58.11 21.4638 57.7586 21.4339L57.7485 21.4331C57.3527 21.3995 56.5126 21.3283 56.0887 21.1948C56.2007 20.7589 56.3994 19.8997 55.6895 19.0865C55.3291 18.6735 54.8988 18.5469 54.5881 18.4996C54.5745 18.3476 54.5525 18.1553 54.4986 17.9299C54.1573 16.5018 53.2971 15.3988 52.538 14.4254L52.538 14.4253L52.5373 14.4245L52.524 14.4073C52.3792 14.2217 52.2346 14.0363 52.094 13.8486C51.871 13.5513 51.6063 13.2517 51.3258 12.9346C50.8552 12.4022 50.2695 11.7396 50.1218 11.2973C50.0067 10.9525 50.0699 10.4145 50.137 9.84473C50.2236 9.11077 50.3216 8.27898 50.087 7.45021C49.6816 6.01803 48.437 5.05908 46.9866 5.05908H46.9691C44.9851 5.06962 44.2134 6.61078 43.7032 7.63028C43.0276 8.97927 42.3629 10.3572 41.7201 11.6897C41.3955 12.3629 41.0707 13.036 40.7435 13.7079C40.604 13.9946 40.4592 14.3567 40.2917 14.7759L40.2917 14.7759L40.287 14.7878C40.0036 15.4975 39.651 16.3807 39.2456 17.0697C38.7691 17.8797 38.4827 17.9777 38.4645 17.984L38.4637 17.9842C38.4636 17.9843 38.4635 17.9843 38.4635 17.9843C38.2777 17.9803 38.1896 17.9462 38.175 17.936C38.0028 17.7563 38.0309 16.755 38.0429 16.3274V16.3273C38.0674 15.4548 38.0927 14.5527 37.6873 13.8229C36.9168 12.4353 34.936 11.9933 33.4898 11.6706L33.4897 11.6706C33.2447 11.616 33.0133 11.5643 32.8377 11.5179L32.8365 11.5176C32.2775 11.37 31.8737 11.2634 31.4081 11.3835C30.8143 11.5367 30.5233 11.9544 30.2667 12.3229C30.2108 12.4032 30.1463 12.496 30.0684 12.6024L27.3392 16.3372C26.9902 16.8147 26.6608 17.3299 26.3122 17.8755L26.3118 17.8761C25.4189 19.273 24.4957 20.717 23.3522 21.3161C23.2503 21.3695 23.1543 21.4191 23.0642 21.4657L23.064 21.4658L23.0051 21.4962C21.4248 22.3121 21.0256 22.7091 20.7323 24.7397L20.7085 24.9028L20.7084 24.9029C20.5461 26.0023 20.3006 27.6639 21.3096 28.6865C21.6928 29.075 22.4027 29.5043 23.6054 29.3432C23.9419 29.2982 24.2176 29.1792 24.439 29.0644C24.519 29.2446 24.6375 29.4437 24.8237 29.6297C25.364 30.1691 26.0832 30.4522 26.8513 30.4272C27.7335 30.3983 28.596 29.9754 29.2182 29.2673C29.9752 28.4054 30.6353 26.8603 30.4318 25.5749C30.3285 24.9219 30.1067 24.5205 29.9598 24.2549L29.9212 24.1847C29.9264 24.1671 29.9335 24.1455 29.9429 24.1194C30.3013 23.1211 31.2904 21.9028 31.6994 21.8096C31.969 21.966 32.2965 22.8419 32.4758 23.3215L32.4768 23.3241L32.4776 23.3264C32.6643 23.8259 32.8573 24.3422 33.1256 24.7731C33.1376 24.7925 33.167 24.8496 33.1884 24.8913C33.2835 25.0764 33.4686 25.4365 33.796 25.7136C33.5704 25.8162 33.3357 25.9368 33.1136 26.0959C32.0629 26.8488 31.2364 27.8867 30.8466 28.9435C30.7007 29.3388 30.6365 29.7127 30.5798 30.0426L30.5797 30.0434C30.524 30.3686 30.4758 30.6496 30.3621 30.865C30.1132 31.3368 29.777 31.6751 29.3037 31.9298C29.1143 32.0317 28.8985 32.1212 28.6626 32.1957C28.0234 32.3974 27.6688 33.0792 27.8706 33.7185C28.0723 34.3576 28.7543 34.7119 29.3933 34.5105C29.7742 34.3904 30.1312 34.2412 30.4542 34.0673C31.3469 33.5871 32.0384 32.8904 32.5093 31.9972C32.8029 31.4404 32.8968 30.8935 32.9722 30.4539L32.9723 30.4538C33.0168 30.1941 33.0555 29.9699 33.124 29.7839C33.3434 29.1893 33.8812 28.5322 34.5275 28.0692C34.6381 27.9898 34.8524 27.899 35.0604 27.8108L35.0641 27.8093C35.7343 27.5256 36.9817 26.9972 37.0178 25.5305C37.0304 25.0263 36.4132 23.5289 35.8874 23.1389C35.6062 22.9304 35.2541 22.85 34.918 22.9129C34.8642 22.7768 34.8104 22.633 34.7572 22.4906L34.7511 22.4745L34.751 22.4742C34.3498 21.4002 33.8503 20.0635 32.5917 19.5493C31.9828 19.3006 31.317 19.3222 30.6666 19.6118C29.0302 20.3409 27.919 22.5743 27.6587 23.299C27.2951 24.3116 27.5596 24.9297 27.8359 25.4296L27.836 25.4297C27.9371 25.6125 27.9981 25.7228 28.0348 25.9541C28.1023 26.3822 27.7915 27.2138 27.395 27.6652C27.2218 27.8625 26.9771 27.9942 26.7722 28.001C26.7102 28.0027 26.6647 27.9928 26.6277 27.9758C26.5397 27.6739 26.3336 27.0014 25.5651 26.6386C24.6152 26.1903 23.8315 26.6268 23.4549 26.8367C23.3891 26.8734 23.3011 26.9223 23.2575 26.9403C23.1481 26.9534 23.0755 26.9522 23.0314 26.9481C22.9116 26.6031 23.0597 25.6001 23.1105 25.2572L23.1354 25.0865C23.1663 24.8728 23.2603 24.2224 23.3389 24.0997C23.4087 24.0199 23.7823 23.8269 24.1137 23.6557L24.1138 23.6557L24.1194 23.6527L24.1264 23.6491C24.2354 23.5929 24.3527 23.5323 24.4791 23.466C26.1944 22.5676 27.3439 20.7691 28.3581 19.1824C28.6858 18.6696 28.9953 18.1853 29.2997 17.7689L32.0289 14.0341C32.0773 13.9681 32.1212 13.9066 32.1615 13.8493C32.1808 13.8544 32.2001 13.8594 32.2185 13.8643C32.4372 13.9221 32.6881 13.9781 32.9537 14.0374L32.9619 14.0392C33.5463 14.1695 35.3246 14.5663 35.5626 14.9944C35.6474 15.1817 35.6284 15.8556 35.617 16.2582C35.5863 17.3442 35.5486 18.6956 36.4168 19.6084C36.9059 20.1225 37.577 20.3923 38.4115 20.4103C38.43 20.4108 38.4483 20.4109 38.4667 20.4109C40.6557 20.4106 41.7896 17.5713 42.542 15.687C42.6873 15.3229 42.8245 14.9791 42.9266 14.7696C43.2549 14.0951 43.581 13.4192 43.907 12.7434L43.9204 12.7154C44.5553 11.3996 45.2114 10.0396 45.8743 8.71601C46.3855 7.69458 46.5719 7.48775 46.9825 7.48557H46.9866C47.3442 7.48557 47.6443 7.73042 47.7518 8.11017C47.8547 8.47374 47.7927 9.00095 47.7269 9.5593L47.7269 9.55967C47.6359 10.3314 47.533 11.2061 47.82 12.0652C48.1243 12.976 48.8591 13.8075 49.5076 14.5411C49.7547 14.8207 49.9881 15.0847 50.1525 15.3043C50.3068 15.5098 50.4652 15.7132 50.6238 15.9165C51.2902 16.7707 51.9195 17.5776 52.1385 18.4935C52.1601 18.5847 52.1678 18.6737 52.1772 18.7864C52.2094 19.1716 52.2634 19.8165 52.9591 20.4387C53.1982 20.6525 53.4566 20.7617 53.6813 20.82C53.5819 21.2628 53.5021 21.9747 54.0432 22.6656C54.7882 23.6173 56.3162 23.747 57.5439 23.8511C57.8019 23.8729 58.0471 23.8938 58.2093 23.9178C58.1792 23.9958 58.1258 24.0901 58.047 24.1675C57.9867 24.223 57.7812 24.3504 57.6583 24.4265C57.4958 24.5273 57.3278 24.6315 57.174 24.7466C56.4181 25.3127 55.6905 25.9208 54.9868 26.5091C54.6451 26.7948 54.2916 27.0902 53.9447 27.3725C53.6932 27.577 53.5341 27.8736 53.5027 28.1961C53.4711 28.5185 53.5699 28.8402 53.7769 29.0895C54.0677 29.4397 54.4032 29.7842 54.7586 30.149L54.7587 30.1491C55.3735 30.7803 56.0703 31.4958 56.316 32.0685C56.3913 32.2441 56.1087 32.8641 55.9399 33.2344L55.9398 33.2344L55.939 33.2363C55.7774 33.5909 55.6103 33.9575 55.4899 34.355C55.0722 35.7353 55.1757 37.0545 55.7896 38.1698C56.4304 39.3342 57.6117 40.2055 59.1157 40.6229C59.2339 40.6558 59.3556 40.682 59.4779 40.7047C59.0918 40.7436 58.6775 40.761 58.2702 40.778L58.27 40.778L58.267 40.7781L58.2668 40.7781H58.2668C57.836 40.7962 57.3906 40.8148 56.9729 40.8596C56.5523 40.9047 56.1204 40.9739 55.7027 41.041L55.6974 41.0419L55.6973 41.0419C54.9224 41.1662 54.1215 41.2947 53.4589 41.2533C52.9155 41.2196 52.1768 40.9142 51.4626 40.6188L51.4625 40.6188L51.4619 40.6185C50.1915 40.0931 48.7516 39.4976 47.3534 39.9381C46.7367 40.1325 46.2723 40.3852 45.8991 40.5882L45.8982 40.5886L45.8977 40.5889C45.1935 40.9723 45.1028 41.0217 44.3476 40.5625C43.7954 40.2267 42.9594 39.816 42.0769 40.1241C41.1058 40.4633 40.764 41.3933 40.4334 42.2927C40.3966 42.393 40.3585 42.4966 40.3185 42.6027C40.2435 42.8012 40.144 43.0281 40.0386 43.2686L40.0386 43.2687L40.0339 43.2794L40.0338 43.2797C39.539 44.4077 38.8614 45.9525 39.5236 47.4107C39.639 47.665 39.7651 47.873 39.871 48.0434C39.5243 48.2925 38.875 48.4177 38.2458 48.5389C37.7835 48.6281 37.3055 48.7202 36.8604 48.8752C36.5211 48.9933 35.4886 49.3529 35.209 50.3454C34.9346 51.3195 35.5695 52.094 36.0331 52.6596L36.0333 52.6598C36.2124 52.8782 36.4152 53.1259 36.4884 53.2879C36.5964 53.5462 36.4052 54.2415 36.1832 54.4788C35.7794 54.1984 35.3192 53.4267 34.948 52.8042L34.9468 52.8023C34.7338 52.445 34.5326 52.1076 34.3184 51.8061C34.2063 51.6483 34.0756 51.4918 33.9492 51.3405L33.949 51.3403C33.8122 51.1765 33.5845 50.9039 33.534 50.7917C33.5207 50.7157 33.5334 50.5122 33.542 50.3747L33.5421 50.3722C33.5607 50.0789 33.5837 49.7138 33.5088 49.3331C33.1999 47.7591 29.4877 43.8427 27.2024 43.4848C26.2773 43.3398 25.4741 43.7103 25.0521 44.4749C24.7086 45.0972 24.8105 45.8877 25.4997 47.8494C25.4698 47.821 25.4442 47.797 25.4214 47.7765C25.1427 47.5232 24.9481 47.0999 24.7423 46.6518L24.7422 46.6514C24.4729 46.0653 24.1676 45.4008 23.5603 44.9664C22.8119 44.4307 21.8705 44.4111 20.7631 44.9086C20.6381 44.9647 20.521 45.0191 20.4102 45.0707L20.4094 45.0711C19.7017 45.3999 19.574 45.4592 19.0305 45.3097C17.4194 44.866 16.2753 44.7138 15.0972 46.5678C14.8615 46.9384 14.8537 46.9415 14.4432 47.0968C14.2182 47.182 13.9101 47.2986 13.526 47.4921C12.6414 47.9376 12.0265 48.5986 11.4841 49.1818L11.3671 49.3073C11.1391 49.5516 10.9177 49.8217 10.6834 50.1076C10.1015 50.8182 9.30586 51.7891 8.69954 51.7891L8.6861 51.789C8.37816 51.7815 8.0793 51.7346 7.76312 51.6848L7.76296 51.6848L7.76292 51.6848C7.28307 51.6095 6.7393 51.5242 6.0936 51.5657C5.87429 51.58 5.75381 51.5731 5.69568 51.5664C5.65284 51.5158 5.58978 51.4322 5.5359 51.3607L5.53588 51.3607L5.53305 51.3569L5.53225 51.3559C5.39168 51.1694 5.217 50.9378 4.96463 50.6652C4.60959 50.2816 4.22451 50.0037 3.91499 49.7806C3.75163 49.6628 3.51187 49.4898 3.43061 49.3953C3.43497 49.3579 3.4495 49.281 3.4977 49.1541C3.8918 48.1188 4.50103 47.0456 5.09019 46.0077L5.09045 46.0072L5.09852 45.993L5.09854 45.993C5.32065 45.6017 5.54994 45.1977 5.7641 44.8015C6.10571 44.1699 6.34511 44.0014 6.45748 43.9572C6.63852 43.8862 6.98219 43.955 7.42478 44.1521C8.28964 44.5365 9.16636 44.9595 10.0141 45.3687C10.4518 45.5799 10.8897 45.7911 11.3284 45.9986C11.6212 46.137 11.9569 46.1529 12.2612 46.0425C12.5656 45.9321 12.8132 45.7047 12.949 45.4109C13.0778 45.1325 13.2438 44.827 13.4194 44.5036L13.4205 44.5015L13.4219 44.499C13.8217 43.7628 14.2746 42.9286 14.4654 42.0651C14.5541 41.6636 14.5329 41.3077 14.5158 41.0216L14.5157 41.0204C14.5046 40.8336 14.4951 40.6724 14.5224 40.5811C14.6561 40.133 15.123 39.7723 15.6635 39.3546L15.6638 39.3544L15.8396 39.2181C16.7408 38.5148 18.1118 37.4812 19.6055 36.6302C20.1879 36.2984 20.3909 35.557 20.0591 34.9747C19.7274 34.3922 18.9864 34.1891 18.4035 34.5209C16.773 35.4501 15.3069 36.5544 14.346 37.3042L14.1794 37.4333L14.1793 37.4333C13.4549 37.993 12.5535 38.6895 12.196 39.8864C12.0461 40.3887 12.0728 40.8374 12.0923 41.1653L12.0924 41.1662C12.1014 41.3158 12.1105 41.4703 12.0949 41.5411C11.9806 42.0591 11.6427 42.6877 11.3108 43.2991L11.0689 43.1823L11.0621 43.1791L11.062 43.179C10.1994 42.7629 9.30783 42.3328 8.41098 41.9338C6.31907 41.0034 4.75442 41.5638 3.62848 43.647C3.42359 44.0257 3.2078 44.406 2.9793 44.8086C2.34488 45.926 1.68892 47.0814 1.22876 48.2906C0.468882 50.2877 1.78661 51.2383 2.49473 51.7492L2.49504 51.7494L2.49511 51.7494L2.49514 51.7495C2.75098 51.934 2.99288 52.1085 3.18322 52.3142C3.35275 52.4971 3.47566 52.6603 3.59445 52.8179C4.14071 53.5429 4.68309 54.0888 6.24993 53.9882C6.62559 53.9635 6.97528 54.0184 7.37934 54.0819L7.38628 54.083L7.38695 54.0831L7.38703 54.0831C7.74928 54.14 8.15979 54.2045 8.62725 54.2158C10.4208 54.2589 11.6572 52.7497 12.5605 51.6471L12.5612 51.6462C12.7696 51.3916 12.9667 51.1512 13.141 50.9645L13.2614 50.8351L13.2633 50.8331C13.7243 50.3375 14.1227 49.9093 14.6179 49.66C14.8877 49.5241 15.0977 49.4446 15.3007 49.3677L15.3021 49.3672C16.0116 49.0988 16.5231 48.8495 17.1459 47.8696C17.3176 47.5995 17.4178 47.4872 17.4628 47.4441C17.6555 47.4492 18.1565 47.5871 18.3828 47.6493L18.3829 47.6493L18.3856 47.6501C19.7885 48.0364 20.5872 47.6652 21.433 47.2722L21.4332 47.272C21.5352 47.2246 21.6426 47.1747 21.7576 47.123C21.9786 47.0237 22.1136 46.9912 22.1819 46.9809C22.2838 47.1157 22.4322 47.4385 22.5352 47.6626L22.5352 47.6626L22.5363 47.6649C22.8067 48.2538 23.1434 48.9866 23.7888 49.5731C23.844 49.6231 24.0048 49.7819 24.1796 49.9543L24.2038 49.9783C24.6648 50.4335 25.3615 51.1213 25.9991 51.6925C26.9828 52.5736 27.6883 53.1313 28.5136 52.8668C28.8344 52.764 29.1022 52.5302 29.2484 52.2254C29.5273 51.644 29.4013 51.3151 28.5815 49.1754C28.2921 48.4205 27.7856 47.098 27.4997 46.1774C27.9052 46.4162 28.4748 46.8274 29.1975 47.5084C30.3414 48.5862 31.0161 49.542 31.1299 49.8239C31.1387 49.9104 31.1275 50.0871 31.1192 50.2195L31.1191 50.2199C31.0952 50.6007 31.0653 51.0744 31.2332 51.5679C31.4097 52.087 31.7687 52.5169 32.0855 52.8961C32.1865 53.017 32.2818 53.1312 32.3391 53.2117C32.4968 53.4337 32.6737 53.7304 32.861 54.0446L32.8614 54.0451C33.3903 54.9322 33.9898 55.9375 34.8586 56.5135C35.2884 56.7984 35.7528 56.9398 36.2098 56.9398C36.7396 56.9397 37.2593 56.7496 37.7029 56.3731C38.7961 55.4441 39.2626 53.5366 38.7012 52.2913C38.4957 51.8357 38.1847 51.4561 37.91 51.1212L37.8908 51.0975C38.1304 51.0336 38.4116 50.9794 38.705 50.9228L38.7057 50.9227C39.6279 50.7448 40.6731 50.5432 41.4854 49.8609C43.0467 48.5496 42.2847 47.3275 41.9593 46.8055L41.9593 46.8055L41.9588 46.8048C41.8737 46.6683 41.7934 46.5394 41.7334 46.4071C41.5194 45.9355 41.9281 45.0037 42.2564 44.255L42.2565 44.255L42.2566 44.2547C42.3716 43.9925 42.4904 43.7213 42.5891 43.4602C42.6317 43.3475 42.6723 43.2374 42.7114 43.1306C42.7787 42.9474 42.8612 42.7235 42.9352 42.5503C42.979 42.5737 43.0291 42.6023 43.0862 42.637C45.0352 43.8221 46.1567 43.2119 47.058 42.7215L47.0584 42.7212L47.0591 42.7208C47.3835 42.5443 47.6901 42.3774 48.0829 42.2537C48.6389 42.0783 49.6435 42.4938 50.5308 42.8608L50.5338 42.862L50.5347 42.8624C51.4327 43.2338 52.3612 43.6178 53.3084 43.6766C54.2419 43.7344 55.18 43.5839 56.0873 43.4382L56.0921 43.4374C56.4949 43.3728 56.8755 43.3118 57.2313 43.2736C57.5706 43.2373 57.9581 43.2211 58.3683 43.204C59.295 43.1653 60.3453 43.1213 61.26 42.8132C62.0994 42.5304 62.7032 41.9667 62.9166 41.2666C63.1061 40.6446 62.97 39.9879 62.5329 39.4178ZM25.2104 33.7424C25.1596 33.0742 24.5732 32.5733 23.903 32.6246L23.8854 32.6259C23.2168 32.6767 22.7213 33.2594 22.7721 33.9278C22.8205 34.5649 23.357 35.0493 23.9861 35.0493C24.017 35.0493 24.0481 35.0482 24.0795 35.0456L24.0972 35.0443C24.7656 34.9936 25.2612 34.4109 25.2104 33.7424ZM18.1541 29.1172C18.3481 29.717 18.5486 30.3373 18.6616 30.9643C18.9349 32.4797 18.6876 33.7 17.9266 34.5914C16.7696 35.9459 14.7724 36.1356 12.9289 36.1356C12.5564 36.1356 12.1905 36.128 11.8387 36.1205L11.8365 36.1204C11.5139 36.1137 11.2091 36.1073 10.9257 36.1073C9.91376 36.1073 9.42345 35.5648 9.2211 35.2414C8.54491 34.1606 9.13779 32.7347 9.80332 31.3668L9.80878 31.3556C9.8636 31.2428 9.91921 31.1283 9.94112 31.0765C10.1196 30.6543 10.3152 30.2319 10.5046 29.8232L10.5055 29.8213C10.8806 29.0114 11.235 28.2466 11.4662 27.484C11.5919 27.0697 11.4983 26.5608 11.3898 25.9716L11.3898 25.9715C11.2527 25.2268 11.0973 24.3828 11.3591 23.4819C11.6025 22.644 12.3003 22.0309 13.3241 21.7556C14.5549 21.4244 16.3935 21.5795 17.3766 22.5189C18.5145 23.6061 18.1049 25.1063 17.8337 26.0992L17.8337 26.0993L17.8328 26.1026C17.7491 26.409 17.6454 26.7891 17.6489 26.9605C17.6616 27.5934 17.9008 28.3335 18.1541 29.1172ZM11.89 33.6931C13.387 33.7249 15.4371 33.7681 16.0805 33.0146C16.3457 32.7042 16.4102 32.1591 16.2727 31.3949C16.1889 30.9299 16.0223 30.4146 15.8461 29.8691L15.8443 29.8638L15.8439 29.8624C15.5477 28.9461 15.2415 27.9989 15.2219 27.0087C15.2115 26.4866 15.354 25.9645 15.4921 25.4596L15.4921 25.4595C15.5875 25.11 15.7639 24.4639 15.6967 24.2713C15.344 23.9699 14.0181 23.936 13.6771 24.2098C13.5973 24.5537 13.6809 25.0089 13.7771 25.532L13.7772 25.5322C13.9147 26.2796 14.0859 27.2098 13.7893 28.1882C13.5086 29.1136 13.1012 29.9931 12.7073 30.8434C12.5181 31.2515 12.3396 31.637 12.1775 32.0209C12.1298 32.1337 12.0666 32.2637 11.9865 32.4284C11.7269 32.9616 11.5465 33.3814 11.446 33.6844C11.5908 33.687 11.7385 33.69 11.89 33.6931Z" fill="black"/>
</g>
<path d="M425.092 27.252C427.396 27.252 429.412 26.118 430.492 24.336L428.008 22.896C427.468 23.868 426.37 24.444 425.092 24.444C422.86 24.444 421.42 22.95 421.42 20.7C421.42 18.45 422.86 16.956 425.092 16.956C426.37 16.956 427.45 17.532 428.008 18.504L430.492 17.064C429.394 15.282 427.378 14.148 425.092 14.148C421.294 14.148 418.54 16.992 418.54 20.7C418.54 24.408 421.294 27.252 425.092 27.252ZM438.374 18V18.846C437.78 18.162 436.898 17.748 435.692 17.748C433.334 17.748 431.39 19.818 431.39 22.5C431.39 25.182 433.334 27.252 435.692 27.252C436.898 27.252 437.78 26.838 438.374 26.154V27H441.074V18H438.374ZM436.232 24.696C434.99 24.696 434.09 23.85 434.09 22.5C434.09 21.15 434.99 20.304 436.232 20.304C437.474 20.304 438.374 21.15 438.374 22.5C438.374 23.85 437.474 24.696 436.232 24.696ZM445.523 20.628C445.523 20.304 445.811 20.124 446.279 20.124C446.873 20.124 447.233 20.448 447.485 20.916L449.789 19.674C449.033 18.396 447.737 17.748 446.279 17.748C444.407 17.748 442.751 18.738 442.751 20.7C442.751 23.814 447.179 23.292 447.179 24.282C447.179 24.642 446.855 24.84 446.207 24.84C445.415 24.84 444.911 24.462 444.677 23.778L442.337 25.11C443.039 26.568 444.407 27.252 446.207 27.252C448.151 27.252 449.951 26.37 449.951 24.3C449.951 20.97 445.523 21.654 445.523 20.628ZM455.531 27.252C458.177 27.252 460.301 25.182 460.301 22.5C460.301 19.818 458.177 17.748 455.531 17.748C452.885 17.748 450.761 19.818 450.761 22.5C450.761 25.182 452.885 27.252 455.531 27.252ZM455.531 24.624C454.361 24.624 453.461 23.778 453.461 22.5C453.461 21.222 454.361 20.376 455.531 20.376C456.701 20.376 457.601 21.222 457.601 22.5C457.601 23.778 456.701 24.624 455.531 24.624ZM464.208 20.628C464.208 20.304 464.496 20.124 464.964 20.124C465.558 20.124 465.918 20.448 466.17 20.916L468.474 19.674C467.718 18.396 466.422 17.748 464.964 17.748C463.092 17.748 461.436 18.738 461.436 20.7C461.436 23.814 465.864 23.292 465.864 24.282C465.864 24.642 465.54 24.84 464.892 24.84C464.1 24.84 463.596 24.462 463.362 23.778L461.022 25.11C461.724 26.568 463.092 27.252 464.892 27.252C466.836 27.252 468.636 26.37 468.636 24.3C468.636 20.97 464.208 21.654 464.208 20.628ZM423.31 49.252C425.074 49.252 426.604 48.334 427.378 46.93L425.02 45.58C424.732 46.21 424.066 46.588 423.274 46.588C422.104 46.588 421.24 45.742 421.24 44.5C421.24 43.258 422.104 42.412 423.274 42.412C424.066 42.412 424.714 42.79 425.02 43.42L427.378 42.052C426.604 40.666 425.056 39.748 423.31 39.748C420.574 39.748 418.54 41.818 418.54 44.5C418.54 47.182 420.574 49.252 423.31 49.252ZM432.609 49.252C435.255 49.252 437.379 47.182 437.379 44.5C437.379 41.818 435.255 39.748 432.609 39.748C429.963 39.748 427.839 41.818 427.839 44.5C427.839 47.182 429.963 49.252 432.609 49.252ZM432.609 46.624C431.439 46.624 430.539 45.778 430.539 44.5C430.539 43.222 431.439 42.376 432.609 42.376C433.779 42.376 434.679 43.222 434.679 44.5C434.679 45.778 433.779 46.624 432.609 46.624ZM444.18 39.748C442.992 39.748 442.092 40.18 441.606 40.846V40H438.906V49H441.606V44.086C441.606 42.808 442.29 42.232 443.28 42.232C444.144 42.232 444.846 42.754 444.846 43.87V49H447.546V43.474C447.546 41.044 445.998 39.748 444.18 39.748ZM457.68 40H452.676C452.676 38.956 453.342 38.74 454.35 38.74C455.034 38.74 455.79 38.794 456.6 38.884V36.4C455.826 36.238 455.088 36.148 454.35 36.148C451.362 36.148 449.976 37.48 449.976 40H448.77V42.592H449.976V49H452.676V42.592H454.98V49H457.68V40ZM462.366 41.602V40H459.666V49H462.366V44.932C462.366 43.15 463.95 42.7 465.066 42.88V39.82C463.932 39.82 462.726 40.396 462.366 41.602ZM476.408 39.748C475.13 39.748 474.302 40.216 473.798 40.936C473.294 40.18 472.502 39.748 471.44 39.748C470.234 39.748 469.442 40.216 469.028 40.828V40H466.328V49H469.028V43.924C469.028 42.862 469.532 42.232 470.432 42.232C471.296 42.232 471.728 42.808 471.728 43.708V49H474.428V43.924C474.428 42.862 474.932 42.232 475.832 42.232C476.696 42.232 477.128 42.808 477.128 43.708V49H479.828V43.474C479.828 41.224 478.478 39.748 476.408 39.748ZM488.208 40V40.846C487.614 40.162 486.732 39.748 485.526 39.748C483.168 39.748 481.224 41.818 481.224 44.5C481.224 47.182 483.168 49.252 485.526 49.252C486.732 49.252 487.614 48.838 488.208 48.154V49H490.908V40H488.208ZM486.066 46.696C484.824 46.696 483.924 45.85 483.924 44.5C483.924 43.15 484.824 42.304 486.066 42.304C487.308 42.304 488.208 43.15 488.208 44.5C488.208 45.85 487.308 46.696 486.066 46.696ZM499.422 36.4V40.846C498.828 40.162 497.946 39.748 496.74 39.748C494.382 39.748 492.438 41.818 492.438 44.5C492.438 47.182 494.382 49.252 496.74 49.252C497.946 49.252 498.828 48.838 499.422 48.154V49H502.122V36.4H499.422ZM497.28 46.696C496.038 46.696 495.138 45.85 495.138 44.5C495.138 43.15 496.038 42.304 497.28 42.304C498.522 42.304 499.422 43.15 499.422 44.5C499.422 45.85 498.522 46.696 497.28 46.696ZM508.423 49.252C511.069 49.252 513.193 47.182 513.193 44.5C513.193 41.818 511.069 39.748 508.423 39.748C505.777 39.748 503.653 41.818 503.653 44.5C503.653 47.182 505.777 49.252 508.423 49.252ZM508.423 46.624C507.253 46.624 506.353 45.778 506.353 44.5C506.353 43.222 507.253 42.376 508.423 42.376C509.593 42.376 510.493 43.222 510.493 44.5C510.493 45.778 509.593 46.624 508.423 46.624ZM517.101 42.628C517.101 42.304 517.389 42.124 517.857 42.124C518.451 42.124 518.811 42.448 519.063 42.916L521.367 41.674C520.611 40.396 519.315 39.748 517.857 39.748C515.985 39.748 514.329 40.738 514.329 42.7C514.329 45.814 518.757 45.292 518.757 46.282C518.757 46.642 518.433 46.84 517.785 46.84C516.993 46.84 516.489 46.462 516.255 45.778L513.915 47.11C514.617 48.568 515.985 49.252 517.785 49.252C519.729 49.252 521.529 48.37 521.529 46.3C521.529 42.97 517.101 43.654 517.101 42.628Z" fill="#3CC3DD"/>
<line x1="2" y1="66.5" x2="532" y2="66.5" stroke="#A0A6AF" stroke-dasharray="2 4"/>
<path d="M0.413812 181.862H23.5862C23.8147 181.862 24 181.677 24 181.448V166.552C24 166.323 23.8147 166.138 23.5862 166.138H0.413812C0.185297 166.138 0 166.323 0 166.552V181.448C0 181.677 0.185297 181.862 0.413812 181.862Z" fill="#C8414B"/>
<path d="M24 169.448H0V178.552H24V169.448Z" fill="#FFD250"/>
<path d="M10.1377 174L10.4886 172.421C10.5209 172.276 10.4103 172.138 10.2613 172.138H10.0142C9.86524 172.138 9.75462 172.276 9.78687 172.421L10.1377 174Z" fill="#C8414B"/>
<path d="M10.5541 173.172H9.72656V176.689H10.5541V173.172Z" fill="#F5F5F5"/>
<path d="M10.757 172.759H9.51562V173.173H10.757V172.759Z" fill="#FAB446"/>
<path d="M10.7605 174H8.69141V174.414H10.7605V174Z" fill="#C8414B"/>
<path d="M10.757 175.655L9.51562 175.241V174.828L10.757 175.241V175.655Z" fill="#C8414B"/>
<path d="M3.9307 174L4.28156 172.421C4.3139 172.276 4.20323 172.138 4.05426 172.138H3.80714C3.65821 172.138 3.54759 172.276 3.57984 172.421L3.9307 174Z" fill="#C8414B"/>
<path d="M5.37866 172.759C5.15014 172.759 4.96484 172.944 4.96484 173.172V175.862C4.96484 176.365 5.43406 177.31 7.03381 177.31C8.63356 177.31 9.10277 176.365 9.10277 175.862V173.172C9.10277 172.944 8.91748 172.759 8.68896 172.759H5.37866Z" fill="#F5F5F5"/>
<path d="M7.03381 174.828H4.96484V173.172C4.96484 172.944 5.15014 172.759 5.37866 172.759H7.03381V174.828Z" fill="#C8414B"/>
<path d="M7.03516 174.828H9.10412V175.862C9.10412 176.433 8.641 176.897 8.06964 176.897C7.49828 176.897 7.03516 176.433 7.03516 175.862V174.828Z" fill="#C8414B"/>
<path d="M4.96484 174.828H7.03381V175.862C7.03381 176.433 6.57068 176.897 5.99933 176.897C5.42797 176.897 4.96484 176.433 4.96484 175.862V174.828Z" fill="#FAB446"/>
<path d="M6.62084 176.685V174.828H6.20703V176.876C6.36097 176.845 6.50005 176.776 6.62084 176.685Z" fill="#C8414B"/>
<path d="M5.79272 176.876V174.828H5.37891V176.685C5.49975 176.776 5.63883 176.845 5.79272 176.876Z" fill="#C8414B"/>
<path d="M6.62029 174H5.37891V174.414H6.62029V174Z" fill="#FFB441"/>
<path d="M6.62029 173.172H5.37891V173.586H6.62029V173.172Z" fill="#FAB446"/>
<path d="M6.41351 173.418H5.58594V174.168H6.41351V173.418Z" fill="#FAB446"/>
<path d="M4.3432 173.172H3.51562V176.689H4.3432V173.172Z" fill="#F5F5F5"/>
<path d="M4.54998 176.483H3.30859V176.897H4.54998V176.483Z" fill="#FAB446"/>
<path d="M4.54998 172.759H3.30859V173.173H4.54998V172.759Z" fill="#FAB446"/>
<path d="M4.75672 176.896H3.10156V177.31H4.75672V176.896Z" fill="#5064AA"/>
<path d="M10.968 176.483H9.72656V176.897H10.968V176.483Z" fill="#FAB446"/>
<path d="M10.9637 176.896H9.30859V177.31H10.9637V176.896Z" fill="#5064AA"/>
<path d="M8.27574 172.345H5.79297V172.759H8.27574V172.345Z" fill="#FAB446"/>
<path d="M7.24194 171.104H6.82812V172.345H7.24194V171.104Z" fill="#FFB441"/>
<path d="M6.62067 171.724C6.27839 171.724 6 171.446 6 171.103C6 170.761 6.27844 170.483 6.62067 170.483C6.96295 170.483 7.24134 170.761 7.24134 171.103C7.24139 171.446 6.96295 171.724 6.62067 171.724ZM6.62067 170.896C6.50653 170.896 6.41376 170.989 6.41376 171.103C6.41376 171.217 6.50648 171.31 6.62067 171.31C6.73486 171.31 6.82758 171.218 6.82758 171.103C6.82758 170.989 6.73486 170.896 6.62067 170.896Z" fill="#F5F5F5"/>
<path d="M7.44489 171.724C7.10261 171.724 6.82422 171.446 6.82422 171.103C6.82422 170.761 7.10266 170.483 7.44489 170.483C7.78717 170.483 8.06556 170.761 8.06556 171.103C8.06556 171.446 7.78712 171.724 7.44489 171.724ZM7.44489 170.896C7.33075 170.896 7.23798 170.989 7.23798 171.103C7.23798 171.217 7.3307 171.31 7.44489 171.31C7.55903 171.31 7.65179 171.218 7.65179 171.103C7.65175 170.989 7.55903 170.896 7.44489 170.896Z" fill="#F5F5F5"/>
<path d="M8.27692 172.138C7.93464 172.138 7.65625 171.859 7.65625 171.517C7.65625 171.175 7.93469 170.896 8.27692 170.896C8.6192 170.896 8.89759 171.175 8.89759 171.517C8.89759 171.859 8.61915 172.138 8.27692 172.138ZM8.27692 171.31C8.16278 171.31 8.07001 171.403 8.07001 171.517C8.07001 171.631 8.16273 171.724 8.27692 171.724C8.39106 171.724 8.48383 171.631 8.48383 171.517C8.48383 171.403 8.39106 171.31 8.27692 171.31Z" fill="#F5F5F5"/>
<path d="M5.79255 172.138C5.45026 172.138 5.17188 171.859 5.17188 171.517C5.17188 171.175 5.45031 170.896 5.79255 170.896C6.13483 170.896 6.41322 171.175 6.41322 171.517C6.41326 171.859 6.13483 172.138 5.79255 172.138ZM5.79255 171.31C5.67841 171.31 5.58564 171.403 5.58564 171.517C5.58564 171.631 5.67836 171.724 5.79255 171.724C5.90673 171.724 5.99945 171.631 5.99945 171.517C5.99945 171.403 5.90673 171.31 5.79255 171.31Z" fill="#F5F5F5"/>
<path d="M8.27684 175.655V175.862C8.27684 175.976 8.18403 176.069 8.06994 176.069C7.95584 176.069 7.86303 175.976 7.86303 175.862V175.655H8.27684ZM8.69061 175.241H7.44922V175.862C7.44922 176.204 7.72766 176.483 8.06989 176.483C8.41217 176.483 8.69056 176.204 8.69056 175.862V175.241H8.69061Z" fill="#FAB446"/>
<path d="M8.07006 174.414C7.84155 174.414 7.65625 174.229 7.65625 174V173.586C7.65625 173.358 7.84155 173.172 8.07006 173.172C8.29858 173.172 8.48387 173.358 8.48387 173.586V174C8.48387 174.229 8.29858 174.414 8.07006 174.414Z" fill="#FFA0D2"/>
<path d="M7.03473 175.448C7.37752 175.448 7.65541 175.17 7.65541 174.827C7.65541 174.485 7.37752 174.207 7.03473 174.207C6.69195 174.207 6.41406 174.485 6.41406 174.827C6.41406 175.17 6.69195 175.448 7.03473 175.448Z" fill="#5064AA"/>
<path d="M7.24194 170.276H6.82812V171.517H7.24194V170.276Z" fill="#FAB446"/>
<path d="M5.79272 172.345L5.37891 171.931L5.6213 171.689C5.99597 171.314 6.50419 171.104 7.03411 171.104C7.56403 171.104 8.0722 171.314 8.44692 171.689L8.68931 171.931L8.2755 172.345H5.79272Z" fill="#C8414B"/>
<path d="M7.03503 172.138C7.1493 172.138 7.24194 172.045 7.24194 171.931C7.24194 171.817 7.1493 171.724 7.03503 171.724C6.92076 171.724 6.82812 171.817 6.82812 171.931C6.82812 172.045 6.92076 172.138 7.03503 172.138Z" fill="#FFD250"/>
<path d="M6.20691 172.138C6.32118 172.138 6.41381 172.045 6.41381 171.931C6.41381 171.817 6.32118 171.724 6.20691 171.724C6.09263 171.724 6 171.817 6 171.931C6 172.045 6.09263 172.138 6.20691 172.138Z" fill="#FFD250"/>
<path d="M7.86316 172.138C7.97743 172.138 8.07006 172.045 8.07006 171.931C8.07006 171.817 7.97743 171.724 7.86316 171.724C7.74888 171.724 7.65625 171.817 7.65625 171.931C7.65625 172.045 7.74888 172.138 7.86316 172.138Z" fill="#FFD250"/>
<path d="M5.37765 174H3.30859V174.414H5.37765V174Z" fill="#C8414B"/>
<path d="M3.30859 175.655L4.54994 175.241V174.828L3.30859 175.241V175.655Z" fill="#C8414B"/>
<path d="M297.76 116.264V113.8H290.96V125H293.52V120.888H297.68V118.424H293.52V116.264H297.76ZM301.593 118.424V117H299.193V125H301.593V121.384C301.593 119.8 303.001 119.4 303.993 119.56V116.84C302.985 116.84 301.913 117.352 301.593 118.424ZM310.688 117V117.752C310.16 117.144 309.376 116.776 308.304 116.776C306.208 116.776 304.48 118.616 304.48 121C304.48 123.384 306.208 125.224 308.304 125.224C309.376 125.224 310.16 124.856 310.688 124.248V125H313.088V117H310.688ZM308.784 122.952C307.68 122.952 306.88 122.2 306.88 121C306.88 119.8 307.68 119.048 308.784 119.048C309.888 119.048 310.688 119.8 310.688 121C310.688 122.2 309.888 122.952 308.784 122.952ZM319.537 116.776C318.481 116.776 317.681 117.16 317.249 117.752V117H314.849V125H317.249V120.632C317.249 119.496 317.857 118.984 318.737 118.984C319.505 118.984 320.129 119.448 320.129 120.44V125H322.529V120.088C322.529 117.928 321.153 116.776 319.537 116.776ZM328.017 125.224C329.585 125.224 330.945 124.408 331.633 123.16L329.537 121.96C329.281 122.52 328.689 122.856 327.985 122.856C326.945 122.856 326.177 122.104 326.177 121C326.177 119.896 326.945 119.144 327.985 119.144C328.689 119.144 329.265 119.48 329.537 120.04L331.633 118.824C330.945 117.592 329.569 116.776 328.017 116.776C325.585 116.776 323.777 118.616 323.777 121C323.777 123.384 325.585 125.224 328.017 125.224ZM333.799 116.296C334.583 116.296 335.239 115.64 335.239 114.856C335.239 114.072 334.583 113.416 333.799 113.416C333.015 113.416 332.359 114.072 332.359 114.856C332.359 115.64 333.015 116.296 333.799 116.296ZM332.599 125H334.999V117H332.599V125ZM342.563 117V117.752C342.035 117.144 341.251 116.776 340.179 116.776C338.083 116.776 336.355 118.616 336.355 121C336.355 123.384 338.083 125.224 340.179 125.224C341.251 125.224 342.035 124.856 342.563 124.248V125H344.963V117H342.563ZM340.659 122.952C339.555 122.952 338.755 122.2 338.755 121C338.755 119.8 339.555 119.048 340.659 119.048C341.763 119.048 342.563 119.8 342.563 121C342.563 122.2 341.763 122.952 340.659 122.952Z" fill="#3CC3DD"/>
<path d="M290.352 145H297.968V142.536H294.208L296.064 140.664C297.088 139.64 297.808 138.488 297.808 137.144C297.808 134.888 296.016 133.576 294.016 133.576C292.464 133.576 290.96 134.36 290.24 136.024L292.4 137.288C292.704 136.584 293.264 136.072 294.048 136.072C294.8 136.072 295.248 136.552 295.248 137.256C295.248 137.912 294.768 138.568 294.112 139.24L290.352 143.144V145ZM300.771 145.224C301.603 145.224 302.291 144.536 302.291 143.704C302.291 142.872 301.603 142.184 300.771 142.184C299.939 142.184 299.251 142.872 299.251 143.704C299.251 144.536 299.939 145.224 300.771 145.224ZM303.368 145H310.984V142.536H307.224L309.08 140.664C310.104 139.64 310.824 138.488 310.824 137.144C310.824 134.888 309.032 133.576 307.032 133.576C305.48 133.576 303.976 134.36 303.256 136.024L305.416 137.288C305.72 136.584 306.28 136.072 307.064 136.072C307.816 136.072 308.264 136.552 308.264 137.256C308.264 137.912 307.784 138.568 307.128 139.24L303.368 143.144V145ZM318.717 139.16C319.373 138.648 319.789 137.912 319.789 136.904C319.789 134.728 318.125 133.576 316.061 133.576C313.997 133.576 312.333 134.728 312.333 136.904C312.333 137.912 312.749 138.648 313.405 139.16C312.461 139.768 311.949 140.744 311.949 141.848C311.949 143.896 313.421 145.224 316.061 145.224C318.701 145.224 320.173 143.896 320.173 141.848C320.173 140.744 319.661 139.768 318.717 139.16ZM316.061 135.976C316.781 135.976 317.229 136.44 317.229 137.064C317.229 137.688 316.781 138.152 316.061 138.152C315.341 138.152 314.893 137.688 314.893 137.064C314.893 136.44 315.341 135.976 316.061 135.976ZM316.061 142.824C315.165 142.824 314.509 142.328 314.509 141.48C314.509 140.632 315.165 140.136 316.061 140.136C316.957 140.136 317.613 140.632 317.613 141.48C317.613 142.328 316.957 142.824 316.061 142.824ZM323.432 133.8L320.504 134.856L321.128 137.048L323.112 136.504V145H325.672V133.8H323.432Z" fill="#101010"/>
<path d="M155.08 125H157.88L154.072 113.8H150.808L147 125H149.8L150.36 123.24H154.52L155.08 125ZM151.128 120.84L152.44 116.728L153.752 120.84H151.128ZM158.755 125H161.155V113.32H158.755V125ZM165.055 121.96H170.735C170.799 121.656 170.831 121.336 170.831 121C170.831 118.584 169.103 116.776 166.767 116.776C164.239 116.776 162.511 118.616 162.511 121C162.511 123.384 164.207 125.224 166.943 125.224C168.463 125.224 169.647 124.664 170.431 123.576L168.511 122.472C168.191 122.824 167.631 123.08 166.975 123.08C166.095 123.08 165.359 122.792 165.055 121.96ZM165.007 120.168C165.231 119.352 165.839 118.904 166.751 118.904C167.471 118.904 168.191 119.24 168.447 120.168H165.007ZM181.153 116.776C180.017 116.776 179.281 117.192 178.833 117.832C178.385 117.16 177.681 116.776 176.737 116.776C175.665 116.776 174.961 117.192 174.593 117.736V117H172.193V125H174.593V120.488C174.593 119.544 175.041 118.984 175.841 118.984C176.609 118.984 176.993 119.496 176.993 120.296V125H179.392V120.488C179.392 119.544 179.841 118.984 180.641 118.984C181.409 118.984 181.793 119.496 181.793 120.296V125H184.193V120.088C184.193 118.088 182.993 116.776 181.153 116.776ZM191.641 117V117.752C191.113 117.144 190.329 116.776 189.257 116.776C187.161 116.776 185.433 118.616 185.433 121C185.433 123.384 187.161 125.224 189.257 125.224C190.329 125.224 191.113 124.856 191.641 124.248V125H194.041V117H191.641ZM189.737 122.952C188.633 122.952 187.833 122.2 187.833 121C187.833 119.8 188.633 119.048 189.737 119.048C190.841 119.048 191.641 119.8 191.641 121C191.641 122.2 190.841 122.952 189.737 122.952ZM200.49 116.776C199.434 116.776 198.634 117.16 198.202 117.752V117H195.802V125H198.202V120.632C198.202 119.496 198.81 118.984 199.69 118.984C200.458 118.984 201.082 119.448 201.082 120.44V125H203.482V120.088C203.482 117.928 202.106 116.776 200.49 116.776ZM206.33 116.296C207.114 116.296 207.77 115.64 207.77 114.856C207.77 114.072 207.114 113.416 206.33 113.416C205.546 113.416 204.89 114.072 204.89 114.856C204.89 115.64 205.546 116.296 206.33 116.296ZM205.13 125H207.53V117H205.13V125ZM215.094 117V117.752C214.566 117.144 213.782 116.776 212.71 116.776C210.614 116.776 208.886 118.616 208.886 121C208.886 123.384 210.614 125.224 212.71 125.224C213.782 125.224 214.566 124.856 215.094 124.248V125H217.494V117H215.094ZM213.19 122.952C212.086 122.952 211.286 122.2 211.286 121C211.286 119.8 212.086 119.048 213.19 119.048C214.294 119.048 215.094 119.8 215.094 121C215.094 122.2 214.294 122.952 213.19 122.952Z" fill="#3CC3DD"/>
<path d="M150.088 133.8L147.16 134.856L147.784 137.048L149.768 136.504V145H152.328V133.8H150.088ZM155.693 145.224C156.525 145.224 157.213 144.536 157.213 143.704C157.213 142.872 156.525 142.184 155.693 142.184C154.861 142.184 154.173 142.872 154.173 143.704C154.173 144.536 154.861 145.224 155.693 145.224ZM162.498 137.736H161.586L161.698 136.2H165.778V133.8H159.298L158.834 140.232H162.338C163.314 140.232 163.778 140.792 163.778 141.48C163.778 142.168 163.314 142.728 162.258 142.728C161.202 142.728 160.722 142.28 160.466 141.544L158.258 142.824C158.946 144.472 160.482 145.224 162.258 145.224C164.418 145.224 166.338 143.944 166.338 141.48C166.338 139.016 164.578 137.736 162.498 137.736ZM171.646 137.336L174.078 133.8H171.134L167.71 139C167.294 139.624 167.054 140.408 167.054 141.272C167.054 143.592 168.734 145.224 171.214 145.224C173.678 145.224 175.374 143.592 175.374 141.272C175.374 139.096 173.87 137.512 171.646 137.336ZM171.214 142.824C170.35 142.824 169.614 142.264 169.614 141.272C169.614 140.28 170.35 139.72 171.214 139.72C172.062 139.72 172.814 140.296 172.814 141.272C172.814 142.248 172.062 142.824 171.214 142.824ZM175.363 133.8V136.264H179.875L176.355 145H179.075L182.723 135.944V133.8H175.363Z" fill="#101010"/>
<path d="M149.88 208.224C152.312 208.224 154.04 206.944 154.04 204.784C154.04 202.416 152.136 201.824 150.44 201.312C148.696 200.784 148.424 200.432 148.424 199.92C148.424 199.472 148.824 199.072 149.624 199.072C150.648 199.072 151.176 199.568 151.56 200.368L153.72 199.104C152.904 197.456 151.464 196.576 149.624 196.576C147.688 196.576 145.864 197.824 145.864 199.984C145.864 202.128 147.496 202.928 149.16 203.392C150.84 203.856 151.48 204.128 151.48 204.816C151.48 205.248 151.176 205.728 149.96 205.728C148.696 205.728 148.008 205.104 147.608 204.176L145.4 205.456C146.024 207.104 147.528 208.224 149.88 208.224ZM160.407 200V204.368C160.407 205.504 159.799 206.016 158.919 206.016C158.151 206.016 157.527 205.552 157.527 204.56V200H155.127V204.912C155.127 207.072 156.503 208.224 158.119 208.224C159.175 208.224 159.975 207.84 160.407 207.248V208H162.807V200H160.407ZM165.768 199.296C166.552 199.296 167.208 198.64 167.208 197.856C167.208 197.072 166.552 196.416 165.768 196.416C164.984 196.416 164.328 197.072 164.328 197.856C164.328 198.64 164.984 199.296 165.768 199.296ZM164.568 208H166.968V200H164.568V208ZM171.7 205.76L174.724 201.6V200H168.644V202.24H171.508L168.484 206.4V208H174.884V205.76H171.7ZM181.641 200V200.752C181.113 200.144 180.329 199.776 179.257 199.776C177.161 199.776 175.433 201.616 175.433 204C175.433 206.384 177.161 208.224 179.257 208.224C180.329 208.224 181.113 207.856 181.641 207.248V208H184.041V200H181.641ZM179.737 205.952C178.633 205.952 177.833 205.2 177.833 204C177.833 202.8 178.633 202.048 179.737 202.048C180.841 202.048 181.641 202.8 181.641 204C181.641 205.2 180.841 205.952 179.737 205.952Z" fill="#3CC3DD"/>
<path d="M149.912 220.336L152.344 216.8H149.4L145.976 222C145.56 222.624 145.32 223.408 145.32 224.272C145.32 226.592 147 228.224 149.48 228.224C151.944 228.224 153.64 226.592 153.64 224.272C153.64 222.096 152.136 220.512 149.912 220.336ZM149.48 225.824C148.616 225.824 147.88 225.264 147.88 224.272C147.88 223.28 148.616 222.72 149.48 222.72C150.328 222.72 151.08 223.296 151.08 224.272C151.08 225.248 150.328 225.824 149.48 225.824ZM163.229 223.84H162.109V221.44H159.517V223.84H157.181L160.749 216.8H157.997L154.429 223.84V226.208H159.517V228H162.109V226.208H163.229V223.84ZM163.899 228H171.515V225.536H167.755L169.611 223.664C170.635 222.64 171.355 221.488 171.355 220.144C171.355 217.888 169.563 216.576 167.563 216.576C166.011 216.576 164.507 217.36 163.787 219.024L165.947 220.288C166.251 219.584 166.811 219.072 167.595 219.072C168.347 219.072 168.795 219.552 168.795 220.256C168.795 220.912 168.315 221.568 167.659 222.24L163.899 226.144V228Z" fill="#101010"/>
<path d="M293.44 196.8H288.96V208H293.44C296.528 208 298.88 205.568 298.88 202.4C298.88 199.232 296.528 196.8 293.44 196.8ZM293.44 205.536H291.52V199.264H293.44C295.2 199.264 296.416 200.48 296.416 202.4C296.416 204.32 295.2 205.536 293.44 205.536ZM301.439 199.296C302.223 199.296 302.879 198.64 302.879 197.856C302.879 197.072 302.223 196.416 301.439 196.416C300.655 196.416 299.999 197.072 299.999 197.856C299.999 198.64 300.655 199.296 301.439 199.296ZM300.239 208H302.639V200H300.239V208ZM309.084 199.776C308.028 199.776 307.228 200.16 306.796 200.752V200H304.396V208H306.796V203.632C306.796 202.496 307.404 201.984 308.284 201.984C309.052 201.984 309.676 202.448 309.676 203.44V208H312.076V203.088C312.076 200.928 310.7 199.776 309.084 199.776ZM319.532 200V200.752C319.004 200.144 318.22 199.776 317.148 199.776C315.052 199.776 313.324 201.616 313.324 204C313.324 206.384 315.052 208.224 317.148 208.224C318.22 208.224 319.004 207.856 319.532 207.248V208H321.932V200H319.532ZM317.628 205.952C316.524 205.952 315.724 205.2 315.724 204C315.724 202.8 316.524 202.048 317.628 202.048C318.732 202.048 319.532 202.8 319.532 204C319.532 205.2 318.732 205.952 317.628 205.952ZM332.653 199.776C331.517 199.776 330.781 200.192 330.333 200.832C329.885 200.16 329.181 199.776 328.237 199.776C327.165 199.776 326.461 200.192 326.093 200.736V200H323.693V208H326.093V203.488C326.093 202.544 326.541 201.984 327.341 201.984C328.109 201.984 328.493 202.496 328.493 203.296V208H330.892V203.488C330.892 202.544 331.341 201.984 332.141 201.984C332.909 201.984 333.293 202.496 333.293 203.296V208H335.693V203.088C335.693 201.088 334.493 199.776 332.653 199.776ZM343.141 200V200.752C342.613 200.144 341.829 199.776 340.757 199.776C338.661 199.776 336.933 201.616 336.933 204C336.933 206.384 338.661 208.224 340.757 208.224C341.829 208.224 342.613 207.856 343.141 207.248V208H345.541V200H343.141ZM341.237 205.952C340.133 205.952 339.333 205.2 339.333 204C339.333 202.8 340.133 202.048 341.237 202.048C342.341 202.048 343.141 202.8 343.141 204C343.141 205.2 342.341 205.952 341.237 205.952ZM349.702 201.424V200H347.302V208H349.702V204.384C349.702 202.8 351.11 202.4 352.102 202.56V199.84C351.094 199.84 350.022 200.352 349.702 201.424ZM356.829 208.224C358.397 208.224 359.757 207.408 360.445 206.16L358.349 204.96C358.093 205.52 357.501 205.856 356.797 205.856C355.757 205.856 354.989 205.104 354.989 204C354.989 202.896 355.757 202.144 356.797 202.144C357.501 202.144 358.077 202.48 358.349 203.04L360.445 201.824C359.757 200.592 358.381 199.776 356.829 199.776C354.397 199.776 352.589 201.616 352.589 204C352.589 206.384 354.397 208.224 356.829 208.224ZM367.063 200V200.752C366.535 200.144 365.751 199.776 364.679 199.776C362.583 199.776 360.855 201.616 360.855 204C360.855 206.384 362.583 208.224 364.679 208.224C365.751 208.224 366.535 207.856 367.063 207.248V208H369.463V200H367.063ZM365.159 205.952C364.055 205.952 363.255 205.2 363.255 204C363.255 202.8 364.055 202.048 365.159 202.048C366.263 202.048 367.063 202.8 367.063 204C367.063 205.2 366.263 205.952 365.159 205.952Z" fill="#3CC3DD"/>
<path d="M292.56 220.736H291.648L291.76 219.2H295.84V216.8H289.36L288.896 223.232H292.4C293.376 223.232 293.84 223.792 293.84 224.48C293.84 225.168 293.376 225.728 292.32 225.728C291.264 225.728 290.784 225.28 290.528 224.544L288.32 225.824C289.008 227.472 290.544 228.224 292.32 228.224C294.48 228.224 296.4 226.944 296.4 224.48C296.4 222.016 294.64 220.736 292.56 220.736ZM299.572 216.8L296.644 217.856L297.268 220.048L299.252 219.504V228H301.812V216.8H299.572ZM307.85 220.336L310.282 216.8H307.338L303.914 222C303.498 222.624 303.258 223.408 303.258 224.272C303.258 226.592 304.938 228.224 307.418 228.224C309.882 228.224 311.578 226.592 311.578 224.272C311.578 222.096 310.074 220.512 307.85 220.336ZM307.418 225.824C306.554 225.824 305.818 225.264 305.818 224.272C305.818 223.28 306.554 222.72 307.418 222.72C308.266 222.72 309.018 223.296 309.018 224.272C309.018 225.248 308.266 225.824 307.418 225.824Z" fill="#101010"/>
<path d="M4.52 205.536V203.552H8.52V201.12H4.52V199.264H8.92V196.8H1.96V208H9V205.536H4.52ZM12.6364 202.336C12.6364 202.048 12.8924 201.888 13.3084 201.888C13.8364 201.888 14.1564 202.176 14.3804 202.592L16.4284 201.488C15.7564 200.352 14.6044 199.776 13.3084 199.776C11.6444 199.776 10.1724 200.656 10.1724 202.4C10.1724 205.168 14.1084 204.704 14.1084 205.584C14.1084 205.904 13.8204 206.08 13.2444 206.08C12.5404 206.08 12.0924 205.744 11.8844 205.136L9.80438 206.32C10.4284 207.616 11.6444 208.224 13.2444 208.224C14.9724 208.224 16.5724 207.44 16.5724 205.6C16.5724 202.64 12.6364 203.248 12.6364 202.336ZM22.6328 199.776C21.5608 199.776 20.7768 200.144 20.2488 200.752V200H17.8488V211.2H20.2488V207.248C20.7768 207.856 21.5608 208.224 22.6328 208.224C24.7288 208.224 26.4568 206.384 26.4568 204C26.4568 201.616 24.7288 199.776 22.6328 199.776ZM22.1528 205.952C21.0488 205.952 20.2488 205.2 20.2488 204C20.2488 202.8 21.0488 202.048 22.1528 202.048C23.2568 202.048 24.0568 202.8 24.0568 204C24.0568 205.2 23.2568 205.952 22.1528 205.952ZM33.6255 200V200.752C33.0975 200.144 32.3135 199.776 31.2415 199.776C29.1455 199.776 27.4175 201.616 27.4175 204C27.4175 206.384 29.1455 208.224 31.2415 208.224C32.3135 208.224 33.0975 207.856 33.6255 207.248V208H36.0255V200H33.6255ZM31.7215 205.952C30.6175 205.952 29.8175 205.2 29.8175 204C29.8175 202.8 30.6175 202.048 31.7215 202.048C32.8255 202.048 33.6255 202.8 33.6255 204C33.6255 205.2 32.8255 205.952 31.7215 205.952ZM41.4503 198.608C42.9063 199.504 44.5863 199.216 44.5863 196.48H42.6663C42.6663 197.12 42.5223 197.2 41.9783 196.864C40.5223 195.968 38.8423 196.256 38.8423 198.992H40.7623C40.7623 198.352 40.9062 198.272 41.4503 198.608ZM42.4743 199.776C41.4183 199.776 40.6183 200.16 40.1863 200.752V200H37.7863V208H40.1863V203.632C40.1863 202.496 40.7943 201.984 41.6743 201.984C42.4423 201.984 43.0663 202.448 43.0663 203.44V208H45.4663V203.088C45.4663 200.928 44.0903 199.776 42.4743 199.776ZM52.9224 200V200.752C52.3944 200.144 51.6104 199.776 50.5384 199.776C48.4424 199.776 46.7144 201.616 46.7144 204C46.7144 206.384 48.4424 208.224 50.5384 208.224C51.6104 208.224 52.3944 207.856 52.9224 207.248V208H55.3224V200H52.9224ZM51.0184 205.952C49.9144 205.952 49.1144 205.2 49.1144 204C49.1144 202.8 49.9144 202.048 51.0184 202.048C52.1224 202.048 52.9224 202.8 52.9224 204C52.9224 205.2 52.1224 205.952 51.0184 205.952Z" fill="#3CC3DD"/>
<path d="M1.352 228H8.968V225.536H5.208L7.064 223.664C8.088 222.64 8.808 221.488 8.808 220.144C8.808 217.888 7.016 216.576 5.016 216.576C3.464 216.576 1.96 217.36 1.24 219.024L3.4 220.288C3.704 219.584 4.264 219.072 5.048 219.072C5.8 219.072 6.248 219.552 6.248 220.256C6.248 220.912 5.768 221.568 5.112 222.24L1.352 226.144V228ZM11.7713 228.224C12.6033 228.224 13.2913 227.536 13.2913 226.704C13.2913 225.872 12.6033 225.184 11.7713 225.184C10.9393 225.184 10.2513 225.872 10.2513 226.704C10.2513 227.536 10.9393 228.224 11.7713 228.224ZM21.5306 220.528C21.5306 218.208 19.8506 216.576 17.3706 216.576C14.9066 216.576 13.2106 218.208 13.2106 220.528C13.2106 222.704 14.7146 224.288 16.9386 224.464L14.5066 228H17.4506L20.8746 222.8C21.2906 222.176 21.5306 221.392 21.5306 220.528ZM15.7706 220.528C15.7706 219.552 16.5226 218.976 17.3706 218.976C18.2346 218.976 18.9706 219.536 18.9706 220.528C18.9706 221.52 18.2346 222.08 17.3706 222.08C16.5226 222.08 15.7706 221.504 15.7706 220.528ZM26.0913 220.736H25.1793L25.2913 219.2H29.3713V216.8H22.8913L22.4273 223.232H25.9313C26.9073 223.232 27.3713 223.792 27.3713 224.48C27.3713 225.168 26.9073 225.728 25.8513 225.728C24.7953 225.728 24.3153 225.28 24.0593 224.544L21.8513 225.824C22.5393 227.472 24.0753 228.224 25.8513 228.224C28.0113 228.224 29.9313 226.944 29.9313 224.48C29.9313 222.016 28.1713 220.736 26.0913 220.736ZM35.29 228.224C38.186 228.224 39.85 225.856 39.85 222.4C39.85 218.944 38.186 216.576 35.29 216.576C32.394 216.576 30.73 218.944 30.73 222.4C30.73 225.856 32.394 228.224 35.29 228.224ZM35.29 225.728C33.946 225.728 33.29 224.56 33.29 222.4C33.29 220.24 33.946 219.072 35.29 219.072C36.634 219.072 37.29 220.24 37.29 222.4C37.29 224.56 36.634 225.728 35.29 225.728Z" fill="#101010"/>
<path d="M0.96 114.8H3.52V126H0.96V114.8ZM10.0524 120.304H8.40438V123.136C8.40438 123.456 8.53238 123.659 8.78838 123.744C9.04438 123.829 9.46571 123.856 10.0524 123.824V126C8.52704 126.16 7.47104 126.016 6.88438 125.568C6.29771 125.109 6.00438 124.299 6.00438 123.136V120.304H4.72438V118H6.00438V116.48L8.40438 115.76V118H10.0524V120.304ZM17.063 118H19.463V126H17.063V125.248C16.4977 125.899 15.703 126.224 14.679 126.224C13.623 126.224 12.7217 125.819 11.975 125.008C11.2283 124.187 10.855 123.184 10.855 122C10.855 120.816 11.2283 119.819 11.975 119.008C12.7217 118.187 13.623 117.776 14.679 117.776C15.703 117.776 16.4977 118.101 17.063 118.752V118ZM13.783 123.424C14.135 123.776 14.5937 123.952 15.159 123.952C15.7243 123.952 16.183 123.776 16.535 123.424C16.887 123.072 17.063 122.597 17.063 122C17.063 121.403 16.887 120.928 16.535 120.576C16.183 120.224 15.7243 120.048 15.159 120.048C14.5937 120.048 14.135 120.224 13.783 120.576C13.431 120.928 13.255 121.403 13.255 122C13.255 122.597 13.431 123.072 13.783 123.424ZM21.2238 126V114.32H23.6238V126H21.2238ZM27.588 116.88C27.3107 117.157 26.9747 117.296 26.58 117.296C26.1853 117.296 25.844 117.157 25.556 116.88C25.2787 116.592 25.14 116.251 25.14 115.856C25.14 115.461 25.2787 115.125 25.556 114.848C25.844 114.56 26.1853 114.416 26.58 114.416C26.9747 114.416 27.3107 114.56 27.588 114.848C27.876 115.125 28.02 115.461 28.02 115.856C28.02 116.251 27.876 116.592 27.588 116.88ZM25.38 126V118H27.78V126H25.38ZM35.3443 118H37.7443V126H35.3443V125.248C34.7789 125.899 33.9843 126.224 32.9603 126.224C31.9043 126.224 31.0029 125.819 30.2563 125.008C29.5096 124.187 29.1363 123.184 29.1363 122C29.1363 120.816 29.5096 119.819 30.2563 119.008C31.0029 118.187 31.9043 117.776 32.9603 117.776C33.9843 117.776 34.7789 118.101 35.3443 118.752V118ZM32.0643 123.424C32.4163 123.776 32.8749 123.952 33.4403 123.952C34.0056 123.952 34.4643 123.776 34.8163 123.424C35.1683 123.072 35.3443 122.597 35.3443 122C35.3443 121.403 35.1683 120.928 34.8163 120.576C34.4643 120.224 34.0056 120.048 33.4403 120.048C32.8749 120.048 32.4163 120.224 32.0643 120.576C31.7123 120.928 31.5363 121.403 31.5363 122C31.5363 122.597 31.7123 123.072 32.0643 123.424Z" fill="#3CC3DD"/>
<path d="M3.088 134.8H5.328V146H2.768V137.504L0.784 138.048L0.16 135.856L3.088 134.8ZM11.0131 138.736C12.1118 138.736 13.0238 139.067 13.7491 139.728C14.4851 140.379 14.8531 141.296 14.8531 142.48C14.8531 143.653 14.4585 144.571 13.6691 145.232C12.8798 145.893 11.9145 146.224 10.7731 146.224C9.84513 146.224 9.02913 146.027 8.32513 145.632C7.62113 145.227 7.10379 144.624 6.77313 143.824L8.98113 142.544C9.25846 143.333 9.85579 143.728 10.7731 143.728C11.2745 143.728 11.6531 143.611 11.9091 143.376C12.1651 143.141 12.2931 142.843 12.2931 142.48C12.2931 142.117 12.1705 141.819 11.9251 141.584C11.6798 141.349 11.3225 141.232 10.8531 141.232H7.34913L7.81313 134.8H14.2931V137.2H10.2131L10.1011 138.736H11.0131ZM18.2495 145.776C17.9508 146.075 17.5935 146.224 17.1775 146.224C16.7615 146.224 16.4042 146.075 16.1055 145.776C15.8068 145.477 15.6575 145.12 15.6575 144.704C15.6575 144.288 15.8068 143.931 16.1055 143.632C16.4042 143.333 16.7615 143.184 17.1775 143.184C17.5935 143.184 17.9508 143.333 18.2495 143.632C18.5482 143.931 18.6975 144.288 18.6975 144.704C18.6975 145.12 18.5482 145.477 18.2495 145.776ZM22.5099 134.8H24.7499V146H22.1899V137.504L20.2059 138.048L19.5819 135.856L22.5099 134.8ZM28.963 134.8H31.203V146H28.643V137.504L26.659 138.048L26.035 135.856L28.963 134.8ZM38.2641 139.344C38.9788 139.589 39.5548 139.989 39.9921 140.544C40.4295 141.088 40.6481 141.733 40.6481 142.48C40.6481 143.653 40.2535 144.571 39.4641 145.232C38.6748 145.893 37.7095 146.224 36.5681 146.224C35.6828 146.224 34.8881 146.021 34.1841 145.616C33.4908 145.211 32.9788 144.613 32.6481 143.824L34.8561 142.544C35.1335 143.333 35.7041 143.728 36.5681 143.728C37.0695 143.728 37.4481 143.611 37.7041 143.376C37.9601 143.141 38.0881 142.843 38.0881 142.48C38.0881 142.117 37.9601 141.819 37.7041 141.584C37.4481 141.349 37.0695 141.232 36.5681 141.232H36.0401L35.0641 139.776L37.0961 137.2H33.0001V134.8H40.2001V136.88L38.2641 139.344Z" fill="#101010"/>
<path d="M425.2 113.8C426.299 113.8 427.227 114.173 427.984 114.92C428.741 115.667 429.12 116.573 429.12 117.64C429.12 118.707 428.741 119.613 427.984 120.36C427.227 121.107 426.299 121.48 425.2 121.48H423.52V125H420.96V113.8H425.2ZM425.2 119.08C425.595 119.08 425.92 118.941 426.176 118.664C426.432 118.387 426.56 118.045 426.56 117.64C426.56 117.235 426.432 116.893 426.176 116.616C425.92 116.339 425.595 116.2 425.2 116.2H423.52V119.08H425.2ZM435.641 117H438.041V125H435.641V124.248C435.076 124.899 434.281 125.224 433.257 125.224C432.201 125.224 431.3 124.819 430.553 124.008C429.806 123.187 429.433 122.184 429.433 121C429.433 119.816 429.806 118.819 430.553 118.008C431.3 117.187 432.201 116.776 433.257 116.776C434.281 116.776 435.076 117.101 435.641 117.752V117ZM432.361 122.424C432.713 122.776 433.172 122.952 433.737 122.952C434.302 122.952 434.761 122.776 435.113 122.424C435.465 122.072 435.641 121.597 435.641 121C435.641 120.403 435.465 119.928 435.113 119.576C434.761 119.224 434.302 119.048 433.737 119.048C433.172 119.048 432.713 119.224 432.361 119.576C432.009 119.928 431.833 120.403 431.833 121C431.833 121.597 432.009 122.072 432.361 122.424ZM439.802 116.2H442.106L443.162 113.8H440.442L439.802 116.2ZM439.802 125V117H442.202V125H439.802ZM446.152 119.336C446.152 119.496 446.285 119.629 446.552 119.736C446.829 119.832 447.16 119.933 447.544 120.04C447.928 120.136 448.312 120.264 448.696 120.424C449.08 120.584 449.405 120.851 449.672 121.224C449.949 121.587 450.088 122.045 450.088 122.6C450.088 123.464 449.768 124.12 449.128 124.568C448.488 125.005 447.699 125.224 446.76 125.224C445.075 125.224 443.928 124.589 443.32 123.32L445.4 122.136C445.613 122.765 446.067 123.08 446.76 123.08C447.336 123.08 447.624 122.915 447.624 122.584C447.624 122.424 447.485 122.291 447.208 122.184C446.941 122.077 446.616 121.976 446.232 121.88C445.848 121.773 445.464 121.64 445.08 121.48C444.696 121.309 444.365 121.048 444.088 120.696C443.821 120.344 443.688 119.912 443.688 119.4C443.688 118.568 443.987 117.923 444.584 117.464C445.192 117.005 445.939 116.776 446.824 116.776C447.485 116.776 448.088 116.925 448.632 117.224C449.176 117.512 449.613 117.933 449.944 118.488L447.896 119.592C447.64 119.123 447.283 118.888 446.824 118.888C446.376 118.888 446.152 119.037 446.152 119.336ZM453.352 121.96C453.629 122.707 454.269 123.08 455.272 123.08C455.923 123.08 456.435 122.877 456.808 122.472L458.728 123.576C457.939 124.675 456.776 125.224 455.24 125.224C453.896 125.224 452.819 124.824 452.008 124.024C451.208 123.224 450.808 122.216 450.808 121C450.808 119.795 451.203 118.792 451.992 117.992C452.792 117.181 453.816 116.776 455.064 116.776C456.227 116.776 457.192 117.181 457.96 117.992C458.739 118.792 459.128 119.795 459.128 121C459.128 121.341 459.096 121.661 459.032 121.96H453.352ZM453.304 120.168H456.744C456.509 119.325 455.944 118.904 455.048 118.904C454.12 118.904 453.539 119.325 453.304 120.168ZM462.449 119.336C462.449 119.496 462.582 119.629 462.849 119.736C463.126 119.832 463.457 119.933 463.841 120.04C464.225 120.136 464.609 120.264 464.993 120.424C465.377 120.584 465.702 120.851 465.969 121.224C466.246 121.587 466.385 122.045 466.385 122.6C466.385 123.464 466.065 124.12 465.425 124.568C464.785 125.005 463.996 125.224 463.057 125.224C461.372 125.224 460.225 124.589 459.617 123.32L461.697 122.136C461.91 122.765 462.364 123.08 463.057 123.08C463.633 123.08 463.921 122.915 463.921 122.584C463.921 122.424 463.782 122.291 463.505 122.184C463.238 122.077 462.913 121.976 462.529 121.88C462.145 121.773 461.761 121.64 461.377 121.48C460.993 121.309 460.662 121.048 460.385 120.696C460.118 120.344 459.985 119.912 459.985 119.4C459.985 118.568 460.284 117.923 460.881 117.464C461.489 117.005 462.236 116.776 463.121 116.776C463.782 116.776 464.385 116.925 464.929 117.224C465.473 117.512 465.91 117.933 466.241 118.488L464.193 119.592C463.937 119.123 463.58 118.888 463.121 118.888C462.673 118.888 462.449 119.037 462.449 119.336ZM478.685 119.192C479.603 119.779 480.061 120.621 480.061 121.72C480.061 122.691 479.715 123.48 479.021 124.088C478.328 124.696 477.469 125 476.445 125H471.741V113.8H476.125C477.128 113.8 477.965 114.099 478.637 114.696C479.32 115.283 479.661 116.051 479.661 117C479.661 117.896 479.336 118.627 478.685 119.192ZM476.125 116.2H474.301V118.184H476.125C476.413 118.184 476.648 118.093 476.829 117.912C477.011 117.72 477.101 117.48 477.101 117.192C477.101 116.904 477.011 116.669 476.829 116.488C476.648 116.296 476.413 116.2 476.125 116.2ZM476.445 122.6C476.765 122.6 477.021 122.504 477.213 122.312C477.405 122.109 477.501 121.848 477.501 121.528C477.501 121.208 477.405 120.952 477.213 120.76C477.021 120.557 476.765 120.456 476.445 120.456H474.301V122.6H476.445ZM487.219 117H489.619V125H487.219V124.248C486.654 124.899 485.859 125.224 484.835 125.224C483.779 125.224 482.878 124.819 482.131 124.008C481.385 123.187 481.011 122.184 481.011 121C481.011 119.816 481.385 118.819 482.131 118.008C482.878 117.187 483.779 116.776 484.835 116.776C485.859 116.776 486.654 117.101 487.219 117.752V117ZM483.939 122.424C484.291 122.776 484.75 122.952 485.315 122.952C485.881 122.952 486.339 122.776 486.691 122.424C487.043 122.072 487.219 121.597 487.219 121C487.219 120.403 487.043 119.928 486.691 119.576C486.339 119.224 485.881 119.048 485.315 119.048C484.75 119.048 484.291 119.224 483.939 119.576C483.587 119.928 483.411 120.403 483.411 121C483.411 121.597 483.587 122.072 483.939 122.424ZM493.672 115.88C493.394 116.157 493.058 116.296 492.664 116.296C492.269 116.296 491.928 116.157 491.64 115.88C491.362 115.592 491.224 115.251 491.224 114.856C491.224 114.461 491.362 114.125 491.64 113.848C491.928 113.56 492.269 113.416 492.664 113.416C493.058 113.416 493.394 113.56 493.672 113.848C493.96 114.125 494.104 114.461 494.104 114.856C494.104 115.251 493.96 115.592 493.672 115.88ZM491.464 125V117H493.864V125C493.864 126.248 493.565 127.149 492.968 127.704C492.37 128.259 491.442 128.499 490.184 128.424V126.12C490.632 126.141 490.957 126.061 491.16 125.88C491.362 125.709 491.464 125.416 491.464 125ZM502.478 124.008C501.657 124.819 500.654 125.224 499.47 125.224C498.286 125.224 497.283 124.819 496.462 124.008C495.641 123.187 495.23 122.184 495.23 121C495.23 119.816 495.641 118.819 496.462 118.008C497.283 117.187 498.286 116.776 499.47 116.776C500.654 116.776 501.657 117.187 502.478 118.008C503.299 118.819 503.71 119.816 503.71 121C503.71 122.184 503.299 123.187 502.478 124.008ZM498.158 122.36C498.51 122.712 498.947 122.888 499.47 122.888C499.993 122.888 500.43 122.712 500.782 122.36C501.134 122.008 501.31 121.555 501.31 121C501.31 120.445 501.134 119.992 500.782 119.64C500.43 119.288 499.993 119.112 499.47 119.112C498.947 119.112 498.51 119.288 498.158 119.64C497.806 119.992 497.63 120.445 497.63 121C497.63 121.555 497.806 122.008 498.158 122.36ZM507.183 119.336C507.183 119.496 507.317 119.629 507.583 119.736C507.861 119.832 508.191 119.933 508.575 120.04C508.959 120.136 509.343 120.264 509.727 120.424C510.111 120.584 510.437 120.851 510.703 121.224C510.981 121.587 511.119 122.045 511.119 122.6C511.119 123.464 510.799 124.12 510.159 124.568C509.519 125.005 508.73 125.224 507.791 125.224C506.106 125.224 504.959 124.589 504.351 123.32L506.431 122.136C506.645 122.765 507.098 123.08 507.791 123.08C508.367 123.08 508.655 122.915 508.655 122.584C508.655 122.424 508.517 122.291 508.239 122.184C507.973 122.077 507.647 121.976 507.263 121.88C506.879 121.773 506.495 121.64 506.111 121.48C505.727 121.309 505.397 121.048 505.119 120.696C504.853 120.344 504.719 119.912 504.719 119.4C504.719 118.568 505.018 117.923 505.615 117.464C506.223 117.005 506.97 116.776 507.855 116.776C508.517 116.776 509.119 116.925 509.663 117.224C510.207 117.512 510.645 117.933 510.975 118.488L508.927 119.592C508.671 119.123 508.314 118.888 507.855 118.888C507.407 118.888 507.183 119.037 507.183 119.336Z" fill="#3CC3DD"/>
<path d="M424.56 137.736C425.659 137.736 426.571 138.067 427.296 138.728C428.032 139.379 428.4 140.296 428.4 141.48C428.4 142.653 428.005 143.571 427.216 144.232C426.427 144.893 425.461 145.224 424.32 145.224C423.392 145.224 422.576 145.027 421.872 144.632C421.168 144.227 420.651 143.624 420.32 142.824L422.528 141.544C422.805 142.333 423.403 142.728 424.32 142.728C424.821 142.728 425.2 142.611 425.456 142.376C425.712 142.141 425.84 141.843 425.84 141.48C425.84 141.117 425.717 140.819 425.472 140.584C425.227 140.349 424.869 140.232 424.4 140.232H420.896L421.36 133.8H427.84V136.2H423.76L423.648 137.736H424.56ZM437.103 143.64C436.303 144.696 435.188 145.224 433.759 145.224C432.329 145.224 431.209 144.696 430.399 143.64C429.599 142.573 429.199 141.16 429.199 139.4C429.199 137.64 429.599 136.232 430.399 135.176C431.209 134.109 432.329 133.576 433.759 133.576C435.188 133.576 436.303 134.109 437.103 135.176C437.913 136.232 438.319 137.64 438.319 139.4C438.319 141.16 437.913 142.573 437.103 143.64ZM431.759 139.4C431.759 141.619 432.425 142.728 433.759 142.728C435.092 142.728 435.759 141.619 435.759 139.4C435.759 137.181 435.092 136.072 433.759 136.072C432.425 136.072 431.759 137.181 431.759 139.4ZM444.249 138.344C444.963 138.589 445.539 138.989 445.977 139.544C446.414 140.088 446.633 140.733 446.633 141.48C446.633 142.653 446.238 143.571 445.449 144.232C444.659 144.893 443.694 145.224 442.553 145.224C441.667 145.224 440.873 145.021 440.169 144.616C439.475 144.211 438.963 143.613 438.633 142.824L440.841 141.544C441.118 142.333 441.689 142.728 442.553 142.728C443.054 142.728 443.433 142.611 443.689 142.376C443.945 142.141 444.073 141.843 444.073 141.48C444.073 141.117 443.945 140.819 443.689 140.584C443.433 140.349 443.054 140.232 442.553 140.232H442.025L441.049 138.776L443.081 136.2H438.985V133.8H446.185V135.88L444.249 138.344Z" fill="#101010"/>
<path d="M444 89.3794H420V84.5518C420 84.3232 420.185 84.1379 420.414 84.1379H443.586C443.815 84.1379 444 84.3232 444 84.5518L444 89.3794Z" fill="#FF4B55"/>
<path d="M443.586 99.8622H420.414C420.185 99.8622 420 99.6769 420 99.4484V94.6208H444V99.4484C444 99.677 443.815 99.8622 443.586 99.8622Z" fill="#41479B"/>
<path d="M444 89.3792H420V94.6202H444V89.3792Z" fill="#F5F5F5"/>
<path d="M296 99.8619H288.414C288.185 99.8619 288 99.6766 288 99.4481V84.5515C288 84.323 288.185 84.1377 288.414 84.1377H296V99.8619Z" fill="#41479B"/>
<path d="M304 84.1379H296V99.8622H304V84.1379Z" fill="#F5F5F5"/>
<path d="M311.586 99.8621H304V84.1379H311.586C311.815 84.1379 312 84.3232 312 84.5518V99.4483C312 99.6769 311.815 99.8621 311.586 99.8621Z" fill="#FF4B55"/>
<path d="M171 89.3794H147V84.5518C147 84.3232 147.185 84.1379 147.414 84.1379H170.586C170.815 84.1379 171 84.3232 171 84.5518L171 89.3794Z" fill="#464655"/>
<path d="M170.586 99.8622H147.414C147.185 99.8622 147 99.6769 147 99.4484V94.6208H171V99.4484C171 99.677 170.815 99.8622 170.586 99.8622Z" fill="#FFE15A"/>
<path d="M171 89.3792H147V94.6202H171V89.3792Z" fill="#FF4B55"/>
<path d="M171.586 180.862H148.414C148.185 180.862 148 180.677 148 180.448V165.552C148 165.323 148.185 165.138 148.414 165.138H171.586C171.815 165.138 172 165.323 172 165.552V180.448C172 180.677 171.815 180.862 171.586 180.862Z" fill="#FF4B55"/>
<path d="M164.552 171.345H161.656V168.448C161.656 168.22 161.471 168.034 161.242 168.034H158.759C158.531 168.034 158.346 168.22 158.346 168.448V171.345H155.449C155.22 171.345 155.035 171.53 155.035 171.759V174.241C155.035 174.47 155.22 174.655 155.449 174.655H158.346V177.552C158.346 177.78 158.531 177.966 158.759 177.966H161.242C161.471 177.966 161.656 177.78 161.656 177.552V174.655H164.552C164.781 174.655 164.966 174.47 164.966 174.241V171.758C164.966 171.53 164.781 171.345 164.552 171.345Z" fill="#F5F5F5"/>
<path d="M312.586 180.862H289.414C289.185 180.862 289 180.677 289 180.448V165.552C289 165.323 289.185 165.138 289.414 165.138H312.586C312.815 165.138 313 165.323 313 165.552V180.448C313 180.677 312.815 180.862 312.586 180.862Z" fill="#FF4B55"/>
<path d="M313 171.759H298.931V165.138H296.448V171.759H289V174.242H296.448V180.862H298.931V174.242H313V171.759Z" fill="#F5F5F5"/>
<path d="M8.00002 99.8619H0.413813C0.185297 99.8619 0 99.6766 0 99.4481V84.5515C0 84.323 0.185297 84.1377 0.413813 84.1377H8.00002V99.8619Z" fill="#73AF00"/>
<path d="M16.0002 84.1379H8V99.8622H16.0002V84.1379Z" fill="#F5F5F5"/>
<path d="M23.5862 99.8621H16V84.1379H23.5862C23.8147 84.1379 24 84.3232 24 84.5518V99.4483C24 99.6769 23.8147 99.8621 23.5862 99.8621Z" fill="#FF4B55"/>
<defs>
<clipPath id="clip0">
<path d="M1 0H63V62H1V0Z" fill="white"/>
</clipPath>
</defs>
</svg>
