<svg width="532" height="233" viewBox="0 0 532 233" fill="none" xmlns="http://www.w3.org/2000/svg">
<path d="M285.247 31.48C288.159 33.368 289.615 36.056 289.615 39.544C289.615 42.648 288.527 45.112 286.351 46.936C284.207 48.76 281.183 49.672 277.279 49.672C273.375 49.672 270.335 48.76 268.159 46.936C266.015 45.112 264.943 42.648 264.943 39.544C264.943 36.056 266.399 33.368 269.311 31.48C267.167 29.816 266.095 27.56 266.095 24.712C266.095 21.576 267.151 19.128 269.263 17.368C271.375 15.608 274.047 14.728 277.279 14.728C280.511 14.728 283.183 15.608 285.295 17.368C287.407 19.128 288.463 21.576 288.463 24.712C288.463 27.56 287.391 29.816 285.247 31.48ZM279.823 22.84C279.183 22.232 278.335 21.928 277.279 21.928C276.223 21.928 275.375 22.232 274.735 22.84C274.095 23.448 273.775 24.232 273.775 25.192C273.775 26.152 274.095 26.936 274.735 27.544C275.375 28.152 276.223 28.456 277.279 28.456C278.335 28.456 279.183 28.152 279.823 27.544C280.463 26.936 280.783 26.152 280.783 25.192C280.783 24.232 280.463 23.448 279.823 22.84ZM273.919 41.416C274.783 42.12 275.903 42.472 277.279 42.472C278.655 42.472 279.775 42.12 280.639 41.416C281.503 40.68 281.935 39.688 281.935 38.44C281.935 37.192 281.503 36.216 280.639 35.512C279.775 34.776 278.655 34.408 277.279 34.408C275.903 34.408 274.783 34.776 273.919 35.512C273.055 36.216 272.623 37.192 272.623 38.44C272.623 39.688 273.055 40.68 273.919 41.416ZM298.432 15.4H305.152V49H297.472V23.512L291.52 25.144L289.648 18.568L298.432 15.4ZM317.504 48.328C316.608 49.224 315.536 49.672 314.288 49.672C313.04 49.672 311.968 49.224 311.072 48.328C310.176 47.432 309.728 46.36 309.728 45.112C309.728 43.864 310.176 42.792 311.072 41.896C311.968 41 313.04 40.552 314.288 40.552C315.536 40.552 316.608 41 317.504 41.896C318.4 42.792 318.848 43.864 318.848 45.112C318.848 46.36 318.4 47.432 317.504 48.328ZM343.76 44.92C341.36 48.088 338.016 49.672 333.728 49.672C329.44 49.672 326.08 48.088 323.648 44.92C321.248 41.72 320.048 37.48 320.048 32.2C320.048 26.92 321.248 22.696 323.648 19.528C326.08 16.328 329.44 14.728 333.728 14.728C338.016 14.728 341.36 16.328 343.76 19.528C346.192 22.696 347.408 26.92 347.408 32.2C347.408 37.48 346.192 41.72 343.76 44.92ZM327.728 32.2C327.728 38.856 329.728 42.184 333.728 42.184C337.728 42.184 339.728 38.856 339.728 32.2C339.728 25.544 337.728 22.216 333.728 22.216C329.728 22.216 327.728 25.544 327.728 32.2ZM373.034 44.92C370.634 48.088 367.29 49.672 363.002 49.672C358.714 49.672 355.354 48.088 352.922 44.92C350.522 41.72 349.322 37.48 349.322 32.2C349.322 26.92 350.522 22.696 352.922 19.528C355.354 16.328 358.714 14.728 363.002 14.728C367.29 14.728 370.634 16.328 373.034 19.528C375.466 22.696 376.682 26.92 376.682 32.2C376.682 37.48 375.466 41.72 373.034 44.92ZM357.002 32.2C357.002 38.856 359.002 42.184 363.002 42.184C367.002 42.184 369.002 38.856 369.002 32.2C369.002 25.544 367.002 22.216 363.002 22.216C359.002 22.216 357.002 25.544 357.002 32.2ZM404.516 36.52V43.624H401.156V49H393.38V43.624H378.116V36.52L388.82 15.4H397.076L386.372 36.52H393.38V29.32H401.156V36.52H404.516Z" fill="#101010"/>
<path d="M74.96 34.228H80V37H72.08V24.4H79.91V27.172H74.96V29.26H79.46V31.996H74.96V34.228ZM87.3489 28H90.0489V37H87.3489V36.154C86.8089 36.886 85.9509 37.252 84.7749 37.252C83.8149 37.252 83.0109 36.922 82.3629 36.262C81.7269 35.602 81.4089 34.69 81.4089 33.526V28H84.1089V33.13C84.1089 33.658 84.2529 34.066 84.5409 34.354C84.8409 34.63 85.2189 34.768 85.6749 34.768C86.1909 34.768 86.5989 34.612 86.8989 34.3C87.1989 33.988 87.3489 33.526 87.3489 32.914V28ZM94.7291 29.602C94.8971 29.026 95.2331 28.588 95.7371 28.288C96.2531 27.976 96.8171 27.82 97.4291 27.82V30.88C96.7691 30.772 96.1511 30.886 95.5751 31.222C95.0111 31.546 94.7291 32.116 94.7291 32.932V37H92.0291V28H94.7291V29.602ZM106.132 35.884C105.208 36.796 104.08 37.252 102.748 37.252C101.416 37.252 100.288 36.796 99.3635 35.884C98.4395 34.96 97.9775 33.832 97.9775 32.5C97.9775 31.168 98.4395 30.046 99.3635 29.134C100.288 28.21 101.416 27.748 102.748 27.748C104.08 27.748 105.208 28.21 106.132 29.134C107.056 30.046 107.518 31.168 107.518 32.5C107.518 33.832 107.056 34.96 106.132 35.884ZM101.272 34.03C101.668 34.426 102.16 34.624 102.748 34.624C103.336 34.624 103.828 34.426 104.224 34.03C104.62 33.634 104.818 33.124 104.818 32.5C104.818 31.876 104.62 31.366 104.224 30.97C103.828 30.574 103.336 30.376 102.748 30.376C102.16 30.376 101.668 30.574 101.272 30.97C100.876 31.366 100.678 31.876 100.678 32.5C100.678 33.124 100.876 33.634 101.272 34.03ZM114.427 27.748C115.615 27.748 116.629 28.21 117.469 29.134C118.309 30.046 118.729 31.168 118.729 32.5C118.729 33.832 118.309 34.96 117.469 35.884C116.629 36.796 115.615 37.252 114.427 37.252C113.275 37.252 112.381 36.886 111.745 36.154V40.6H109.045V28H111.745V28.846C112.381 28.114 113.275 27.748 114.427 27.748ZM112.339 34.102C112.747 34.498 113.263 34.696 113.887 34.696C114.511 34.696 115.021 34.498 115.417 34.102C115.825 33.706 116.029 33.172 116.029 32.5C116.029 31.828 115.825 31.294 115.417 30.898C115.021 30.502 114.511 30.304 113.887 30.304C113.263 30.304 112.747 30.502 112.339 30.898C111.943 31.294 111.745 31.828 111.745 32.5C111.745 33.172 111.943 33.706 112.339 34.102ZM126.794 28H129.494V37H126.794V36.154C126.158 36.886 125.264 37.252 124.112 37.252C122.924 37.252 121.91 36.796 121.07 35.884C120.23 34.96 119.81 33.832 119.81 32.5C119.81 31.168 120.23 30.046 121.07 29.134C121.91 28.21 122.924 27.748 124.112 27.748C125.264 27.748 126.158 28.114 126.794 28.846V28ZM123.104 34.102C123.5 34.498 124.016 34.696 124.652 34.696C125.288 34.696 125.804 34.498 126.2 34.102C126.596 33.706 126.794 33.172 126.794 32.5C126.794 31.828 126.596 31.294 126.2 30.898C125.804 30.502 125.288 30.304 124.652 30.304C124.016 30.304 123.5 30.502 123.104 30.898C122.708 31.294 122.51 31.828 122.51 32.5C122.51 33.172 122.708 33.706 123.104 34.102Z" fill="#3CC3DD"/>
<g clip-path="url(#clip0)">
<path fill-rule="evenodd" clip-rule="evenodd" d="M62.5329 39.4178C61.93 38.6313 60.9501 38.4804 60.2344 38.3702L60.2343 38.3702L60.2239 38.3685L60.2238 38.3685C60.0479 38.3413 59.8674 38.3134 59.7642 38.2847C58.8826 38.0399 58.2433 37.5959 57.9156 37.0002C57.6199 36.4632 57.5854 35.81 57.8126 35.0592C57.8855 34.8181 58.0116 34.5412 58.1452 34.248L58.1478 34.2423C58.5475 33.3658 59.0446 32.275 58.5462 31.1125C58.1231 30.1262 57.2598 29.2396 56.4981 28.4573L56.4968 28.4559L56.4727 28.4312L56.5431 28.3724L56.5478 28.3685L56.5479 28.3684C57.2255 27.802 57.926 27.2164 58.6281 26.6908C58.694 26.6413 58.81 26.5693 58.924 26.4985L58.9241 26.4984L58.9366 26.4907C59.2022 26.3261 59.5032 26.1395 59.7431 25.9045C60.5194 25.1439 60.8479 24.0128 60.5607 23.0897C60.3042 22.2651 59.6168 21.6985 58.6744 21.535C58.4137 21.4897 58.11 21.4638 57.7586 21.4339L57.7485 21.4331C57.3527 21.3995 56.5126 21.3283 56.0887 21.1948C56.2007 20.7589 56.3994 19.8997 55.6895 19.0865C55.3291 18.6735 54.8988 18.5469 54.5881 18.4996C54.5745 18.3476 54.5525 18.1553 54.4986 17.9299C54.1573 16.5018 53.2971 15.3988 52.538 14.4254L52.538 14.4253L52.5373 14.4245L52.524 14.4073C52.3792 14.2217 52.2346 14.0363 52.094 13.8486C51.871 13.5513 51.6063 13.2517 51.3258 12.9346C50.8552 12.4022 50.2695 11.7396 50.1218 11.2973C50.0067 10.9525 50.0699 10.4145 50.137 9.84473C50.2236 9.11077 50.3216 8.27898 50.087 7.45021C49.6816 6.01803 48.437 5.05908 46.9866 5.05908H46.9691C44.9851 5.06962 44.2134 6.61078 43.7032 7.63028C43.0276 8.97927 42.3629 10.3572 41.7201 11.6897C41.3955 12.3629 41.0707 13.036 40.7435 13.7079C40.604 13.9946 40.4592 14.3567 40.2917 14.7759L40.2917 14.7759L40.287 14.7878C40.0036 15.4975 39.651 16.3807 39.2456 17.0697C38.7691 17.8797 38.4827 17.9777 38.4645 17.984L38.4637 17.9842C38.4636 17.9843 38.4635 17.9843 38.4635 17.9843C38.2777 17.9803 38.1896 17.9462 38.175 17.936C38.0028 17.7563 38.0309 16.755 38.0429 16.3274V16.3273C38.0674 15.4548 38.0927 14.5527 37.6873 13.8229C36.9168 12.4353 34.936 11.9933 33.4898 11.6706L33.4897 11.6706C33.2447 11.616 33.0133 11.5643 32.8377 11.5179L32.8365 11.5176C32.2775 11.37 31.8737 11.2634 31.4081 11.3835C30.8143 11.5367 30.5233 11.9544 30.2667 12.3229C30.2108 12.4032 30.1463 12.496 30.0684 12.6024L27.3392 16.3372C26.9902 16.8147 26.6608 17.3299 26.3122 17.8755L26.3118 17.8761C25.4189 19.273 24.4957 20.717 23.3522 21.3161C23.2503 21.3695 23.1543 21.4191 23.0642 21.4657L23.064 21.4658L23.0051 21.4962C21.4248 22.3121 21.0256 22.7091 20.7323 24.7397L20.7085 24.9028L20.7084 24.9029C20.5461 26.0023 20.3006 27.6639 21.3096 28.6865C21.6928 29.075 22.4027 29.5043 23.6054 29.3432C23.9419 29.2982 24.2176 29.1792 24.439 29.0644C24.519 29.2446 24.6375 29.4437 24.8237 29.6297C25.364 30.1691 26.0832 30.4522 26.8513 30.4272C27.7335 30.3983 28.596 29.9754 29.2182 29.2673C29.9752 28.4054 30.6353 26.8603 30.4318 25.5749C30.3285 24.9219 30.1067 24.5205 29.9598 24.2549L29.9212 24.1847C29.9264 24.1671 29.9335 24.1455 29.9429 24.1194C30.3013 23.1211 31.2904 21.9028 31.6994 21.8096C31.969 21.966 32.2965 22.8419 32.4758 23.3215L32.4768 23.3241L32.4776 23.3264C32.6643 23.8259 32.8573 24.3422 33.1256 24.7731C33.1376 24.7925 33.167 24.8496 33.1884 24.8913C33.2835 25.0764 33.4686 25.4365 33.796 25.7136C33.5704 25.8162 33.3357 25.9368 33.1136 26.0959C32.0629 26.8488 31.2364 27.8867 30.8466 28.9435C30.7007 29.3388 30.6365 29.7127 30.5798 30.0426L30.5797 30.0434C30.524 30.3686 30.4758 30.6496 30.3621 30.865C30.1132 31.3368 29.777 31.6751 29.3037 31.9298C29.1143 32.0317 28.8985 32.1212 28.6626 32.1957C28.0234 32.3974 27.6688 33.0792 27.8706 33.7185C28.0723 34.3576 28.7543 34.7119 29.3933 34.5105C29.7742 34.3904 30.1312 34.2412 30.4542 34.0673C31.3469 33.5871 32.0384 32.8904 32.5093 31.9972C32.8029 31.4404 32.8968 30.8935 32.9722 30.4539L32.9723 30.4538C33.0168 30.1941 33.0555 29.9699 33.124 29.7839C33.3434 29.1893 33.8812 28.5322 34.5275 28.0692C34.6381 27.9898 34.8524 27.899 35.0604 27.8108L35.0641 27.8093C35.7343 27.5256 36.9817 26.9972 37.0178 25.5305C37.0304 25.0263 36.4132 23.5289 35.8874 23.1389C35.6062 22.9304 35.2541 22.85 34.918 22.9129C34.8642 22.7768 34.8104 22.633 34.7572 22.4906L34.7511 22.4745L34.751 22.4742C34.3498 21.4002 33.8503 20.0635 32.5917 19.5493C31.9828 19.3006 31.317 19.3222 30.6666 19.6118C29.0302 20.3409 27.919 22.5743 27.6587 23.299C27.2951 24.3116 27.5596 24.9297 27.8359 25.4296L27.836 25.4297C27.9371 25.6125 27.9981 25.7228 28.0348 25.9541C28.1023 26.3822 27.7915 27.2138 27.395 27.6652C27.2218 27.8625 26.9771 27.9942 26.7722 28.001C26.7102 28.0027 26.6647 27.9928 26.6277 27.9758C26.5397 27.6739 26.3336 27.0014 25.5651 26.6386C24.6152 26.1903 23.8315 26.6268 23.4549 26.8367C23.3891 26.8734 23.3011 26.9223 23.2575 26.9403C23.1481 26.9534 23.0755 26.9522 23.0314 26.9481C22.9116 26.6031 23.0597 25.6001 23.1105 25.2572L23.1354 25.0865C23.1663 24.8728 23.2603 24.2224 23.3389 24.0997C23.4087 24.0199 23.7823 23.8269 24.1137 23.6557L24.1138 23.6557L24.1194 23.6527L24.1264 23.6491C24.2354 23.5929 24.3527 23.5323 24.4791 23.466C26.1944 22.5676 27.3439 20.7691 28.3581 19.1824C28.6858 18.6696 28.9953 18.1853 29.2997 17.7689L32.0289 14.0341C32.0773 13.9681 32.1212 13.9066 32.1615 13.8493C32.1808 13.8544 32.2001 13.8594 32.2185 13.8643C32.4372 13.9221 32.6881 13.9781 32.9537 14.0374L32.9619 14.0392C33.5463 14.1695 35.3246 14.5663 35.5626 14.9944C35.6474 15.1817 35.6284 15.8556 35.617 16.2582C35.5863 17.3442 35.5486 18.6956 36.4168 19.6084C36.9059 20.1225 37.577 20.3923 38.4115 20.4103C38.43 20.4108 38.4483 20.4109 38.4667 20.4109C40.6557 20.4106 41.7896 17.5713 42.542 15.687C42.6873 15.3229 42.8245 14.9791 42.9266 14.7696C43.2549 14.0951 43.581 13.4192 43.907 12.7434L43.9204 12.7154C44.5553 11.3996 45.2114 10.0396 45.8743 8.71601C46.3855 7.69458 46.5719 7.48775 46.9825 7.48557H46.9866C47.3442 7.48557 47.6443 7.73042 47.7518 8.11017C47.8547 8.47374 47.7927 9.00095 47.7269 9.5593L47.7269 9.55967C47.6359 10.3314 47.533 11.2061 47.82 12.0652C48.1243 12.976 48.8591 13.8075 49.5076 14.5411C49.7547 14.8207 49.9881 15.0847 50.1525 15.3043C50.3068 15.5098 50.4652 15.7132 50.6238 15.9165C51.2902 16.7707 51.9195 17.5776 52.1385 18.4935C52.1601 18.5847 52.1678 18.6737 52.1772 18.7864C52.2094 19.1716 52.2634 19.8165 52.9591 20.4387C53.1982 20.6525 53.4566 20.7617 53.6813 20.82C53.5819 21.2628 53.5021 21.9747 54.0432 22.6656C54.7882 23.6173 56.3162 23.747 57.5439 23.8511C57.8019 23.8729 58.0471 23.8938 58.2093 23.9178C58.1792 23.9958 58.1258 24.0901 58.047 24.1675C57.9867 24.223 57.7812 24.3504 57.6583 24.4265C57.4958 24.5273 57.3278 24.6315 57.174 24.7466C56.4181 25.3127 55.6905 25.9208 54.9868 26.5091C54.6451 26.7948 54.2916 27.0902 53.9447 27.3725C53.6932 27.577 53.5341 27.8736 53.5027 28.1961C53.4711 28.5185 53.5699 28.8402 53.7769 29.0895C54.0677 29.4397 54.4032 29.7842 54.7586 30.149L54.7587 30.1491C55.3735 30.7803 56.0703 31.4958 56.316 32.0685C56.3913 32.2441 56.1087 32.8641 55.9399 33.2344L55.9398 33.2344L55.939 33.2363C55.7774 33.5909 55.6103 33.9575 55.4899 34.355C55.0722 35.7353 55.1757 37.0545 55.7896 38.1698C56.4304 39.3342 57.6117 40.2055 59.1157 40.6229C59.2339 40.6558 59.3556 40.682 59.4779 40.7047C59.0918 40.7436 58.6775 40.761 58.2702 40.778L58.27 40.778L58.267 40.7781L58.2668 40.7781H58.2668C57.836 40.7962 57.3906 40.8148 56.9729 40.8596C56.5523 40.9047 56.1204 40.9739 55.7027 41.041L55.6974 41.0419L55.6973 41.0419C54.9224 41.1662 54.1215 41.2947 53.4589 41.2533C52.9155 41.2196 52.1768 40.9142 51.4626 40.6188L51.4625 40.6188L51.4619 40.6185C50.1915 40.0931 48.7516 39.4976 47.3534 39.9381C46.7367 40.1325 46.2723 40.3852 45.8991 40.5882L45.8982 40.5886L45.8977 40.5889C45.1935 40.9723 45.1028 41.0217 44.3476 40.5625C43.7954 40.2267 42.9594 39.816 42.0769 40.1241C41.1058 40.4633 40.764 41.3933 40.4334 42.2927C40.3966 42.393 40.3585 42.4966 40.3185 42.6027C40.2435 42.8012 40.144 43.0281 40.0386 43.2686L40.0386 43.2687L40.0339 43.2794L40.0338 43.2797C39.539 44.4077 38.8614 45.9525 39.5236 47.4107C39.639 47.665 39.7651 47.873 39.871 48.0434C39.5243 48.2925 38.875 48.4177 38.2458 48.5389C37.7835 48.6281 37.3055 48.7202 36.8604 48.8752C36.5211 48.9933 35.4886 49.3529 35.209 50.3454C34.9346 51.3195 35.5695 52.094 36.0331 52.6596L36.0333 52.6598C36.2124 52.8782 36.4152 53.1259 36.4884 53.2879C36.5964 53.5462 36.4052 54.2415 36.1832 54.4788C35.7794 54.1984 35.3192 53.4267 34.948 52.8042L34.9468 52.8023C34.7338 52.445 34.5326 52.1076 34.3184 51.8061C34.2063 51.6483 34.0756 51.4918 33.9492 51.3405L33.949 51.3403C33.8122 51.1765 33.5845 50.9039 33.534 50.7917C33.5207 50.7157 33.5334 50.5122 33.542 50.3747L33.5421 50.3722C33.5607 50.0789 33.5837 49.7138 33.5088 49.3331C33.1999 47.7591 29.4877 43.8427 27.2024 43.4848C26.2773 43.3398 25.4741 43.7103 25.0521 44.4749C24.7086 45.0972 24.8105 45.8877 25.4997 47.8494C25.4698 47.821 25.4442 47.797 25.4214 47.7765C25.1427 47.5232 24.9481 47.0999 24.7423 46.6518L24.7422 46.6514C24.4729 46.0653 24.1676 45.4008 23.5603 44.9664C22.8119 44.4307 21.8705 44.4111 20.7631 44.9086C20.6381 44.9647 20.521 45.0191 20.4102 45.0707L20.4094 45.0711C19.7017 45.3999 19.574 45.4592 19.0305 45.3097C17.4194 44.866 16.2753 44.7138 15.0972 46.5678C14.8615 46.9384 14.8537 46.9415 14.4432 47.0968C14.2182 47.182 13.9101 47.2986 13.526 47.4921C12.6414 47.9376 12.0265 48.5986 11.4841 49.1818L11.3671 49.3073C11.1391 49.5516 10.9177 49.8217 10.6834 50.1076C10.1015 50.8182 9.30586 51.7891 8.69954 51.7891L8.6861 51.789C8.37816 51.7815 8.0793 51.7346 7.76312 51.6848L7.76296 51.6848L7.76292 51.6848C7.28307 51.6095 6.7393 51.5242 6.0936 51.5657C5.87429 51.58 5.75381 51.5731 5.69568 51.5664C5.65284 51.5158 5.58978 51.4322 5.5359 51.3607L5.53588 51.3607L5.53305 51.3569L5.53225 51.3559C5.39168 51.1694 5.217 50.9378 4.96463 50.6652C4.60959 50.2816 4.22451 50.0037 3.91499 49.7806C3.75163 49.6628 3.51187 49.4898 3.43061 49.3953C3.43497 49.3579 3.4495 49.281 3.4977 49.1541C3.8918 48.1188 4.50103 47.0456 5.09019 46.0077L5.09045 46.0072L5.09852 45.993L5.09854 45.993C5.32065 45.6017 5.54994 45.1977 5.7641 44.8015C6.10571 44.1699 6.34511 44.0014 6.45748 43.9572C6.63852 43.8862 6.98219 43.955 7.42478 44.1521C8.28964 44.5365 9.16636 44.9595 10.0141 45.3687C10.4518 45.5799 10.8897 45.7911 11.3284 45.9986C11.6212 46.137 11.9569 46.1529 12.2612 46.0425C12.5656 45.9321 12.8132 45.7047 12.949 45.4109C13.0778 45.1325 13.2438 44.827 13.4194 44.5036L13.4205 44.5015L13.4219 44.499C13.8217 43.7628 14.2746 42.9286 14.4654 42.0651C14.5541 41.6636 14.5329 41.3077 14.5158 41.0216L14.5157 41.0204C14.5046 40.8336 14.4951 40.6724 14.5224 40.5811C14.6561 40.133 15.123 39.7723 15.6635 39.3546L15.6638 39.3544L15.8396 39.2181C16.7408 38.5148 18.1118 37.4812 19.6055 36.6302C20.1879 36.2984 20.3909 35.557 20.0591 34.9747C19.7274 34.3922 18.9864 34.1891 18.4035 34.5209C16.773 35.4501 15.3069 36.5544 14.346 37.3042L14.1794 37.4333L14.1793 37.4333C13.4549 37.993 12.5535 38.6895 12.196 39.8864C12.0461 40.3887 12.0728 40.8374 12.0923 41.1653L12.0924 41.1662C12.1014 41.3158 12.1105 41.4703 12.0949 41.5411C11.9806 42.0591 11.6427 42.6877 11.3108 43.2991L11.0689 43.1823L11.0621 43.1791L11.062 43.179C10.1994 42.7629 9.30783 42.3328 8.41098 41.9338C6.31907 41.0034 4.75442 41.5638 3.62848 43.647C3.42359 44.0257 3.2078 44.406 2.9793 44.8086C2.34488 45.926 1.68892 47.0814 1.22876 48.2906C0.468882 50.2877 1.78661 51.2383 2.49473 51.7492L2.49504 51.7494L2.49511 51.7494L2.49514 51.7495C2.75098 51.934 2.99288 52.1085 3.18322 52.3142C3.35275 52.4971 3.47566 52.6603 3.59445 52.8179C4.14071 53.5429 4.68309 54.0888 6.24993 53.9882C6.62559 53.9635 6.97528 54.0184 7.37934 54.0819L7.38628 54.083L7.38695 54.0831L7.38703 54.0831C7.74928 54.14 8.15979 54.2045 8.62725 54.2158C10.4208 54.2589 11.6572 52.7497 12.5605 51.6471L12.5612 51.6462C12.7696 51.3916 12.9667 51.1512 13.141 50.9645L13.2614 50.8351L13.2633 50.8331C13.7243 50.3375 14.1227 49.9093 14.6179 49.66C14.8877 49.5241 15.0977 49.4446 15.3007 49.3677L15.3021 49.3672C16.0116 49.0988 16.5231 48.8495 17.1459 47.8696C17.3176 47.5995 17.4178 47.4872 17.4628 47.4441C17.6555 47.4492 18.1565 47.5871 18.3828 47.6493L18.3829 47.6493L18.3856 47.6501C19.7885 48.0364 20.5872 47.6652 21.433 47.2722L21.4332 47.272C21.5352 47.2246 21.6426 47.1747 21.7576 47.123C21.9786 47.0237 22.1136 46.9912 22.1819 46.9809C22.2838 47.1157 22.4322 47.4385 22.5352 47.6626L22.5352 47.6626L22.5363 47.6649C22.8067 48.2538 23.1434 48.9866 23.7888 49.5731C23.844 49.6231 24.0048 49.7819 24.1796 49.9543L24.2038 49.9783C24.6648 50.4335 25.3615 51.1213 25.9991 51.6925C26.9828 52.5736 27.6883 53.1313 28.5136 52.8668C28.8344 52.764 29.1022 52.5302 29.2484 52.2254C29.5273 51.644 29.4013 51.3151 28.5815 49.1754C28.2921 48.4205 27.7856 47.098 27.4997 46.1774C27.9052 46.4162 28.4748 46.8274 29.1975 47.5084C30.3414 48.5862 31.0161 49.542 31.1299 49.8239C31.1387 49.9104 31.1275 50.0871 31.1192 50.2195L31.1191 50.2199C31.0952 50.6007 31.0653 51.0744 31.2332 51.5679C31.4097 52.087 31.7687 52.5169 32.0855 52.8961C32.1865 53.017 32.2818 53.1312 32.3391 53.2117C32.4968 53.4337 32.6737 53.7304 32.861 54.0446L32.8614 54.0451C33.3903 54.9322 33.9898 55.9375 34.8586 56.5135C35.2884 56.7984 35.7528 56.9398 36.2098 56.9398C36.7396 56.9397 37.2593 56.7496 37.7029 56.3731C38.7961 55.4441 39.2626 53.5366 38.7012 52.2913C38.4957 51.8357 38.1847 51.4561 37.91 51.1212L37.8908 51.0975C38.1304 51.0336 38.4116 50.9794 38.705 50.9228L38.7057 50.9227C39.6279 50.7448 40.6731 50.5432 41.4854 49.8609C43.0467 48.5496 42.2847 47.3275 41.9593 46.8055L41.9593 46.8055L41.9588 46.8048C41.8737 46.6683 41.7934 46.5394 41.7334 46.4071C41.5194 45.9355 41.9281 45.0037 42.2564 44.255L42.2565 44.255L42.2566 44.2547C42.3716 43.9925 42.4904 43.7213 42.5891 43.4602C42.6317 43.3475 42.6723 43.2374 42.7114 43.1306C42.7787 42.9474 42.8612 42.7235 42.9352 42.5503C42.979 42.5737 43.0291 42.6023 43.0862 42.637C45.0352 43.8221 46.1567 43.2119 47.058 42.7215L47.0584 42.7212L47.0591 42.7208C47.3835 42.5443 47.6901 42.3774 48.0829 42.2537C48.6389 42.0783 49.6435 42.4938 50.5308 42.8608L50.5338 42.862L50.5347 42.8624C51.4327 43.2338 52.3612 43.6178 53.3084 43.6766C54.2419 43.7344 55.18 43.5839 56.0873 43.4382L56.0921 43.4374C56.4949 43.3728 56.8755 43.3118 57.2313 43.2736C57.5706 43.2373 57.9581 43.2211 58.3683 43.204C59.295 43.1653 60.3453 43.1213 61.26 42.8132C62.0994 42.5304 62.7032 41.9667 62.9166 41.2666C63.1061 40.6446 62.97 39.9879 62.5329 39.4178ZM25.2104 33.7424C25.1596 33.0742 24.5732 32.5733 23.903 32.6246L23.8854 32.6259C23.2168 32.6767 22.7213 33.2594 22.7721 33.9278C22.8205 34.5649 23.357 35.0493 23.9861 35.0493C24.017 35.0493 24.0481 35.0482 24.0795 35.0456L24.0972 35.0443C24.7656 34.9936 25.2612 34.4109 25.2104 33.7424ZM18.1541 29.1172C18.3481 29.717 18.5486 30.3373 18.6616 30.9643C18.9349 32.4797 18.6876 33.7 17.9266 34.5914C16.7696 35.9459 14.7724 36.1356 12.9289 36.1356C12.5564 36.1356 12.1905 36.128 11.8387 36.1205L11.8365 36.1204C11.5139 36.1137 11.2091 36.1073 10.9257 36.1073C9.91376 36.1073 9.42345 35.5648 9.2211 35.2414C8.54491 34.1606 9.13779 32.7347 9.80332 31.3668L9.80878 31.3556C9.8636 31.2428 9.91921 31.1283 9.94112 31.0765C10.1196 30.6543 10.3152 30.2319 10.5046 29.8232L10.5055 29.8213C10.8806 29.0114 11.235 28.2466 11.4662 27.484C11.5919 27.0697 11.4983 26.5608 11.3898 25.9716L11.3898 25.9715C11.2527 25.2268 11.0973 24.3828 11.3591 23.4819C11.6025 22.644 12.3003 22.0309 13.3241 21.7556C14.5549 21.4244 16.3935 21.5795 17.3766 22.5189C18.5145 23.6061 18.1049 25.1063 17.8337 26.0992L17.8337 26.0993L17.8328 26.1026C17.7491 26.409 17.6454 26.7891 17.6489 26.9605C17.6616 27.5934 17.9008 28.3335 18.1541 29.1172ZM11.89 33.6931C13.387 33.7249 15.4371 33.7681 16.0805 33.0146C16.3457 32.7042 16.4102 32.1591 16.2727 31.3949C16.1889 30.9299 16.0223 30.4146 15.8461 29.8691L15.8443 29.8638L15.8439 29.8624C15.5477 28.9461 15.2415 27.9989 15.2219 27.0087C15.2115 26.4866 15.354 25.9645 15.4921 25.4596L15.4921 25.4595C15.5875 25.11 15.7639 24.4639 15.6967 24.2713C15.344 23.9699 14.0181 23.936 13.6771 24.2098C13.5973 24.5537 13.6809 25.0089 13.7771 25.532L13.7772 25.5322C13.9147 26.2796 14.0859 27.2098 13.7893 28.1882C13.5086 29.1136 13.1012 29.9931 12.7073 30.8434C12.5181 31.2515 12.3396 31.637 12.1775 32.0209C12.1298 32.1337 12.0666 32.2637 11.9865 32.4284C11.7269 32.9616 11.5465 33.3814 11.446 33.6844C11.5908 33.687 11.7385 33.69 11.89 33.6931Z" fill="black"/>
</g>
<path d="M425.092 27.252C427.396 27.252 429.412 26.118 430.492 24.336L428.008 22.896C427.468 23.868 426.37 24.444 425.092 24.444C422.86 24.444 421.42 22.95 421.42 20.7C421.42 18.45 422.86 16.956 425.092 16.956C426.37 16.956 427.45 17.532 428.008 18.504L430.492 17.064C429.394 15.282 427.378 14.148 425.092 14.148C421.294 14.148 418.54 16.992 418.54 20.7C418.54 24.408 421.294 27.252 425.092 27.252ZM438.374 18V18.846C437.78 18.162 436.898 17.748 435.692 17.748C433.334 17.748 431.39 19.818 431.39 22.5C431.39 25.182 433.334 27.252 435.692 27.252C436.898 27.252 437.78 26.838 438.374 26.154V27H441.074V18H438.374ZM436.232 24.696C434.99 24.696 434.09 23.85 434.09 22.5C434.09 21.15 434.99 20.304 436.232 20.304C437.474 20.304 438.374 21.15 438.374 22.5C438.374 23.85 437.474 24.696 436.232 24.696ZM445.523 20.628C445.523 20.304 445.811 20.124 446.279 20.124C446.873 20.124 447.233 20.448 447.485 20.916L449.789 19.674C449.033 18.396 447.737 17.748 446.279 17.748C444.407 17.748 442.751 18.738 442.751 20.7C442.751 23.814 447.179 23.292 447.179 24.282C447.179 24.642 446.855 24.84 446.207 24.84C445.415 24.84 444.911 24.462 444.677 23.778L442.337 25.11C443.039 26.568 444.407 27.252 446.207 27.252C448.151 27.252 449.951 26.37 449.951 24.3C449.951 20.97 445.523 21.654 445.523 20.628ZM455.531 27.252C458.177 27.252 460.301 25.182 460.301 22.5C460.301 19.818 458.177 17.748 455.531 17.748C452.885 17.748 450.761 19.818 450.761 22.5C450.761 25.182 452.885 27.252 455.531 27.252ZM455.531 24.624C454.361 24.624 453.461 23.778 453.461 22.5C453.461 21.222 454.361 20.376 455.531 20.376C456.701 20.376 457.601 21.222 457.601 22.5C457.601 23.778 456.701 24.624 455.531 24.624ZM464.208 20.628C464.208 20.304 464.496 20.124 464.964 20.124C465.558 20.124 465.918 20.448 466.17 20.916L468.474 19.674C467.718 18.396 466.422 17.748 464.964 17.748C463.092 17.748 461.436 18.738 461.436 20.7C461.436 23.814 465.864 23.292 465.864 24.282C465.864 24.642 465.54 24.84 464.892 24.84C464.1 24.84 463.596 24.462 463.362 23.778L461.022 25.11C461.724 26.568 463.092 27.252 464.892 27.252C466.836 27.252 468.636 26.37 468.636 24.3C468.636 20.97 464.208 21.654 464.208 20.628ZM423.31 49.252C425.074 49.252 426.604 48.334 427.378 46.93L425.02 45.58C424.732 46.21 424.066 46.588 423.274 46.588C422.104 46.588 421.24 45.742 421.24 44.5C421.24 43.258 422.104 42.412 423.274 42.412C424.066 42.412 424.714 42.79 425.02 43.42L427.378 42.052C426.604 40.666 425.056 39.748 423.31 39.748C420.574 39.748 418.54 41.818 418.54 44.5C418.54 47.182 420.574 49.252 423.31 49.252ZM432.609 49.252C435.255 49.252 437.379 47.182 437.379 44.5C437.379 41.818 435.255 39.748 432.609 39.748C429.963 39.748 427.839 41.818 427.839 44.5C427.839 47.182 429.963 49.252 432.609 49.252ZM432.609 46.624C431.439 46.624 430.539 45.778 430.539 44.5C430.539 43.222 431.439 42.376 432.609 42.376C433.779 42.376 434.679 43.222 434.679 44.5C434.679 45.778 433.779 46.624 432.609 46.624ZM444.18 39.748C442.992 39.748 442.092 40.18 441.606 40.846V40H438.906V49H441.606V44.086C441.606 42.808 442.29 42.232 443.28 42.232C444.144 42.232 444.846 42.754 444.846 43.87V49H447.546V43.474C447.546 41.044 445.998 39.748 444.18 39.748ZM457.68 40H452.676C452.676 38.956 453.342 38.74 454.35 38.74C455.034 38.74 455.79 38.794 456.6 38.884V36.4C455.826 36.238 455.088 36.148 454.35 36.148C451.362 36.148 449.976 37.48 449.976 40H448.77V42.592H449.976V49H452.676V42.592H454.98V49H457.68V40ZM462.366 41.602V40H459.666V49H462.366V44.932C462.366 43.15 463.95 42.7 465.066 42.88V39.82C463.932 39.82 462.726 40.396 462.366 41.602ZM476.408 39.748C475.13 39.748 474.302 40.216 473.798 40.936C473.294 40.18 472.502 39.748 471.44 39.748C470.234 39.748 469.442 40.216 469.028 40.828V40H466.328V49H469.028V43.924C469.028 42.862 469.532 42.232 470.432 42.232C471.296 42.232 471.728 42.808 471.728 43.708V49H474.428V43.924C474.428 42.862 474.932 42.232 475.832 42.232C476.696 42.232 477.128 42.808 477.128 43.708V49H479.828V43.474C479.828 41.224 478.478 39.748 476.408 39.748ZM488.208 40V40.846C487.614 40.162 486.732 39.748 485.526 39.748C483.168 39.748 481.224 41.818 481.224 44.5C481.224 47.182 483.168 49.252 485.526 49.252C486.732 49.252 487.614 48.838 488.208 48.154V49H490.908V40H488.208ZM486.066 46.696C484.824 46.696 483.924 45.85 483.924 44.5C483.924 43.15 484.824 42.304 486.066 42.304C487.308 42.304 488.208 43.15 488.208 44.5C488.208 45.85 487.308 46.696 486.066 46.696ZM499.422 36.4V40.846C498.828 40.162 497.946 39.748 496.74 39.748C494.382 39.748 492.438 41.818 492.438 44.5C492.438 47.182 494.382 49.252 496.74 49.252C497.946 49.252 498.828 48.838 499.422 48.154V49H502.122V36.4H499.422ZM497.28 46.696C496.038 46.696 495.138 45.85 495.138 44.5C495.138 43.15 496.038 42.304 497.28 42.304C498.522 42.304 499.422 43.15 499.422 44.5C499.422 45.85 498.522 46.696 497.28 46.696ZM508.423 49.252C511.069 49.252 513.193 47.182 513.193 44.5C513.193 41.818 511.069 39.748 508.423 39.748C505.777 39.748 503.653 41.818 503.653 44.5C503.653 47.182 505.777 49.252 508.423 49.252ZM508.423 46.624C507.253 46.624 506.353 45.778 506.353 44.5C506.353 43.222 507.253 42.376 508.423 42.376C509.593 42.376 510.493 43.222 510.493 44.5C510.493 45.778 509.593 46.624 508.423 46.624ZM517.101 42.628C517.101 42.304 517.389 42.124 517.857 42.124C518.451 42.124 518.811 42.448 519.063 42.916L521.367 41.674C520.611 40.396 519.315 39.748 517.857 39.748C515.985 39.748 514.329 40.738 514.329 42.7C514.329 45.814 518.757 45.292 518.757 46.282C518.757 46.642 518.433 46.84 517.785 46.84C516.993 46.84 516.489 46.462 516.255 45.778L513.915 47.11C514.617 48.568 515.985 49.252 517.785 49.252C519.729 49.252 521.529 48.37 521.529 46.3C521.529 42.97 517.101 43.654 517.101 42.628Z" fill="#3CC3DD"/>
<line x1="2" y1="66.5" x2="532" y2="66.5" stroke="#A0A6AF" stroke-dasharray="2 4"/>
<path d="M0.413812 181.862H23.5862C23.8147 181.862 24 181.677 24 181.448V166.552C24 166.323 23.8147 166.138 23.5862 166.138H0.413812C0.185297 166.138 0 166.323 0 166.552V181.448C0 181.677 0.185297 181.862 0.413812 181.862Z" fill="#C8414B"/>
<path d="M24 169.449H0V178.552H24V169.449Z" fill="#FFD250"/>
<path d="M10.1377 174L10.4886 172.421C10.5209 172.276 10.4103 172.138 10.2613 172.138H10.0142C9.86524 172.138 9.75462 172.276 9.78687 172.421L10.1377 174Z" fill="#C8414B"/>
<path d="M10.5541 173.172H9.72656V176.689H10.5541V173.172Z" fill="#F5F5F5"/>
<path d="M10.757 172.759H9.51562V173.173H10.757V172.759Z" fill="#FAB446"/>
<path d="M10.7605 174H8.69141V174.414H10.7605V174Z" fill="#C8414B"/>
<path d="M10.757 175.655L9.51562 175.242V174.828L10.757 175.242V175.655Z" fill="#C8414B"/>
<path d="M3.9307 174L4.28156 172.421C4.3139 172.276 4.20323 172.138 4.05426 172.138H3.80714C3.65821 172.138 3.54759 172.276 3.57984 172.421L3.9307 174Z" fill="#C8414B"/>
<path d="M5.37866 172.759C5.15014 172.759 4.96484 172.944 4.96484 173.172V175.862C4.96484 176.365 5.43406 177.31 7.03381 177.31C8.63356 177.31 9.10277 176.365 9.10277 175.862V173.172C9.10277 172.944 8.91748 172.759 8.68896 172.759H5.37866Z" fill="#F5F5F5"/>
<path d="M7.03381 174.828H4.96484V173.172C4.96484 172.944 5.15014 172.759 5.37866 172.759H7.03381V174.828Z" fill="#C8414B"/>
<path d="M7.03516 174.828H9.10412V175.862C9.10412 176.433 8.641 176.896 8.06964 176.896C7.49828 176.896 7.03516 176.433 7.03516 175.862V174.828Z" fill="#C8414B"/>
<path d="M4.96484 174.828H7.03381V175.862C7.03381 176.433 6.57068 176.897 5.99933 176.897C5.42797 176.897 4.96484 176.433 4.96484 175.862V174.828Z" fill="#FAB446"/>
<path d="M6.62084 176.685V174.828H6.20703V176.876C6.36097 176.845 6.50005 176.776 6.62084 176.685Z" fill="#C8414B"/>
<path d="M5.79272 176.876V174.828H5.37891V176.685C5.49975 176.776 5.63883 176.845 5.79272 176.876Z" fill="#C8414B"/>
<path d="M6.62029 174H5.37891V174.414H6.62029V174Z" fill="#FFB441"/>
<path d="M6.62029 173.172H5.37891V173.586H6.62029V173.172Z" fill="#FAB446"/>
<path d="M6.41351 173.418H5.58594V174.168H6.41351V173.418Z" fill="#FAB446"/>
<path d="M4.3432 173.172H3.51562V176.689H4.3432V173.172Z" fill="#F5F5F5"/>
<path d="M4.54998 176.483H3.30859V176.897H4.54998V176.483Z" fill="#FAB446"/>
<path d="M4.54998 172.759H3.30859V173.173H4.54998V172.759Z" fill="#FAB446"/>
<path d="M4.75672 176.896H3.10156V177.31H4.75672V176.896Z" fill="#5064AA"/>
<path d="M10.968 176.483H9.72656V176.897H10.968V176.483Z" fill="#FAB446"/>
<path d="M10.9637 176.896H9.30859V177.31H10.9637V176.896Z" fill="#5064AA"/>
<path d="M8.27574 172.345H5.79297V172.759H8.27574V172.345Z" fill="#FAB446"/>
<path d="M7.24194 171.104H6.82812V172.345H7.24194V171.104Z" fill="#FFB441"/>
<path d="M6.62067 171.724C6.27839 171.724 6 171.446 6 171.103C6 170.761 6.27844 170.483 6.62067 170.483C6.96295 170.483 7.24134 170.761 7.24134 171.103C7.24139 171.446 6.96295 171.724 6.62067 171.724ZM6.62067 170.897C6.50653 170.897 6.41376 170.989 6.41376 171.103C6.41376 171.218 6.50648 171.31 6.62067 171.31C6.73486 171.31 6.82758 171.218 6.82758 171.103C6.82758 170.989 6.73486 170.897 6.62067 170.897Z" fill="#F5F5F5"/>
<path d="M7.44489 171.724C7.10261 171.724 6.82422 171.446 6.82422 171.103C6.82422 170.761 7.10266 170.483 7.44489 170.483C7.78717 170.483 8.06556 170.761 8.06556 171.103C8.06556 171.446 7.78712 171.724 7.44489 171.724ZM7.44489 170.897C7.33075 170.897 7.23798 170.989 7.23798 171.103C7.23798 171.218 7.3307 171.31 7.44489 171.31C7.55903 171.31 7.65179 171.218 7.65179 171.103C7.65175 170.989 7.55903 170.897 7.44489 170.897Z" fill="#F5F5F5"/>
<path d="M8.27692 172.138C7.93464 172.138 7.65625 171.86 7.65625 171.517C7.65625 171.175 7.93469 170.897 8.27692 170.897C8.6192 170.897 8.89759 171.175 8.89759 171.517C8.89759 171.86 8.61915 172.138 8.27692 172.138ZM8.27692 171.31C8.16278 171.31 8.07001 171.403 8.07001 171.517C8.07001 171.632 8.16273 171.724 8.27692 171.724C8.39106 171.724 8.48383 171.632 8.48383 171.517C8.48383 171.403 8.39106 171.31 8.27692 171.31Z" fill="#F5F5F5"/>
<path d="M5.79255 172.138C5.45026 172.138 5.17188 171.86 5.17188 171.517C5.17188 171.175 5.45031 170.897 5.79255 170.897C6.13483 170.897 6.41322 171.175 6.41322 171.517C6.41326 171.86 6.13483 172.138 5.79255 172.138ZM5.79255 171.31C5.67841 171.31 5.58564 171.403 5.58564 171.517C5.58564 171.632 5.67836 171.724 5.79255 171.724C5.90673 171.724 5.99945 171.632 5.99945 171.517C5.99945 171.403 5.90673 171.31 5.79255 171.31Z" fill="#F5F5F5"/>
<path d="M8.27684 175.655V175.862C8.27684 175.976 8.18403 176.069 8.06994 176.069C7.95584 176.069 7.86303 175.976 7.86303 175.862V175.655H8.27684ZM8.69061 175.242H7.44922V175.862C7.44922 176.205 7.72766 176.483 8.06989 176.483C8.41217 176.483 8.69056 176.204 8.69056 175.862V175.242H8.69061Z" fill="#FAB446"/>
<path d="M8.07006 174.414C7.84155 174.414 7.65625 174.229 7.65625 174V173.586C7.65625 173.358 7.84155 173.172 8.07006 173.172C8.29858 173.172 8.48387 173.358 8.48387 173.586V174C8.48387 174.229 8.29858 174.414 8.07006 174.414Z" fill="#FFA0D2"/>
<path d="M7.03473 175.448C7.37752 175.448 7.65541 175.17 7.65541 174.827C7.65541 174.485 7.37752 174.207 7.03473 174.207C6.69195 174.207 6.41406 174.485 6.41406 174.827C6.41406 175.17 6.69195 175.448 7.03473 175.448Z" fill="#5064AA"/>
<path d="M7.24194 170.276H6.82812V171.517H7.24194V170.276Z" fill="#FAB446"/>
<path d="M5.79272 172.345L5.37891 171.931L5.6213 171.689C5.99597 171.314 6.50419 171.104 7.03411 171.104C7.56403 171.104 8.0722 171.314 8.44692 171.689L8.68931 171.931L8.2755 172.345H5.79272Z" fill="#C8414B"/>
<path d="M7.03503 172.138C7.1493 172.138 7.24194 172.045 7.24194 171.931C7.24194 171.817 7.1493 171.724 7.03503 171.724C6.92076 171.724 6.82812 171.817 6.82812 171.931C6.82812 172.045 6.92076 172.138 7.03503 172.138Z" fill="#FFD250"/>
<path d="M6.20691 172.138C6.32118 172.138 6.41381 172.045 6.41381 171.931C6.41381 171.817 6.32118 171.724 6.20691 171.724C6.09263 171.724 6 171.817 6 171.931C6 172.045 6.09263 172.138 6.20691 172.138Z" fill="#FFD250"/>
<path d="M7.86316 172.138C7.97743 172.138 8.07006 172.045 8.07006 171.931C8.07006 171.817 7.97743 171.724 7.86316 171.724C7.74888 171.724 7.65625 171.817 7.65625 171.931C7.65625 172.045 7.74888 172.138 7.86316 172.138Z" fill="#FFD250"/>
<path d="M5.37765 174H3.30859V174.414H5.37765V174Z" fill="#C8414B"/>
<path d="M3.30859 175.655L4.54994 175.241V174.828L3.30859 175.241V175.655Z" fill="#C8414B"/>
<path d="M297.76 116.264H293.52V118.424H297.68V120.888H293.52V125H290.96V113.8H297.76V116.264ZM301.593 118.424C301.742 117.912 302.041 117.523 302.489 117.256C302.947 116.979 303.449 116.84 303.993 116.84V119.56C303.406 119.464 302.857 119.565 302.345 119.864C301.843 120.152 301.593 120.659 301.593 121.384V125H299.193V117H301.593V118.424ZM310.688 117H313.088V125H310.688V124.248C310.123 124.899 309.328 125.224 308.304 125.224C307.248 125.224 306.347 124.819 305.6 124.008C304.853 123.187 304.48 122.184 304.48 121C304.48 119.816 304.853 118.819 305.6 118.008C306.347 117.187 307.248 116.776 308.304 116.776C309.328 116.776 310.123 117.101 310.688 117.752V117ZM307.408 122.424C307.76 122.776 308.219 122.952 308.784 122.952C309.349 122.952 309.808 122.776 310.16 122.424C310.512 122.072 310.688 121.597 310.688 121C310.688 120.403 310.512 119.928 310.16 119.576C309.808 119.224 309.349 119.048 308.784 119.048C308.219 119.048 307.76 119.224 307.408 119.576C307.056 119.928 306.88 120.403 306.88 121C306.88 121.597 307.056 122.072 307.408 122.424ZM319.537 116.776C320.39 116.776 321.099 117.069 321.665 117.656C322.241 118.243 322.529 119.053 322.529 120.088V125H320.129V120.44C320.129 119.971 319.995 119.613 319.729 119.368C319.473 119.112 319.142 118.984 318.737 118.984C318.278 118.984 317.915 119.123 317.649 119.4C317.382 119.677 317.249 120.088 317.249 120.632V125H314.849V117H317.249V117.752C317.729 117.101 318.491 116.776 319.537 116.776ZM328.017 125.224C326.801 125.224 325.788 124.819 324.977 124.008C324.177 123.197 323.777 122.195 323.777 121C323.777 119.805 324.177 118.803 324.977 117.992C325.788 117.181 326.801 116.776 328.017 116.776C328.785 116.776 329.489 116.963 330.129 117.336C330.78 117.709 331.281 118.205 331.633 118.824L329.537 120.04C329.249 119.443 328.732 119.144 327.985 119.144C327.462 119.144 327.03 119.32 326.689 119.672C326.348 120.013 326.177 120.456 326.177 121C326.177 121.544 326.348 121.992 326.689 122.344C327.03 122.685 327.462 122.856 327.985 122.856C328.742 122.856 329.26 122.557 329.537 121.96L331.633 123.16C331.281 123.789 330.785 124.291 330.145 124.664C329.505 125.037 328.796 125.224 328.017 125.224ZM334.807 115.88C334.529 116.157 334.193 116.296 333.799 116.296C333.404 116.296 333.063 116.157 332.775 115.88C332.497 115.592 332.359 115.251 332.359 114.856C332.359 114.461 332.497 114.125 332.775 113.848C333.063 113.56 333.404 113.416 333.799 113.416C334.193 113.416 334.529 113.56 334.807 113.848C335.095 114.125 335.239 114.461 335.239 114.856C335.239 115.251 335.095 115.592 334.807 115.88ZM332.599 125V117H334.999V125H332.599ZM342.563 117H344.963V125H342.563V124.248C341.998 124.899 341.203 125.224 340.179 125.224C339.123 125.224 338.222 124.819 337.475 124.008C336.728 123.187 336.355 122.184 336.355 121C336.355 119.816 336.728 118.819 337.475 118.008C338.222 117.187 339.123 116.776 340.179 116.776C341.203 116.776 341.998 117.101 342.563 117.752V117ZM339.283 122.424C339.635 122.776 340.094 122.952 340.659 122.952C341.224 122.952 341.683 122.776 342.035 122.424C342.387 122.072 342.563 121.597 342.563 121C342.563 120.403 342.387 119.928 342.035 119.576C341.683 119.224 341.224 119.048 340.659 119.048C340.094 119.048 339.635 119.224 339.283 119.576C338.931 119.928 338.755 120.403 338.755 121C338.755 121.597 338.931 122.072 339.283 122.424Z" fill="#3CC3DD"/>
<path d="M290.16 133.8H297.52V135.944L293.872 145H291.152L294.672 136.264H290.16V133.8ZM298.75 144.776C298.451 145.075 298.094 145.224 297.678 145.224C297.262 145.224 296.904 145.075 296.606 144.776C296.307 144.477 296.158 144.12 296.158 143.704C296.158 143.288 296.307 142.931 296.606 142.632C296.904 142.333 297.262 142.184 297.678 142.184C298.094 142.184 298.451 142.333 298.75 142.632C299.048 142.931 299.198 143.288 299.198 143.704C299.198 144.12 299.048 144.477 298.75 144.776ZM300.082 133.8H307.442V135.944L303.794 145H301.074L304.594 136.264H300.082V133.8ZM313.702 138.344C314.416 138.589 314.992 138.989 315.43 139.544C315.867 140.088 316.086 140.733 316.086 141.48C316.086 142.653 315.691 143.571 314.902 144.232C314.112 144.893 313.147 145.224 312.006 145.224C311.12 145.224 310.326 145.021 309.622 144.616C308.928 144.211 308.416 143.613 308.086 142.824L310.294 141.544C310.571 142.333 311.142 142.728 312.006 142.728C312.507 142.728 312.886 142.611 313.142 142.376C313.398 142.141 313.526 141.843 313.526 141.48C313.526 141.117 313.398 140.819 313.142 140.584C312.886 140.349 312.507 140.232 312.006 140.232H311.478L310.502 138.776L312.534 136.2H308.438V133.8H315.638V135.88L313.702 138.344ZM324.947 143.64C324.147 144.696 323.032 145.224 321.603 145.224C320.173 145.224 319.053 144.696 318.243 143.64C317.443 142.573 317.043 141.16 317.043 139.4C317.043 137.64 317.443 136.232 318.243 135.176C319.053 134.109 320.173 133.576 321.603 133.576C323.032 133.576 324.147 134.109 324.947 135.176C325.757 136.232 326.163 137.64 326.163 139.4C326.163 141.16 325.757 142.573 324.947 143.64ZM319.603 139.4C319.603 141.619 320.269 142.728 321.603 142.728C322.936 142.728 323.603 141.619 323.603 139.4C323.603 137.181 322.936 136.072 321.603 136.072C320.269 136.072 319.603 137.181 319.603 139.4Z" fill="#101010"/>
<path d="M149.88 208.224C152.312 208.224 154.04 206.944 154.04 204.784C154.04 202.416 152.136 201.824 150.44 201.312C148.696 200.784 148.424 200.432 148.424 199.92C148.424 199.472 148.824 199.072 149.624 199.072C150.648 199.072 151.176 199.568 151.56 200.368L153.72 199.104C152.904 197.456 151.464 196.576 149.624 196.576C147.688 196.576 145.864 197.824 145.864 199.984C145.864 202.128 147.496 202.928 149.16 203.392C150.84 203.856 151.48 204.128 151.48 204.816C151.48 205.248 151.176 205.728 149.96 205.728C148.696 205.728 148.008 205.104 147.608 204.176L145.4 205.456C146.024 207.104 147.528 208.224 149.88 208.224ZM160.407 200V204.368C160.407 205.504 159.799 206.016 158.919 206.016C158.151 206.016 157.527 205.552 157.527 204.56V200H155.127V204.912C155.127 207.072 156.503 208.224 158.119 208.224C159.175 208.224 159.975 207.84 160.407 207.248V208H162.807V200H160.407ZM165.768 199.296C166.552 199.296 167.208 198.64 167.208 197.856C167.208 197.072 166.552 196.416 165.768 196.416C164.984 196.416 164.328 197.072 164.328 197.856C164.328 198.64 164.984 199.296 165.768 199.296ZM164.568 208H166.968V200H164.568V208ZM171.7 205.76L174.724 201.6V200H168.644V202.24H171.508L168.484 206.4V208H174.884V205.76H171.7ZM181.641 200V200.752C181.113 200.144 180.329 199.776 179.257 199.776C177.161 199.776 175.433 201.616 175.433 204C175.433 206.384 177.161 208.224 179.257 208.224C180.329 208.224 181.113 207.856 181.641 207.248V208H184.041V200H181.641ZM179.737 205.952C178.633 205.952 177.833 205.2 177.833 204C177.833 202.8 178.633 202.048 179.737 202.048C180.841 202.048 181.641 202.8 181.641 204C181.641 205.2 180.841 205.952 179.737 205.952Z" fill="#3CC3DD"/>
<path d="M145.352 228H152.968V225.536H149.208L151.064 223.664C152.088 222.64 152.808 221.488 152.808 220.144C152.808 217.888 151.016 216.576 149.016 216.576C147.464 216.576 145.96 217.36 145.24 219.024L147.4 220.288C147.704 219.584 148.264 219.072 149.048 219.072C149.8 219.072 150.248 219.552 150.248 220.256C150.248 220.912 149.768 221.568 149.112 222.24L145.352 226.144V228ZM155.771 228.224C156.603 228.224 157.291 227.536 157.291 226.704C157.291 225.872 156.603 225.184 155.771 225.184C154.939 225.184 154.251 225.872 154.251 226.704C154.251 227.536 154.939 228.224 155.771 228.224ZM162.928 220.336L165.36 216.8H162.416L158.992 222C158.576 222.624 158.336 223.408 158.336 224.272C158.336 226.592 160.016 228.224 162.496 228.224C164.96 228.224 166.656 226.592 166.656 224.272C166.656 222.096 165.152 220.512 162.928 220.336ZM162.496 225.824C161.632 225.824 160.896 225.264 160.896 224.272C160.896 223.28 161.632 222.72 162.496 222.72C163.344 222.72 164.096 223.296 164.096 224.272C164.096 225.248 163.344 225.824 162.496 225.824ZM171.373 220.736H170.461L170.573 219.2H174.653V216.8H168.173L167.709 223.232H171.213C172.189 223.232 172.653 223.792 172.653 224.48C172.653 225.168 172.189 225.728 171.133 225.728C170.077 225.728 169.597 225.28 169.341 224.544L167.133 225.824C167.821 227.472 169.357 228.224 171.133 228.224C173.293 228.224 175.213 226.944 175.213 224.48C175.213 222.016 173.453 220.736 171.373 220.736ZM180.571 228.224C183.467 228.224 185.131 225.856 185.131 222.4C185.131 218.944 183.467 216.576 180.571 216.576C177.675 216.576 176.011 218.944 176.011 222.4C176.011 225.856 177.675 228.224 180.571 228.224ZM180.571 225.728C179.227 225.728 178.571 224.56 178.571 222.4C178.571 220.24 179.227 219.072 180.571 219.072C181.915 219.072 182.571 220.24 182.571 222.4C182.571 224.56 181.915 225.728 180.571 225.728Z" fill="#101010"/>
<path d="M4.52 205.536V203.552H8.52V201.12H4.52V199.264H8.92V196.8H1.96V208H9V205.536H4.52ZM12.6364 202.336C12.6364 202.048 12.8924 201.888 13.3084 201.888C13.8364 201.888 14.1564 202.176 14.3804 202.592L16.4284 201.488C15.7564 200.352 14.6044 199.776 13.3084 199.776C11.6444 199.776 10.1724 200.656 10.1724 202.4C10.1724 205.168 14.1084 204.704 14.1084 205.584C14.1084 205.904 13.8204 206.08 13.2444 206.08C12.5404 206.08 12.0924 205.744 11.8844 205.136L9.80438 206.32C10.4284 207.616 11.6444 208.224 13.2444 208.224C14.9724 208.224 16.5724 207.44 16.5724 205.6C16.5724 202.64 12.6364 203.248 12.6364 202.336ZM22.6328 199.776C21.5608 199.776 20.7768 200.144 20.2488 200.752V200H17.8488V211.2H20.2488V207.248C20.7768 207.856 21.5608 208.224 22.6328 208.224C24.7288 208.224 26.4568 206.384 26.4568 204C26.4568 201.616 24.7288 199.776 22.6328 199.776ZM22.1528 205.952C21.0488 205.952 20.2488 205.2 20.2488 204C20.2488 202.8 21.0488 202.048 22.1528 202.048C23.2568 202.048 24.0568 202.8 24.0568 204C24.0568 205.2 23.2568 205.952 22.1528 205.952ZM33.6255 200V200.752C33.0975 200.144 32.3135 199.776 31.2415 199.776C29.1455 199.776 27.4175 201.616 27.4175 204C27.4175 206.384 29.1455 208.224 31.2415 208.224C32.3135 208.224 33.0975 207.856 33.6255 207.248V208H36.0255V200H33.6255ZM31.7215 205.952C30.6175 205.952 29.8175 205.2 29.8175 204C29.8175 202.8 30.6175 202.048 31.7215 202.048C32.8255 202.048 33.6255 202.8 33.6255 204C33.6255 205.2 32.8255 205.952 31.7215 205.952ZM41.4503 198.608C42.9063 199.504 44.5863 199.216 44.5863 196.48H42.6663C42.6663 197.12 42.5223 197.2 41.9783 196.864C40.5223 195.968 38.8423 196.256 38.8423 198.992H40.7623C40.7623 198.352 40.9062 198.272 41.4503 198.608ZM42.4743 199.776C41.4183 199.776 40.6183 200.16 40.1863 200.752V200H37.7863V208H40.1863V203.632C40.1863 202.496 40.7943 201.984 41.6743 201.984C42.4423 201.984 43.0663 202.448 43.0663 203.44V208H45.4663V203.088C45.4663 200.928 44.0903 199.776 42.4743 199.776ZM52.9224 200V200.752C52.3944 200.144 51.6104 199.776 50.5384 199.776C48.4424 199.776 46.7144 201.616 46.7144 204C46.7144 206.384 48.4424 208.224 50.5384 208.224C51.6104 208.224 52.3944 207.856 52.9224 207.248V208H55.3224V200H52.9224ZM51.0184 205.952C49.9144 205.952 49.1144 205.2 49.1144 204C49.1144 202.8 49.9144 202.048 51.0184 202.048C52.1224 202.048 52.9224 202.8 52.9224 204C52.9224 205.2 52.1224 205.952 51.0184 205.952Z" fill="#3CC3DD"/>
<path d="M4.088 216.8L1.16 217.856L1.784 220.048L3.768 219.504V228H6.328V216.8H4.088ZM13.3891 221.344L15.3251 218.88V216.8H8.12513V219.2H12.2211L10.1891 221.776L11.1651 223.232H11.6931C12.7491 223.232 13.2131 223.792 13.2131 224.48C13.2131 225.168 12.7491 225.728 11.6931 225.728C10.7171 225.728 10.2371 225.28 9.98113 224.544L7.77313 225.824C8.46113 227.472 9.99713 228.224 11.6931 228.224C13.8531 228.224 15.7731 226.944 15.7731 224.48C15.7731 222.928 14.7651 221.824 13.3891 221.344ZM18.1775 228.224C19.0095 228.224 19.6975 227.536 19.6975 226.704C19.6975 225.872 19.0095 225.184 18.1775 225.184C17.3455 225.184 16.6575 225.872 16.6575 226.704C16.6575 227.536 17.3455 228.224 18.1775 228.224ZM20.5819 216.8V219.264H25.0939L21.5739 228H24.2939L27.9419 218.944V216.8H20.5819ZM31.5099 216.8L28.5819 217.856L29.2059 220.048L31.1899 219.504V228H33.7499V216.8H31.5099ZM39.787 220.336L42.219 216.8H39.275L35.851 222C35.435 222.624 35.195 223.408 35.195 224.272C35.195 226.592 36.875 228.224 39.355 228.224C41.819 228.224 43.515 226.592 43.515 224.272C43.515 222.096 42.011 220.512 39.787 220.336ZM39.355 225.824C38.491 225.824 37.755 225.264 37.755 224.272C37.755 223.28 38.491 222.72 39.355 222.72C40.203 222.72 40.955 223.296 40.955 224.272C40.955 225.248 40.203 225.824 39.355 225.824Z" fill="#101010"/>
<path d="M0.96 114.8H3.52V126H0.96V114.8ZM10.0524 120.304H8.40438V123.136C8.40438 123.456 8.53238 123.659 8.78838 123.744C9.04438 123.829 9.46571 123.856 10.0524 123.824V126C8.52704 126.16 7.47104 126.016 6.88438 125.568C6.29771 125.109 6.00438 124.299 6.00438 123.136V120.304H4.72438V118H6.00438V116.48L8.40438 115.76V118H10.0524V120.304ZM17.063 118H19.463V126H17.063V125.248C16.4977 125.899 15.703 126.224 14.679 126.224C13.623 126.224 12.7217 125.819 11.975 125.008C11.2283 124.187 10.855 123.184 10.855 122C10.855 120.816 11.2283 119.819 11.975 119.008C12.7217 118.187 13.623 117.776 14.679 117.776C15.703 117.776 16.4977 118.101 17.063 118.752V118ZM13.783 123.424C14.135 123.776 14.5937 123.952 15.159 123.952C15.7243 123.952 16.183 123.776 16.535 123.424C16.887 123.072 17.063 122.597 17.063 122C17.063 121.403 16.887 120.928 16.535 120.576C16.183 120.224 15.7243 120.048 15.159 120.048C14.5937 120.048 14.135 120.224 13.783 120.576C13.431 120.928 13.255 121.403 13.255 122C13.255 122.597 13.431 123.072 13.783 123.424ZM21.2238 126V114.32H23.6238V126H21.2238ZM27.588 116.88C27.3107 117.157 26.9747 117.296 26.58 117.296C26.1853 117.296 25.844 117.157 25.556 116.88C25.2787 116.592 25.14 116.251 25.14 115.856C25.14 115.461 25.2787 115.125 25.556 114.848C25.844 114.56 26.1853 114.416 26.58 114.416C26.9747 114.416 27.3107 114.56 27.588 114.848C27.876 115.125 28.02 115.461 28.02 115.856C28.02 116.251 27.876 116.592 27.588 116.88ZM25.38 126V118H27.78V126H25.38ZM35.3443 118H37.7443V126H35.3443V125.248C34.7789 125.899 33.9843 126.224 32.9603 126.224C31.9043 126.224 31.0029 125.819 30.2563 125.008C29.5096 124.187 29.1363 123.184 29.1363 122C29.1363 120.816 29.5096 119.819 30.2563 119.008C31.0029 118.187 31.9043 117.776 32.9603 117.776C33.9843 117.776 34.7789 118.101 35.3443 118.752V118ZM32.0643 123.424C32.4163 123.776 32.8749 123.952 33.4403 123.952C34.0056 123.952 34.4643 123.776 34.8163 123.424C35.1683 123.072 35.3443 122.597 35.3443 122C35.3443 121.403 35.1683 120.928 34.8163 120.576C34.4643 120.224 34.0056 120.048 33.4403 120.048C32.8749 120.048 32.4163 120.224 32.0643 120.576C31.7123 120.928 31.5363 121.403 31.5363 122C31.5363 122.597 31.7123 123.072 32.0643 123.424Z" fill="#3CC3DD"/>
<path d="M5.936 139.344C6.65067 139.589 7.22667 139.989 7.664 140.544C8.10133 141.088 8.32 141.733 8.32 142.48C8.32 143.653 7.92533 144.571 7.136 145.232C6.34667 145.893 5.38133 146.224 4.24 146.224C3.35467 146.224 2.56 146.021 1.856 145.616C1.16267 145.211 0.650667 144.613 0.32 143.824L2.528 142.544C2.80533 143.333 3.376 143.728 4.24 143.728C4.74133 143.728 5.12 143.611 5.376 143.376C5.632 143.141 5.76 142.843 5.76 142.48C5.76 142.117 5.632 141.819 5.376 141.584C5.12 141.349 4.74133 141.232 4.24 141.232H3.712L2.736 139.776L4.768 137.2H0.672V134.8H7.872V136.88L5.936 139.344ZM13.2788 138.736C14.3774 138.736 15.2894 139.067 16.0148 139.728C16.7508 140.379 17.1188 141.296 17.1188 142.48C17.1188 143.653 16.7241 144.571 15.9348 145.232C15.1454 145.893 14.1801 146.224 13.0388 146.224C12.1108 146.224 11.2948 146.027 10.5908 145.632C9.88675 145.227 9.36942 144.624 9.03875 143.824L11.2468 142.544C11.5241 143.333 12.1214 143.728 13.0388 143.728C13.5401 143.728 13.9188 143.611 14.1748 143.376C14.4308 143.141 14.5588 142.843 14.5588 142.48C14.5588 142.117 14.4361 141.819 14.1908 141.584C13.9454 141.349 13.5881 141.232 13.1188 141.232H9.61475L10.0788 134.8H16.5588V137.2H12.4788L12.3668 138.736H13.2788ZM20.5151 145.776C20.2165 146.075 19.8591 146.224 19.4431 146.224C19.0271 146.224 18.6698 146.075 18.3711 145.776C18.0725 145.477 17.9231 145.12 17.9231 144.704C17.9231 144.288 18.0725 143.931 18.3711 143.632C18.6698 143.333 19.0271 143.184 19.4431 143.184C19.8591 143.184 20.2165 143.333 20.5151 143.632C20.8138 143.931 20.9631 144.288 20.9631 144.704C20.9631 145.12 20.8138 145.477 20.5151 145.776ZM21.8475 134.8H29.2075V136.944L25.5595 146H22.8395L26.3595 137.264H21.8475V134.8ZM32.7755 134.8H35.0155V146H32.4555V137.504L30.4715 138.048L29.8475 135.856L32.7755 134.8ZM42.0766 139.344C42.7913 139.589 43.3673 139.989 43.8046 140.544C44.242 141.088 44.4606 141.733 44.4606 142.48C44.4606 143.653 44.066 144.571 43.2766 145.232C42.4873 145.893 41.522 146.224 40.3806 146.224C39.4953 146.224 38.7006 146.021 37.9966 145.616C37.3033 145.211 36.7913 144.613 36.4606 143.824L38.6686 142.544C38.946 143.333 39.5166 143.728 40.3806 143.728C40.882 143.728 41.2606 143.611 41.5166 143.376C41.7726 143.141 41.9006 142.843 41.9006 142.48C41.9006 142.117 41.7726 141.819 41.5166 141.584C41.2606 141.349 40.882 141.232 40.3806 141.232H39.8526L38.8766 139.776L40.9086 137.2H36.8126V134.8H44.0126V136.88L42.0766 139.344Z" fill="#101010"/>
<path d="M426.848 125H429.6L427.216 120.888C428.448 120.264 429.28 119.016 429.28 117.64C429.28 115.512 427.568 113.8 425.44 113.8H420.96V125H423.52V121.32H424.736L426.848 125ZM423.52 116.2H425.44C426.144 116.2 426.72 116.824 426.72 117.64C426.72 118.456 426.144 119.08 425.44 119.08H423.52V116.2ZM432.462 121.96H438.142C438.206 121.656 438.238 121.336 438.238 121C438.238 118.584 436.51 116.776 434.174 116.776C431.646 116.776 429.918 118.616 429.918 121C429.918 123.384 431.614 125.224 434.35 125.224C435.87 125.224 437.054 124.664 437.838 123.576L435.918 122.472C435.598 122.824 435.038 123.08 434.382 123.08C433.502 123.08 432.766 122.792 432.462 121.96ZM432.414 120.168C432.638 119.352 433.246 118.904 434.158 118.904C434.878 118.904 435.598 119.24 435.854 120.168H432.414ZM440.799 116.296C441.583 116.296 442.239 115.64 442.239 114.856C442.239 114.072 441.583 113.416 440.799 113.416C440.015 113.416 439.359 114.072 439.359 114.856C439.359 115.64 440.015 116.296 440.799 116.296ZM439.599 125H441.999V117H439.599V125ZM448.443 116.776C447.387 116.776 446.587 117.16 446.155 117.752V117H443.755V125H446.155V120.632C446.155 119.496 446.763 118.984 447.643 118.984C448.411 118.984 449.035 119.448 449.035 120.44V125H451.435V120.088C451.435 117.928 450.059 116.776 448.443 116.776ZM456.923 125.224C459.275 125.224 461.163 123.384 461.163 121C461.163 118.616 459.275 116.776 456.923 116.776C454.571 116.776 452.683 118.616 452.683 121C452.683 123.384 454.571 125.224 456.923 125.224ZM456.923 122.888C455.883 122.888 455.083 122.136 455.083 121C455.083 119.864 455.883 119.112 456.923 119.112C457.963 119.112 458.763 119.864 458.763 121C458.763 122.136 457.963 122.888 456.923 122.888ZM470.841 125.224C473.305 125.224 475.161 123.784 475.161 121.384V113.8H472.601V121.16C472.601 122.008 472.201 122.728 470.841 122.728C469.481 122.728 469.081 122.008 469.081 121.16V113.8H466.521V121.384C466.521 123.784 468.377 125.224 470.841 125.224ZM481.615 116.776C480.559 116.776 479.759 117.16 479.327 117.752V117H476.927V125H479.327V120.632C479.327 119.496 479.935 118.984 480.815 118.984C481.583 118.984 482.207 119.448 482.207 120.44V125H484.607V120.088C484.607 117.928 483.231 116.776 481.615 116.776ZM487.455 116.296C488.239 116.296 488.895 115.64 488.895 114.856C488.895 114.072 488.239 113.416 487.455 113.416C486.671 113.416 486.015 114.072 486.015 114.856C486.015 115.64 486.671 116.296 487.455 116.296ZM486.255 125H488.655V117H486.255V125ZM496.219 113.8V117.752C495.691 117.144 494.907 116.776 493.835 116.776C491.739 116.776 490.011 118.616 490.011 121C490.011 123.384 491.739 125.224 493.835 125.224C494.907 125.224 495.691 124.856 496.219 124.248V125H498.619V113.8H496.219ZM494.315 122.952C493.211 122.952 492.411 122.2 492.411 121C492.411 119.8 493.211 119.048 494.315 119.048C495.419 119.048 496.219 119.8 496.219 121C496.219 122.2 495.419 122.952 494.315 122.952ZM504.22 125.224C506.572 125.224 508.46 123.384 508.46 121C508.46 118.616 506.572 116.776 504.22 116.776C501.868 116.776 499.98 118.616 499.98 121C499.98 123.384 501.868 125.224 504.22 125.224ZM504.22 122.888C503.18 122.888 502.38 122.136 502.38 121C502.38 119.864 503.18 119.112 504.22 119.112C505.26 119.112 506.06 119.864 506.06 121C506.06 122.136 505.26 122.888 504.22 122.888Z" fill="#3CC3DD"/>
<path d="M423.088 133.8L420.16 134.856L420.784 137.048L422.768 136.504V145H425.328V133.8H423.088ZM428.693 145.224C429.525 145.224 430.213 144.536 430.213 143.704C430.213 142.872 429.525 142.184 428.693 142.184C427.861 142.184 427.173 142.872 427.173 143.704C427.173 144.536 427.861 145.224 428.693 145.224ZM438.453 137.528C438.453 135.208 436.773 133.576 434.293 133.576C431.829 133.576 430.133 135.208 430.133 137.528C430.133 139.704 431.637 141.288 433.861 141.464L431.429 145H434.373L437.797 139.8C438.213 139.176 438.453 138.392 438.453 137.528ZM432.693 137.528C432.693 136.552 433.445 135.976 434.293 135.976C435.157 135.976 435.893 136.536 435.893 137.528C435.893 138.52 435.157 139.08 434.293 139.08C433.445 139.08 432.693 138.504 432.693 137.528ZM443.013 137.736H442.101L442.213 136.2H446.293V133.8H439.813L439.349 140.232H442.853C443.829 140.232 444.293 140.792 444.293 141.48C444.293 142.168 443.829 142.728 442.773 142.728C441.717 142.728 441.237 142.28 440.981 141.544L438.773 142.824C439.461 144.472 440.997 145.224 442.773 145.224C444.933 145.224 446.853 143.944 446.853 141.48C446.853 139.016 445.093 137.736 443.013 137.736ZM452.212 145.224C455.108 145.224 456.772 142.856 456.772 139.4C456.772 135.944 455.108 133.576 452.212 133.576C449.316 133.576 447.652 135.944 447.652 139.4C447.652 142.856 449.316 145.224 452.212 145.224ZM452.212 142.728C450.868 142.728 450.212 141.56 450.212 139.4C450.212 137.24 450.868 136.072 452.212 136.072C453.556 136.072 454.212 137.24 454.212 139.4C454.212 141.56 453.556 142.728 452.212 142.728Z" fill="#101010"/>
<g clip-path="url(#clip1)">
<path d="M443.586 99.8622H420.414C420.185 99.8622 420 99.6769 420 99.4484V84.5519C420 84.3234 420.185 84.1381 420.414 84.1381H443.586C443.815 84.1381 444 84.3234 444 84.5519V99.4484C444 99.6769 443.815 99.8622 443.586 99.8622Z" fill="#41479B"/>
<path d="M444 84.5519C444 84.3234 443.815 84.1381 443.586 84.1381H441.735L434.069 89.1606V84.1381H429.931V89.1606L422.265 84.1381H420.414C420.185 84.1381 420 84.3234 420 84.5519V85.6221L426.577 89.9311H420V94.0691H426.577L420 98.3782V99.4484C420 99.6769 420.185 99.8622 420.414 99.8622H422.265L429.931 94.8397V99.8622H434.069V94.8397L441.735 99.8622H443.586C443.815 99.8622 444 99.6769 444 99.4484V98.3782L437.423 94.0691H444V89.9312H437.423L444 85.6221V84.5519Z" fill="#F5F5F5"/>
<path d="M444 90.7588H433.241V84.1381H430.759V90.7588H420V93.2415H430.759V99.8622H433.241V93.2415H444V90.7588Z" fill="#FF4B55"/>
<path d="M428.388 94.069L420.012 99.5063C420.041 99.7061 420.206 99.8621 420.414 99.8621H420.984L429.908 94.069H428.388V94.069Z" fill="#FF4B55"/>
<path d="M436.239 94.069H434.719L443.63 99.8535C443.838 99.8314 444.002 99.6618 444.002 99.4482V99.108L436.239 94.069Z" fill="#FF4B55"/>
<path d="M420 85.0086L427.583 89.9311H429.103L420.241 84.1783C420.1 84.2441 420 84.3854 420 84.5518V85.0086Z" fill="#FF4B55"/>
<path d="M435.59 89.9312L443.987 84.4808C443.952 84.2876 443.791 84.1382 443.587 84.1382H442.995L434.07 89.9312H435.59Z" fill="#FF4B55"/>
</g>
<path d="M296 99.862H288.414C288.185 99.862 288 99.6767 288 99.4482V84.5516C288 84.3231 288.185 84.1378 288.414 84.1378H296V99.862Z" fill="#41479B"/>
<path d="M304 84.1379H296V99.8622H304V84.1379Z" fill="#F5F5F5"/>
<path d="M311.586 99.8619H304V84.1378H311.586C311.815 84.1378 312 84.3231 312 84.5516V99.4482C312 99.6767 311.815 99.8619 311.586 99.8619Z" fill="#FF4B55"/>
<path d="M171 89.3795H147V84.5519C147 84.3234 147.185 84.1381 147.414 84.1381H170.586C170.815 84.1381 171 84.3234 171 84.5519L171 89.3795Z" fill="#464655"/>
<path d="M170.586 99.8621H147.414C147.185 99.8621 147 99.6768 147 99.4483V94.6207H171V99.4483C171 99.6768 170.815 99.8621 170.586 99.8621Z" fill="#FFE15A"/>
<path d="M171 89.3792H147V94.6202H171V89.3792Z" fill="#FF4B55"/>
<path d="M157.08 126L156.52 124.24H152.36L151.8 126H149L152.808 114.8H156.072L159.88 126H157.08ZM153.128 121.84H155.752L154.44 117.728L153.128 121.84ZM160.755 126V114.32H163.155V126H160.755ZM167.055 122.96C167.333 123.707 167.973 124.08 168.975 124.08C169.626 124.08 170.138 123.877 170.511 123.472L172.431 124.576C171.642 125.675 170.479 126.224 168.943 126.224C167.599 126.224 166.522 125.824 165.711 125.024C164.911 124.224 164.511 123.216 164.511 122C164.511 120.795 164.906 119.792 165.695 118.992C166.495 118.181 167.519 117.776 168.767 117.776C169.93 117.776 170.895 118.181 171.663 118.992C172.442 119.792 172.831 120.795 172.831 122C172.831 122.341 172.799 122.661 172.735 122.96H167.055ZM167.007 121.168H170.447C170.213 120.325 169.647 119.904 168.751 119.904C167.823 119.904 167.242 120.325 167.007 121.168ZM183.153 117.776C184.07 117.776 184.806 118.08 185.361 118.688C185.915 119.285 186.193 120.085 186.193 121.088V126H183.793V121.296C183.793 120.891 183.691 120.571 183.489 120.336C183.297 120.101 183.014 119.984 182.641 119.984C182.246 119.984 181.937 120.117 181.713 120.384C181.499 120.651 181.392 121.019 181.392 121.488V126H178.993V121.296C178.993 120.891 178.891 120.571 178.689 120.336C178.497 120.101 178.214 119.984 177.841 119.984C177.446 119.984 177.137 120.117 176.913 120.384C176.699 120.651 176.593 121.019 176.593 121.488V126H174.193V118H176.593V118.736C177.03 118.096 177.745 117.776 178.737 117.776C179.665 117.776 180.363 118.128 180.833 118.832C181.323 118.128 182.097 117.776 183.153 117.776ZM193.641 118H196.041V126H193.641V125.248C193.076 125.899 192.281 126.224 191.257 126.224C190.201 126.224 189.3 125.819 188.553 125.008C187.806 124.187 187.433 123.184 187.433 122C187.433 120.816 187.806 119.819 188.553 119.008C189.3 118.187 190.201 117.776 191.257 117.776C192.281 117.776 193.076 118.101 193.641 118.752V118ZM190.361 123.424C190.713 123.776 191.172 123.952 191.737 123.952C192.302 123.952 192.761 123.776 193.113 123.424C193.465 123.072 193.641 122.597 193.641 122C193.641 121.403 193.465 120.928 193.113 120.576C192.761 120.224 192.302 120.048 191.737 120.048C191.172 120.048 190.713 120.224 190.361 120.576C190.009 120.928 189.833 121.403 189.833 122C189.833 122.597 190.009 123.072 190.361 123.424ZM202.49 117.776C203.343 117.776 204.053 118.069 204.618 118.656C205.194 119.243 205.482 120.053 205.482 121.088V126H203.082V121.44C203.082 120.971 202.949 120.613 202.682 120.368C202.426 120.112 202.095 119.984 201.69 119.984C201.231 119.984 200.869 120.123 200.602 120.4C200.335 120.677 200.202 121.088 200.202 121.632V126H197.802V118H200.202V118.752C200.682 118.101 201.445 117.776 202.49 117.776ZM209.338 116.88C209.061 117.157 208.725 117.296 208.33 117.296C207.935 117.296 207.594 117.157 207.306 116.88C207.029 116.592 206.89 116.251 206.89 115.856C206.89 115.461 207.029 115.125 207.306 114.848C207.594 114.56 207.935 114.416 208.33 114.416C208.725 114.416 209.061 114.56 209.338 114.848C209.626 115.125 209.77 115.461 209.77 115.856C209.77 116.251 209.626 116.592 209.338 116.88ZM207.13 126V118H209.53V126H207.13ZM217.094 118H219.494V126H217.094V125.248C216.529 125.899 215.734 126.224 214.71 126.224C213.654 126.224 212.753 125.819 212.006 125.008C211.26 124.187 210.886 123.184 210.886 122C210.886 120.816 211.26 119.819 212.006 119.008C212.753 118.187 213.654 117.776 214.71 117.776C215.734 117.776 216.529 118.101 217.094 118.752V118ZM213.814 123.424C214.166 123.776 214.625 123.952 215.19 123.952C215.756 123.952 216.214 123.776 216.566 123.424C216.918 123.072 217.094 122.597 217.094 122C217.094 121.403 216.918 120.928 216.566 120.576C216.214 120.224 215.756 120.048 215.19 120.048C214.625 120.048 214.166 120.224 213.814 120.576C213.462 120.928 213.286 121.403 213.286 122C213.286 122.597 213.462 123.072 213.814 123.424Z" fill="#3CC3DD"/>
<path d="M149.16 134.8H156.52V136.944L152.872 146H150.152L153.672 137.264H149.16V134.8ZM157.75 145.776C157.451 146.075 157.094 146.224 156.678 146.224C156.262 146.224 155.904 146.075 155.606 145.776C155.307 145.477 155.158 145.12 155.158 144.704C155.158 144.288 155.307 143.931 155.606 143.632C155.904 143.333 156.262 143.184 156.678 143.184C157.094 143.184 157.451 143.333 157.75 143.632C158.048 143.931 158.198 144.288 158.198 144.704C158.198 145.12 158.048 145.477 157.75 145.776ZM162.01 134.8H164.25V146H161.69V137.504L159.706 138.048L159.082 135.856L162.01 134.8ZM169.935 138.736C171.034 138.736 171.946 139.067 172.671 139.728C173.407 140.379 173.775 141.296 173.775 142.48C173.775 143.653 173.38 144.571 172.591 145.232C171.802 145.893 170.836 146.224 169.695 146.224C168.767 146.224 167.951 146.027 167.247 145.632C166.543 145.227 166.026 144.624 165.695 143.824L167.903 142.544C168.18 143.333 168.778 143.728 169.695 143.728C170.196 143.728 170.575 143.611 170.831 143.376C171.087 143.141 171.215 142.843 171.215 142.48C171.215 142.117 171.092 141.819 170.847 141.584C170.602 141.349 170.244 141.232 169.775 141.232H166.271L166.735 134.8H173.215V137.2H169.135L169.023 138.736H169.935ZM179.084 138.336C180.193 138.421 181.089 138.827 181.772 139.552C182.465 140.277 182.812 141.184 182.812 142.272C182.812 143.435 182.423 144.384 181.644 145.12C180.876 145.856 179.879 146.224 178.652 146.224C177.415 146.224 176.412 145.856 175.644 145.12C174.876 144.384 174.492 143.435 174.492 142.272C174.492 141.408 174.711 140.651 175.148 140L178.572 134.8H181.516L179.084 138.336ZM177.516 143.408C177.825 143.685 178.204 143.824 178.652 143.824C179.1 143.824 179.479 143.685 179.788 143.408C180.097 143.12 180.252 142.741 180.252 142.272C180.252 141.803 180.097 141.429 179.788 141.152C179.479 140.864 179.1 140.72 178.652 140.72C178.204 140.72 177.825 140.859 177.516 141.136C177.207 141.413 177.052 141.792 177.052 142.272C177.052 142.752 177.207 143.131 177.516 143.408Z" fill="#101010"/>
<path d="M171.586 180.862H148.414C148.185 180.862 148 180.677 148 180.448V165.552C148 165.323 148.185 165.138 148.414 165.138H171.586C171.815 165.138 172 165.323 172 165.552V180.448C172 180.677 171.815 180.862 171.586 180.862Z" fill="#FF4B55"/>
<path d="M164.552 171.345H161.656V168.448C161.656 168.22 161.471 168.034 161.242 168.034H158.759C158.531 168.034 158.346 168.22 158.346 168.448V171.345H155.449C155.22 171.345 155.035 171.53 155.035 171.759V174.241C155.035 174.47 155.22 174.655 155.449 174.655H158.346V177.552C158.346 177.78 158.531 177.966 158.759 177.966H161.242C161.471 177.966 161.656 177.78 161.656 177.552V174.655H164.552C164.781 174.655 164.966 174.47 164.966 174.241V171.758C164.966 171.53 164.781 171.345 164.552 171.345Z" fill="#F5F5F5"/>
<path d="M8.00002 99.862H0.413813C0.185297 99.862 0 99.6767 0 99.4482V84.5516C0 84.3231 0.185297 84.1378 0.413813 84.1378H8.00002V99.862Z" fill="#73AF00"/>
<path d="M16.0002 84.1379H8V99.8622H16.0002V84.1379Z" fill="#F5F5F5"/>
<path d="M23.5862 99.8619H16V84.1378H23.5862C23.8147 84.1378 24 84.3231 24 84.5516V99.4482C24 99.6767 23.8147 99.8619 23.5862 99.8619Z" fill="#FF4B55"/>
<defs>
<clipPath id="clip0">
<path d="M1 0H63V62H1V0Z" fill="white"/>
</clipPath>
<clipPath id="clip1">
<path d="M420 80H444V104H420V80Z" fill="white"/>
</clipPath>
</defs>
</svg>
