<svg width="532" height="233" viewBox="0 0 532 233" fill="none" xmlns="http://www.w3.org/2000/svg">
<path d="M232.303 15.4L223.519 18.568L225.391 25.144L231.343 23.512V49H239.023V15.4H232.303ZM248.159 49.672C250.655 49.672 252.719 47.608 252.719 45.112C252.719 42.616 250.655 40.552 248.159 40.552C245.663 40.552 243.599 42.616 243.599 45.112C243.599 47.608 245.663 49.672 248.159 49.672ZM263.196 15.4L254.412 18.568L256.284 25.144L262.236 23.512V49H269.916V15.4H263.196ZM287.067 26.008L294.363 15.4H285.531L275.259 31C274.011 32.872 273.291 35.224 273.291 37.816C273.291 44.776 278.331 49.672 285.771 49.672C293.163 49.672 298.251 44.776 298.251 37.816C298.251 31.288 293.739 26.536 287.067 26.008ZM285.771 42.472C283.179 42.472 280.971 40.792 280.971 37.816C280.971 34.84 283.179 33.16 285.771 33.16C288.315 33.16 290.571 34.888 290.571 37.816C290.571 40.744 288.315 42.472 285.771 42.472ZM319.975 31.48C321.943 29.944 323.191 27.736 323.191 24.712C323.191 18.184 318.199 14.728 312.007 14.728C305.815 14.728 300.823 18.184 300.823 24.712C300.823 27.736 302.071 29.944 304.039 31.48C301.207 33.304 299.671 36.232 299.671 39.544C299.671 45.688 304.087 49.672 312.007 49.672C319.927 49.672 324.343 45.688 324.343 39.544C324.343 36.232 322.807 33.304 319.975 31.48ZM312.007 21.928C314.167 21.928 315.511 23.32 315.511 25.192C315.511 27.064 314.167 28.456 312.007 28.456C309.847 28.456 308.503 27.064 308.503 25.192C308.503 23.32 309.847 21.928 312.007 21.928ZM312.007 42.472C309.319 42.472 307.351 40.984 307.351 38.44C307.351 35.896 309.319 34.408 312.007 34.408C314.695 34.408 316.663 35.896 316.663 38.44C316.663 40.984 314.695 42.472 312.007 42.472ZM331.553 49.672C334.049 49.672 336.113 47.608 336.113 45.112C336.113 42.616 334.049 40.552 331.553 40.552C329.057 40.552 326.993 42.616 326.993 45.112C326.993 47.608 329.057 49.672 331.553 49.672ZM337.806 15.4V22.792H351.342L340.782 49H348.942L359.886 21.832V15.4H337.806ZM369.63 15.4L360.846 18.568L362.718 25.144L368.67 23.512V49H376.35V15.4H369.63ZM393.886 49.672C402.574 49.672 407.566 42.568 407.566 32.2C407.566 21.832 402.574 14.728 393.886 14.728C385.198 14.728 380.206 21.832 380.206 32.2C380.206 42.568 385.198 49.672 393.886 49.672ZM393.886 42.184C389.854 42.184 387.886 38.68 387.886 32.2C387.886 25.72 389.854 22.216 393.886 22.216C397.918 22.216 399.886 25.72 399.886 32.2C399.886 38.68 397.918 42.184 393.886 42.184Z" fill="#101010"/>
<path d="M74.96 33.228V30.996H79.46V28.26H74.96V26.172H79.91V23.4H72.08V36H80V33.228H74.96ZM87.3489 27V31.914C87.3489 33.192 86.6649 33.768 85.6749 33.768C84.8109 33.768 84.1089 33.246 84.1089 32.13V27H81.4089V32.526C81.4089 34.956 82.9569 36.252 84.7749 36.252C85.9629 36.252 86.8629 35.82 87.3489 35.154V36H90.0489V27H87.3489ZM94.7291 28.602V27H92.0291V36H94.7291V31.932C94.7291 30.15 96.3131 29.7 97.4291 29.88V26.82C96.2951 26.82 95.0891 27.396 94.7291 28.602ZM102.748 36.252C105.394 36.252 107.518 34.182 107.518 31.5C107.518 28.818 105.394 26.748 102.748 26.748C100.102 26.748 97.9775 28.818 97.9775 31.5C97.9775 34.182 100.102 36.252 102.748 36.252ZM102.748 33.624C101.578 33.624 100.678 32.778 100.678 31.5C100.678 30.222 101.578 29.376 102.748 29.376C103.918 29.376 104.818 30.222 104.818 31.5C104.818 32.778 103.918 33.624 102.748 33.624ZM114.427 26.748C113.221 26.748 112.339 27.162 111.745 27.846V27H109.045V39.6H111.745V35.154C112.339 35.838 113.221 36.252 114.427 36.252C116.785 36.252 118.729 34.182 118.729 31.5C118.729 28.818 116.785 26.748 114.427 26.748ZM113.887 33.696C112.645 33.696 111.745 32.85 111.745 31.5C111.745 30.15 112.645 29.304 113.887 29.304C115.129 29.304 116.029 30.15 116.029 31.5C116.029 32.85 115.129 33.696 113.887 33.696ZM126.794 27V27.846C126.2 27.162 125.318 26.748 124.112 26.748C121.754 26.748 119.81 28.818 119.81 31.5C119.81 34.182 121.754 36.252 124.112 36.252C125.318 36.252 126.2 35.838 126.794 35.154V36H129.494V27H126.794ZM124.652 33.696C123.41 33.696 122.51 32.85 122.51 31.5C122.51 30.15 123.41 29.304 124.652 29.304C125.894 29.304 126.794 30.15 126.794 31.5C126.794 32.85 125.894 33.696 124.652 33.696Z" fill="#101010"/>
<g clip-path="url(#clip0)">
<path fill-rule="evenodd" clip-rule="evenodd" d="M62.5329 39.4178C61.93 38.6313 60.95 38.4804 60.2344 38.3702L60.2343 38.3702L60.2238 38.3685L60.2236 38.3685C60.0478 38.3413 59.8674 38.3134 59.7642 38.2847C58.8826 38.0399 58.2433 37.5959 57.9156 37.0002C57.6199 36.4632 57.5854 35.81 57.8126 35.0592C57.8855 34.8181 58.0116 34.5412 58.1452 34.248L58.1452 34.2478L58.1478 34.2423C58.5475 33.3658 59.0446 32.275 58.5462 31.1125C58.1231 30.1262 57.2598 29.2396 56.4981 28.4573L56.4968 28.4559L56.4727 28.4312L56.5431 28.3724L56.5478 28.3685C57.2254 27.802 57.9259 27.2164 58.6281 26.6908C58.6941 26.6413 58.8102 26.5692 58.9242 26.4984L58.9366 26.4907C59.2022 26.3261 59.5032 26.1395 59.7431 25.9045C60.5194 25.1439 60.8479 24.0128 60.5607 23.0897C60.3042 22.2651 59.6168 21.6985 58.6744 21.535C58.4137 21.4897 58.11 21.4638 57.7586 21.4339L57.7485 21.4331C57.3527 21.3995 56.5126 21.3283 56.0887 21.1948C56.2007 20.7589 56.3994 19.8997 55.6895 19.0865C55.329 18.6735 54.8988 18.5469 54.5881 18.4996C54.5745 18.3476 54.5525 18.1553 54.4986 17.9299C54.1573 16.5018 53.2971 15.3987 52.538 14.4253L52.5373 14.4245L52.524 14.4074L52.5239 14.4073C52.3792 14.2217 52.2346 14.0363 52.094 13.8486C51.871 13.5513 51.6062 13.2517 51.3258 12.9346C50.8552 12.4022 50.2695 11.7396 50.1218 11.2973C50.0067 10.9525 50.0699 10.4145 50.137 9.84473C50.2236 9.11077 50.3216 8.27898 50.087 7.45021C49.6816 6.01803 48.437 5.05908 46.9866 5.05908H46.9691C44.9851 5.06962 44.2134 6.61078 43.7032 7.63028C43.0276 8.97927 42.3629 10.3572 41.7201 11.6897C41.3955 12.3629 41.0707 13.036 40.7435 13.7079C40.604 13.9945 40.4593 14.3565 40.2919 14.7755L40.2918 14.7758L40.287 14.7878C40.0036 15.4975 39.651 16.3807 39.2456 17.0697C38.7691 17.8797 38.4827 17.9777 38.4645 17.984C38.4638 17.9842 38.4635 17.9843 38.4635 17.9843C38.2777 17.9803 38.1896 17.9462 38.175 17.936C38.0028 17.7563 38.0309 16.7552 38.0429 16.3275V16.3273C38.0674 15.4548 38.0927 14.5527 37.6873 13.8229C36.9168 12.4353 34.936 11.9933 33.4898 11.6706L33.4897 11.6706C33.2447 11.616 33.0133 11.5643 32.8377 11.5179L32.8365 11.5176C32.2775 11.37 31.8737 11.2634 31.4081 11.3835C30.8143 11.5367 30.5233 11.9544 30.2667 12.3229C30.2108 12.4032 30.1463 12.496 30.0684 12.6024L27.3392 16.3372C26.9902 16.8147 26.6608 17.3299 26.3122 17.8755L26.3118 17.8761C25.4189 19.273 24.4957 20.717 23.3522 21.3161C23.2502 21.3696 23.1542 21.4192 23.0639 21.4658C23.0441 21.4761 23.0245 21.4862 23.0051 21.4962C21.4248 22.3121 21.0256 22.7091 20.7323 24.7397L20.7085 24.9028L20.7084 24.9029C20.5461 26.0023 20.3006 27.6639 21.3096 28.6865C21.6928 29.075 22.4027 29.5043 23.6054 29.3432C23.9419 29.2982 24.2176 29.1792 24.439 29.0644C24.519 29.2446 24.6375 29.4437 24.8237 29.6297C25.364 30.1691 26.0832 30.4522 26.8513 30.4272C27.7335 30.3983 28.596 29.9754 29.2182 29.2673C29.9752 28.4054 30.6353 26.8603 30.4318 25.5749C30.3285 24.9219 30.1067 24.5205 29.9598 24.2549L29.9212 24.1847C29.9264 24.1671 29.9335 24.1455 29.9429 24.1194C30.3013 23.1211 31.2904 21.9028 31.6994 21.8096C31.969 21.966 32.2965 22.8419 32.4758 23.3215L32.4768 23.3241L32.4776 23.3263L32.4776 23.3264C32.6643 23.8259 32.8573 24.3422 33.1256 24.7731C33.1376 24.7925 33.167 24.8496 33.1884 24.8913C33.2835 25.0764 33.4686 25.4365 33.796 25.7136C33.5704 25.8162 33.3357 25.9368 33.1136 26.0959C32.0629 26.8488 31.2364 27.8867 30.8466 28.9435C30.7007 29.3387 30.6365 29.7126 30.5798 30.0425L30.5798 30.0426L30.5797 30.0434C30.524 30.3686 30.4758 30.6496 30.3621 30.865C30.1132 31.3368 29.777 31.6751 29.3037 31.9298C29.1143 32.0317 28.8985 32.1212 28.6626 32.1957C28.0234 32.3974 27.6688 33.0792 27.8706 33.7185C28.0723 34.3576 28.7543 34.7119 29.3933 34.5105C29.7742 34.3904 30.1312 34.2412 30.4542 34.0673C31.3469 33.5871 32.0384 32.8904 32.5093 31.9972C32.8029 31.4404 32.8968 30.8935 32.9722 30.4539L32.9723 30.4538C33.0168 30.1941 33.0555 29.9699 33.124 29.7839C33.3434 29.1893 33.8812 28.5322 34.5275 28.0692C34.6381 27.9898 34.8524 27.899 35.0604 27.8108L35.0641 27.8093C35.7343 27.5256 36.9817 26.9972 37.0178 25.5305C37.0304 25.0263 36.4132 23.5289 35.8874 23.1389C35.6062 22.9304 35.254 22.85 34.918 22.9129C34.8643 22.777 34.8106 22.6333 34.7574 22.4912L34.7511 22.4745L34.751 22.4742C34.3498 21.4002 33.8503 20.0635 32.5917 19.5493C31.9828 19.3006 31.317 19.3222 30.6666 19.6118C29.0302 20.3409 27.919 22.5743 27.6587 23.299C27.2951 24.3116 27.5596 24.9297 27.8359 25.4296L27.836 25.4297C27.9371 25.6125 27.9981 25.7228 28.0348 25.9541C28.1023 26.3822 27.7915 27.2138 27.395 27.6652C27.2218 27.8625 26.9771 27.9942 26.7722 28.001C26.7102 28.0027 26.6647 27.9928 26.6277 27.9758C26.5397 27.6739 26.3336 27.0014 25.5651 26.6386C24.6152 26.1903 23.8315 26.6268 23.4549 26.8367C23.3891 26.8734 23.3011 26.9223 23.2575 26.9403C23.1481 26.9534 23.0755 26.9522 23.0314 26.9481C22.9116 26.6031 23.0597 25.6001 23.1105 25.2572L23.1354 25.0865C23.1663 24.8728 23.2603 24.2224 23.3389 24.0997C23.4087 24.0199 23.7822 23.8269 24.1137 23.6557L24.1138 23.6556L24.1194 23.6527L24.1264 23.6491C24.2354 23.5929 24.3527 23.5323 24.4791 23.466C26.1944 22.5676 27.3439 20.7691 28.3581 19.1824C28.6858 18.6696 28.9953 18.1853 29.2997 17.7689L32.0289 14.0341C32.0773 13.9681 32.1212 13.9066 32.1615 13.8493L32.1814 13.8545L32.2185 13.8643C32.4372 13.9221 32.688 13.9781 32.9535 14.0373L32.9536 14.0373L32.9619 14.0392C33.5463 14.1695 35.3246 14.5663 35.5626 14.9944C35.6474 15.1817 35.6284 15.8556 35.617 16.2582C35.5863 17.3442 35.5486 18.6956 36.4168 19.6084C36.9059 20.1225 37.577 20.3923 38.4115 20.4103C38.43 20.4108 38.4483 20.4109 38.4667 20.4109C40.6557 20.4106 41.7896 17.5713 42.542 15.687C42.6873 15.3229 42.8245 14.9791 42.9266 14.7696C43.2549 14.0951 43.581 13.4192 43.907 12.7434L43.9205 12.7154L43.9209 12.7145C44.5556 11.399 45.2115 10.0393 45.8743 8.71601C46.3855 7.69458 46.5719 7.48775 46.9825 7.48557H46.9866C47.3442 7.48557 47.6443 7.73042 47.7518 8.11017C47.8547 8.47375 47.7927 9.00098 47.7269 9.55934L47.7269 9.55967C47.6359 10.3314 47.533 11.2061 47.82 12.0652C48.1243 12.976 48.8591 13.8075 49.5076 14.5411L49.5077 14.5413L49.5078 14.5414C49.7549 14.8209 49.9881 15.0848 50.1525 15.3043C50.3068 15.5098 50.4652 15.7132 50.6238 15.9165C51.2902 16.7707 51.9195 17.5776 52.1385 18.4935C52.1601 18.5847 52.1678 18.6737 52.1772 18.7864C52.2094 19.1716 52.2634 19.8165 52.9591 20.4387C53.1982 20.6525 53.4566 20.7617 53.6813 20.82C53.5819 21.2628 53.5021 21.9747 54.0431 22.6656C54.7882 23.6173 56.3162 23.747 57.5439 23.8511C57.8019 23.8729 58.0471 23.8938 58.2093 23.9178C58.1792 23.9958 58.1258 24.0901 58.047 24.1675C57.9867 24.223 57.7812 24.3504 57.6583 24.4265C57.4958 24.5273 57.3278 24.6315 57.174 24.7466C56.418 25.3127 55.6905 25.9208 54.9868 26.5091C54.6451 26.7948 54.2916 27.0902 53.9447 27.3725C53.6932 27.577 53.5341 27.8736 53.5027 28.1961C53.4711 28.5185 53.5699 28.8402 53.7769 29.0895C54.0677 29.4397 54.4032 29.7842 54.7586 30.149L54.7587 30.1491L54.7588 30.1491C55.3735 30.7804 56.0703 31.4958 56.316 32.0685C56.3913 32.2441 56.1087 32.8641 55.9398 33.2344L55.939 33.2363L55.939 33.2364C55.7773 33.5909 55.6103 33.9575 55.4899 34.355C55.0722 35.7353 55.1757 37.0545 55.7896 38.1698C56.4304 39.3342 57.6117 40.2055 59.1157 40.6229C59.2339 40.6558 59.3556 40.682 59.4779 40.7047C59.0918 40.7436 58.6773 40.761 58.27 40.778L58.267 40.7781L58.2669 40.7781H58.2668C57.836 40.7962 57.3906 40.8148 56.9729 40.8596C56.5523 40.9047 56.1204 40.9739 55.7027 41.041L55.6973 41.0419L55.6973 41.0419C54.9224 41.1662 54.1215 41.2947 53.4589 41.2533C52.9155 41.2197 52.1768 40.9142 51.4626 40.6188L51.4619 40.6185C50.1915 40.0931 48.7516 39.4976 47.3534 39.9381C46.7367 40.1325 46.2723 40.3851 45.8991 40.5881L45.899 40.5882L45.8982 40.5886L45.8977 40.5889C45.1935 40.9723 45.1028 41.0217 44.3476 40.5625C43.7954 40.2267 42.9594 39.816 42.0769 40.1241C41.1058 40.4633 40.764 41.3933 40.4334 42.2927C40.3966 42.393 40.3585 42.4966 40.3185 42.6027C40.2435 42.8011 40.1441 43.0281 40.0387 43.2685L40.0387 43.2685L40.0339 43.2794L40.0338 43.2797C39.539 44.4076 38.8614 45.9525 39.5236 47.4107C39.639 47.665 39.7651 47.873 39.871 48.0434C39.5243 48.2925 38.875 48.4177 38.2458 48.5389C37.7835 48.6281 37.3055 48.7202 36.8604 48.8752C36.5211 48.9933 35.4886 49.3529 35.209 50.3454C34.9346 51.3195 35.5695 52.094 36.0331 52.6596L36.0333 52.6598C36.2124 52.8782 36.4152 53.1259 36.4884 53.2879C36.5964 53.5462 36.4052 54.2415 36.1832 54.4788C35.7794 54.1985 35.3192 53.4268 34.948 52.8043L34.948 52.8042L34.9468 52.8023C34.7338 52.445 34.5326 52.1076 34.3184 51.8061C34.2064 51.6485 34.0758 51.4922 33.9496 51.341L33.9493 51.3407L33.949 51.3403C33.8122 51.1765 33.5845 50.9039 33.534 50.7917C33.5207 50.7157 33.5334 50.5122 33.542 50.3746L33.5421 50.3722C33.5607 50.0789 33.5837 49.7138 33.5088 49.3331C33.1999 47.7591 29.4877 43.8427 27.2024 43.4848C26.2773 43.3398 25.4741 43.7103 25.0521 44.4749C24.7086 45.0972 24.8105 45.8877 25.4997 47.8494C25.4698 47.821 25.4442 47.797 25.4214 47.7765C25.1427 47.5232 24.9481 47.0999 24.7423 46.6518L24.7422 46.6514C24.4729 46.0653 24.1676 45.4008 23.5603 44.9664C22.8119 44.4307 21.8705 44.4111 20.7631 44.9086C20.6381 44.9647 20.521 45.0191 20.4102 45.0707L20.4094 45.0711C19.7017 45.3999 19.574 45.4592 19.0305 45.3097C17.4194 44.866 16.2753 44.7138 15.0972 46.5678C14.8615 46.9384 14.8537 46.9415 14.4432 47.0968C14.2182 47.182 13.9101 47.2986 13.526 47.4921C12.6414 47.9376 12.0265 48.5986 11.4841 49.1818L11.3671 49.3073C11.1391 49.5516 10.9177 49.8217 10.6834 50.1076C10.1015 50.8182 9.30586 51.7891 8.69954 51.7891L8.6861 51.789C8.37816 51.7815 8.0793 51.7346 7.76312 51.6848L7.76296 51.6848C7.2831 51.6095 6.73932 51.5242 6.0936 51.5657C5.87429 51.58 5.75381 51.5731 5.69568 51.5664C5.65286 51.5159 5.58982 51.4322 5.53595 51.3608L5.53585 51.3606L5.53305 51.3569L5.53225 51.3559C5.39167 51.1694 5.217 50.9378 4.96463 50.6652C4.60959 50.2816 4.22451 50.0037 3.91499 49.7806C3.75163 49.6628 3.51187 49.4898 3.43061 49.3953C3.43497 49.3579 3.4495 49.281 3.4977 49.1541C3.8918 48.1188 4.50102 47.0456 5.09018 46.0077L5.09045 46.0072L5.09851 45.993C5.32063 45.6017 5.54993 45.1978 5.7641 44.8015C6.10571 44.1699 6.34511 44.0014 6.45748 43.9572C6.63852 43.8862 6.98219 43.955 7.42478 44.1521C8.28964 44.5365 9.16636 44.9595 10.0141 45.3687C10.4518 45.5799 10.8897 45.7911 11.3284 45.9986C11.6212 46.137 11.9569 46.1529 12.2612 46.0425C12.5656 45.9321 12.8132 45.7047 12.949 45.4109C13.0778 45.1325 13.2438 44.8269 13.4195 44.5035L13.4205 44.5015L13.4219 44.499C13.8217 43.7627 14.2746 42.9286 14.4654 42.0651C14.5541 41.6636 14.5329 41.3077 14.5158 41.0216L14.5157 41.0204C14.5046 40.8336 14.4951 40.6725 14.5224 40.5811C14.6561 40.133 15.123 39.7723 15.6636 39.3546L15.6638 39.3544L15.8396 39.2181C16.7408 38.5148 18.1118 37.4812 19.6055 36.6302C20.1879 36.2984 20.3909 35.557 20.0591 34.9747C19.7274 34.3922 18.9864 34.1891 18.4035 34.5209C16.773 35.4501 15.3069 36.5544 14.346 37.3042L14.1794 37.4333L14.1793 37.4333C13.4549 37.993 12.5535 38.6896 12.196 39.8864C12.0461 40.3887 12.0728 40.8374 12.0923 41.1653L12.0924 41.1662C12.1014 41.3158 12.1105 41.4703 12.0949 41.5411C11.9806 42.0591 11.6427 42.6877 11.3108 43.2991L11.0689 43.1823L11.0618 43.1789L11.0617 43.1789C10.1992 42.7628 9.30774 42.3327 8.41098 41.9338C6.31907 41.0034 4.75442 41.5638 3.62848 43.647C3.42359 44.0257 3.2078 44.406 2.9793 44.8086C2.34488 45.926 1.68892 47.0814 1.22876 48.2906C0.468881 50.2877 1.78662 51.2383 2.49473 51.7492L2.49504 51.7494L2.49508 51.7494L2.49512 51.7495C2.75096 51.934 2.99288 52.1085 3.18322 52.3142C3.35275 52.4971 3.47566 52.6603 3.59445 52.8179C4.14071 53.5429 4.68309 54.0888 6.24993 53.9882C6.62559 53.9635 6.97526 54.0184 7.37931 54.0819L7.37938 54.0819L7.38628 54.083L7.38695 54.0831L7.38703 54.0831C7.74928 54.14 8.15979 54.2045 8.62725 54.2158C10.4208 54.2589 11.6572 52.7497 12.5605 51.6471L12.5612 51.6462C12.7696 51.3916 12.9667 51.1512 13.141 50.9645L13.2614 50.8351L13.2633 50.8331L13.2633 50.8331C13.7243 50.3375 14.1227 49.9093 14.6179 49.66C14.8877 49.5241 15.0978 49.4446 15.3008 49.3677L15.3021 49.3672C16.0116 49.0988 16.5231 48.8495 17.1459 47.8696C17.3176 47.5995 17.4178 47.4872 17.4628 47.4441C17.6555 47.4492 18.1566 47.5871 18.3828 47.6493L18.3829 47.6494L18.3856 47.6501C19.7885 48.0364 20.5872 47.6652 21.433 47.2722L21.4332 47.272C21.5352 47.2246 21.6426 47.1747 21.7576 47.123C21.9786 47.0237 22.1136 46.9912 22.1819 46.9809C22.2838 47.1157 22.4322 47.4385 22.5352 47.6626L22.5363 47.6649C22.8067 48.2538 23.1434 48.9866 23.7888 49.5731C23.8439 49.6231 24.0048 49.7818 24.1795 49.9542L24.1796 49.9543L24.2038 49.9783C24.6648 50.4335 25.3615 51.1213 25.9991 51.6925C26.9828 52.5736 27.6883 53.1313 28.5136 52.8668C28.8344 52.764 29.1022 52.5302 29.2484 52.2254C29.5273 51.644 29.4013 51.3151 28.5815 49.1754C28.2921 48.4205 27.7856 47.098 27.4997 46.1774C27.9052 46.4162 28.4748 46.8274 29.1975 47.5084C30.3414 48.5862 31.0161 49.542 31.1299 49.8239C31.1387 49.9104 31.1275 50.0871 31.1192 50.2195L31.1191 50.2199C31.0952 50.6007 31.0653 51.0744 31.2332 51.5679C31.4097 52.087 31.7687 52.5169 32.0855 52.8961C32.1865 53.017 32.2818 53.1312 32.3391 53.2117C32.4968 53.4337 32.6737 53.7304 32.861 54.0446L32.8614 54.0451C33.3903 54.9322 33.9898 55.9375 34.8586 56.5135C35.2884 56.7984 35.7528 56.9398 36.2098 56.9398C36.7396 56.9397 37.2593 56.7496 37.7029 56.3731C38.7961 55.4441 39.2626 53.5366 38.7012 52.2913C38.4957 51.8357 38.1847 51.4561 37.91 51.1212L37.8908 51.0975C38.1304 51.0336 38.4116 50.9794 38.705 50.9228L38.7057 50.9227C39.6279 50.7448 40.6731 50.5432 41.4854 49.8609C43.0467 48.5496 42.2847 47.3275 41.9593 46.8055L41.9593 46.8055L41.9589 46.8049C41.8738 46.6684 41.7934 46.5395 41.7334 46.4071C41.5194 45.9355 41.9281 45.0037 42.2565 44.255L42.2566 44.2547C42.3716 43.9925 42.4904 43.7213 42.5891 43.4602C42.6317 43.3475 42.6723 43.2374 42.7114 43.1306C42.7787 42.9474 42.8612 42.7235 42.9352 42.5503C42.979 42.5737 43.0291 42.6023 43.0862 42.637C45.0352 43.8221 46.1567 43.2119 47.058 42.7215L47.0584 42.7212L47.0591 42.7208L47.0592 42.7208C47.3836 42.5443 47.6901 42.3774 48.0829 42.2537C48.6389 42.0783 49.6435 42.4938 50.5308 42.8608L50.5338 42.862L50.5346 42.8624C51.4327 43.2338 52.3612 43.6178 53.3083 43.6766C54.2419 43.7344 55.18 43.5839 56.0873 43.4382L56.0922 43.4374C56.495 43.3728 56.8755 43.3118 57.2313 43.2736C57.5706 43.2373 57.9581 43.2211 58.3683 43.204C59.295 43.1653 60.3453 43.1213 61.26 42.8132C62.0994 42.5304 62.7032 41.9667 62.9166 41.2666C63.1061 40.6446 62.97 39.9879 62.5329 39.4178ZM25.2104 33.7424C25.1596 33.0742 24.5732 32.5733 23.903 32.6246L23.8854 32.6259C23.2168 32.6767 22.7213 33.2594 22.7721 33.9278C22.8205 34.5649 23.357 35.0493 23.9861 35.0493C24.017 35.0493 24.0481 35.0482 24.0795 35.0456L24.0972 35.0443C24.7656 34.9936 25.2612 34.4109 25.2104 33.7424ZM18.1541 29.1172C18.3481 29.717 18.5486 30.3373 18.6616 30.9643C18.9349 32.4797 18.6876 33.7 17.9266 34.5914C16.7696 35.9459 14.7724 36.1356 12.9289 36.1356C12.5564 36.1356 12.1905 36.128 11.8387 36.1205L11.8362 36.1204C11.5137 36.1137 11.209 36.1073 10.9257 36.1073C9.91376 36.1073 9.42345 35.5648 9.2211 35.2414C8.54491 34.1606 9.13779 32.7347 9.80332 31.3668L9.80889 31.3553C9.86367 31.2426 9.91922 31.1283 9.94112 31.0765C10.1196 30.6543 10.3152 30.2319 10.5046 29.8232L10.5055 29.8213C10.8807 29.0114 11.235 28.2466 11.4662 27.484C11.5919 27.0697 11.4983 26.5608 11.3898 25.9716L11.3898 25.9715C11.2527 25.2268 11.0973 24.3828 11.3591 23.4819C11.6025 22.644 12.3003 22.0309 13.3241 21.7556C14.5549 21.4244 16.3935 21.5795 17.3766 22.5189C18.5145 23.6061 18.1049 25.1063 17.8337 26.0992L17.8337 26.0993L17.8328 26.1026C17.7492 26.409 17.6454 26.7891 17.6489 26.9605C17.6616 27.5934 17.9008 28.3335 18.1541 29.1172ZM11.89 33.6931C13.387 33.7249 15.4371 33.7681 16.0805 33.0146C16.3457 32.7042 16.4102 32.1591 16.2727 31.3949C16.1889 30.9299 16.0223 30.4146 15.8461 29.8691L15.8443 29.8638L15.8439 29.8624C15.5477 28.9461 15.2415 27.9989 15.2219 27.0087C15.2115 26.4866 15.354 25.9645 15.4921 25.4596L15.4921 25.4596C15.5875 25.1101 15.7639 24.4639 15.6967 24.2713C15.344 23.9699 14.0181 23.936 13.6771 24.2098C13.5973 24.5537 13.6809 25.0089 13.7771 25.532L13.7772 25.5322C13.9147 26.2797 14.0859 27.2098 13.7893 28.1882C13.5086 29.1136 13.1012 29.9931 12.7073 30.8434C12.5181 31.2515 12.3396 31.637 12.1775 32.0209C12.1298 32.1337 12.0666 32.2637 11.9865 32.4284C11.7269 32.9616 11.5465 33.3814 11.446 33.6844C11.5908 33.687 11.7385 33.69 11.89 33.6931Z" fill="black"/>
</g>
<path d="M425.092 26.252C427.396 26.252 429.412 25.118 430.492 23.336L428.008 21.896C427.468 22.868 426.37 23.444 425.092 23.444C422.86 23.444 421.42 21.95 421.42 19.7C421.42 17.45 422.86 15.956 425.092 15.956C426.37 15.956 427.45 16.532 428.008 17.504L430.492 16.064C429.394 14.282 427.378 13.148 425.092 13.148C421.294 13.148 418.54 15.992 418.54 19.7C418.54 23.408 421.294 26.252 425.092 26.252ZM438.374 17V17.846C437.78 17.162 436.898 16.748 435.692 16.748C433.334 16.748 431.39 18.818 431.39 21.5C431.39 24.182 433.334 26.252 435.692 26.252C436.898 26.252 437.78 25.838 438.374 25.154V26H441.074V17H438.374ZM436.232 23.696C434.99 23.696 434.09 22.85 434.09 21.5C434.09 20.15 434.99 19.304 436.232 19.304C437.474 19.304 438.374 20.15 438.374 21.5C438.374 22.85 437.474 23.696 436.232 23.696ZM445.523 19.628C445.523 19.304 445.811 19.124 446.279 19.124C446.873 19.124 447.233 19.448 447.485 19.916L449.789 18.674C449.033 17.396 447.737 16.748 446.279 16.748C444.407 16.748 442.751 17.738 442.751 19.7C442.751 22.814 447.179 22.292 447.179 23.282C447.179 23.642 446.855 23.84 446.207 23.84C445.415 23.84 444.911 23.462 444.677 22.778L442.337 24.11C443.039 25.568 444.407 26.252 446.207 26.252C448.151 26.252 449.951 25.37 449.951 23.3C449.951 19.97 445.523 20.654 445.523 19.628ZM455.531 26.252C458.177 26.252 460.301 24.182 460.301 21.5C460.301 18.818 458.177 16.748 455.531 16.748C452.885 16.748 450.761 18.818 450.761 21.5C450.761 24.182 452.885 26.252 455.531 26.252ZM455.531 23.624C454.361 23.624 453.461 22.778 453.461 21.5C453.461 20.222 454.361 19.376 455.531 19.376C456.701 19.376 457.601 20.222 457.601 21.5C457.601 22.778 456.701 23.624 455.531 23.624ZM464.208 19.628C464.208 19.304 464.496 19.124 464.964 19.124C465.558 19.124 465.918 19.448 466.17 19.916L468.474 18.674C467.718 17.396 466.422 16.748 464.964 16.748C463.092 16.748 461.436 17.738 461.436 19.7C461.436 22.814 465.864 22.292 465.864 23.282C465.864 23.642 465.54 23.84 464.892 23.84C464.1 23.84 463.596 23.462 463.362 22.778L461.022 24.11C461.724 25.568 463.092 26.252 464.892 26.252C466.836 26.252 468.636 25.37 468.636 23.3C468.636 19.97 464.208 20.654 464.208 19.628ZM423.31 46.252C425.074 46.252 426.604 45.334 427.378 43.93L425.02 42.58C424.732 43.21 424.066 43.588 423.274 43.588C422.104 43.588 421.24 42.742 421.24 41.5C421.24 40.258 422.104 39.412 423.274 39.412C424.066 39.412 424.714 39.79 425.02 40.42L427.378 39.052C426.604 37.666 425.056 36.748 423.31 36.748C420.574 36.748 418.54 38.818 418.54 41.5C418.54 44.182 420.574 46.252 423.31 46.252ZM432.609 46.252C435.255 46.252 437.379 44.182 437.379 41.5C437.379 38.818 435.255 36.748 432.609 36.748C429.963 36.748 427.839 38.818 427.839 41.5C427.839 44.182 429.963 46.252 432.609 46.252ZM432.609 43.624C431.439 43.624 430.539 42.778 430.539 41.5C430.539 40.222 431.439 39.376 432.609 39.376C433.779 39.376 434.679 40.222 434.679 41.5C434.679 42.778 433.779 43.624 432.609 43.624ZM444.18 36.748C442.992 36.748 442.092 37.18 441.606 37.846V37H438.906V46H441.606V41.086C441.606 39.808 442.29 39.232 443.28 39.232C444.144 39.232 444.846 39.754 444.846 40.87V46H447.546V40.474C447.546 38.044 445.998 36.748 444.18 36.748ZM457.68 37H452.676C452.676 35.956 453.342 35.74 454.35 35.74C455.034 35.74 455.79 35.794 456.6 35.884V33.4C455.826 33.238 455.088 33.148 454.35 33.148C451.362 33.148 449.976 34.48 449.976 37H448.77V39.592H449.976V46H452.676V39.592H454.98V46H457.68V37ZM462.366 38.602V37H459.666V46H462.366V41.932C462.366 40.15 463.95 39.7 465.066 39.88V36.82C463.932 36.82 462.726 37.396 462.366 38.602ZM476.408 36.748C475.13 36.748 474.302 37.216 473.798 37.936C473.294 37.18 472.502 36.748 471.44 36.748C470.234 36.748 469.442 37.216 469.028 37.828V37H466.328V46H469.028V40.924C469.028 39.862 469.532 39.232 470.432 39.232C471.296 39.232 471.728 39.808 471.728 40.708V46H474.428V40.924C474.428 39.862 474.932 39.232 475.832 39.232C476.696 39.232 477.128 39.808 477.128 40.708V46H479.828V40.474C479.828 38.224 478.478 36.748 476.408 36.748ZM488.208 37V37.846C487.614 37.162 486.732 36.748 485.526 36.748C483.168 36.748 481.224 38.818 481.224 41.5C481.224 44.182 483.168 46.252 485.526 46.252C486.732 46.252 487.614 45.838 488.208 45.154V46H490.908V37H488.208ZM486.066 43.696C484.824 43.696 483.924 42.85 483.924 41.5C483.924 40.15 484.824 39.304 486.066 39.304C487.308 39.304 488.208 40.15 488.208 41.5C488.208 42.85 487.308 43.696 486.066 43.696ZM499.422 33.4V37.846C498.828 37.162 497.946 36.748 496.74 36.748C494.382 36.748 492.438 38.818 492.438 41.5C492.438 44.182 494.382 46.252 496.74 46.252C497.946 46.252 498.828 45.838 499.422 45.154V46H502.122V33.4H499.422ZM497.28 43.696C496.038 43.696 495.138 42.85 495.138 41.5C495.138 40.15 496.038 39.304 497.28 39.304C498.522 39.304 499.422 40.15 499.422 41.5C499.422 42.85 498.522 43.696 497.28 43.696ZM508.423 46.252C511.069 46.252 513.193 44.182 513.193 41.5C513.193 38.818 511.069 36.748 508.423 36.748C505.777 36.748 503.653 38.818 503.653 41.5C503.653 44.182 505.777 46.252 508.423 46.252ZM508.423 43.624C507.253 43.624 506.353 42.778 506.353 41.5C506.353 40.222 507.253 39.376 508.423 39.376C509.593 39.376 510.493 40.222 510.493 41.5C510.493 42.778 509.593 43.624 508.423 43.624ZM517.101 39.628C517.101 39.304 517.389 39.124 517.857 39.124C518.451 39.124 518.811 39.448 519.063 39.916L521.367 38.674C520.611 37.396 519.315 36.748 517.857 36.748C515.985 36.748 514.329 37.738 514.329 39.7C514.329 42.814 518.757 42.292 518.757 43.282C518.757 43.642 518.433 43.84 517.785 43.84C516.993 43.84 516.489 43.462 516.255 42.778L513.915 44.11C514.617 45.568 515.985 46.252 517.785 46.252C519.729 46.252 521.529 45.37 521.529 43.3C521.529 39.97 517.101 40.654 517.101 39.628Z" fill="#3CC3DD"/>
<line x1="2" y1="66.5" x2="532" y2="66.5" stroke="#A0A6AF" stroke-dasharray="2 4"/>
<path d="M0.413812 181.862H23.5862C23.8147 181.862 24 181.677 24 181.448V166.552C24 166.323 23.8147 166.138 23.5862 166.138H0.413812C0.185297 166.138 0 166.323 0 166.552V181.448C0 181.677 0.185297 181.862 0.413812 181.862Z" fill="#C8414B"/>
<path d="M24 169.449H0V178.552H24V169.449Z" fill="#FFD250"/>
<path d="M10.1377 174L10.4886 172.421C10.5209 172.276 10.4103 172.138 10.2613 172.138H10.0142C9.86524 172.138 9.75462 172.276 9.78687 172.421L10.1377 174Z" fill="#C8414B"/>
<path d="M10.5541 173.172H9.72656V176.689H10.5541V173.172Z" fill="#F5F5F5"/>
<path d="M10.757 172.759H9.51562V173.173H10.757V172.759Z" fill="#FAB446"/>
<path d="M10.7605 174H8.69141V174.414H10.7605V174Z" fill="#C8414B"/>
<path d="M10.757 175.655L9.51562 175.242V174.828L10.757 175.242V175.655Z" fill="#C8414B"/>
<path d="M3.9307 174L4.28156 172.421C4.3139 172.276 4.20323 172.138 4.05426 172.138H3.80714C3.65821 172.138 3.54759 172.276 3.57984 172.421L3.9307 174Z" fill="#C8414B"/>
<path d="M5.37866 172.759C5.15014 172.759 4.96484 172.944 4.96484 173.172V175.862C4.96484 176.365 5.43406 177.31 7.03381 177.31C8.63356 177.31 9.10277 176.365 9.10277 175.862V173.172C9.10277 172.944 8.91748 172.759 8.68896 172.759H5.37866Z" fill="#F5F5F5"/>
<path d="M7.03381 174.828H4.96484V173.172C4.96484 172.944 5.15014 172.759 5.37866 172.759H7.03381V174.828Z" fill="#C8414B"/>
<path d="M7.03516 174.828H9.10412V175.862C9.10412 176.433 8.641 176.896 8.06964 176.896C7.49828 176.896 7.03516 176.433 7.03516 175.862V174.828Z" fill="#C8414B"/>
<path d="M4.96484 174.828H7.03381V175.862C7.03381 176.433 6.57068 176.897 5.99933 176.897C5.42797 176.897 4.96484 176.433 4.96484 175.862V174.828Z" fill="#FAB446"/>
<path d="M6.62084 176.685V174.828H6.20703V176.876C6.36097 176.845 6.50005 176.776 6.62084 176.685Z" fill="#C8414B"/>
<path d="M5.79272 176.876V174.828H5.37891V176.685C5.49975 176.776 5.63883 176.845 5.79272 176.876Z" fill="#C8414B"/>
<path d="M6.62029 174H5.37891V174.414H6.62029V174Z" fill="#FFB441"/>
<path d="M6.62029 173.172H5.37891V173.586H6.62029V173.172Z" fill="#FAB446"/>
<path d="M6.41351 173.418H5.58594V174.168H6.41351V173.418Z" fill="#FAB446"/>
<path d="M4.3432 173.172H3.51562V176.689H4.3432V173.172Z" fill="#F5F5F5"/>
<path d="M4.54998 176.483H3.30859V176.897H4.54998V176.483Z" fill="#FAB446"/>
<path d="M4.54998 172.759H3.30859V173.173H4.54998V172.759Z" fill="#FAB446"/>
<path d="M4.75672 176.896H3.10156V177.31H4.75672V176.896Z" fill="#5064AA"/>
<path d="M10.968 176.483H9.72656V176.897H10.968V176.483Z" fill="#FAB446"/>
<path d="M10.9637 176.896H9.30859V177.31H10.9637V176.896Z" fill="#5064AA"/>
<path d="M8.27574 172.345H5.79297V172.759H8.27574V172.345Z" fill="#FAB446"/>
<path d="M7.24194 171.104H6.82812V172.345H7.24194V171.104Z" fill="#FFB441"/>
<path d="M6.62067 171.724C6.27839 171.724 6 171.446 6 171.103C6 170.761 6.27844 170.483 6.62067 170.483C6.96295 170.483 7.24134 170.761 7.24134 171.103C7.24139 171.446 6.96295 171.724 6.62067 171.724ZM6.62067 170.897C6.50653 170.897 6.41376 170.989 6.41376 171.103C6.41376 171.218 6.50648 171.31 6.62067 171.31C6.73486 171.31 6.82758 171.218 6.82758 171.103C6.82758 170.989 6.73486 170.897 6.62067 170.897Z" fill="#F5F5F5"/>
<path d="M7.44489 171.724C7.10261 171.724 6.82422 171.446 6.82422 171.103C6.82422 170.761 7.10266 170.483 7.44489 170.483C7.78717 170.483 8.06556 170.761 8.06556 171.103C8.06556 171.446 7.78712 171.724 7.44489 171.724ZM7.44489 170.897C7.33075 170.897 7.23798 170.989 7.23798 171.103C7.23798 171.218 7.3307 171.31 7.44489 171.31C7.55903 171.31 7.65179 171.218 7.65179 171.103C7.65175 170.989 7.55903 170.897 7.44489 170.897Z" fill="#F5F5F5"/>
<path d="M8.27692 172.138C7.93464 172.138 7.65625 171.86 7.65625 171.517C7.65625 171.175 7.93469 170.897 8.27692 170.897C8.6192 170.897 8.89759 171.175 8.89759 171.517C8.89759 171.86 8.61915 172.138 8.27692 172.138ZM8.27692 171.31C8.16278 171.31 8.07001 171.403 8.07001 171.517C8.07001 171.632 8.16273 171.724 8.27692 171.724C8.39106 171.724 8.48383 171.632 8.48383 171.517C8.48383 171.403 8.39106 171.31 8.27692 171.31Z" fill="#F5F5F5"/>
<path d="M5.79255 172.138C5.45026 172.138 5.17188 171.86 5.17188 171.517C5.17188 171.175 5.45031 170.897 5.79255 170.897C6.13483 170.897 6.41322 171.175 6.41322 171.517C6.41326 171.86 6.13483 172.138 5.79255 172.138ZM5.79255 171.31C5.67841 171.31 5.58564 171.403 5.58564 171.517C5.58564 171.632 5.67836 171.724 5.79255 171.724C5.90673 171.724 5.99945 171.632 5.99945 171.517C5.99945 171.403 5.90673 171.31 5.79255 171.31Z" fill="#F5F5F5"/>
<path d="M8.27684 175.655V175.862C8.27684 175.976 8.18403 176.069 8.06994 176.069C7.95584 176.069 7.86303 175.976 7.86303 175.862V175.655H8.27684ZM8.69061 175.242H7.44922V175.862C7.44922 176.205 7.72766 176.483 8.06989 176.483C8.41217 176.483 8.69056 176.204 8.69056 175.862V175.242H8.69061Z" fill="#FAB446"/>
<path d="M8.07006 174.414C7.84155 174.414 7.65625 174.229 7.65625 174V173.586C7.65625 173.358 7.84155 173.172 8.07006 173.172C8.29858 173.172 8.48387 173.358 8.48387 173.586V174C8.48387 174.229 8.29858 174.414 8.07006 174.414Z" fill="#FFA0D2"/>
<path d="M7.03473 175.448C7.37752 175.448 7.65541 175.17 7.65541 174.827C7.65541 174.485 7.37752 174.207 7.03473 174.207C6.69195 174.207 6.41406 174.485 6.41406 174.827C6.41406 175.17 6.69195 175.448 7.03473 175.448Z" fill="#5064AA"/>
<path d="M7.24194 170.276H6.82812V171.517H7.24194V170.276Z" fill="#FAB446"/>
<path d="M5.79272 172.345L5.37891 171.931L5.6213 171.689C5.99597 171.314 6.50419 171.104 7.03411 171.104C7.56403 171.104 8.0722 171.314 8.44692 171.689L8.68931 171.931L8.2755 172.345H5.79272Z" fill="#C8414B"/>
<path d="M7.03503 172.138C7.1493 172.138 7.24194 172.045 7.24194 171.931C7.24194 171.817 7.1493 171.724 7.03503 171.724C6.92076 171.724 6.82812 171.817 6.82812 171.931C6.82812 172.045 6.92076 172.138 7.03503 172.138Z" fill="#FFD250"/>
<path d="M6.20691 172.138C6.32118 172.138 6.41381 172.045 6.41381 171.931C6.41381 171.817 6.32118 171.724 6.20691 171.724C6.09263 171.724 6 171.817 6 171.931C6 172.045 6.09263 172.138 6.20691 172.138Z" fill="#FFD250"/>
<path d="M7.86316 172.138C7.97743 172.138 8.07006 172.045 8.07006 171.931C8.07006 171.817 7.97743 171.724 7.86316 171.724C7.74888 171.724 7.65625 171.817 7.65625 171.931C7.65625 172.045 7.74888 172.138 7.86316 172.138Z" fill="#FFD250"/>
<path d="M5.37765 174H3.30859V174.414H5.37765V174Z" fill="#C8414B"/>
<path d="M3.30859 175.655L4.54994 175.241V174.828L3.30859 175.241V175.655Z" fill="#C8414B"/>
<path d="M297.76 116.264V113.8H290.96V125H293.52V120.888H297.68V118.424H293.52V116.264H297.76ZM301.593 118.424V117H299.193V125H301.593V121.384C301.593 119.8 303.001 119.4 303.993 119.56V116.84C302.985 116.84 301.913 117.352 301.593 118.424ZM310.688 117V117.752C310.16 117.144 309.376 116.776 308.304 116.776C306.208 116.776 304.48 118.616 304.48 121C304.48 123.384 306.208 125.224 308.304 125.224C309.376 125.224 310.16 124.856 310.688 124.248V125H313.088V117H310.688ZM308.784 122.952C307.68 122.952 306.88 122.2 306.88 121C306.88 119.8 307.68 119.048 308.784 119.048C309.888 119.048 310.688 119.8 310.688 121C310.688 122.2 309.888 122.952 308.784 122.952ZM319.537 116.776C318.481 116.776 317.681 117.16 317.249 117.752V117H314.849V125H317.249V120.632C317.249 119.496 317.857 118.984 318.737 118.984C319.505 118.984 320.129 119.448 320.129 120.44V125H322.529V120.088C322.529 117.928 321.153 116.776 319.537 116.776ZM328.017 125.224C329.585 125.224 330.945 124.408 331.633 123.16L329.537 121.96C329.281 122.52 328.689 122.856 327.985 122.856C326.945 122.856 326.177 122.104 326.177 121C326.177 119.896 326.945 119.144 327.985 119.144C328.689 119.144 329.265 119.48 329.537 120.04L331.633 118.824C330.945 117.592 329.569 116.776 328.017 116.776C325.585 116.776 323.777 118.616 323.777 121C323.777 123.384 325.585 125.224 328.017 125.224ZM333.799 116.296C334.583 116.296 335.239 115.64 335.239 114.856C335.239 114.072 334.583 113.416 333.799 113.416C333.015 113.416 332.359 114.072 332.359 114.856C332.359 115.64 333.015 116.296 333.799 116.296ZM332.599 125H334.999V117H332.599V125ZM342.563 117V117.752C342.035 117.144 341.251 116.776 340.179 116.776C338.083 116.776 336.355 118.616 336.355 121C336.355 123.384 338.083 125.224 340.179 125.224C341.251 125.224 342.035 124.856 342.563 124.248V125H344.963V117H342.563ZM340.659 122.952C339.555 122.952 338.755 122.2 338.755 121C338.755 119.8 339.555 119.048 340.659 119.048C341.763 119.048 342.563 119.8 342.563 121C342.563 122.2 341.763 122.952 340.659 122.952Z" fill="#3CC3DD"/>
<path d="M293.088 133.8L290.16 134.856L290.784 137.048L292.768 136.504V145H295.328V133.8H293.088ZM299.541 133.8L296.613 134.856L297.237 137.048L299.221 136.504V145H301.781V133.8H299.541ZM312.026 140.84H310.906V138.44H308.314V140.84H305.978L309.546 133.8H306.794L303.226 140.84V143.208H308.314V145H310.906V143.208H312.026V140.84ZM314.428 145.224C315.26 145.224 315.948 144.536 315.948 143.704C315.948 142.872 315.26 142.184 314.428 142.184C313.596 142.184 312.908 142.872 312.908 143.704C312.908 144.536 313.596 145.224 314.428 145.224ZM321.584 137.336L324.016 133.8H321.072L317.648 139C317.232 139.624 316.992 140.408 316.992 141.272C316.992 143.592 318.672 145.224 321.152 145.224C323.616 145.224 325.312 143.592 325.312 141.272C325.312 139.096 323.808 137.512 321.584 137.336ZM321.152 142.824C320.288 142.824 319.552 142.264 319.552 141.272C319.552 140.28 320.288 139.72 321.152 139.72C322 139.72 322.752 140.296 322.752 141.272C322.752 142.248 322 142.824 321.152 142.824ZM330.029 137.736H329.117L329.229 136.2H333.309V133.8H326.829L326.365 140.232H329.869C330.845 140.232 331.309 140.792 331.309 141.48C331.309 142.168 330.845 142.728 329.789 142.728C328.733 142.728 328.253 142.28 327.997 141.544L325.789 142.824C326.477 144.472 328.013 145.224 329.789 145.224C331.949 145.224 333.869 143.944 333.869 141.48C333.869 139.016 332.109 137.736 330.029 137.736ZM334.269 133.8V136.264H338.781L335.261 145H337.981L341.629 135.944V133.8H334.269Z" fill="#101010"/>
<path d="M153.48 196.8H145.16V199.264H148.04V208H150.6V199.264H153.48V196.8ZM158.407 200V204.368C158.407 205.504 157.799 206.016 156.919 206.016C156.151 206.016 155.527 205.552 155.527 204.56V200H153.127V204.912C153.127 207.072 154.503 208.224 156.119 208.224C157.175 208.224 157.975 207.84 158.407 207.248V208H160.807V200H158.407ZM164.968 201.424V200H162.568V208H164.968V204.384C164.968 202.8 166.376 202.4 167.368 202.56V199.84C166.36 199.84 165.288 200.352 164.968 201.424ZM174.063 200V200.752C173.535 200.144 172.751 199.776 171.679 199.776C169.583 199.776 167.855 201.616 167.855 204C167.855 206.384 169.583 208.224 171.679 208.224C172.751 208.224 173.535 207.856 174.063 207.248V211.2H176.463V200H174.063ZM172.159 205.952C171.055 205.952 170.255 205.2 170.255 204C170.255 202.8 171.055 202.048 172.159 202.048C173.263 202.048 174.063 202.8 174.063 204C174.063 205.2 173.263 205.952 172.159 205.952ZM183.392 200V204.368C183.392 205.504 182.784 206.016 181.904 206.016C181.136 206.016 180.512 205.552 180.512 204.56V200H178.112V204.912C178.112 207.072 179.488 208.224 181.104 208.224C182.16 208.224 182.96 207.84 183.392 207.248V208H185.792V200H183.392ZM187.552 199.2L188.192 196.8H190.912L189.856 199.2H187.552ZM187.552 208H189.952V200H187.552V208ZM197.516 200V200.752C196.988 200.144 196.204 199.776 195.132 199.776C193.036 199.776 191.308 201.616 191.308 204C191.308 206.384 193.036 208.224 195.132 208.224C196.204 208.224 196.988 207.856 197.516 207.248V208H199.916V200H197.516ZM195.612 205.952C194.508 205.952 193.708 205.2 193.708 204C193.708 202.8 194.508 202.048 195.612 202.048C196.716 202.048 197.516 202.8 197.516 204C197.516 205.2 196.716 205.952 195.612 205.952Z" fill="#3CC3DD"/>
<path d="M153.64 220.528C153.64 218.208 151.96 216.576 149.48 216.576C147.016 216.576 145.32 218.208 145.32 220.528C145.32 222.704 146.824 224.288 149.048 224.464L146.616 228H149.56L152.984 222.8C153.4 222.176 153.64 221.392 153.64 220.528ZM147.88 220.528C147.88 219.552 148.632 218.976 149.48 218.976C150.344 218.976 151.08 219.536 151.08 220.528C151.08 221.52 150.344 222.08 149.48 222.08C148.632 222.08 147.88 221.504 147.88 220.528ZM158.993 228.224C161.889 228.224 163.553 225.856 163.553 222.4C163.553 218.944 161.889 216.576 158.993 216.576C156.097 216.576 154.433 218.944 154.433 222.4C154.433 225.856 156.097 228.224 158.993 228.224ZM158.993 225.728C157.649 225.728 156.993 224.56 156.993 222.4C156.993 220.24 157.649 219.072 158.993 219.072C160.337 219.072 160.993 220.24 160.993 222.4C160.993 224.56 160.337 225.728 158.993 225.728ZM165.787 228.224C166.619 228.224 167.307 227.536 167.307 226.704C167.307 225.872 166.619 225.184 165.787 225.184C164.955 225.184 164.267 225.872 164.267 226.704C164.267 227.536 164.955 228.224 165.787 228.224ZM175.546 220.528C175.546 218.208 173.866 216.576 171.386 216.576C168.922 216.576 167.226 218.208 167.226 220.528C167.226 222.704 168.73 224.288 170.954 224.464L168.522 228H171.466L174.89 222.8C175.306 222.176 175.546 221.392 175.546 220.528ZM169.786 220.528C169.786 219.552 170.538 218.976 171.386 218.976C172.25 218.976 172.986 219.536 172.986 220.528C172.986 221.52 172.25 222.08 171.386 222.08C170.538 222.08 169.786 221.504 169.786 220.528ZM183.107 222.16C183.763 221.648 184.179 220.912 184.179 219.904C184.179 217.728 182.515 216.576 180.451 216.576C178.387 216.576 176.723 217.728 176.723 219.904C176.723 220.912 177.139 221.648 177.795 222.16C176.851 222.768 176.339 223.744 176.339 224.848C176.339 226.896 177.811 228.224 180.451 228.224C183.091 228.224 184.563 226.896 184.563 224.848C184.563 223.744 184.051 222.768 183.107 222.16ZM180.451 218.976C181.171 218.976 181.619 219.44 181.619 220.064C181.619 220.688 181.171 221.152 180.451 221.152C179.731 221.152 179.283 220.688 179.283 220.064C179.283 219.44 179.731 218.976 180.451 218.976ZM180.451 225.824C179.555 225.824 178.899 225.328 178.899 224.48C178.899 223.632 179.555 223.136 180.451 223.136C181.347 223.136 182.003 223.632 182.003 224.48C182.003 225.328 181.347 225.824 180.451 225.824ZM190.087 228.224C192.983 228.224 194.647 225.856 194.647 222.4C194.647 218.944 192.983 216.576 190.087 216.576C187.191 216.576 185.527 218.944 185.527 222.4C185.527 225.856 187.191 228.224 190.087 228.224ZM190.087 225.728C188.743 225.728 188.087 224.56 188.087 222.4C188.087 220.24 188.743 219.072 190.087 219.072C191.431 219.072 192.087 220.24 192.087 222.4C192.087 224.56 191.431 225.728 190.087 225.728Z" fill="#101010"/>
<path d="M4.52 205.536V203.552H8.52V201.12H4.52V199.264H8.92V196.8H1.96V208H9V205.536H4.52ZM12.6364 202.336C12.6364 202.048 12.8924 201.888 13.3084 201.888C13.8364 201.888 14.1564 202.176 14.3804 202.592L16.4284 201.488C15.7564 200.352 14.6044 199.776 13.3084 199.776C11.6444 199.776 10.1724 200.656 10.1724 202.4C10.1724 205.168 14.1084 204.704 14.1084 205.584C14.1084 205.904 13.8204 206.08 13.2444 206.08C12.5404 206.08 12.0924 205.744 11.8844 205.136L9.80438 206.32C10.4284 207.616 11.6444 208.224 13.2444 208.224C14.9724 208.224 16.5724 207.44 16.5724 205.6C16.5724 202.64 12.6364 203.248 12.6364 202.336ZM22.6328 199.776C21.5608 199.776 20.7768 200.144 20.2488 200.752V200H17.8488V211.2H20.2488V207.248C20.7768 207.856 21.5608 208.224 22.6328 208.224C24.7288 208.224 26.4568 206.384 26.4568 204C26.4568 201.616 24.7288 199.776 22.6328 199.776ZM22.1528 205.952C21.0488 205.952 20.2488 205.2 20.2488 204C20.2488 202.8 21.0488 202.048 22.1528 202.048C23.2568 202.048 24.0568 202.8 24.0568 204C24.0568 205.2 23.2568 205.952 22.1528 205.952ZM33.6255 200V200.752C33.0975 200.144 32.3135 199.776 31.2415 199.776C29.1455 199.776 27.4175 201.616 27.4175 204C27.4175 206.384 29.1455 208.224 31.2415 208.224C32.3135 208.224 33.0975 207.856 33.6255 207.248V208H36.0255V200H33.6255ZM31.7215 205.952C30.6175 205.952 29.8175 205.2 29.8175 204C29.8175 202.8 30.6175 202.048 31.7215 202.048C32.8255 202.048 33.6255 202.8 33.6255 204C33.6255 205.2 32.8255 205.952 31.7215 205.952ZM41.4503 198.608C42.9063 199.504 44.5863 199.216 44.5863 196.48H42.6663C42.6663 197.12 42.5223 197.2 41.9783 196.864C40.5223 195.968 38.8423 196.256 38.8423 198.992H40.7623C40.7623 198.352 40.9062 198.272 41.4503 198.608ZM42.4743 199.776C41.4183 199.776 40.6183 200.16 40.1863 200.752V200H37.7863V208H40.1863V203.632C40.1863 202.496 40.7943 201.984 41.6743 201.984C42.4423 201.984 43.0663 202.448 43.0663 203.44V208H45.4663V203.088C45.4663 200.928 44.0903 199.776 42.4743 199.776ZM52.9224 200V200.752C52.3944 200.144 51.6104 199.776 50.5384 199.776C48.4424 199.776 46.7144 201.616 46.7144 204C46.7144 206.384 48.4424 208.224 50.5384 208.224C51.6104 208.224 52.3944 207.856 52.9224 207.248V208H55.3224V200H52.9224ZM51.0184 205.952C49.9144 205.952 49.1144 205.2 49.1144 204C49.1144 202.8 49.9144 202.048 51.0184 202.048C52.1224 202.048 52.9224 202.8 52.9224 204C52.9224 205.2 52.1224 205.952 51.0184 205.952Z" fill="#3CC3DD"/>
<path d="M1.352 228H8.968V225.536H5.208L7.064 223.664C8.088 222.64 8.808 221.488 8.808 220.144C8.808 217.888 7.016 216.576 5.016 216.576C3.464 216.576 1.96 217.36 1.24 219.024L3.4 220.288C3.704 219.584 4.264 219.072 5.048 219.072C5.8 219.072 6.248 219.552 6.248 220.256C6.248 220.912 5.768 221.568 5.112 222.24L1.352 226.144V228ZM14.415 228.224C17.311 228.224 18.975 225.856 18.975 222.4C18.975 218.944 17.311 216.576 14.415 216.576C11.519 216.576 9.855 218.944 9.855 222.4C9.855 225.856 11.519 228.224 14.415 228.224ZM14.415 225.728C13.071 225.728 12.415 224.56 12.415 222.4C12.415 220.24 13.071 219.072 14.415 219.072C15.759 219.072 16.415 220.24 16.415 222.4C16.415 224.56 15.759 225.728 14.415 225.728ZM28.5731 223.84H27.4531V221.44H24.8611V223.84H22.5251L26.0931 216.8H23.3411L19.7731 223.84V226.208H24.8611V228H27.4531V226.208H28.5731V223.84ZM30.9744 228.224C31.8064 228.224 32.4944 227.536 32.4944 226.704C32.4944 225.872 31.8064 225.184 30.9744 225.184C30.1424 225.184 29.4544 225.872 29.4544 226.704C29.4544 227.536 30.1424 228.224 30.9744 228.224ZM36.3068 216.8L33.3788 217.856L34.0028 220.048L35.9868 219.504V228H38.5468V216.8H36.3068ZM39.8319 216.8V219.264H44.3439L40.8239 228H43.5439L47.1919 218.944V216.8H39.8319ZM54.4511 222.16C55.1071 221.648 55.5231 220.912 55.5231 219.904C55.5231 217.728 53.8591 216.576 51.7951 216.576C49.7311 216.576 48.0671 217.728 48.0671 219.904C48.0671 220.912 48.4831 221.648 49.1391 222.16C48.1951 222.768 47.6831 223.744 47.6831 224.848C47.6831 226.896 49.1551 228.224 51.7951 228.224C54.4351 228.224 55.9071 226.896 55.9071 224.848C55.9071 223.744 55.3951 222.768 54.4511 222.16ZM51.7951 218.976C52.5151 218.976 52.9631 219.44 52.9631 220.064C52.9631 220.688 52.5151 221.152 51.7951 221.152C51.0751 221.152 50.6271 220.688 50.6271 220.064C50.6271 219.44 51.0751 218.976 51.7951 218.976ZM51.7951 225.824C50.8991 225.824 50.2431 225.328 50.2431 224.48C50.2431 223.632 50.8991 223.136 51.7951 223.136C52.6911 223.136 53.3471 223.632 53.3471 224.48C53.3471 225.328 52.6911 225.824 51.7951 225.824Z" fill="#101010"/>
<path d="M0.96 114.8V126H3.52V114.8H0.96ZM10.0524 120.304V118H8.40438V115.76L6.00438 116.48V118H4.72438V120.304H6.00438V123.136C6.00438 125.376 6.91638 126.32 10.0524 126V123.824C8.99638 123.888 8.40438 123.824 8.40438 123.136V120.304H10.0524ZM17.063 118V118.752C16.535 118.144 15.751 117.776 14.679 117.776C12.583 117.776 10.855 119.616 10.855 122C10.855 124.384 12.583 126.224 14.679 126.224C15.751 126.224 16.535 125.856 17.063 125.248V126H19.463V118H17.063ZM15.159 123.952C14.055 123.952 13.255 123.2 13.255 122C13.255 120.8 14.055 120.048 15.159 120.048C16.263 120.048 17.063 120.8 17.063 122C17.063 123.2 16.263 123.952 15.159 123.952ZM21.2238 126H23.6238V114.32H21.2238V126ZM26.58 117.296C27.364 117.296 28.02 116.64 28.02 115.856C28.02 115.072 27.364 114.416 26.58 114.416C25.796 114.416 25.14 115.072 25.14 115.856C25.14 116.64 25.796 117.296 26.58 117.296ZM25.38 126H27.78V118H25.38V126ZM35.3443 118V118.752C34.8163 118.144 34.0323 117.776 32.9603 117.776C30.8643 117.776 29.1363 119.616 29.1363 122C29.1363 124.384 30.8643 126.224 32.9603 126.224C34.0323 126.224 34.8163 125.856 35.3443 125.248V126H37.7443V118H35.3443ZM33.4403 123.952C32.3363 123.952 31.5363 123.2 31.5363 122C31.5363 120.8 32.3363 120.048 33.4403 120.048C34.5443 120.048 35.3443 120.8 35.3443 122C35.3443 123.2 34.5443 123.952 33.4403 123.952Z" fill="#3CC3DD"/>
<path d="M3.088 134.8L0.16 135.856L0.784 138.048L2.768 137.504V146H5.328V134.8H3.088ZM13.7011 140.16C14.3571 139.648 14.7731 138.912 14.7731 137.904C14.7731 135.728 13.1091 134.576 11.0451 134.576C8.98113 134.576 7.31713 135.728 7.31713 137.904C7.31713 138.912 7.73313 139.648 8.38913 140.16C7.44513 140.768 6.93313 141.744 6.93313 142.848C6.93313 144.896 8.40513 146.224 11.0451 146.224C13.6851 146.224 15.1571 144.896 15.1571 142.848C15.1571 141.744 14.6451 140.768 13.7011 140.16ZM11.0451 136.976C11.7651 136.976 12.2131 137.44 12.2131 138.064C12.2131 138.688 11.7651 139.152 11.0451 139.152C10.3251 139.152 9.87713 138.688 9.87713 138.064C9.87713 137.44 10.3251 136.976 11.0451 136.976ZM11.0451 143.824C10.1491 143.824 9.49313 143.328 9.49313 142.48C9.49313 141.632 10.1491 141.136 11.0451 141.136C11.9411 141.136 12.5971 141.632 12.5971 142.48C12.5971 143.328 11.9411 143.824 11.0451 143.824ZM18.4161 134.8L15.4881 135.856L16.1121 138.048L18.0961 137.504V146H20.6561V134.8H18.4161ZM24.0213 146.224C24.8533 146.224 25.5413 145.536 25.5413 144.704C25.5413 143.872 24.8533 143.184 24.0213 143.184C23.1893 143.184 22.5013 143.872 22.5013 144.704C22.5013 145.536 23.1893 146.224 24.0213 146.224ZM26.6176 146H34.2336V143.536H30.4736L32.3296 141.664C33.3536 140.64 34.0736 139.488 34.0736 138.144C34.0736 135.888 32.2816 134.576 30.2816 134.576C28.7296 134.576 27.2256 135.36 26.5056 137.024L28.6656 138.288C28.9696 137.584 29.5296 137.072 30.3136 137.072C31.0656 137.072 31.5136 137.552 31.5136 138.256C31.5136 138.912 31.0336 139.568 30.3776 140.24L26.6176 144.144V146ZM35.1489 146H42.7649V143.536H39.0049L40.8609 141.664C41.8849 140.64 42.6049 139.488 42.6049 138.144C42.6049 135.888 40.8129 134.576 38.8129 134.576C37.2609 134.576 35.7569 135.36 35.0369 137.024L37.1969 138.288C37.5009 137.584 38.0609 137.072 38.8449 137.072C39.5969 137.072 40.0449 137.552 40.0449 138.256C40.0449 138.912 39.5649 139.568 38.9089 140.24L35.1489 144.144V146ZM50.498 140.16C51.154 139.648 51.57 138.912 51.57 137.904C51.57 135.728 49.906 134.576 47.842 134.576C45.778 134.576 44.114 135.728 44.114 137.904C44.114 138.912 44.53 139.648 45.186 140.16C44.242 140.768 43.73 141.744 43.73 142.848C43.73 144.896 45.202 146.224 47.842 146.224C50.482 146.224 51.954 144.896 51.954 142.848C51.954 141.744 51.442 140.768 50.498 140.16ZM47.842 136.976C48.562 136.976 49.01 137.44 49.01 138.064C49.01 138.688 48.562 139.152 47.842 139.152C47.122 139.152 46.674 138.688 46.674 138.064C46.674 137.44 47.122 136.976 47.842 136.976ZM47.842 143.824C46.946 143.824 46.29 143.328 46.29 142.48C46.29 141.632 46.946 141.136 47.842 141.136C48.738 141.136 49.394 141.632 49.394 142.48C49.394 143.328 48.738 143.824 47.842 143.824Z" fill="#101010"/>
<path d="M426.848 125H429.6L427.216 120.888C428.448 120.264 429.28 119.016 429.28 117.64C429.28 115.512 427.568 113.8 425.44 113.8H420.96V125H423.52V121.32H424.736L426.848 125ZM423.52 116.2H425.44C426.144 116.2 426.72 116.824 426.72 117.64C426.72 118.456 426.144 119.08 425.44 119.08H423.52V116.2ZM432.462 121.96H438.142C438.206 121.656 438.238 121.336 438.238 121C438.238 118.584 436.51 116.776 434.174 116.776C431.646 116.776 429.918 118.616 429.918 121C429.918 123.384 431.614 125.224 434.35 125.224C435.87 125.224 437.054 124.664 437.838 123.576L435.918 122.472C435.598 122.824 435.038 123.08 434.382 123.08C433.502 123.08 432.766 122.792 432.462 121.96ZM432.414 120.168C432.638 119.352 433.246 118.904 434.158 118.904C434.878 118.904 435.598 119.24 435.854 120.168H432.414ZM440.799 116.296C441.583 116.296 442.239 115.64 442.239 114.856C442.239 114.072 441.583 113.416 440.799 113.416C440.015 113.416 439.359 114.072 439.359 114.856C439.359 115.64 440.015 116.296 440.799 116.296ZM439.599 125H441.999V117H439.599V125ZM448.443 116.776C447.387 116.776 446.587 117.16 446.155 117.752V117H443.755V125H446.155V120.632C446.155 119.496 446.763 118.984 447.643 118.984C448.411 118.984 449.035 119.448 449.035 120.44V125H451.435V120.088C451.435 117.928 450.059 116.776 448.443 116.776ZM456.923 125.224C459.275 125.224 461.163 123.384 461.163 121C461.163 118.616 459.275 116.776 456.923 116.776C454.571 116.776 452.683 118.616 452.683 121C452.683 123.384 454.571 125.224 456.923 125.224ZM456.923 122.888C455.883 122.888 455.083 122.136 455.083 121C455.083 119.864 455.883 119.112 456.923 119.112C457.963 119.112 458.763 119.864 458.763 121C458.763 122.136 457.963 122.888 456.923 122.888ZM470.841 125.224C473.305 125.224 475.161 123.784 475.161 121.384V113.8H472.601V121.16C472.601 122.008 472.201 122.728 470.841 122.728C469.481 122.728 469.081 122.008 469.081 121.16V113.8H466.521V121.384C466.521 123.784 468.377 125.224 470.841 125.224ZM481.615 116.776C480.559 116.776 479.759 117.16 479.327 117.752V117H476.927V125H479.327V120.632C479.327 119.496 479.935 118.984 480.815 118.984C481.583 118.984 482.207 119.448 482.207 120.44V125H484.607V120.088C484.607 117.928 483.231 116.776 481.615 116.776ZM487.455 116.296C488.239 116.296 488.895 115.64 488.895 114.856C488.895 114.072 488.239 113.416 487.455 113.416C486.671 113.416 486.015 114.072 486.015 114.856C486.015 115.64 486.671 116.296 487.455 116.296ZM486.255 125H488.655V117H486.255V125ZM496.219 113.8V117.752C495.691 117.144 494.907 116.776 493.835 116.776C491.739 116.776 490.011 118.616 490.011 121C490.011 123.384 491.739 125.224 493.835 125.224C494.907 125.224 495.691 124.856 496.219 124.248V125H498.619V113.8H496.219ZM494.315 122.952C493.211 122.952 492.411 122.2 492.411 121C492.411 119.8 493.211 119.048 494.315 119.048C495.419 119.048 496.219 119.8 496.219 121C496.219 122.2 495.419 122.952 494.315 122.952ZM504.22 125.224C506.572 125.224 508.46 123.384 508.46 121C508.46 118.616 506.572 116.776 504.22 116.776C501.868 116.776 499.98 118.616 499.98 121C499.98 123.384 501.868 125.224 504.22 125.224ZM504.22 122.888C503.18 122.888 502.38 122.136 502.38 121C502.38 119.864 503.18 119.112 504.22 119.112C505.26 119.112 506.06 119.864 506.06 121C506.06 122.136 505.26 122.888 504.22 122.888Z" fill="#3CC3DD"/>
<path d="M423.088 133.8L420.16 134.856L420.784 137.048L422.768 136.504V145H425.328V133.8H423.088ZM426.805 145H434.421V142.536H430.661L432.517 140.664C433.541 139.64 434.261 138.488 434.261 137.144C434.261 134.888 432.469 133.576 430.469 133.576C428.917 133.576 427.413 134.36 426.693 136.024L428.853 137.288C429.157 136.584 429.717 136.072 430.501 136.072C431.253 136.072 431.701 136.552 431.701 137.256C431.701 137.912 431.221 138.568 430.565 139.24L426.805 143.144V145ZM443.948 140.84H442.828V138.44H440.236V140.84H437.9L441.468 133.8H438.716L435.148 140.84V143.208H440.236V145H442.828V143.208H443.948V140.84ZM446.349 145.224C447.181 145.224 447.869 144.536 447.869 143.704C447.869 142.872 447.181 142.184 446.349 142.184C445.517 142.184 444.829 142.872 444.829 143.704C444.829 144.536 445.517 145.224 446.349 145.224ZM448.754 133.8V136.264H453.266L449.746 145H452.466L456.114 135.944V133.8H448.754ZM464.604 140.84H463.484V138.44H460.892V140.84H458.556L462.124 133.8H459.372L455.804 140.84V143.208H460.892V145H463.484V143.208H464.604V140.84ZM470.702 138.344L472.638 135.88V133.8H465.438V136.2H469.534L467.502 138.776L468.478 140.232H469.006C470.062 140.232 470.526 140.792 470.526 141.48C470.526 142.168 470.062 142.728 469.006 142.728C468.03 142.728 467.55 142.28 467.294 141.544L465.086 142.824C465.774 144.472 467.31 145.224 469.006 145.224C471.166 145.224 473.086 143.944 473.086 141.48C473.086 139.928 472.078 138.824 470.702 138.344Z" fill="#101010"/>
<g clip-path="url(#clip1)">
<path d="M443.586 99.8621H420.414C420.185 99.8621 420 99.6768 420 99.4482V84.5518C420 84.3232 420.185 84.1379 420.414 84.1379H443.586C443.815 84.1379 444 84.3232 444 84.5518V99.4482C444 99.6768 443.815 99.8621 443.586 99.8621Z" fill="#41479B"/>
<path d="M444 84.5518C444 84.3232 443.815 84.1379 443.586 84.1379H441.735L434.069 89.1604V84.1379H429.931V89.1604L422.265 84.1379H420.414C420.185 84.1379 420 84.3232 420 84.5518V85.6219L426.577 89.931H420V94.0689H426.577L420 98.378V99.4482C420 99.6768 420.185 99.8621 420.414 99.8621H422.265L429.931 94.8396V99.8621H434.069V94.8396L441.735 99.8621H443.586C443.815 99.8621 444 99.6768 444 99.4482V98.378L437.423 94.069H444V89.9311H437.423L444 85.6219V84.5518Z" fill="#F5F5F5"/>
<path d="M444 90.7586H433.241V84.1379H430.759V90.7586H420V93.2414H430.759V99.8621H433.241V93.2414H444V90.7586Z" fill="#FF4B55"/>
<path d="M428.388 94.0688L420.012 99.5062C420.041 99.706 420.206 99.862 420.414 99.862H420.984L429.908 94.0689H428.388V94.0688Z" fill="#FF4B55"/>
<path d="M436.239 94.0688H434.719L443.63 99.8534C443.838 99.8313 444.002 99.6617 444.002 99.4481V99.1079L436.239 94.0688Z" fill="#FF4B55"/>
<path d="M420 85.0085L427.583 89.931H429.103L420.241 84.1782C420.1 84.244 420 84.3853 420 84.5517V85.0085Z" fill="#FF4B55"/>
<path d="M435.59 89.931L443.987 84.4805C443.952 84.2873 443.791 84.1379 443.587 84.1379H442.995L434.07 89.931H435.59Z" fill="#FF4B55"/>
</g>
<path d="M296 99.8619H288.414C288.185 99.8619 288 99.6766 288 99.4481V84.5515C288 84.323 288.185 84.1377 288.414 84.1377H296V99.8619Z" fill="#41479B"/>
<path d="M304 84.1379H296V99.8622H304V84.1379Z" fill="#F5F5F5"/>
<path d="M311.586 99.8621H304V84.1379H311.586C311.815 84.1379 312 84.3232 312 84.5518V99.4483C312 99.6769 311.815 99.8621 311.586 99.8621Z" fill="#FF4B55"/>
<path d="M171 89.3794H147V84.5518C147 84.3232 147.185 84.1379 147.414 84.1379H170.586C170.815 84.1379 171 84.3232 171 84.5518L171 89.3794Z" fill="#464655"/>
<path d="M170.586 99.8622H147.414C147.185 99.8622 147 99.6769 147 99.4484V94.6208H171V99.4484C171 99.677 170.815 99.8622 170.586 99.8622Z" fill="#FFE15A"/>
<path d="M171 89.3792H147V94.6202H171V89.3792Z" fill="#FF4B55"/>
<path d="M157.08 126H159.88L156.072 114.8H152.808L149 126H151.8L152.36 124.24H156.52L157.08 126ZM153.128 121.84L154.44 117.728L155.752 121.84H153.128ZM160.755 126H163.155V114.32H160.755V126ZM167.055 122.96H172.735C172.799 122.656 172.831 122.336 172.831 122C172.831 119.584 171.103 117.776 168.767 117.776C166.239 117.776 164.511 119.616 164.511 122C164.511 124.384 166.207 126.224 168.943 126.224C170.463 126.224 171.647 125.664 172.431 124.576L170.511 123.472C170.191 123.824 169.631 124.08 168.975 124.08C168.095 124.08 167.359 123.792 167.055 122.96ZM167.007 121.168C167.231 120.352 167.839 119.904 168.751 119.904C169.471 119.904 170.191 120.24 170.447 121.168H167.007ZM183.153 117.776C182.017 117.776 181.281 118.192 180.833 118.832C180.385 118.16 179.681 117.776 178.737 117.776C177.665 117.776 176.961 118.192 176.593 118.736V118H174.193V126H176.593V121.488C176.593 120.544 177.041 119.984 177.841 119.984C178.609 119.984 178.993 120.496 178.993 121.296V126H181.392V121.488C181.392 120.544 181.841 119.984 182.641 119.984C183.409 119.984 183.793 120.496 183.793 121.296V126H186.193V121.088C186.193 119.088 184.993 117.776 183.153 117.776ZM193.641 118V118.752C193.113 118.144 192.329 117.776 191.257 117.776C189.161 117.776 187.433 119.616 187.433 122C187.433 124.384 189.161 126.224 191.257 126.224C192.329 126.224 193.113 125.856 193.641 125.248V126H196.041V118H193.641ZM191.737 123.952C190.633 123.952 189.833 123.2 189.833 122C189.833 120.8 190.633 120.048 191.737 120.048C192.841 120.048 193.641 120.8 193.641 122C193.641 123.2 192.841 123.952 191.737 123.952ZM202.49 117.776C201.434 117.776 200.634 118.16 200.202 118.752V118H197.802V126H200.202V121.632C200.202 120.496 200.81 119.984 201.69 119.984C202.458 119.984 203.082 120.448 203.082 121.44V126H205.482V121.088C205.482 118.928 204.106 117.776 202.49 117.776ZM208.33 117.296C209.114 117.296 209.77 116.64 209.77 115.856C209.77 115.072 209.114 114.416 208.33 114.416C207.546 114.416 206.89 115.072 206.89 115.856C206.89 116.64 207.546 117.296 208.33 117.296ZM207.13 126H209.53V118H207.13V126ZM217.094 118V118.752C216.566 118.144 215.782 117.776 214.71 117.776C212.614 117.776 210.886 119.616 210.886 122C210.886 124.384 212.614 126.224 214.71 126.224C215.782 126.224 216.566 125.856 217.094 125.248V126H219.494V118H217.094ZM215.19 123.952C214.086 123.952 213.286 123.2 213.286 122C213.286 120.8 214.086 120.048 215.19 120.048C216.294 120.048 217.094 120.8 217.094 122C217.094 123.2 216.294 123.952 215.19 123.952Z" fill="#3CC3DD"/>
<path d="M152.088 134.8L149.16 135.856L149.784 138.048L151.768 137.504V146H154.328V134.8H152.088ZM164.573 141.84H163.453V139.44H160.861V141.84H158.525L162.093 134.8H159.341L155.773 141.84V144.208H160.861V146H163.453V144.208H164.573V141.84ZM170.67 139.344L172.606 136.88V134.8H165.406V137.2H169.502L167.47 139.776L168.446 141.232H168.974C170.03 141.232 170.494 141.792 170.494 142.48C170.494 143.168 170.03 143.728 168.974 143.728C167.998 143.728 167.518 143.28 167.262 142.544L165.054 143.824C165.742 145.472 167.278 146.224 168.974 146.224C171.134 146.224 173.054 144.944 173.054 142.48C173.054 140.928 172.046 139.824 170.67 139.344ZM175.459 146.224C176.291 146.224 176.979 145.536 176.979 144.704C176.979 143.872 176.291 143.184 175.459 143.184C174.627 143.184 173.939 143.872 173.939 144.704C173.939 145.536 174.627 146.224 175.459 146.224ZM186.823 141.84H185.703V139.44H183.111V141.84H180.775L184.343 134.8H181.591L178.023 141.84V144.208H183.111V146H185.703V144.208H186.823V141.84ZM191.544 138.736H190.632L190.744 137.2H194.824V134.8H188.344L187.88 141.232H191.384C192.36 141.232 192.824 141.792 192.824 142.48C192.824 143.168 192.36 143.728 191.304 143.728C190.248 143.728 189.768 143.28 189.512 142.544L187.304 143.824C187.992 145.472 189.528 146.224 191.304 146.224C193.464 146.224 195.384 144.944 195.384 142.48C195.384 140.016 193.624 138.736 191.544 138.736ZM195.785 134.8V137.264H200.297L196.777 146H199.497L203.145 136.944V134.8H195.785Z" fill="#101010"/>
<path d="M171.586 180.862H148.414C148.185 180.862 148 180.677 148 180.448V165.552C148 165.323 148.185 165.138 148.414 165.138H171.586C171.815 165.138 172 165.323 172 165.552V180.448C172 180.677 171.815 180.862 171.586 180.862Z" fill="#FF4B55"/>
<path d="M159.881 171.582L160.53 172.43L161.543 172.091C161.599 172.072 161.648 172.136 161.614 172.186L161.007 173.065L161.643 173.923C161.678 173.971 161.632 174.037 161.575 174.02L160.551 173.714L159.931 174.584C159.897 174.633 159.82 174.609 159.819 174.549L159.793 173.482L158.774 173.161C158.717 173.143 158.716 173.063 158.772 173.043L159.779 172.688L159.77 171.62C159.769 171.56 159.845 171.534 159.881 171.582Z" fill="#F5F5F5"/>
<path d="M156.296 176.312C154.468 176.312 152.985 174.829 152.985 173C152.985 171.174 154.468 169.688 156.296 169.688C156.976 169.688 157.603 169.897 158.126 170.251C158.206 170.305 158.297 170.2 158.23 170.13C157.449 169.318 156.343 168.823 155.118 168.865C153.012 168.936 151.268 170.625 151.134 172.728C150.98 175.136 152.887 177.138 155.261 177.138C156.431 177.138 157.482 176.649 158.233 175.867C158.299 175.798 158.208 175.694 158.128 175.748C157.605 176.103 156.977 176.312 156.296 176.312Z" fill="#F5F5F5"/>
<path d="M8.00002 99.8619H0.413813C0.185297 99.8619 0 99.6766 0 99.4481V84.5515C0 84.323 0.185297 84.1377 0.413813 84.1377H8.00002V99.8619Z" fill="#73AF00"/>
<path d="M16.0002 84.1379H8V99.8622H16.0002V84.1379Z" fill="#F5F5F5"/>
<path d="M23.5862 99.8621H16V84.1379H23.5862C23.8147 84.1379 24 84.3232 24 84.5518V99.4483C24 99.6769 23.8147 99.8621 23.5862 99.8621Z" fill="#FF4B55"/>
<defs>
<clipPath id="clip0">
<rect x="1" width="62" height="62" fill="white"/>
</clipPath>
<clipPath id="clip1">
<rect x="420" y="80" width="24" height="24" fill="white"/>
</clipPath>
</defs>
</svg>
