<svg width="532" height="233" viewBox="0 0 532 233" fill="none" xmlns="http://www.w3.org/2000/svg">
<path d="M275.446 15.4H282.166V49H274.486V23.512L268.534 25.144L266.662 18.568L275.446 15.4ZM298.261 27.208C301.557 27.208 304.293 28.2 306.469 30.184C308.677 32.136 309.781 34.888 309.781 38.44C309.781 41.96 308.597 44.712 306.229 46.696C303.861 48.68 300.965 49.672 297.541 49.672C294.757 49.672 292.309 49.08 290.197 47.896C288.085 46.68 286.533 44.872 285.541 42.472L292.165 38.632C292.997 41 294.789 42.184 297.541 42.184C299.045 42.184 300.181 41.832 300.949 41.128C301.717 40.424 302.101 39.528 302.101 38.44C302.101 37.352 301.733 36.456 300.997 35.752C300.261 35.048 299.189 34.696 297.781 34.696H287.269L288.661 15.4H308.101V22.6H295.861L295.525 27.208H298.261ZM334.479 26.584C334.479 29.176 333.823 31.448 332.511 33.4L322.239 49H313.407L320.703 38.392C317.375 38.136 314.671 36.92 312.591 34.744C310.543 32.568 309.519 29.848 309.519 26.584C309.519 23.096 310.671 20.248 312.975 18.04C315.311 15.832 318.319 14.728 321.999 14.728C325.711 14.728 328.719 15.832 331.023 18.04C333.327 20.248 334.479 23.096 334.479 26.584ZM318.591 23.224C317.663 24.056 317.199 25.176 317.199 26.584C317.199 27.992 317.663 29.128 318.591 29.992C319.519 30.824 320.655 31.24 321.999 31.24C323.343 31.24 324.479 30.824 325.407 29.992C326.335 29.16 326.799 28.024 326.799 26.584C326.799 25.144 326.335 24.008 325.407 23.176C324.479 22.344 323.343 21.928 321.999 21.928C320.655 21.928 319.519 22.36 318.591 23.224ZM337.691 48.328C336.795 49.224 335.723 49.672 334.475 49.672C333.227 49.672 332.155 49.224 331.259 48.328C330.363 47.432 329.915 46.36 329.915 45.112C329.915 43.864 330.363 42.792 331.259 41.896C332.155 41 333.227 40.552 334.475 40.552C335.723 40.552 336.795 41 337.691 41.896C338.587 42.792 339.035 43.864 339.035 45.112C339.035 46.36 338.587 47.432 337.691 48.328ZM349.512 15.4H356.232V49H348.552V23.512L342.6 25.144L340.728 18.568L349.512 15.4ZM376.455 29.032C378.599 29.768 380.327 30.968 381.639 32.632C382.951 34.264 383.607 36.2 383.607 38.44C383.607 41.96 382.423 44.712 380.055 46.696C377.687 48.68 374.791 49.672 371.367 49.672C368.711 49.672 366.327 49.064 364.215 47.848C362.135 46.632 360.599 44.84 359.607 42.472L366.231 38.632C367.063 41 368.775 42.184 371.367 42.184C372.871 42.184 374.007 41.832 374.775 41.128C375.543 40.424 375.927 39.528 375.927 38.44C375.927 37.352 375.543 36.456 374.775 35.752C374.007 35.048 372.871 34.696 371.367 34.696H369.783L366.855 30.328L372.951 22.6H360.663V15.4H382.263V21.64L376.455 29.032ZM409.061 26.584C409.061 29.176 408.405 31.448 407.093 33.4L396.821 49H387.989L395.285 38.392C391.957 38.136 389.253 36.92 387.173 34.744C385.125 32.568 384.101 29.848 384.101 26.584C384.101 23.096 385.253 20.248 387.557 18.04C389.893 15.832 392.901 14.728 396.581 14.728C400.293 14.728 403.301 15.832 405.605 18.04C407.909 20.248 409.061 23.096 409.061 26.584ZM393.173 23.224C392.245 24.056 391.781 25.176 391.781 26.584C391.781 27.992 392.245 29.128 393.173 29.992C394.101 30.824 395.237 31.24 396.581 31.24C397.925 31.24 399.061 30.824 399.989 29.992C400.917 29.16 401.381 28.024 401.381 26.584C401.381 25.144 400.917 24.008 399.989 23.176C399.061 22.344 397.925 21.928 396.581 21.928C395.237 21.928 394.101 22.36 393.173 23.224Z" fill="#101010"/>
<path d="M74.96 34.228H80V37H72.08V24.4H79.91V27.172H74.96V29.26H79.46V31.996H74.96V34.228ZM87.3489 28H90.0489V37H87.3489V36.154C86.8089 36.886 85.9509 37.252 84.7749 37.252C83.8149 37.252 83.0109 36.922 82.3629 36.262C81.7269 35.602 81.4089 34.69 81.4089 33.526V28H84.1089V33.13C84.1089 33.658 84.2529 34.066 84.5409 34.354C84.8409 34.63 85.2189 34.768 85.6749 34.768C86.1909 34.768 86.5989 34.612 86.8989 34.3C87.1989 33.988 87.3489 33.526 87.3489 32.914V28ZM94.7291 29.602C94.8971 29.026 95.2331 28.588 95.7371 28.288C96.2531 27.976 96.8171 27.82 97.4291 27.82V30.88C96.7691 30.772 96.1511 30.886 95.5751 31.222C95.0111 31.546 94.7291 32.116 94.7291 32.932V37H92.0291V28H94.7291V29.602ZM106.132 35.884C105.208 36.796 104.08 37.252 102.748 37.252C101.416 37.252 100.288 36.796 99.3635 35.884C98.4395 34.96 97.9775 33.832 97.9775 32.5C97.9775 31.168 98.4395 30.046 99.3635 29.134C100.288 28.21 101.416 27.748 102.748 27.748C104.08 27.748 105.208 28.21 106.132 29.134C107.056 30.046 107.518 31.168 107.518 32.5C107.518 33.832 107.056 34.96 106.132 35.884ZM101.272 34.03C101.668 34.426 102.16 34.624 102.748 34.624C103.336 34.624 103.828 34.426 104.224 34.03C104.62 33.634 104.818 33.124 104.818 32.5C104.818 31.876 104.62 31.366 104.224 30.97C103.828 30.574 103.336 30.376 102.748 30.376C102.16 30.376 101.668 30.574 101.272 30.97C100.876 31.366 100.678 31.876 100.678 32.5C100.678 33.124 100.876 33.634 101.272 34.03ZM114.427 27.748C115.615 27.748 116.629 28.21 117.469 29.134C118.309 30.046 118.729 31.168 118.729 32.5C118.729 33.832 118.309 34.96 117.469 35.884C116.629 36.796 115.615 37.252 114.427 37.252C113.275 37.252 112.381 36.886 111.745 36.154V40.6H109.045V28H111.745V28.846C112.381 28.114 113.275 27.748 114.427 27.748ZM112.339 34.102C112.747 34.498 113.263 34.696 113.887 34.696C114.511 34.696 115.021 34.498 115.417 34.102C115.825 33.706 116.029 33.172 116.029 32.5C116.029 31.828 115.825 31.294 115.417 30.898C115.021 30.502 114.511 30.304 113.887 30.304C113.263 30.304 112.747 30.502 112.339 30.898C111.943 31.294 111.745 31.828 111.745 32.5C111.745 33.172 111.943 33.706 112.339 34.102ZM126.794 28H129.494V37H126.794V36.154C126.158 36.886 125.264 37.252 124.112 37.252C122.924 37.252 121.91 36.796 121.07 35.884C120.23 34.96 119.81 33.832 119.81 32.5C119.81 31.168 120.23 30.046 121.07 29.134C121.91 28.21 122.924 27.748 124.112 27.748C125.264 27.748 126.158 28.114 126.794 28.846V28ZM123.104 34.102C123.5 34.498 124.016 34.696 124.652 34.696C125.288 34.696 125.804 34.498 126.2 34.102C126.596 33.706 126.794 33.172 126.794 32.5C126.794 31.828 126.596 31.294 126.2 30.898C125.804 30.502 125.288 30.304 124.652 30.304C124.016 30.304 123.5 30.502 123.104 30.898C122.708 31.294 122.51 31.828 122.51 32.5C122.51 33.172 122.708 33.706 123.104 34.102Z" fill="#3CC3DD"/>
<g clip-path="url(#clip0)">
<path fill-rule="evenodd" clip-rule="evenodd" d="M62.5329 39.4173C61.93 38.6308 60.9501 38.4799 60.2344 38.3697L60.2343 38.3697L60.2239 38.3681L60.2238 38.368C60.0479 38.3408 59.8674 38.3129 59.7642 38.2842C58.8826 38.0395 58.2433 37.5954 57.9156 36.9997C57.6199 36.4627 57.5854 35.8095 57.8126 35.0587C57.8855 34.8176 58.0116 34.5408 58.1452 34.2475L58.1478 34.2418C58.5475 33.3653 59.0446 32.2745 58.5462 31.112C58.1231 30.1257 57.2598 29.2391 56.4981 28.4569L56.4968 28.4555L56.4727 28.4307L56.5431 28.3719L56.5478 28.368L56.5479 28.368C57.2255 27.8015 57.926 27.2159 58.6281 26.6903C58.694 26.6409 58.81 26.5688 58.924 26.498L58.9241 26.498L58.9366 26.4902C59.2022 26.3256 59.5032 26.139 59.7431 25.904C60.5194 25.1434 60.8479 24.0123 60.5607 23.0892C60.3042 22.2646 59.6168 21.698 58.6744 21.5346C58.4137 21.4892 58.11 21.4634 57.7586 21.4334L57.7485 21.4326C57.3527 21.399 56.5126 21.3278 56.0887 21.1943C56.2007 20.7585 56.3994 19.8992 55.6895 19.086C55.3291 18.673 54.8988 18.5464 54.5881 18.4991C54.5745 18.3471 54.5525 18.1548 54.4986 17.9295C54.1573 16.5013 53.2971 15.3983 52.538 14.4249L52.538 14.4249L52.5373 14.424L52.524 14.4069C52.3792 14.2213 52.2346 14.0358 52.094 13.8481C51.871 13.5508 51.6063 13.2512 51.3258 12.9341C50.8552 12.4017 50.2695 11.7391 50.1218 11.2968C50.0067 10.952 50.0699 10.414 50.137 9.84424C50.2236 9.11029 50.3216 8.27849 50.087 7.44972C49.6816 6.01754 48.437 5.05859 46.9866 5.05859H46.9691C44.9851 5.06913 44.2134 6.6103 43.7032 7.62979C43.0276 8.97878 42.3629 10.3567 41.7201 11.6892C41.3955 12.3624 41.0707 13.0356 40.7435 13.7074C40.604 13.9941 40.4592 14.3562 40.2917 14.7754L40.2917 14.7754L40.287 14.7873C40.0036 15.497 39.651 16.3802 39.2456 17.0692C38.7691 17.8792 38.4827 17.9772 38.4645 17.9835L38.4637 17.9837C38.4636 17.9838 38.4635 17.9838 38.4635 17.9838C38.2777 17.9798 38.1896 17.9457 38.175 17.9355C38.0028 17.7558 38.0309 16.7545 38.0429 16.3269V16.3268C38.0674 15.4543 38.0927 14.5523 37.6873 13.8224C36.9168 12.4348 34.936 11.9928 33.4898 11.6701L33.4897 11.6701C33.2447 11.6155 33.0133 11.5638 32.8377 11.5174L32.8365 11.5171C32.2775 11.3695 31.8737 11.2629 31.4081 11.383C30.8143 11.5362 30.5233 11.9539 30.2667 12.3224C30.2108 12.4027 30.1463 12.4955 30.0684 12.6019L27.3392 16.3367C26.9902 16.8142 26.6608 17.3294 26.3122 17.875L26.3118 17.8756C25.4189 19.2725 24.4957 20.7165 23.3522 21.3156C23.2503 21.3691 23.1543 21.4186 23.0642 21.4652L23.064 21.4653L23.0051 21.4957C21.4248 22.3116 21.0256 22.7086 20.7323 24.7392L20.7085 24.9023L20.7084 24.9024C20.5461 26.0018 20.3006 27.6634 21.3096 28.686C21.6928 29.0745 22.4027 29.5038 23.6054 29.3427C23.9419 29.2977 24.2176 29.1787 24.439 29.064C24.519 29.2441 24.6375 29.4432 24.8237 29.6292C25.364 30.1686 26.0832 30.4517 26.8513 30.4267C27.7335 30.3978 28.596 29.9749 29.2182 29.2668C29.9752 28.405 30.6353 26.8598 30.4318 25.5744C30.3285 24.9214 30.1067 24.52 29.9598 24.2545L29.9212 24.1842C29.9264 24.1667 29.9335 24.145 29.9429 24.1189C30.3013 23.1206 31.2904 21.9023 31.6994 21.8091C31.969 21.9655 32.2965 22.8414 32.4758 23.321L32.4768 23.3236L32.4776 23.3259C32.6643 23.8254 32.8573 24.3417 33.1256 24.7726C33.1376 24.792 33.167 24.8491 33.1884 24.8908C33.2835 25.076 33.4686 25.436 33.796 25.7132C33.5704 25.8157 33.3357 25.9363 33.1136 26.0954C32.0629 26.8483 31.2364 27.8862 30.8466 28.943C30.7007 29.3383 30.6365 29.7122 30.5798 30.0421L30.5797 30.0429C30.524 30.3681 30.4758 30.6491 30.3621 30.8645C30.1132 31.3363 29.777 31.6746 29.3037 31.9293C29.1143 32.0312 28.8985 32.1207 28.6626 32.1952C28.0234 32.3969 27.6688 33.0787 27.8706 33.718C28.0723 34.3571 28.7543 34.7114 29.3933 34.51C29.7742 34.3899 30.1312 34.2407 30.4542 34.0668C31.3469 33.5866 32.0384 32.8899 32.5093 31.9967C32.8029 31.4399 32.8968 30.893 32.9722 30.4535L32.9723 30.4533C33.0168 30.1936 33.0555 29.9694 33.124 29.7834C33.3434 29.1888 33.8812 28.5317 34.5275 28.0687C34.6381 27.9893 34.8524 27.8985 35.0604 27.8103L35.0641 27.8088C35.7343 27.5251 36.9817 26.9968 37.0178 25.5301C37.0304 25.0258 36.4132 23.5284 35.8874 23.1384C35.6062 22.9299 35.2541 22.8495 34.918 22.9124C34.8642 22.7763 34.8104 22.6325 34.7572 22.4901L34.7511 22.474L34.751 22.4737C34.3498 21.3997 33.8503 20.063 32.5917 19.5489C31.9828 19.3001 31.317 19.3217 30.6666 19.6113C29.0302 20.3404 27.919 22.5738 27.6587 23.2985C27.2951 24.3111 27.5596 24.9292 27.8359 25.4291L27.836 25.4292C27.9371 25.612 27.9981 25.7223 28.0348 25.9536C28.1023 26.3817 27.7915 27.2133 27.395 27.6647C27.2218 27.862 26.9771 27.9937 26.7722 28.0005C26.7102 28.0022 26.6647 27.9923 26.6277 27.9753C26.5397 27.6734 26.3336 27.0009 25.5651 26.6381C24.6152 26.1898 23.8315 26.6263 23.4549 26.8362C23.3891 26.8729 23.3011 26.9218 23.2575 26.9398C23.1481 26.9529 23.0755 26.9517 23.0314 26.9476C22.9116 26.6026 23.0597 25.5996 23.1105 25.2567L23.1354 25.086C23.1663 24.8723 23.2603 24.2219 23.3389 24.0992C23.4087 24.0194 23.7823 23.8264 24.1137 23.6552L24.1138 23.6552L24.1194 23.6523L24.1264 23.6486C24.2354 23.5924 24.3527 23.5318 24.4791 23.4655C26.1944 22.5671 27.3439 20.7686 28.3581 19.1819C28.6858 18.6691 28.9953 18.1848 29.2997 17.7684L32.0289 14.0336C32.0773 13.9676 32.1212 13.9061 32.1615 13.8488C32.1808 13.8539 32.2001 13.8589 32.2185 13.8638C32.4372 13.9216 32.6881 13.9776 32.9537 14.0369L32.9619 14.0387C33.5463 14.169 35.3246 14.5658 35.5626 14.9939C35.6474 15.1812 35.6284 15.8551 35.617 16.2578C35.5863 17.3437 35.5486 18.6951 36.4168 19.6079C36.9059 20.122 37.577 20.3918 38.4115 20.4098C38.43 20.4103 38.4483 20.4104 38.4667 20.4104C40.6557 20.4101 41.7896 17.5708 42.542 15.6866C42.6873 15.3224 42.8245 14.9786 42.9266 14.7691C43.2549 14.0946 43.581 13.4187 43.907 12.7429L43.9204 12.715C44.5553 11.3991 45.2114 10.0392 45.8743 8.71552C46.3855 7.69409 46.5719 7.48726 46.9825 7.48508H46.9866C47.3442 7.48508 47.6443 7.72993 47.7518 8.10968C47.8547 8.47325 47.7927 9.00046 47.7269 9.55881L47.7269 9.55918C47.6359 10.3309 47.533 11.2056 47.82 12.0647C48.1243 12.9755 48.8591 13.807 49.5076 14.5406C49.7547 14.8202 49.9881 15.0842 50.1525 15.3038C50.3068 15.5093 50.4652 15.7127 50.6238 15.916C51.2902 16.7702 51.9195 17.5771 52.1385 18.493C52.1601 18.5842 52.1678 18.6732 52.1772 18.786C52.2094 19.1712 52.2634 19.816 52.9591 20.4382C53.1982 20.652 53.4566 20.7612 53.6813 20.8195C53.5819 21.2623 53.5021 21.9742 54.0432 22.6651C54.7882 23.6168 56.3162 23.7465 57.5439 23.8506C57.8019 23.8724 58.0471 23.8933 58.2093 23.9173C58.1792 23.9953 58.1258 24.0896 58.047 24.167C57.9867 24.2225 57.7812 24.3499 57.6583 24.426C57.4958 24.5268 57.3278 24.6311 57.174 24.7461C56.4181 25.3122 55.6905 25.9203 54.9868 26.5086C54.6451 26.7943 54.2916 27.0898 53.9447 27.372C53.6932 27.5766 53.5341 27.8731 53.5027 28.1956C53.4711 28.5181 53.5699 28.8397 53.7769 29.089C54.0677 29.4392 54.4032 29.7837 54.7586 30.1485L54.7587 30.1486C55.3735 30.7799 56.0703 31.4953 56.316 32.0681C56.3913 32.2436 56.1087 32.8636 55.9399 33.2339L55.9398 33.234L55.939 33.2358C55.7774 33.5904 55.6103 33.957 55.4899 34.3546C55.0722 35.7348 55.1757 37.054 55.7896 38.1693C56.4304 39.3337 57.6117 40.205 59.1157 40.6224C59.2339 40.6553 59.3556 40.6815 59.4779 40.7043C59.0918 40.7431 58.6775 40.7605 58.2702 40.7775L58.27 40.7775L58.267 40.7776L58.2668 40.7776H58.2668C57.836 40.7957 57.3906 40.8143 56.9729 40.8591C56.5523 40.9042 56.1204 40.9734 55.7027 41.0405L55.6974 41.0414L55.6973 41.0414C54.9224 41.1657 54.1215 41.2943 53.4589 41.2528C52.9155 41.2192 52.1768 40.9137 51.4626 40.6183L51.4625 40.6183L51.4619 40.618C50.1915 40.0926 48.7516 39.4971 47.3534 39.9376C46.7367 40.1321 46.2723 40.3847 45.8991 40.5877L45.8982 40.5881L45.8977 40.5884C45.1935 40.9718 45.1028 41.0212 44.3476 40.562C43.7954 40.2262 42.9594 39.8155 42.0769 40.1236C41.1058 40.4628 40.764 41.3928 40.4334 42.2922C40.3966 42.3926 40.3585 42.4961 40.3185 42.6022C40.2435 42.8007 40.144 43.0277 40.0386 43.2681L40.0386 43.2682L40.0339 43.279L40.0338 43.2792C39.539 44.4072 38.8614 45.952 39.5236 47.4102C39.639 47.6645 39.7651 47.8726 39.871 48.0429C39.5243 48.292 38.875 48.4172 38.2458 48.5384C37.7835 48.6276 37.3055 48.7197 36.8604 48.8747C36.5211 48.9928 35.4886 49.3524 35.209 50.3449C34.9346 51.319 35.5695 52.0935 36.0331 52.6591L36.0333 52.6593C36.2124 52.8777 36.4152 53.1254 36.4884 53.2874C36.5964 53.5457 36.4052 54.241 36.1832 54.4784C35.7794 54.198 35.3192 53.4262 34.948 52.8037L34.9468 52.8018C34.7338 52.4445 34.5326 52.1071 34.3184 51.8056C34.2063 51.6479 34.0756 51.4914 33.9492 51.3401L33.949 51.3398C33.8122 51.176 33.5845 50.9034 33.534 50.7912C33.5207 50.7152 33.5334 50.5117 33.542 50.3742L33.5421 50.3717C33.5607 50.0784 33.5837 49.7133 33.5088 49.3326C33.1999 47.7586 29.4877 43.8422 27.2024 43.4843C26.2773 43.3393 25.4741 43.7098 25.0521 44.4744C24.7086 45.0967 24.8105 45.8872 25.4997 47.8489C25.4698 47.8205 25.4442 47.7965 25.4214 47.776C25.1427 47.5227 24.9481 47.0994 24.7423 46.6513L24.7422 46.651C24.4729 46.0648 24.1676 45.4003 23.5603 44.9659C22.8119 44.4302 21.8705 44.4106 20.7631 44.9082C20.6381 44.9642 20.521 45.0186 20.4102 45.0702L20.4094 45.0706C19.7017 45.3994 19.574 45.4587 19.0305 45.3092C17.4194 44.8655 16.2753 44.7133 15.0972 46.5673C14.8615 46.938 14.8537 46.941 14.4432 47.0963C14.2182 47.1815 13.9101 47.2981 13.526 47.4916C12.6414 47.9371 12.0265 48.5981 11.4841 49.1813L11.3671 49.3068C11.1391 49.5512 10.9177 49.8212 10.6834 50.1071C10.1015 50.8177 9.30586 51.7886 8.69954 51.7886L8.6861 51.7885C8.37816 51.781 8.0793 51.7341 7.76312 51.6844L7.76296 51.6843L7.76292 51.6843C7.28307 51.609 6.7393 51.5237 6.0936 51.5652C5.87429 51.5795 5.75381 51.5726 5.69568 51.5659C5.65284 51.5154 5.58978 51.4317 5.5359 51.3602L5.53588 51.3602L5.53305 51.3564L5.53225 51.3554C5.39168 51.1689 5.217 50.9373 4.96463 50.6647C4.60959 50.2811 4.22451 50.0032 3.91499 49.7801C3.75163 49.6623 3.51187 49.4893 3.43061 49.3948C3.43497 49.3574 3.4495 49.2805 3.4977 49.1536C3.8918 48.1183 4.50103 47.0451 5.09019 46.0072L5.09045 46.0067L5.09852 45.9925L5.09854 45.9925C5.32065 45.6012 5.54994 45.1972 5.7641 44.801C6.10571 44.1694 6.34511 44.0009 6.45748 43.9567C6.63852 43.8858 6.98219 43.9545 7.42478 44.1516C8.28964 44.536 9.16636 44.959 10.0141 45.3682C10.4518 45.5794 10.8897 45.7906 11.3284 45.9981C11.6212 46.1365 11.9569 46.1524 12.2612 46.042C12.5656 45.9317 12.8132 45.7042 12.949 45.4105C13.0778 45.132 13.2438 44.8265 13.4194 44.5031L13.4205 44.501L13.4219 44.4985C13.8217 43.7623 14.2746 42.9281 14.4654 42.0646C14.5541 41.6631 14.5329 41.3072 14.5158 41.0212L14.5157 41.0199C14.5046 40.8331 14.4951 40.672 14.5224 40.5806C14.6561 40.1325 15.123 39.7718 15.6635 39.3541L15.6638 39.3539L15.8396 39.2176C16.7408 38.5143 18.1118 37.4807 19.6055 36.6297C20.1879 36.2979 20.3909 35.5565 20.0591 34.9742C19.7274 34.3917 18.9864 34.1887 18.4035 34.5205C16.773 35.4496 15.3069 36.5539 14.346 37.3037L14.1794 37.4328L14.1793 37.4329C13.4549 37.9925 12.5535 38.6891 12.196 39.8859C12.0461 40.3882 12.0728 40.8369 12.0923 41.1648L12.0924 41.1657C12.1014 41.3153 12.1105 41.4698 12.0949 41.5407C11.9806 42.0586 11.6427 42.6872 11.3108 43.2986L11.0689 43.1818L11.0621 43.1786L11.062 43.1785C10.1994 42.7624 9.30783 42.3323 8.41098 41.9334C6.31907 41.0029 4.75442 41.5633 3.62848 43.6465C3.42359 44.0253 3.2078 44.4055 2.9793 44.8081C2.34488 45.9255 1.68892 47.081 1.22876 48.2901C0.468882 50.2872 1.78661 51.2378 2.49473 51.7487L2.49504 51.7489L2.49511 51.7489L2.49514 51.749C2.75098 51.9335 2.99288 52.108 3.18322 52.3137C3.35275 52.4967 3.47566 52.6598 3.59445 52.8174C4.14071 53.5424 4.68309 54.0883 6.24993 53.9877C6.62559 53.963 6.97528 54.0179 7.37934 54.0814L7.38628 54.0825L7.38695 54.0826L7.38703 54.0826C7.74928 54.1395 8.15979 54.204 8.62725 54.2153C10.4208 54.2584 11.6572 52.7492 12.5605 51.6466L12.5612 51.6457C12.7696 51.3911 12.9667 51.1507 13.141 50.964L13.2614 50.8346L13.2633 50.8327C13.7243 50.337 14.1227 49.9088 14.6179 49.6595C14.8877 49.5236 15.0977 49.4441 15.3007 49.3672L15.3021 49.3667C16.0116 49.0983 16.5231 48.8491 17.1459 47.8692C17.3176 47.599 17.4178 47.4867 17.4628 47.4436C17.6555 47.4487 18.1565 47.5866 18.3828 47.6488L18.3829 47.6489L18.3856 47.6496C19.7885 48.0359 20.5872 47.6647 21.433 47.2717L21.4332 47.2716C21.5352 47.2241 21.6426 47.1742 21.7576 47.1225C21.9786 47.0232 22.1136 46.9907 22.1819 46.9804C22.2838 47.1152 22.4322 47.438 22.5352 47.6621L22.5352 47.6621L22.5363 47.6644C22.8067 48.2533 23.1434 48.9861 23.7888 49.5726C23.844 49.6226 24.0048 49.7814 24.1796 49.9539L24.2038 49.9778C24.6648 50.433 25.3615 51.1208 25.9991 51.692C26.9828 52.5731 27.6883 53.1308 28.5136 52.8664C28.8344 52.7635 29.1022 52.5297 29.2484 52.2249C29.5273 51.6435 29.4013 51.3147 28.5815 49.1749C28.2921 48.42 27.7856 47.0975 27.4997 46.1769C27.9052 46.4157 28.4748 46.8269 29.1975 47.5079C30.3414 48.5857 31.0161 49.5415 31.1299 49.8234C31.1387 49.91 31.1275 50.0866 31.1192 50.219L31.1191 50.2194C31.0952 50.6002 31.0653 51.0739 31.2332 51.5674C31.4097 52.0865 31.7687 52.5164 32.0855 52.8957C32.1865 53.0165 32.2818 53.1307 32.3391 53.2112C32.4968 53.4332 32.6737 53.7299 32.861 54.0441L32.8614 54.0446C33.3903 54.9317 33.9898 55.9371 34.8586 56.513C35.2884 56.7979 35.7528 56.9394 36.2098 56.9394C36.7396 56.9392 37.2593 56.7491 37.7029 56.3726C38.7961 55.4436 39.2626 53.5361 38.7012 52.2908C38.4957 51.8352 38.1847 51.4556 37.91 51.1207L37.8908 51.097C38.1304 51.0331 38.4116 50.9789 38.705 50.9223L38.7057 50.9222C39.6279 50.7443 40.6731 50.5427 41.4854 49.8604C43.0467 48.5491 42.2847 47.327 41.9593 46.805L41.9593 46.805L41.9588 46.8043C41.8737 46.6678 41.7934 46.539 41.7334 46.4066C41.5194 45.935 41.9281 45.0032 42.2564 44.2546L42.2565 44.2545L42.2566 44.2543C42.3716 43.992 42.4904 43.7208 42.5891 43.4598C42.6317 43.347 42.6723 43.2369 42.7114 43.1301C42.7787 42.9469 42.8612 42.723 42.9352 42.5499C42.979 42.5732 43.0291 42.6018 43.0862 42.6366C45.0352 43.8216 46.1567 43.2114 47.058 42.721L47.0584 42.7207L47.0591 42.7203C47.3835 42.5438 47.6901 42.377 48.0829 42.2532C48.6389 42.0778 49.6435 42.4933 50.5308 42.8603L50.5338 42.8615L50.5347 42.8619C51.4327 43.2333 52.3612 43.6173 53.3084 43.6762C54.2419 43.7339 55.18 43.5834 56.0873 43.4377L56.0921 43.437C56.4949 43.3723 56.8755 43.3113 57.2313 43.2732C57.5706 43.2368 57.9581 43.2206 58.3683 43.2035C59.295 43.1648 60.3453 43.1208 61.26 42.8128C62.0994 42.5299 62.7032 41.9662 62.9166 41.2661C63.1061 40.6441 62.97 39.9874 62.5329 39.4173ZM25.2104 33.7419C25.1596 33.0737 24.5732 32.5728 23.903 32.6241L23.8854 32.6255C23.2168 32.6762 22.7213 33.2589 22.7721 33.9273C22.8205 34.5644 23.357 35.0488 23.9861 35.0488C24.017 35.0488 24.0481 35.0477 24.0795 35.0452L24.0972 35.0438C24.7656 34.9931 25.2612 34.4104 25.2104 33.7419ZM18.1541 29.1167C18.3481 29.7165 18.5486 30.3368 18.6616 30.9638C18.9349 32.4792 18.6876 33.6996 17.9266 34.5909C16.7696 35.9454 14.7724 36.1351 12.9289 36.1351C12.5564 36.1351 12.1905 36.1275 11.8387 36.12L11.8365 36.1199C11.5139 36.1132 11.2091 36.1068 10.9257 36.1068C9.91376 36.1068 9.42345 35.5643 9.2211 35.241C8.54491 34.1601 9.13779 32.7342 9.80332 31.3663L9.80878 31.3551C9.8636 31.2423 9.91921 31.1279 9.94112 31.076C10.1196 30.6538 10.3152 30.2314 10.5046 29.8227L10.5055 29.8208C10.8806 29.0109 11.235 28.2461 11.4662 27.4835C11.5919 27.0692 11.4983 26.5603 11.3898 25.9711L11.3898 25.971C11.2527 25.2263 11.0973 24.3823 11.3591 23.4814C11.6025 22.6435 12.3003 22.0304 13.3241 21.7551C14.5549 21.4239 16.3935 21.579 17.3766 22.5184C18.5145 23.6056 18.1049 25.1059 17.8337 26.0987L17.8337 26.0988L17.8328 26.1021C17.7491 26.4085 17.6454 26.7886 17.6489 26.9601C17.6616 27.5929 17.9008 28.333 18.1541 29.1167ZM11.89 33.6927C13.387 33.7244 15.4371 33.7676 16.0805 33.0142C16.3457 32.7037 16.4102 32.1586 16.2727 31.3944C16.1889 30.9295 16.0223 30.4141 15.8461 29.8686L15.8443 29.8633L15.8439 29.8619C15.5477 28.9456 15.2415 27.9984 15.2219 27.0083C15.2115 26.4861 15.354 25.9641 15.4921 25.4591L15.4921 25.459C15.5875 25.1095 15.7639 24.4634 15.6967 24.2708C15.344 23.9694 14.0181 23.9355 13.6771 24.2093C13.5973 24.5532 13.6809 25.0084 13.7771 25.5315L13.7772 25.5317C13.9147 26.2792 14.0859 27.2093 13.7893 28.1877C13.5086 29.1131 13.1012 29.9926 12.7073 30.8429C12.5181 31.251 12.3396 31.6365 12.1775 32.0205C12.1298 32.1332 12.0666 32.2633 11.9865 32.4279C11.7269 32.9611 11.5465 33.381 11.446 33.6839C11.5908 33.6865 11.7385 33.6895 11.89 33.6927Z" fill="black"/>
</g>
<path d="M425.092 27.252C427.396 27.252 429.412 26.118 430.492 24.336L428.008 22.896C427.468 23.868 426.37 24.444 425.092 24.444C422.86 24.444 421.42 22.95 421.42 20.7C421.42 18.45 422.86 16.956 425.092 16.956C426.37 16.956 427.45 17.532 428.008 18.504L430.492 17.064C429.394 15.282 427.378 14.148 425.092 14.148C421.294 14.148 418.54 16.992 418.54 20.7C418.54 24.408 421.294 27.252 425.092 27.252ZM438.374 18V18.846C437.78 18.162 436.898 17.748 435.692 17.748C433.334 17.748 431.39 19.818 431.39 22.5C431.39 25.182 433.334 27.252 435.692 27.252C436.898 27.252 437.78 26.838 438.374 26.154V27H441.074V18H438.374ZM436.232 24.696C434.99 24.696 434.09 23.85 434.09 22.5C434.09 21.15 434.99 20.304 436.232 20.304C437.474 20.304 438.374 21.15 438.374 22.5C438.374 23.85 437.474 24.696 436.232 24.696ZM445.523 20.628C445.523 20.304 445.811 20.124 446.279 20.124C446.873 20.124 447.233 20.448 447.485 20.916L449.789 19.674C449.033 18.396 447.737 17.748 446.279 17.748C444.407 17.748 442.751 18.738 442.751 20.7C442.751 23.814 447.179 23.292 447.179 24.282C447.179 24.642 446.855 24.84 446.207 24.84C445.415 24.84 444.911 24.462 444.677 23.778L442.337 25.11C443.039 26.568 444.407 27.252 446.207 27.252C448.151 27.252 449.951 26.37 449.951 24.3C449.951 20.97 445.523 21.654 445.523 20.628ZM455.531 27.252C458.177 27.252 460.301 25.182 460.301 22.5C460.301 19.818 458.177 17.748 455.531 17.748C452.885 17.748 450.761 19.818 450.761 22.5C450.761 25.182 452.885 27.252 455.531 27.252ZM455.531 24.624C454.361 24.624 453.461 23.778 453.461 22.5C453.461 21.222 454.361 20.376 455.531 20.376C456.701 20.376 457.601 21.222 457.601 22.5C457.601 23.778 456.701 24.624 455.531 24.624ZM464.208 20.628C464.208 20.304 464.496 20.124 464.964 20.124C465.558 20.124 465.918 20.448 466.17 20.916L468.474 19.674C467.718 18.396 466.422 17.748 464.964 17.748C463.092 17.748 461.436 18.738 461.436 20.7C461.436 23.814 465.864 23.292 465.864 24.282C465.864 24.642 465.54 24.84 464.892 24.84C464.1 24.84 463.596 24.462 463.362 23.778L461.022 25.11C461.724 26.568 463.092 27.252 464.892 27.252C466.836 27.252 468.636 26.37 468.636 24.3C468.636 20.97 464.208 21.654 464.208 20.628ZM423.31 49.252C425.074 49.252 426.604 48.334 427.378 46.93L425.02 45.58C424.732 46.21 424.066 46.588 423.274 46.588C422.104 46.588 421.24 45.742 421.24 44.5C421.24 43.258 422.104 42.412 423.274 42.412C424.066 42.412 424.714 42.79 425.02 43.42L427.378 42.052C426.604 40.666 425.056 39.748 423.31 39.748C420.574 39.748 418.54 41.818 418.54 44.5C418.54 47.182 420.574 49.252 423.31 49.252ZM432.609 49.252C435.255 49.252 437.379 47.182 437.379 44.5C437.379 41.818 435.255 39.748 432.609 39.748C429.963 39.748 427.839 41.818 427.839 44.5C427.839 47.182 429.963 49.252 432.609 49.252ZM432.609 46.624C431.439 46.624 430.539 45.778 430.539 44.5C430.539 43.222 431.439 42.376 432.609 42.376C433.779 42.376 434.679 43.222 434.679 44.5C434.679 45.778 433.779 46.624 432.609 46.624ZM444.18 39.748C442.992 39.748 442.092 40.18 441.606 40.846V40H438.906V49H441.606V44.086C441.606 42.808 442.29 42.232 443.28 42.232C444.144 42.232 444.846 42.754 444.846 43.87V49H447.546V43.474C447.546 41.044 445.998 39.748 444.18 39.748ZM457.68 40H452.676C452.676 38.956 453.342 38.74 454.35 38.74C455.034 38.74 455.79 38.794 456.6 38.884V36.4C455.826 36.238 455.088 36.148 454.35 36.148C451.362 36.148 449.976 37.48 449.976 40H448.77V42.592H449.976V49H452.676V42.592H454.98V49H457.68V40ZM462.366 41.602V40H459.666V49H462.366V44.932C462.366 43.15 463.95 42.7 465.066 42.88V39.82C463.932 39.82 462.726 40.396 462.366 41.602ZM476.408 39.748C475.13 39.748 474.302 40.216 473.798 40.936C473.294 40.18 472.502 39.748 471.44 39.748C470.234 39.748 469.442 40.216 469.028 40.828V40H466.328V49H469.028V43.924C469.028 42.862 469.532 42.232 470.432 42.232C471.296 42.232 471.728 42.808 471.728 43.708V49H474.428V43.924C474.428 42.862 474.932 42.232 475.832 42.232C476.696 42.232 477.128 42.808 477.128 43.708V49H479.828V43.474C479.828 41.224 478.478 39.748 476.408 39.748ZM488.208 40V40.846C487.614 40.162 486.732 39.748 485.526 39.748C483.168 39.748 481.224 41.818 481.224 44.5C481.224 47.182 483.168 49.252 485.526 49.252C486.732 49.252 487.614 48.838 488.208 48.154V49H490.908V40H488.208ZM486.066 46.696C484.824 46.696 483.924 45.85 483.924 44.5C483.924 43.15 484.824 42.304 486.066 42.304C487.308 42.304 488.208 43.15 488.208 44.5C488.208 45.85 487.308 46.696 486.066 46.696ZM499.422 36.4V40.846C498.828 40.162 497.946 39.748 496.74 39.748C494.382 39.748 492.438 41.818 492.438 44.5C492.438 47.182 494.382 49.252 496.74 49.252C497.946 49.252 498.828 48.838 499.422 48.154V49H502.122V36.4H499.422ZM497.28 46.696C496.038 46.696 495.138 45.85 495.138 44.5C495.138 43.15 496.038 42.304 497.28 42.304C498.522 42.304 499.422 43.15 499.422 44.5C499.422 45.85 498.522 46.696 497.28 46.696ZM508.423 49.252C511.069 49.252 513.193 47.182 513.193 44.5C513.193 41.818 511.069 39.748 508.423 39.748C505.777 39.748 503.653 41.818 503.653 44.5C503.653 47.182 505.777 49.252 508.423 49.252ZM508.423 46.624C507.253 46.624 506.353 45.778 506.353 44.5C506.353 43.222 507.253 42.376 508.423 42.376C509.593 42.376 510.493 43.222 510.493 44.5C510.493 45.778 509.593 46.624 508.423 46.624ZM517.101 42.628C517.101 42.304 517.389 42.124 517.857 42.124C518.451 42.124 518.811 42.448 519.063 42.916L521.367 41.674C520.611 40.396 519.315 39.748 517.857 39.748C515.985 39.748 514.329 40.738 514.329 42.7C514.329 45.814 518.757 45.292 518.757 46.282C518.757 46.642 518.433 46.84 517.785 46.84C516.993 46.84 516.489 46.462 516.255 45.778L513.915 47.11C514.617 48.568 515.985 49.252 517.785 49.252C519.729 49.252 521.529 48.37 521.529 46.3C521.529 42.97 517.101 43.654 517.101 42.628Z" fill="#3CC3DD"/>
<line x1="2" y1="66.5" x2="532" y2="66.5" stroke="#A0A6AF" stroke-dasharray="2 4"/>
<path d="M0.413812 181.862H23.5862C23.8147 181.862 24 181.677 24 181.448V166.552C24 166.323 23.8147 166.138 23.5862 166.138H0.413812C0.185297 166.138 0 166.323 0 166.552V181.448C0 181.677 0.185297 181.862 0.413812 181.862Z" fill="#C8414B"/>
<path d="M24 169.448H0V178.552H24V169.448Z" fill="#FFD250"/>
<path d="M10.1377 174L10.4886 172.421C10.5209 172.276 10.4103 172.138 10.2613 172.138H10.0142C9.86524 172.138 9.75462 172.276 9.78687 172.421L10.1377 174Z" fill="#C8414B"/>
<path d="M10.5541 173.172H9.72656V176.689H10.5541V173.172Z" fill="#F5F5F5"/>
<path d="M10.757 172.759H9.51562V173.173H10.757V172.759Z" fill="#FAB446"/>
<path d="M10.7605 174H8.69141V174.414H10.7605V174Z" fill="#C8414B"/>
<path d="M10.757 175.655L9.51562 175.241V174.827L10.757 175.241V175.655Z" fill="#C8414B"/>
<path d="M3.9307 174L4.28156 172.421C4.3139 172.276 4.20323 172.138 4.05426 172.138H3.80714C3.65821 172.138 3.54759 172.276 3.57984 172.421L3.9307 174Z" fill="#C8414B"/>
<path d="M5.37866 172.759C5.15014 172.759 4.96484 172.944 4.96484 173.173V175.862C4.96484 176.365 5.43406 177.311 7.03381 177.311C8.63356 177.311 9.10277 176.365 9.10277 175.862V173.173C9.10277 172.944 8.91748 172.759 8.68896 172.759H5.37866Z" fill="#F5F5F5"/>
<path d="M7.03381 174.828H4.96484V173.173C4.96484 172.944 5.15014 172.759 5.37866 172.759H7.03381V174.828Z" fill="#C8414B"/>
<path d="M7.03516 174.828H9.10412V175.863C9.10412 176.434 8.641 176.897 8.06964 176.897C7.49828 176.897 7.03516 176.434 7.03516 175.863V174.828Z" fill="#C8414B"/>
<path d="M4.96484 174.827H7.03381V175.862C7.03381 176.433 6.57068 176.896 5.99933 176.896C5.42797 176.896 4.96484 176.433 4.96484 175.862V174.827Z" fill="#FAB446"/>
<path d="M6.62084 176.685V174.827H6.20703V176.875C6.36097 176.844 6.50005 176.776 6.62084 176.685Z" fill="#C8414B"/>
<path d="M5.79272 176.875V174.827H5.37891V176.685C5.49975 176.776 5.63883 176.844 5.79272 176.875Z" fill="#C8414B"/>
<path d="M6.62029 174H5.37891V174.414H6.62029V174Z" fill="#FFB441"/>
<path d="M6.62029 173.172H5.37891V173.586H6.62029V173.172Z" fill="#FAB446"/>
<path d="M6.41351 173.418H5.58594V174.168H6.41351V173.418Z" fill="#FAB446"/>
<path d="M4.3432 173.172H3.51562V176.689H4.3432V173.172Z" fill="#F5F5F5"/>
<path d="M4.54998 176.483H3.30859V176.897H4.54998V176.483Z" fill="#FAB446"/>
<path d="M4.54998 172.759H3.30859V173.173H4.54998V172.759Z" fill="#FAB446"/>
<path d="M4.75672 176.896H3.10156V177.31H4.75672V176.896Z" fill="#5064AA"/>
<path d="M10.968 176.483H9.72656V176.897H10.968V176.483Z" fill="#FAB446"/>
<path d="M10.9637 176.896H9.30859V177.31H10.9637V176.896Z" fill="#5064AA"/>
<path d="M8.27574 172.345H5.79297V172.759H8.27574V172.345Z" fill="#FAB446"/>
<path d="M7.24194 171.104H6.82812V172.345H7.24194V171.104Z" fill="#FFB441"/>
<path d="M6.62067 171.724C6.27839 171.724 6 171.445 6 171.103C6 170.761 6.27844 170.482 6.62067 170.482C6.96295 170.482 7.24134 170.761 7.24134 171.103C7.24139 171.445 6.96295 171.724 6.62067 171.724ZM6.62067 170.896C6.50653 170.896 6.41376 170.989 6.41376 171.103C6.41376 171.217 6.50648 171.31 6.62067 171.31C6.73486 171.31 6.82758 171.217 6.82758 171.103C6.82758 170.989 6.73486 170.896 6.62067 170.896Z" fill="#F5F5F5"/>
<path d="M7.44489 171.724C7.10261 171.724 6.82422 171.445 6.82422 171.103C6.82422 170.761 7.10266 170.482 7.44489 170.482C7.78717 170.482 8.06556 170.761 8.06556 171.103C8.06556 171.445 7.78712 171.724 7.44489 171.724ZM7.44489 170.896C7.33075 170.896 7.23798 170.989 7.23798 171.103C7.23798 171.217 7.3307 171.31 7.44489 171.31C7.55903 171.31 7.65179 171.217 7.65179 171.103C7.65175 170.989 7.55903 170.896 7.44489 170.896Z" fill="#F5F5F5"/>
<path d="M8.27692 172.138C7.93464 172.138 7.65625 171.859 7.65625 171.517C7.65625 171.175 7.93469 170.896 8.27692 170.896C8.6192 170.896 8.89759 171.175 8.89759 171.517C8.89759 171.859 8.61915 172.138 8.27692 172.138ZM8.27692 171.31C8.16278 171.31 8.07001 171.403 8.07001 171.517C8.07001 171.631 8.16273 171.724 8.27692 171.724C8.39106 171.724 8.48383 171.631 8.48383 171.517C8.48383 171.403 8.39106 171.31 8.27692 171.31Z" fill="#F5F5F5"/>
<path d="M5.79255 172.138C5.45026 172.138 5.17188 171.859 5.17188 171.517C5.17188 171.175 5.45031 170.896 5.79255 170.896C6.13483 170.896 6.41322 171.175 6.41322 171.517C6.41326 171.859 6.13483 172.138 5.79255 172.138ZM5.79255 171.31C5.67841 171.31 5.58564 171.403 5.58564 171.517C5.58564 171.631 5.67836 171.724 5.79255 171.724C5.90673 171.724 5.99945 171.631 5.99945 171.517C5.99945 171.403 5.90673 171.31 5.79255 171.31Z" fill="#F5F5F5"/>
<path d="M8.27684 175.655V175.862C8.27684 175.976 8.18403 176.069 8.06994 176.069C7.95584 176.069 7.86303 175.976 7.86303 175.862V175.655H8.27684ZM8.69061 175.241H7.44922V175.862C7.44922 176.204 7.72766 176.483 8.06989 176.483C8.41217 176.483 8.69056 176.204 8.69056 175.862V175.241H8.69061Z" fill="#FAB446"/>
<path d="M8.07006 174.414C7.84155 174.414 7.65625 174.229 7.65625 174V173.587C7.65625 173.358 7.84155 173.173 8.07006 173.173C8.29858 173.173 8.48387 173.358 8.48387 173.587V174C8.48387 174.229 8.29858 174.414 8.07006 174.414Z" fill="#FFA0D2"/>
<path d="M7.03473 175.448C7.37752 175.448 7.65541 175.17 7.65541 174.828C7.65541 174.485 7.37752 174.207 7.03473 174.207C6.69195 174.207 6.41406 174.485 6.41406 174.828C6.41406 175.17 6.69195 175.448 7.03473 175.448Z" fill="#5064AA"/>
<path d="M7.24194 170.275H6.82812V171.517H7.24194V170.275Z" fill="#FAB446"/>
<path d="M5.79272 172.345L5.37891 171.931L5.6213 171.689C5.99597 171.314 6.50419 171.104 7.03411 171.104C7.56403 171.104 8.0722 171.314 8.44692 171.689L8.68931 171.931L8.2755 172.345H5.79272Z" fill="#C8414B"/>
<path d="M7.03503 172.137C7.1493 172.137 7.24194 172.045 7.24194 171.931C7.24194 171.816 7.1493 171.724 7.03503 171.724C6.92076 171.724 6.82812 171.816 6.82812 171.931C6.82812 172.045 6.92076 172.137 7.03503 172.137Z" fill="#FFD250"/>
<path d="M6.20691 172.137C6.32118 172.137 6.41381 172.045 6.41381 171.931C6.41381 171.816 6.32118 171.724 6.20691 171.724C6.09263 171.724 6 171.816 6 171.931C6 172.045 6.09263 172.137 6.20691 172.137Z" fill="#FFD250"/>
<path d="M7.86316 172.137C7.97743 172.137 8.07006 172.045 8.07006 171.931C8.07006 171.816 7.97743 171.724 7.86316 171.724C7.74888 171.724 7.65625 171.816 7.65625 171.931C7.65625 172.045 7.74888 172.137 7.86316 172.137Z" fill="#FFD250"/>
<path d="M5.37765 174H3.30859V174.414H5.37765V174Z" fill="#C8414B"/>
<path d="M3.30859 175.655L4.54994 175.241V174.827L3.30859 175.241V175.655Z" fill="#C8414B"/>
<path d="M297.76 112.8H290.96V124H293.52V119.888H297.68V117.424H293.52V115.264H297.76V112.8ZM301.593 116H299.193V124H301.593V120.384C301.593 119.664 301.849 119.152 302.345 118.864C302.857 118.56 303.401 118.464 303.993 118.56V115.84C302.905 115.84 301.897 116.4 301.593 117.424V116ZM310.688 116.752C310.128 116.096 309.328 115.776 308.304 115.776C307.248 115.776 306.352 116.192 305.6 117.008C304.848 117.824 304.48 118.816 304.48 120C304.48 121.184 304.848 122.192 305.6 123.008C306.352 123.824 307.248 124.224 308.304 124.224C309.328 124.224 310.128 123.904 310.688 123.248V124H313.088V116H310.688V116.752ZM307.408 121.424C307.056 121.072 306.88 120.592 306.88 120C306.88 119.408 307.056 118.928 307.408 118.576C307.76 118.224 308.224 118.048 308.784 118.048C309.344 118.048 309.808 118.224 310.16 118.576C310.512 118.928 310.688 119.408 310.688 120C310.688 120.592 310.512 121.072 310.16 121.424C309.808 121.776 309.344 121.952 308.784 121.952C308.224 121.952 307.76 121.776 307.408 121.424ZM319.537 115.776C318.497 115.776 317.729 116.096 317.249 116.752V116H314.849V124H317.249V119.632C317.249 118.544 317.825 117.984 318.737 117.984C319.553 117.984 320.129 118.496 320.129 119.44V124H322.529V119.088C322.529 118.048 322.241 117.248 321.665 116.656C321.105 116.064 320.385 115.776 319.537 115.776ZM328.017 124.224C329.569 124.224 330.929 123.424 331.633 122.16L329.537 120.96C329.265 121.552 328.737 121.856 327.985 121.856C326.945 121.856 326.177 121.088 326.177 120C326.177 118.912 326.945 118.144 327.985 118.144C328.737 118.144 329.249 118.448 329.537 119.04L331.633 117.824C330.929 116.592 329.553 115.776 328.017 115.776C326.801 115.776 325.793 116.176 324.977 116.992C324.177 117.808 323.777 118.8 323.777 120C323.777 121.2 324.177 122.192 324.977 123.008C325.793 123.824 326.801 124.224 328.017 124.224ZM334.807 114.88C335.383 114.304 335.383 113.408 334.807 112.848C334.247 112.272 333.351 112.272 332.775 112.848C332.215 113.408 332.215 114.304 332.775 114.88C333.351 115.44 334.247 115.44 334.807 114.88ZM334.999 124V116H332.599V124H334.999ZM342.563 116.752C342.003 116.096 341.203 115.776 340.179 115.776C339.123 115.776 338.227 116.192 337.475 117.008C336.723 117.824 336.355 118.816 336.355 120C336.355 121.184 336.723 122.192 337.475 123.008C338.227 123.824 339.123 124.224 340.179 124.224C341.203 124.224 342.003 123.904 342.563 123.248V124H344.963V116H342.563V116.752ZM339.283 121.424C338.931 121.072 338.755 120.592 338.755 120C338.755 119.408 338.931 118.928 339.283 118.576C339.635 118.224 340.099 118.048 340.659 118.048C341.219 118.048 341.683 118.224 342.035 118.576C342.387 118.928 342.563 119.408 342.563 120C342.563 120.592 342.387 121.072 342.035 121.424C341.683 121.776 341.219 121.952 340.659 121.952C340.099 121.952 339.635 121.776 339.283 121.424Z" fill="#3CC3DD"/>
<path d="M290.16 133.856L290.784 136.048L292.768 135.504V144H295.328V132.8H293.088L290.16 133.856ZM304.453 139.84V137.44H301.861V139.84H299.525L303.093 132.8H300.341L296.773 139.84V142.208H301.861V144H304.453V142.208H305.573V139.84H304.453ZM309.046 143.776C309.638 143.184 309.638 142.224 309.046 141.632C308.454 141.04 307.494 141.04 306.902 141.632C306.31 142.224 306.31 143.184 306.902 143.776C307.494 144.368 308.454 144.368 309.046 143.776ZM318.219 139.84V137.44H315.627V139.84H313.291L316.859 132.8H314.107L310.539 139.84V142.208H315.627V144H318.219V142.208H319.339V139.84H318.219ZM323.148 136.736L323.26 135.2H327.34V132.8H320.86L320.396 139.232H323.9C325.804 139.104 325.852 141.856 323.82 141.728C322.908 141.728 322.3 141.328 322.028 140.544L319.82 141.824C320.476 143.424 321.964 144.224 323.82 144.224C324.956 144.224 325.932 143.888 326.716 143.232C327.5 142.576 327.9 141.648 327.9 140.48C327.9 139.296 327.532 138.384 326.796 137.728C326.076 137.072 325.164 136.736 324.06 136.736H323.148ZM335.968 136.528C335.968 135.36 335.584 134.416 334.816 133.68C334.048 132.944 333.04 132.576 331.808 132.576C330.576 132.576 329.584 132.944 328.8 133.68C328.032 134.416 327.648 135.36 327.648 136.528C327.648 137.616 327.984 138.528 328.672 139.248C329.36 139.968 330.272 140.384 331.376 140.464L328.944 144H331.888L335.312 138.8C335.744 138.144 335.968 137.392 335.968 136.528ZM330.672 135.408C331.296 134.832 332.32 134.832 332.944 135.392C333.248 135.664 333.408 136.048 333.408 136.528C333.408 137.008 333.248 137.392 332.944 137.664C332.32 138.224 331.296 138.224 330.672 137.664C330.368 137.376 330.208 136.992 330.208 136.528C330.208 136.064 330.368 135.68 330.672 135.408Z" fill="#101010"/>
<path d="M149.88 207.224C151.112 207.224 152.12 206.92 152.888 206.312C153.656 205.688 154.04 204.856 154.04 203.784C154.04 202.872 153.672 202.136 153.272 201.704C153.08 201.48 152.792 201.272 152.408 201.08C152.04 200.872 151.72 200.728 151.48 200.648L150.44 200.312C149.624 200.072 149.08 199.848 148.808 199.64C148.552 199.432 148.424 199.192 148.424 198.92C148.424 198.456 148.856 198.072 149.624 198.072C150.6 198.072 151.16 198.52 151.56 199.368L153.72 198.104C152.904 196.456 151.464 195.576 149.624 195.576C148.6 195.576 147.72 195.88 146.968 196.504C146.232 197.128 145.864 197.944 145.864 198.984C145.864 200.008 146.232 200.808 146.888 201.336C147.576 201.848 148.216 202.136 149.16 202.392C150.056 202.632 150.664 202.856 150.984 203.048C151.32 203.224 151.48 203.48 151.48 203.816C151.48 204.424 150.968 204.728 149.96 204.728C148.84 204.728 148.056 204.216 147.608 203.176L145.4 204.456C146.04 206.168 147.592 207.224 149.88 207.224ZM160.407 203.368C160.407 204.456 159.831 205.016 158.919 205.016C158.103 205.016 157.527 204.504 157.527 203.56V199H155.127V203.912C155.127 204.952 155.415 205.752 155.975 206.344C156.551 206.936 157.271 207.224 158.119 207.224C159.159 207.224 159.927 206.904 160.407 206.248V207H162.807V199H160.407V203.368ZM166.776 197.88C167.352 197.304 167.352 196.408 166.776 195.848C166.216 195.272 165.32 195.272 164.743 195.848C164.184 196.408 164.184 197.304 164.743 197.88C165.32 198.44 166.216 198.44 166.776 197.88ZM166.968 207V199H164.568V207H166.968ZM174.724 200.6V199H168.644V201.24H171.508L168.484 205.4V207H174.884V204.76H171.7L174.724 200.6ZM181.641 199.752C181.081 199.096 180.281 198.776 179.257 198.776C178.201 198.776 177.305 199.192 176.553 200.008C175.801 200.824 175.433 201.816 175.433 203C175.433 204.184 175.801 205.192 176.553 206.008C177.305 206.824 178.201 207.224 179.257 207.224C180.281 207.224 181.081 206.904 181.641 206.248V207H184.041V199H181.641V199.752ZM178.361 204.424C178.009 204.072 177.833 203.592 177.833 203C177.833 202.408 178.009 201.928 178.361 201.576C178.713 201.224 179.177 201.048 179.737 201.048C180.297 201.048 180.761 201.224 181.113 201.576C181.465 201.928 181.641 202.408 181.641 203C181.641 203.592 181.465 204.072 181.113 204.424C180.761 204.776 180.297 204.952 179.737 204.952C179.177 204.952 178.713 204.776 178.361 204.424Z" fill="#3CC3DD"/>
<path d="M152.344 215.8H149.4L145.976 221C145.544 221.656 145.32 222.408 145.32 223.272C145.32 224.44 145.704 225.384 146.472 226.12C147.24 226.856 148.248 227.224 149.48 227.224C150.712 227.224 151.704 226.856 152.472 226.12C153.256 225.384 153.64 224.44 153.64 223.272C153.64 222.184 153.288 221.272 152.6 220.552C151.912 219.832 151.016 219.416 149.912 219.336L152.344 215.8ZM148.344 224.408C148.04 224.136 147.88 223.752 147.88 223.272C147.88 222.792 148.04 222.408 148.344 222.136C148.968 221.576 149.992 221.576 150.616 222.152C150.92 222.424 151.08 222.808 151.08 223.272C151.08 223.736 150.92 224.12 150.616 224.408C149.992 224.968 148.968 224.968 148.344 224.408ZM156.953 226.776C157.545 226.184 157.545 225.224 156.953 224.632C156.361 224.04 155.401 224.04 154.809 224.632C154.217 225.224 154.217 226.184 154.809 226.776C155.401 227.368 156.361 227.368 156.953 226.776ZM166.025 225.64C166.841 224.568 167.241 223.16 167.241 221.4C167.241 219.64 166.841 218.232 166.025 217.176C165.225 216.104 164.105 215.576 162.681 215.576C161.257 215.576 160.137 216.104 159.321 217.176C158.521 218.232 158.121 219.64 158.121 221.4C158.121 223.16 158.521 224.568 159.321 225.64C160.137 226.696 161.257 227.224 162.681 227.224C164.105 227.224 165.225 226.696 166.025 225.64ZM160.681 221.4C160.681 219.176 161.353 218.072 162.681 218.072C164.009 218.072 164.681 219.176 164.681 221.4C164.681 223.624 164.009 224.728 162.681 224.728C161.353 224.728 160.681 223.624 160.681 221.4ZM167.566 218.264H172.078L168.558 227H171.278L174.926 217.944V215.8H167.566V218.264ZM175.41 218.264H179.922L176.402 227H179.122L182.77 217.944V215.8H175.41V218.264Z" fill="#101010"/>
<path d="M4.52 202.552H8.52V200.12H4.52V198.264H8.92V195.8H1.96V207H9V204.536H4.52V202.552ZM12.6364 201.336C12.6364 201.032 12.8604 200.888 13.3084 200.888C13.7724 200.888 14.1244 201.128 14.3804 201.592L16.4284 200.488C15.7724 199.384 14.6364 198.776 13.3084 198.776C12.4284 198.776 11.6764 199 11.0684 199.464C10.4764 199.928 10.1724 200.568 10.1724 201.4C10.1724 203.032 11.6124 203.576 12.7164 203.88C13.4844 204.072 14.1084 204.264 14.1084 204.584C14.1084 204.92 13.8204 205.08 13.2444 205.08C12.5564 205.08 12.0924 204.76 11.8844 204.136L9.80438 205.32C10.4124 206.584 11.5644 207.224 13.2444 207.224C14.1884 207.224 14.9724 207 15.6124 206.568C16.2524 206.12 16.5724 205.464 16.5724 204.6C16.5884 202.856 15.1324 202.28 14.0284 202.04C13.2604 201.832 12.6364 201.656 12.6364 201.336ZM22.6328 198.776C21.6088 198.776 20.8088 199.096 20.2488 199.752V199H17.8488V210.2H20.2488V206.248C20.8088 206.904 21.6088 207.224 22.6328 207.224C23.6888 207.224 24.5848 206.824 25.3368 206.008C26.0888 205.192 26.4568 204.184 26.4568 203C26.4568 201.816 26.0888 200.824 25.3368 200.008C24.5848 199.192 23.6888 198.776 22.6328 198.776ZM20.7768 204.424C20.4248 204.072 20.2488 203.592 20.2488 203C20.2488 202.408 20.4248 201.928 20.7768 201.576C21.1448 201.224 21.5928 201.048 22.1528 201.048C22.7128 201.048 23.1608 201.224 23.5128 201.576C23.8808 201.928 24.0568 202.408 24.0568 203C24.0568 203.592 23.8808 204.072 23.5128 204.424C23.1608 204.776 22.7128 204.952 22.1528 204.952C21.5928 204.952 21.1448 204.776 20.7768 204.424ZM33.6255 199.752C33.0655 199.096 32.2655 198.776 31.2415 198.776C30.1855 198.776 29.2895 199.192 28.5375 200.008C27.7855 200.824 27.4175 201.816 27.4175 203C27.4175 204.184 27.7855 205.192 28.5375 206.008C29.2895 206.824 30.1855 207.224 31.2415 207.224C32.2655 207.224 33.0655 206.904 33.6255 206.248V207H36.0255V199H33.6255V199.752ZM30.3455 204.424C29.9935 204.072 29.8175 203.592 29.8175 203C29.8175 202.408 29.9935 201.928 30.3455 201.576C30.6975 201.224 31.1615 201.048 31.7215 201.048C32.2815 201.048 32.7455 201.224 33.0975 201.576C33.4495 201.928 33.6255 202.408 33.6255 203C33.6255 203.592 33.4495 204.072 33.0975 204.424C32.7455 204.776 32.2815 204.952 31.7215 204.952C31.1615 204.952 30.6975 204.776 30.3455 204.424ZM41.4503 197.608C42.9063 198.52 44.5863 198.184 44.5863 195.48H42.6663C42.6663 196.12 42.5063 196.2 41.9783 195.864C40.5223 194.952 38.8423 195.288 38.8423 197.992H40.7623C40.7623 197.352 40.8903 197.272 41.4503 197.608ZM42.4743 198.776C41.4343 198.776 40.6663 199.096 40.1863 199.752V199H37.7863V207H40.1863V202.632C40.1863 201.544 40.7623 200.984 41.6743 200.984C42.4903 200.984 43.0663 201.496 43.0663 202.44V207H45.4663V202.088C45.4663 201.048 45.1783 200.248 44.6023 199.656C44.0423 199.064 43.3223 198.776 42.4743 198.776ZM52.9224 199.752C52.3624 199.096 51.5624 198.776 50.5384 198.776C49.4824 198.776 48.5864 199.192 47.8344 200.008C47.0824 200.824 46.7144 201.816 46.7144 203C46.7144 204.184 47.0824 205.192 47.8344 206.008C48.5864 206.824 49.4824 207.224 50.5384 207.224C51.5624 207.224 52.3624 206.904 52.9224 206.248V207H55.3224V199H52.9224V199.752ZM49.6424 204.424C49.2904 204.072 49.1144 203.592 49.1144 203C49.1144 202.408 49.2904 201.928 49.6424 201.576C49.9944 201.224 50.4584 201.048 51.0184 201.048C51.5784 201.048 52.0424 201.224 52.3944 201.576C52.7464 201.928 52.9224 202.408 52.9224 203C52.9224 203.592 52.7464 204.072 52.3944 204.424C52.0424 204.776 51.5784 204.952 51.0184 204.952C50.4584 204.952 49.9944 204.776 49.6424 204.424Z" fill="#3CC3DD"/>
<path d="M8.968 227V224.536H5.208L7.064 222.664C8.232 221.496 8.808 220.328 8.808 219.144C8.808 218.056 8.44 217.192 7.688 216.552C6.952 215.896 6.056 215.576 5.016 215.576C3.4 215.576 1.928 216.424 1.24 218.024L3.4 219.288C3.752 218.472 4.296 218.072 5.048 218.072C5.8 218.072 6.248 218.552 6.248 219.256C6.248 219.8 5.864 220.456 5.112 221.24L1.352 225.144V227H8.968ZM16.7011 221.16C17.4211 220.6 17.7731 219.848 17.7731 218.904C17.7731 217.864 17.4211 217.048 16.7171 216.456C16.0131 215.864 15.1171 215.576 14.0451 215.576C12.9731 215.576 12.0771 215.864 11.3731 216.456C10.6691 217.048 10.3171 217.864 10.3171 218.904C10.3171 219.848 10.6691 220.6 11.3891 221.16C10.4131 221.784 9.93313 222.68 9.93313 223.848C9.93313 225.912 11.4371 227.224 14.0451 227.224C16.6531 227.224 18.1571 225.912 18.1571 223.848C18.1571 222.68 17.6771 221.784 16.7011 221.16ZM14.8931 218.28C15.3251 218.68 15.3251 219.448 14.8931 219.848C14.4611 220.248 13.6291 220.248 13.1971 219.848C12.7651 219.448 12.7651 218.68 13.1971 218.28C13.6291 217.88 14.4611 217.88 14.8931 218.28ZM12.9251 224.472C12.6371 224.232 12.4931 223.896 12.4931 223.48C12.4931 223.064 12.6371 222.744 12.9251 222.504C13.2131 222.264 13.5811 222.136 14.0451 222.136C14.5091 222.136 14.8771 222.264 15.1651 222.504C15.4531 222.744 15.5971 223.064 15.5971 223.48C15.5971 223.896 15.4531 224.232 15.1651 224.472C14.8771 224.712 14.5091 224.824 14.0451 224.824C13.5811 224.824 13.2131 224.712 12.9251 224.472ZM21.9526 226.776C22.5446 226.184 22.5446 225.224 21.9526 224.632C21.3606 224.04 20.4006 224.04 19.8086 224.632C19.2166 225.224 19.2166 226.184 19.8086 226.776C20.4006 227.368 21.3606 227.368 21.9526 226.776ZM26.773 219.736L26.885 218.2H30.965V215.8H24.485L24.021 222.232H27.525C29.429 222.104 29.477 224.856 27.445 224.728C26.533 224.728 25.925 224.328 25.653 223.544L23.445 224.824C24.101 226.424 25.589 227.224 27.445 227.224C28.581 227.224 29.557 226.888 30.341 226.232C31.125 225.576 31.525 224.648 31.525 223.48C31.525 222.296 31.157 221.384 30.421 220.728C29.701 220.072 28.789 219.736 27.685 219.736H26.773ZM31.7694 218.264H36.2814L32.7614 227H35.4814L39.1294 217.944V215.8H31.7694V218.264ZM47.4211 227V224.536H43.6611L45.5171 222.664C46.6851 221.496 47.2611 220.328 47.2611 219.144C47.2611 218.056 46.8931 217.192 46.1411 216.552C45.4051 215.896 44.5091 215.576 43.4691 215.576C41.8531 215.576 40.3811 216.424 39.6931 218.024L41.8531 219.288C42.2051 218.472 42.7491 218.072 43.5011 218.072C44.2531 218.072 44.7011 218.552 44.7011 219.256C44.7011 219.8 44.3171 220.456 43.5651 221.24L39.8051 225.144V227H47.4211Z" fill="#101010"/>
<path d="M0.96 114.8H3.52V126H0.96V114.8ZM10.0524 120.304H8.40438V123.136C8.40438 123.456 8.53238 123.659 8.78838 123.744C9.04438 123.829 9.46571 123.856 10.0524 123.824V126C8.52704 126.16 7.47104 126.016 6.88438 125.568C6.29771 125.109 6.00438 124.299 6.00438 123.136V120.304H4.72438V118H6.00438V116.48L8.40438 115.76V118H10.0524V120.304ZM17.063 118H19.463V126H17.063V125.248C16.4977 125.899 15.703 126.224 14.679 126.224C13.623 126.224 12.7217 125.819 11.975 125.008C11.2283 124.187 10.855 123.184 10.855 122C10.855 120.816 11.2283 119.819 11.975 119.008C12.7217 118.187 13.623 117.776 14.679 117.776C15.703 117.776 16.4977 118.101 17.063 118.752V118ZM13.783 123.424C14.135 123.776 14.5937 123.952 15.159 123.952C15.7243 123.952 16.183 123.776 16.535 123.424C16.887 123.072 17.063 122.597 17.063 122C17.063 121.403 16.887 120.928 16.535 120.576C16.183 120.224 15.7243 120.048 15.159 120.048C14.5937 120.048 14.135 120.224 13.783 120.576C13.431 120.928 13.255 121.403 13.255 122C13.255 122.597 13.431 123.072 13.783 123.424ZM21.2238 126V114.32H23.6238V126H21.2238ZM27.588 116.88C27.3107 117.157 26.9747 117.296 26.58 117.296C26.1853 117.296 25.844 117.157 25.556 116.88C25.2787 116.592 25.14 116.251 25.14 115.856C25.14 115.461 25.2787 115.125 25.556 114.848C25.844 114.56 26.1853 114.416 26.58 114.416C26.9747 114.416 27.3107 114.56 27.588 114.848C27.876 115.125 28.02 115.461 28.02 115.856C28.02 116.251 27.876 116.592 27.588 116.88ZM25.38 126V118H27.78V126H25.38ZM35.3443 118H37.7443V126H35.3443V125.248C34.7789 125.899 33.9843 126.224 32.9603 126.224C31.9043 126.224 31.0029 125.819 30.2563 125.008C29.5096 124.187 29.1363 123.184 29.1363 122C29.1363 120.816 29.5096 119.819 30.2563 119.008C31.0029 118.187 31.9043 117.776 32.9603 117.776C33.9843 117.776 34.7789 118.101 35.3443 118.752V118ZM32.0643 123.424C32.4163 123.776 32.8749 123.952 33.4403 123.952C34.0056 123.952 34.4643 123.776 34.8163 123.424C35.1683 123.072 35.3443 122.597 35.3443 122C35.3443 121.403 35.1683 120.928 34.8163 120.576C34.4643 120.224 34.0056 120.048 33.4403 120.048C32.8749 120.048 32.4163 120.224 32.0643 120.576C31.7123 120.928 31.5363 121.403 31.5363 122C31.5363 122.597 31.7123 123.072 32.0643 123.424Z" fill="#3CC3DD"/>
<path d="M4.56 138.736C5.65867 138.736 6.57067 139.067 7.296 139.728C8.032 140.379 8.4 141.296 8.4 142.48C8.4 143.653 8.00533 144.571 7.216 145.232C6.42667 145.893 5.46133 146.224 4.32 146.224C3.392 146.224 2.576 146.027 1.872 145.632C1.168 145.227 0.650667 144.624 0.32 143.824L2.528 142.544C2.80533 143.333 3.40267 143.728 4.32 143.728C4.82133 143.728 5.2 143.611 5.456 143.376C5.712 143.141 5.84 142.843 5.84 142.48C5.84 142.117 5.71733 141.819 5.472 141.584C5.22667 141.349 4.86933 141.232 4.4 141.232H0.896L1.36 134.8H7.84V137.2H3.76L3.648 138.736H4.56ZM16.9525 138.528C16.9525 139.392 16.7338 140.149 16.2965 140.8L12.8725 146H9.9285L12.3605 142.464C11.2512 142.379 10.3498 141.973 9.6565 141.248C8.97383 140.523 8.6325 139.616 8.6325 138.528C8.6325 137.365 9.0165 136.416 9.7845 135.68C10.5632 134.944 11.5658 134.576 12.7925 134.576C14.0298 134.576 15.0325 134.944 15.8005 135.68C16.5685 136.416 16.9525 137.365 16.9525 138.528ZM11.6565 137.408C11.3472 137.685 11.1925 138.059 11.1925 138.528C11.1925 138.997 11.3472 139.376 11.6565 139.664C11.9658 139.941 12.3445 140.08 12.7925 140.08C13.2405 140.08 13.6192 139.941 13.9285 139.664C14.2378 139.387 14.3925 139.008 14.3925 138.528C14.3925 138.048 14.2378 137.669 13.9285 137.392C13.6192 137.115 13.2405 136.976 12.7925 136.976C12.3445 136.976 11.9658 137.12 11.6565 137.408ZM18.3433 145.776C18.0446 146.075 17.6873 146.224 17.2713 146.224C16.8553 146.224 16.4979 146.075 16.1993 145.776C15.9006 145.477 15.7513 145.12 15.7513 144.704C15.7513 144.288 15.9006 143.931 16.1993 143.632C16.4979 143.333 16.8553 143.184 17.2713 143.184C17.6873 143.184 18.0446 143.333 18.3433 143.632C18.6419 143.931 18.7913 144.288 18.7913 144.704C18.7913 145.12 18.6419 145.477 18.3433 145.776ZM22.6036 134.8H24.8436V146H22.2836V137.504L20.2996 138.048L19.6756 135.856L22.6036 134.8ZM31.9048 139.344C32.6194 139.589 33.1954 139.989 33.6328 140.544C34.0701 141.088 34.2888 141.733 34.2888 142.48C34.2888 143.653 33.8941 144.571 33.1048 145.232C32.3154 145.893 31.3501 146.224 30.2088 146.224C29.3234 146.224 28.5288 146.021 27.8248 145.616C27.1314 145.211 26.6194 144.613 26.2888 143.824L28.4968 142.544C28.7741 143.333 29.3448 143.728 30.2088 143.728C30.7101 143.728 31.0888 143.611 31.3448 143.376C31.6008 143.141 31.7288 142.843 31.7288 142.48C31.7288 142.117 31.6008 141.819 31.3448 141.584C31.0888 141.349 30.7101 141.232 30.2088 141.232H29.6808L28.7048 139.776L30.7368 137.2H26.6408V134.8H33.8408V136.88L31.9048 139.344ZM42.0136 140.16C42.9843 140.789 43.4696 141.685 43.4696 142.848C43.4696 143.883 43.107 144.704 42.3816 145.312C41.667 145.92 40.659 146.224 39.3576 146.224C38.0563 146.224 37.043 145.92 36.3176 145.312C35.603 144.704 35.2456 143.883 35.2456 142.848C35.2456 141.685 35.731 140.789 36.7016 140.16C35.987 139.605 35.6296 138.853 35.6296 137.904C35.6296 136.859 35.9816 136.043 36.6856 135.456C37.3896 134.869 38.2803 134.576 39.3576 134.576C40.435 134.576 41.3256 134.869 42.0296 135.456C42.7336 136.043 43.0856 136.859 43.0856 137.904C43.0856 138.853 42.7283 139.605 42.0136 140.16ZM40.2056 137.28C39.9923 137.077 39.7096 136.976 39.3576 136.976C39.0056 136.976 38.723 137.077 38.5096 137.28C38.2963 137.483 38.1896 137.744 38.1896 138.064C38.1896 138.384 38.2963 138.645 38.5096 138.848C38.723 139.051 39.0056 139.152 39.3576 139.152C39.7096 139.152 39.9923 139.051 40.2056 138.848C40.419 138.645 40.5256 138.384 40.5256 138.064C40.5256 137.744 40.419 137.483 40.2056 137.28ZM38.2376 143.472C38.5256 143.707 38.899 143.824 39.3576 143.824C39.8163 143.824 40.1896 143.707 40.4776 143.472C40.7656 143.227 40.9096 142.896 40.9096 142.48C40.9096 142.064 40.7656 141.739 40.4776 141.504C40.1896 141.259 39.8163 141.136 39.3576 141.136C38.899 141.136 38.5256 141.259 38.2376 141.504C37.9496 141.739 37.8056 142.064 37.8056 142.48C37.8056 142.896 37.9496 143.227 38.2376 143.472Z" fill="#101010"/>
<path d="M429.6 124L427.216 119.888C428.448 119.248 429.28 118 429.28 116.64C429.28 115.568 428.912 114.672 428.16 113.92C427.408 113.168 426.512 112.8 425.44 112.8H420.96V124H423.52V120.32H424.736L426.848 124H429.6ZM425.44 115.2C426.144 115.2 426.72 115.824 426.72 116.64C426.72 117.456 426.144 118.08 425.44 118.08H423.52V115.2H425.44ZM438.142 120.96C438.206 120.656 438.238 120.336 438.238 120C438.238 118.8 437.854 117.792 437.07 116.992C436.302 116.176 435.342 115.776 434.174 115.776C432.926 115.776 431.902 116.176 431.102 116.992C430.318 117.792 429.918 118.8 429.918 120C429.918 121.216 430.318 122.224 431.118 123.024C431.934 123.824 433.006 124.224 434.35 124.224C435.886 124.224 437.054 123.68 437.838 122.576L435.918 121.472C435.55 121.872 435.038 122.08 434.382 122.08C433.374 122.08 432.734 121.712 432.462 120.96H438.142ZM432.414 119.168C432.654 118.32 433.23 117.904 434.158 117.904C435.054 117.904 435.614 118.32 435.854 119.168H432.414ZM441.807 114.88C442.383 114.304 442.383 113.408 441.807 112.848C441.247 112.272 440.351 112.272 439.775 112.848C439.215 113.408 439.215 114.304 439.775 114.88C440.351 115.44 441.247 115.44 441.807 114.88ZM441.999 124V116H439.599V124H441.999ZM448.443 115.776C447.403 115.776 446.635 116.096 446.155 116.752V116H443.755V124H446.155V119.632C446.155 118.544 446.731 117.984 447.643 117.984C448.459 117.984 449.035 118.496 449.035 119.44V124H451.435V119.088C451.435 118.048 451.147 117.248 450.571 116.656C450.011 116.064 449.291 115.776 448.443 115.776ZM459.931 123.008C460.747 122.192 461.163 121.184 461.163 120C461.163 118.816 460.747 117.824 459.931 117.008C459.115 116.192 458.107 115.776 456.923 115.776C455.739 115.776 454.731 116.192 453.915 117.008C453.099 117.824 452.683 118.816 452.683 120C452.683 121.184 453.099 122.192 453.915 123.008C454.731 123.824 455.739 124.224 456.923 124.224C458.107 124.224 459.115 123.824 459.931 123.008ZM455.611 121.36C455.259 121.008 455.083 120.56 455.083 120C455.083 119.44 455.259 118.992 455.611 118.64C455.963 118.288 456.395 118.112 456.923 118.112C457.451 118.112 457.883 118.288 458.235 118.64C458.587 118.992 458.763 119.44 458.763 120C458.763 120.56 458.587 121.008 458.235 121.36C457.883 121.712 457.451 121.888 456.923 121.888C456.395 121.888 455.963 121.712 455.611 121.36ZM466.521 120.384C466.521 121.552 466.921 122.496 467.737 123.184C468.553 123.872 469.577 124.224 470.841 124.224C472.105 124.224 473.129 123.872 473.945 123.184C474.761 122.496 475.161 121.552 475.161 120.384V112.8H472.601V120.16C472.601 121.2 472.009 121.728 470.841 121.728C469.673 121.728 469.081 121.2 469.081 120.16V112.8H466.521V120.384ZM481.615 115.776C480.575 115.776 479.807 116.096 479.327 116.752V116H476.927V124H479.327V119.632C479.327 118.544 479.903 117.984 480.815 117.984C481.631 117.984 482.207 118.496 482.207 119.44V124H484.607V119.088C484.607 118.048 484.319 117.248 483.743 116.656C483.183 116.064 482.463 115.776 481.615 115.776ZM488.463 114.88C489.039 114.304 489.039 113.408 488.463 112.848C487.903 112.272 487.007 112.272 486.431 112.848C485.871 113.408 485.871 114.304 486.431 114.88C487.007 115.44 487.903 115.44 488.463 114.88ZM488.655 124V116H486.255V124H488.655ZM496.219 116.752C495.659 116.096 494.859 115.776 493.835 115.776C492.779 115.776 491.883 116.192 491.131 117.008C490.379 117.824 490.011 118.816 490.011 120C490.011 121.184 490.379 122.192 491.131 123.008C491.883 123.824 492.779 124.224 493.835 124.224C494.859 124.224 495.659 123.904 496.219 123.248V124H498.619V112.8H496.219V116.752ZM492.939 121.424C492.587 121.072 492.411 120.592 492.411 120C492.411 119.408 492.587 118.928 492.939 118.576C493.291 118.224 493.755 118.048 494.315 118.048C494.875 118.048 495.339 118.224 495.691 118.576C496.043 118.928 496.219 119.408 496.219 120C496.219 120.592 496.043 121.072 495.691 121.424C495.339 121.776 494.875 121.952 494.315 121.952C493.755 121.952 493.291 121.776 492.939 121.424ZM507.228 123.008C508.044 122.192 508.46 121.184 508.46 120C508.46 118.816 508.044 117.824 507.228 117.008C506.412 116.192 505.404 115.776 504.22 115.776C503.036 115.776 502.028 116.192 501.212 117.008C500.396 117.824 499.98 118.816 499.98 120C499.98 121.184 500.396 122.192 501.212 123.008C502.028 123.824 503.036 124.224 504.22 124.224C505.404 124.224 506.412 123.824 507.228 123.008ZM502.908 121.36C502.556 121.008 502.38 120.56 502.38 120C502.38 119.44 502.556 118.992 502.908 118.64C503.26 118.288 503.692 118.112 504.22 118.112C504.748 118.112 505.18 118.288 505.532 118.64C505.884 118.992 506.06 119.44 506.06 120C506.06 120.56 505.884 121.008 505.532 121.36C505.18 121.712 504.748 121.888 504.22 121.888C503.692 121.888 503.26 121.712 502.908 121.36Z" fill="#3CC3DD"/>
<path d="M423.648 136.736L423.76 135.2H427.84V132.8H421.36L420.896 139.232H424.4C426.304 139.104 426.352 141.856 424.32 141.728C423.408 141.728 422.8 141.328 422.528 140.544L420.32 141.824C420.976 143.424 422.464 144.224 424.32 144.224C425.456 144.224 426.432 143.888 427.216 143.232C428 142.576 428.4 141.648 428.4 140.48C428.4 139.296 428.032 138.384 427.296 137.728C426.576 137.072 425.664 136.736 424.56 136.736H423.648ZM431.796 143.776C432.388 143.184 432.388 142.224 431.796 141.632C431.204 141.04 430.244 141.04 429.652 141.632C429.06 142.224 429.06 143.184 429.652 143.776C430.244 144.368 431.204 144.368 431.796 143.776ZM440.868 142.64C441.684 141.568 442.084 140.16 442.084 138.4C442.084 136.64 441.684 135.232 440.868 134.176C440.068 133.104 438.948 132.576 437.524 132.576C436.1 132.576 434.98 133.104 434.164 134.176C433.364 135.232 432.964 136.64 432.964 138.4C432.964 140.16 433.364 141.568 434.164 142.64C434.98 143.696 436.1 144.224 437.524 144.224C438.948 144.224 440.068 143.696 440.868 142.64ZM435.524 138.4C435.524 136.176 436.196 135.072 437.524 135.072C438.852 135.072 439.524 136.176 439.524 138.4C439.524 140.624 438.852 141.728 437.524 141.728C436.196 141.728 435.524 140.624 435.524 138.4ZM442.41 133.856L443.034 136.048L445.018 135.504V144H447.578V132.8H445.338L442.41 133.856ZM455.951 138.16C456.671 137.6 457.023 136.848 457.023 135.904C457.023 134.864 456.671 134.048 455.967 133.456C455.263 132.864 454.367 132.576 453.295 132.576C452.223 132.576 451.327 132.864 450.623 133.456C449.919 134.048 449.567 134.864 449.567 135.904C449.567 136.848 449.919 137.6 450.639 138.16C449.663 138.784 449.183 139.68 449.183 140.848C449.183 142.912 450.687 144.224 453.295 144.224C455.903 144.224 457.407 142.912 457.407 140.848C457.407 139.68 456.927 138.784 455.951 138.16ZM454.143 135.28C454.575 135.68 454.575 136.448 454.143 136.848C453.711 137.248 452.879 137.248 452.447 136.848C452.015 136.448 452.015 135.68 452.447 135.28C452.879 134.88 453.711 134.88 454.143 135.28ZM452.175 141.472C451.887 141.232 451.743 140.896 451.743 140.48C451.743 140.064 451.887 139.744 452.175 139.504C452.463 139.264 452.831 139.136 453.295 139.136C453.759 139.136 454.127 139.264 454.415 139.504C454.703 139.744 454.847 140.064 454.847 140.48C454.847 140.896 454.703 141.232 454.415 141.472C454.127 141.712 453.759 141.824 453.295 141.824C452.831 141.824 452.463 141.712 452.175 141.472Z" fill="#101010"/>
<g clip-path="url(#clip1)">
<path d="M443.586 99.8618H420.414C420.185 99.8618 420 99.6765 420 99.448V84.5515C420 84.323 420.185 84.1377 420.414 84.1377H443.586C443.815 84.1377 444 84.323 444 84.5515V99.448C444 99.6765 443.815 99.8618 443.586 99.8618Z" fill="#41479B"/>
<path d="M444 84.5515C444 84.323 443.815 84.1377 443.586 84.1377H441.735L434.069 89.1602V84.1377H429.931V89.1602L422.265 84.1377H420.414C420.185 84.1377 420 84.323 420 84.5515V85.6217L426.577 89.9308H420V94.0687H426.577L420 98.3778V99.448C420 99.6765 420.185 99.8618 420.414 99.8618H422.265L429.931 94.8393V99.8618H434.069V94.8393L441.735 99.8618H443.586C443.815 99.8618 444 99.6765 444 99.448V98.3778L437.423 94.0687H444V89.9308H437.423L444 85.6217V84.5515Z" fill="#F5F5F5"/>
<path d="M444 90.7584H433.241V84.1377H430.759V90.7584H420V93.2411H430.759V99.8618H433.241V93.2411H444V90.7584Z" fill="#FF4B55"/>
<path d="M428.388 94.0684L420.012 99.5057C420.041 99.7055 420.206 99.8615 420.414 99.8615H420.984L429.908 94.0684H428.388V94.0684Z" fill="#FF4B55"/>
<path d="M436.239 94.0684H434.719L443.63 99.8529C443.838 99.8308 444.002 99.6612 444.002 99.4476V99.1074L436.239 94.0684Z" fill="#FF4B55"/>
<path d="M420 85.008L427.583 89.9305H429.103L420.241 84.1777C420.1 84.2435 420 84.3848 420 84.5512V85.008Z" fill="#FF4B55"/>
<path d="M435.59 89.9308L443.987 84.4803C443.952 84.2871 443.791 84.1377 443.587 84.1377H442.995L434.07 89.9308H435.59Z" fill="#FF4B55"/>
</g>
<path d="M296 99.8619H288.414C288.185 99.8619 288 99.6766 288 99.4481V84.5515C288 84.323 288.185 84.1377 288.414 84.1377H296V99.8619Z" fill="#41479B"/>
<path d="M304 84.1377H296V99.8619H304V84.1377Z" fill="#F5F5F5"/>
<path d="M311.586 99.8618H304V84.1377H311.586C311.815 84.1377 312 84.323 312 84.5515V99.4481C312 99.6766 311.815 99.8618 311.586 99.8618Z" fill="#FF4B55"/>
<path d="M171 89.3791H147V84.5515C147 84.323 147.185 84.1377 147.414 84.1377H170.586C170.815 84.1377 171 84.323 171 84.5515L171 89.3791Z" fill="#464655"/>
<path d="M170.586 99.8625H147.414C147.185 99.8625 147 99.6772 147 99.4486V94.6211H171V99.4486C171 99.6772 170.815 99.8625 170.586 99.8625Z" fill="#FFE15A"/>
<path d="M171 89.3789H147V94.62H171V89.3789Z" fill="#FF4B55"/>
<path d="M157.08 126L156.52 124.24H152.36L151.8 126H149L152.808 114.8H156.072L159.88 126H157.08ZM153.128 121.84H155.752L154.44 117.728L153.128 121.84ZM160.755 126V114.32H163.155V126H160.755ZM167.055 122.96C167.333 123.707 167.973 124.08 168.975 124.08C169.626 124.08 170.138 123.877 170.511 123.472L172.431 124.576C171.642 125.675 170.479 126.224 168.943 126.224C167.599 126.224 166.522 125.824 165.711 125.024C164.911 124.224 164.511 123.216 164.511 122C164.511 120.795 164.906 119.792 165.695 118.992C166.495 118.181 167.519 117.776 168.767 117.776C169.93 117.776 170.895 118.181 171.663 118.992C172.442 119.792 172.831 120.795 172.831 122C172.831 122.341 172.799 122.661 172.735 122.96H167.055ZM167.007 121.168H170.447C170.213 120.325 169.647 119.904 168.751 119.904C167.823 119.904 167.242 120.325 167.007 121.168ZM183.153 117.776C184.07 117.776 184.806 118.08 185.361 118.688C185.915 119.285 186.193 120.085 186.193 121.088V126H183.793V121.296C183.793 120.891 183.691 120.571 183.489 120.336C183.297 120.101 183.014 119.984 182.641 119.984C182.246 119.984 181.937 120.117 181.713 120.384C181.499 120.651 181.392 121.019 181.392 121.488V126H178.993V121.296C178.993 120.891 178.891 120.571 178.689 120.336C178.497 120.101 178.214 119.984 177.841 119.984C177.446 119.984 177.137 120.117 176.913 120.384C176.699 120.651 176.593 121.019 176.593 121.488V126H174.193V118H176.593V118.736C177.03 118.096 177.745 117.776 178.737 117.776C179.665 117.776 180.363 118.128 180.833 118.832C181.323 118.128 182.097 117.776 183.153 117.776ZM193.641 118H196.041V126H193.641V125.248C193.076 125.899 192.281 126.224 191.257 126.224C190.201 126.224 189.3 125.819 188.553 125.008C187.806 124.187 187.433 123.184 187.433 122C187.433 120.816 187.806 119.819 188.553 119.008C189.3 118.187 190.201 117.776 191.257 117.776C192.281 117.776 193.076 118.101 193.641 118.752V118ZM190.361 123.424C190.713 123.776 191.172 123.952 191.737 123.952C192.302 123.952 192.761 123.776 193.113 123.424C193.465 123.072 193.641 122.597 193.641 122C193.641 121.403 193.465 120.928 193.113 120.576C192.761 120.224 192.302 120.048 191.737 120.048C191.172 120.048 190.713 120.224 190.361 120.576C190.009 120.928 189.833 121.403 189.833 122C189.833 122.597 190.009 123.072 190.361 123.424ZM202.49 117.776C203.343 117.776 204.053 118.069 204.618 118.656C205.194 119.243 205.482 120.053 205.482 121.088V126H203.082V121.44C203.082 120.971 202.949 120.613 202.682 120.368C202.426 120.112 202.095 119.984 201.69 119.984C201.231 119.984 200.869 120.123 200.602 120.4C200.335 120.677 200.202 121.088 200.202 121.632V126H197.802V118H200.202V118.752C200.682 118.101 201.445 117.776 202.49 117.776ZM209.338 116.88C209.061 117.157 208.725 117.296 208.33 117.296C207.935 117.296 207.594 117.157 207.306 116.88C207.029 116.592 206.89 116.251 206.89 115.856C206.89 115.461 207.029 115.125 207.306 114.848C207.594 114.56 207.935 114.416 208.33 114.416C208.725 114.416 209.061 114.56 209.338 114.848C209.626 115.125 209.77 115.461 209.77 115.856C209.77 116.251 209.626 116.592 209.338 116.88ZM207.13 126V118H209.53V126H207.13ZM217.094 118H219.494V126H217.094V125.248C216.529 125.899 215.734 126.224 214.71 126.224C213.654 126.224 212.753 125.819 212.006 125.008C211.26 124.187 210.886 123.184 210.886 122C210.886 120.816 211.26 119.819 212.006 119.008C212.753 118.187 213.654 117.776 214.71 117.776C215.734 117.776 216.529 118.101 217.094 118.752V118ZM213.814 123.424C214.166 123.776 214.625 123.952 215.19 123.952C215.756 123.952 216.214 123.776 216.566 123.424C216.918 123.072 217.094 122.597 217.094 122C217.094 121.403 216.918 120.928 216.566 120.576C216.214 120.224 215.756 120.048 215.19 120.048C214.625 120.048 214.166 120.224 213.814 120.576C213.462 120.928 213.286 121.403 213.286 122C213.286 122.597 213.462 123.072 213.814 123.424Z" fill="#3CC3DD"/>
<path d="M149.352 146V144.144L153.112 140.24C153.869 139.461 154.248 138.8 154.248 138.256C154.248 137.904 154.141 137.621 153.928 137.408C153.715 137.184 153.421 137.072 153.048 137.072C152.301 137.072 151.752 137.477 151.4 138.288L149.24 137.024C149.581 136.224 150.093 135.616 150.776 135.2C151.459 134.784 152.205 134.576 153.016 134.576C154.061 134.576 154.952 134.901 155.688 135.552C156.435 136.192 156.808 137.056 156.808 138.144C156.808 139.328 156.227 140.501 155.064 141.664L153.208 143.536H156.968V146H149.352ZM160.307 134.8H162.547V146H159.987V137.504L158.003 138.048L157.379 135.856L160.307 134.8ZM166.984 145.776C166.685 146.075 166.328 146.224 165.912 146.224C165.496 146.224 165.139 146.075 164.84 145.776C164.541 145.477 164.392 145.12 164.392 144.704C164.392 144.288 164.541 143.931 164.84 143.632C165.139 143.333 165.496 143.184 165.912 143.184C166.328 143.184 166.685 143.333 166.984 143.632C167.283 143.931 167.432 144.288 167.432 144.704C167.432 145.12 167.283 145.477 166.984 145.776ZM177.276 141.84V144.208H176.156V146H173.564V144.208H168.476V141.84L172.044 134.8H174.796L171.228 141.84H173.564V139.44H176.156V141.84H177.276ZM182.662 138.336C183.771 138.421 184.667 138.827 185.35 139.552C186.043 140.277 186.39 141.184 186.39 142.272C186.39 143.435 186.001 144.384 185.222 145.12C184.454 145.856 183.457 146.224 182.23 146.224C180.993 146.224 179.99 145.856 179.222 145.12C178.454 144.384 178.07 143.435 178.07 142.272C178.07 141.408 178.289 140.651 178.726 140L182.15 134.8H185.094L182.662 138.336ZM181.094 143.408C181.403 143.685 181.782 143.824 182.23 143.824C182.678 143.824 183.057 143.685 183.366 143.408C183.675 143.12 183.83 142.741 183.83 142.272C183.83 141.803 183.675 141.429 183.366 141.152C183.057 140.864 182.678 140.72 182.23 140.72C181.782 140.72 181.403 140.859 181.094 141.136C180.785 141.413 180.63 141.792 180.63 142.272C180.63 142.752 180.785 143.131 181.094 143.408ZM192.561 139.344C193.276 139.589 193.852 139.989 194.289 140.544C194.726 141.088 194.945 141.733 194.945 142.48C194.945 143.653 194.55 144.571 193.761 145.232C192.972 145.893 192.006 146.224 190.865 146.224C189.98 146.224 189.185 146.021 188.481 145.616C187.788 145.211 187.276 144.613 186.945 143.824L189.153 142.544C189.43 143.333 190.001 143.728 190.865 143.728C191.366 143.728 191.745 143.611 192.001 143.376C192.257 143.141 192.385 142.843 192.385 142.48C192.385 142.117 192.257 141.819 192.001 141.584C191.745 141.349 191.366 141.232 190.865 141.232H190.337L189.361 139.776L191.393 137.2H187.297V134.8H194.497V136.88L192.561 139.344Z" fill="#101010"/>
<path d="M171.586 180.862H148.414C148.185 180.862 148 180.677 148 180.448V165.552C148 165.323 148.185 165.138 148.414 165.138H171.586C171.815 165.138 172 165.323 172 165.552V180.448C172 180.677 171.815 180.862 171.586 180.862Z" fill="#FF4B55"/>
<path d="M164.552 171.345H161.656V168.448C161.656 168.219 161.471 168.034 161.242 168.034H158.759C158.531 168.034 158.346 168.219 158.346 168.448V171.345H155.449C155.22 171.345 155.035 171.53 155.035 171.758V174.241C155.035 174.47 155.22 174.655 155.449 174.655H158.346V177.551C158.346 177.78 158.531 177.965 158.759 177.965H161.242C161.471 177.965 161.656 177.78 161.656 177.551V174.655H164.552C164.781 174.655 164.966 174.47 164.966 174.241V171.758C164.966 171.53 164.781 171.345 164.552 171.345Z" fill="#F5F5F5"/>
<path d="M8.00002 99.8619H0.413813C0.185297 99.8619 0 99.6766 0 99.4481V84.5515C0 84.323 0.185297 84.1377 0.413813 84.1377H8.00002V99.8619Z" fill="#73AF00"/>
<path d="M16.0002 84.1377H8V99.8619H16.0002V84.1377Z" fill="#F5F5F5"/>
<path d="M23.5862 99.8618H16V84.1377H23.5862C23.8147 84.1377 24 84.323 24 84.5515V99.4481C24 99.6766 23.8147 99.8618 23.5862 99.8618Z" fill="#FF4B55"/>
<defs>
<clipPath id="clip0">
<path d="M1 0H63V62H1V0Z" fill="white"/>
</clipPath>
<clipPath id="clip1">
<path d="M420 80H444V104H420V80Z" fill="white"/>
</clipPath>
</defs>
</svg>
