<svg width="532" height="207" viewBox="0 0 532 207" fill="none" xmlns="http://www.w3.org/2000/svg">
<rect width="532" height="207" fill="white"/>
<path d="M11.54 3.4H2.18V6.172H5.42V16H8.3V6.172H11.54V3.4ZM17.6275 7V7.846C17.0335 7.162 16.1515 6.748 14.9455 6.748C12.5875 6.748 10.6435 8.818 10.6435 11.5C10.6435 14.182 12.5875 16.252 14.9455 16.252C16.1515 16.252 17.0335 15.838 17.6275 15.154V16H20.3275V7H17.6275ZM15.4855 13.696C14.2435 13.696 13.3435 12.85 13.3435 11.5C13.3435 10.15 14.2435 9.304 15.4855 9.304C16.7275 9.304 17.6275 10.15 17.6275 11.5C17.6275 12.85 16.7275 13.696 15.4855 13.696ZM24.7765 9.628C24.7765 9.304 25.0645 9.124 25.5325 9.124C26.1265 9.124 26.4865 9.448 26.7385 9.916L29.0425 8.674C28.2865 7.396 26.9905 6.748 25.5325 6.748C23.6605 6.748 22.0045 7.738 22.0045 9.7C22.0045 12.814 26.4325 12.292 26.4325 13.282C26.4325 13.642 26.1085 13.84 25.4605 13.84C24.6685 13.84 24.1645 13.462 23.9305 12.778L21.5905 14.11C22.2925 15.568 23.6605 16.252 25.4605 16.252C27.4045 16.252 29.2045 15.37 29.2045 13.3C29.2045 9.97 24.7765 10.654 24.7765 9.628ZM36.9986 7V7.846C36.4046 7.162 35.5226 6.748 34.3166 6.748C31.9586 6.748 30.0146 8.818 30.0146 11.5C30.0146 14.182 31.9586 16.252 34.3166 16.252C35.5226 16.252 36.4046 15.838 36.9986 15.154V16H39.6986V7H36.9986ZM34.8566 13.696C33.6146 13.696 32.7146 12.85 32.7146 11.5C32.7146 10.15 33.6146 9.304 34.8566 9.304C36.0986 9.304 36.9986 10.15 36.9986 11.5C36.9986 12.85 36.0986 13.696 34.8566 13.696ZM52.7135 3.4V7.846C52.1195 7.162 51.2375 6.748 50.0315 6.748C47.6735 6.748 45.7295 8.818 45.7295 11.5C45.7295 14.182 47.6735 16.252 50.0315 16.252C51.2375 16.252 52.1195 15.838 52.7135 15.154V16H55.4135V3.4H52.7135ZM50.5715 13.696C49.3295 13.696 48.4295 12.85 48.4295 11.5C48.4295 10.15 49.3295 9.304 50.5715 9.304C51.8135 9.304 52.7135 10.15 52.7135 11.5C52.7135 12.85 51.8135 13.696 50.5715 13.696ZM59.8063 12.58H66.1963C66.2683 12.238 66.3043 11.878 66.3043 11.5C66.3043 8.782 64.3603 6.748 61.7323 6.748C58.8883 6.748 56.9443 8.818 56.9443 11.5C56.9443 14.182 58.8523 16.252 61.9303 16.252C63.6403 16.252 64.9723 15.622 65.8543 14.398L63.6943 13.156C63.3343 13.552 62.7043 13.84 61.9663 13.84C60.9763 13.84 60.1483 13.516 59.8063 12.58ZM59.7523 10.564C60.0043 9.646 60.6883 9.142 61.7143 9.142C62.5243 9.142 63.3343 9.52 63.6223 10.564H59.7523ZM75.3057 13.228V3.4H72.4257V16H79.8057V13.228H75.3057ZM83.3083 12.58H89.6983C89.7703 12.238 89.8063 11.878 89.8063 11.5C89.8063 8.782 87.8623 6.748 85.2343 6.748C82.3903 6.748 80.4463 8.818 80.4463 11.5C80.4463 14.182 82.3543 16.252 85.4323 16.252C87.1423 16.252 88.4743 15.622 89.3563 14.398L87.1963 13.156C86.8363 13.552 86.2063 13.84 85.4683 13.84C84.4783 13.84 83.6503 13.516 83.3083 12.58ZM83.2543 10.564C83.5063 9.646 84.1903 9.142 85.2163 9.142C86.0263 9.142 86.8363 9.52 87.1243 10.564H83.2543ZM96.348 9.592V7H94.494V4.48L91.794 5.29V7H90.354V9.592H91.794V12.778C91.794 15.298 92.82 16.36 96.348 16V13.552C95.16 13.624 94.494 13.552 94.494 12.778V9.592H96.348ZM104.235 7V7.846C103.641 7.162 102.759 6.748 101.553 6.748C99.1949 6.748 97.2509 8.818 97.2509 11.5C97.2509 14.182 99.1949 16.252 101.553 16.252C102.759 16.252 103.641 15.838 104.235 15.154V16H106.935V7H104.235ZM102.093 13.696C100.851 13.696 99.9509 12.85 99.9509 11.5C99.9509 10.15 100.851 9.304 102.093 9.304C103.335 9.304 104.235 10.15 104.235 11.5C104.235 12.85 103.335 13.696 102.093 13.696ZM108.916 16H111.616V2.86H108.916V16ZM114.942 6.208C115.824 6.208 116.562 5.47 116.562 4.588C116.562 3.706 115.824 2.968 114.942 2.968C114.06 2.968 113.322 3.706 113.322 4.588C113.322 5.47 114.06 6.208 114.942 6.208ZM113.592 16H116.292V7H113.592V16ZM124.801 3.4V7.846C124.207 7.162 123.325 6.748 122.119 6.748C119.761 6.748 117.817 8.818 117.817 11.5C117.817 14.182 119.761 16.252 122.119 16.252C123.325 16.252 124.207 15.838 124.801 15.154V16H127.501V3.4H124.801ZM122.659 13.696C121.417 13.696 120.517 12.85 120.517 11.5C120.517 10.15 121.417 9.304 122.659 9.304C123.901 9.304 124.801 10.15 124.801 11.5C124.801 12.85 123.901 13.696 122.659 13.696ZM136.016 7V7.846C135.422 7.162 134.54 6.748 133.334 6.748C130.976 6.748 129.032 8.818 129.032 11.5C129.032 14.182 130.976 16.252 133.334 16.252C134.54 16.252 135.422 15.838 136.016 15.154V16H138.716V7H136.016ZM133.874 13.696C132.632 13.696 131.732 12.85 131.732 11.5C131.732 10.15 132.632 9.304 133.874 9.304C135.116 9.304 136.016 10.15 136.016 11.5C136.016 12.85 135.116 13.696 133.874 13.696ZM147.231 3.4V7.846C146.637 7.162 145.755 6.748 144.549 6.748C142.191 6.748 140.247 8.818 140.247 11.5C140.247 14.182 142.191 16.252 144.549 16.252C145.755 16.252 146.637 15.838 147.231 15.154V16H149.931V3.4H147.231ZM145.089 13.696C143.847 13.696 142.947 12.85 142.947 11.5C142.947 10.15 143.847 9.304 145.089 9.304C146.331 9.304 147.231 10.15 147.231 11.5C147.231 12.85 146.331 13.696 145.089 13.696Z" fill="#101010"/>
<line x1="2" y1="32.5" x2="532" y2="32.5" stroke="#A0A6AF" stroke-dasharray="2 4"/>
<path d="M0.413812 155.862H23.5862C23.8147 155.862 24 155.677 24 155.448V140.552C24 140.323 23.8147 140.138 23.5862 140.138H0.413812C0.185297 140.138 0 140.323 0 140.552V155.448C0 155.677 0.185297 155.862 0.413812 155.862Z" fill="#C8414B"/>
<path d="M24 143.448H0V152.552H24V143.448Z" fill="#FFD250"/>
<path d="M10.1377 148L10.4886 146.421C10.5209 146.276 10.4103 146.138 10.2613 146.138H10.0142C9.86524 146.138 9.75462 146.276 9.78687 146.421L10.1377 148Z" fill="#C8414B"/>
<path d="M10.5502 147.172H9.72266V150.689H10.5502V147.172Z" fill="#F5F5F5"/>
<path d="M10.757 146.759H9.51562V147.173H10.757V146.759Z" fill="#FAB446"/>
<path d="M10.7566 148H8.6875V148.414H10.7566V148Z" fill="#C8414B"/>
<path d="M10.757 149.655L9.51562 149.241V148.828L10.757 149.241V149.655Z" fill="#C8414B"/>
<path d="M3.9307 148L4.28156 146.421C4.3139 146.276 4.20323 146.138 4.05426 146.138H3.80714C3.65821 146.138 3.54759 146.276 3.57984 146.421L3.9307 148Z" fill="#C8414B"/>
<path d="M5.37866 146.759C5.15014 146.759 4.96484 146.944 4.96484 147.172V149.862C4.96484 150.365 5.43406 151.31 7.03381 151.31C8.63356 151.31 9.10277 150.365 9.10277 149.862V147.172C9.10277 146.944 8.91748 146.759 8.68896 146.759H5.37866V146.759Z" fill="#F5F5F5"/>
<path d="M7.03381 148.828H4.96484V147.172C4.96484 146.944 5.15014 146.759 5.37866 146.759H7.03381V148.828Z" fill="#C8414B"/>
<path d="M7.03516 148.828H9.10412V149.862C9.10412 150.433 8.641 150.897 8.06964 150.897C7.49828 150.897 7.03516 150.433 7.03516 149.862V148.828V148.828Z" fill="#C8414B"/>
<path d="M4.96484 148.828H7.03381V149.862C7.03381 150.433 6.57068 150.897 5.99933 150.897C5.42797 150.897 4.96484 150.433 4.96484 149.862V148.828V148.828Z" fill="#FAB446"/>
<path d="M6.62084 150.685V148.828H6.20703V150.876C6.36097 150.844 6.50005 150.776 6.62084 150.685Z" fill="#C8414B"/>
<path d="M5.79272 150.876V148.828H5.37891V150.685C5.49975 150.776 5.63883 150.844 5.79272 150.876Z" fill="#C8414B"/>
<path d="M6.62029 148H5.37891V148.414H6.62029V148Z" fill="#FFB441"/>
<path d="M6.62029 147.172H5.37891V147.586H6.62029V147.172Z" fill="#FAB446"/>
<path d="M6.41351 147.418H5.58594V148.168H6.41351V147.418Z" fill="#FAB446"/>
<path d="M4.3432 147.172H3.51562V150.689H4.3432V147.172Z" fill="#F5F5F5"/>
<path d="M4.54998 150.483H3.30859V150.897H4.54998V150.483Z" fill="#FAB446"/>
<path d="M4.54998 146.759H3.30859V147.173H4.54998V146.759Z" fill="#FAB446"/>
<path d="M4.76062 150.896H3.10547V151.31H4.76062V150.896Z" fill="#5064AA"/>
<path d="M10.964 150.483H9.72266V150.897H10.964V150.483Z" fill="#FAB446"/>
<path d="M10.9637 150.896H9.30859V151.31H10.9637V150.896Z" fill="#5064AA"/>
<path d="M8.27575 146.345H5.79297V146.759H8.27575V146.345Z" fill="#FAB446"/>
<path d="M7.24194 145.104H6.82812V146.345H7.24194V145.104Z" fill="#FFB441"/>
<path d="M6.62067 145.724C6.27839 145.724 6 145.446 6 145.103C6 144.761 6.27844 144.483 6.62067 144.483C6.96295 144.483 7.24134 144.761 7.24134 145.103C7.24139 145.446 6.96295 145.724 6.62067 145.724ZM6.62067 144.897C6.50653 144.897 6.41376 144.989 6.41376 145.103C6.41376 145.218 6.50648 145.31 6.62067 145.31C6.73486 145.31 6.82758 145.218 6.82758 145.103C6.82758 144.989 6.73486 144.897 6.62067 144.897Z" fill="#F5F5F5"/>
<path d="M7.4488 145.724C7.10651 145.724 6.82812 145.446 6.82812 145.103C6.82812 144.761 7.10656 144.483 7.4488 144.483C7.79108 144.483 8.06947 144.761 8.06947 145.103C8.06947 145.446 7.79103 145.724 7.4488 145.724ZM7.4488 144.897C7.33465 144.897 7.24189 144.989 7.24189 145.103C7.24189 145.218 7.33461 145.31 7.4488 145.31C7.56294 145.31 7.6557 145.218 7.6557 145.103C7.65565 144.989 7.56294 144.897 7.4488 144.897Z" fill="#F5F5F5"/>
<path d="M8.27692 146.138C7.93464 146.138 7.65625 145.86 7.65625 145.517C7.65625 145.175 7.93469 144.897 8.27692 144.897C8.6192 144.897 8.89759 145.175 8.89759 145.517C8.89759 145.86 8.61915 146.138 8.27692 146.138ZM8.27692 145.31C8.16278 145.31 8.07001 145.403 8.07001 145.517C8.07001 145.631 8.16273 145.724 8.27692 145.724C8.39106 145.724 8.48383 145.631 8.48383 145.517C8.48383 145.403 8.39106 145.31 8.27692 145.31Z" fill="#F5F5F5"/>
<path d="M5.79255 146.138C5.45026 146.138 5.17188 145.86 5.17188 145.517C5.17188 145.175 5.45031 144.897 5.79255 144.897C6.13483 144.897 6.41322 145.175 6.41322 145.517C6.41326 145.86 6.13483 146.138 5.79255 146.138ZM5.79255 145.31C5.67841 145.31 5.58564 145.403 5.58564 145.517C5.58564 145.631 5.67836 145.724 5.79255 145.724C5.90673 145.724 5.99945 145.631 5.99945 145.517C5.99945 145.403 5.90673 145.31 5.79255 145.31Z" fill="#F5F5F5"/>
<path d="M8.27684 149.655V149.862C8.27684 149.976 8.18403 150.069 8.06994 150.069C7.95584 150.069 7.86303 149.976 7.86303 149.862V149.655H8.27684ZM8.69061 149.241H7.44922V149.862C7.44922 150.204 7.72766 150.483 8.06989 150.483C8.41217 150.483 8.69056 150.204 8.69056 149.862V149.241H8.69061Z" fill="#FAB446"/>
<path d="M8.07006 148.414C7.84155 148.414 7.65625 148.229 7.65625 148V147.586C7.65625 147.358 7.84155 147.172 8.07006 147.172C8.29858 147.172 8.48387 147.358 8.48387 147.586V148C8.48387 148.229 8.29858 148.414 8.07006 148.414Z" fill="#FFA0D2"/>
<path d="M7.03473 149.448C7.37752 149.448 7.6554 149.17 7.6554 148.827C7.6554 148.485 7.37752 148.207 7.03473 148.207C6.69195 148.207 6.41406 148.485 6.41406 148.827C6.41406 149.17 6.69195 149.448 7.03473 149.448Z" fill="#5064AA"/>
<path d="M7.24194 144.276H6.82812V145.517H7.24194V144.276Z" fill="#FAB446"/>
<path d="M5.79272 146.345L5.37891 145.931L5.6213 145.689C5.99597 145.314 6.50419 145.103 7.03411 145.103C7.56403 145.103 8.0722 145.314 8.44692 145.689L8.68931 145.931L8.27549 146.345H5.79272Z" fill="#C8414B"/>
<path d="M7.03503 146.138C7.1493 146.138 7.24194 146.045 7.24194 145.931C7.24194 145.817 7.1493 145.724 7.03503 145.724C6.92076 145.724 6.82812 145.817 6.82812 145.931C6.82812 146.045 6.92076 146.138 7.03503 146.138Z" fill="#FFD250"/>
<path d="M6.20691 146.138C6.32118 146.138 6.41381 146.045 6.41381 145.931C6.41381 145.817 6.32118 145.724 6.20691 145.724C6.09263 145.724 6 145.817 6 145.931C6 146.045 6.09263 146.138 6.20691 146.138Z" fill="#FFD250"/>
<path d="M7.86316 146.138C7.97743 146.138 8.07006 146.045 8.07006 145.931C8.07006 145.817 7.97743 145.724 7.86316 145.724C7.74888 145.724 7.65625 145.817 7.65625 145.931C7.65625 146.045 7.74888 146.138 7.86316 146.138Z" fill="#FFD250"/>
<path d="M5.37765 148H3.30859V148.414H5.37765V148Z" fill="#C8414B"/>
<path d="M3.30859 149.655L4.54994 149.241V148.828L3.30859 149.241V149.655Z" fill="#C8414B"/>
<path d="M297.76 90.264V87.8H290.96V99H293.52V94.888H297.68V92.424H293.52V90.264H297.76ZM301.593 92.424V91H299.193V99H301.593V95.384C301.593 93.8 303.001 93.4 303.993 93.56V90.84C302.985 90.84 301.913 91.352 301.593 92.424ZM310.688 91V91.752C310.16 91.144 309.376 90.776 308.304 90.776C306.208 90.776 304.48 92.616 304.48 95C304.48 97.384 306.208 99.224 308.304 99.224C309.376 99.224 310.16 98.856 310.688 98.248V99H313.088V91H310.688ZM308.784 96.952C307.68 96.952 306.88 96.2 306.88 95C306.88 93.8 307.68 93.048 308.784 93.048C309.888 93.048 310.688 93.8 310.688 95C310.688 96.2 309.888 96.952 308.784 96.952ZM319.537 90.776C318.481 90.776 317.681 91.16 317.249 91.752V91H314.849V99H317.249V94.632C317.249 93.496 317.857 92.984 318.737 92.984C319.505 92.984 320.129 93.448 320.129 94.44V99H322.529V94.088C322.529 91.928 321.153 90.776 319.537 90.776ZM328.017 99.224C329.585 99.224 330.945 98.408 331.633 97.16L329.537 95.96C329.281 96.52 328.689 96.856 327.985 96.856C326.945 96.856 326.177 96.104 326.177 95C326.177 93.896 326.945 93.144 327.985 93.144C328.689 93.144 329.265 93.48 329.537 94.04L331.633 92.824C330.945 91.592 329.569 90.776 328.017 90.776C325.585 90.776 323.777 92.616 323.777 95C323.777 97.384 325.585 99.224 328.017 99.224ZM333.799 90.296C334.583 90.296 335.239 89.64 335.239 88.856C335.239 88.072 334.583 87.416 333.799 87.416C333.015 87.416 332.359 88.072 332.359 88.856C332.359 89.64 333.015 90.296 333.799 90.296ZM332.599 99H334.999V91H332.599V99ZM342.563 91V91.752C342.035 91.144 341.251 90.776 340.179 90.776C338.083 90.776 336.355 92.616 336.355 95C336.355 97.384 338.083 99.224 340.179 99.224C341.251 99.224 342.035 98.856 342.563 98.248V99H344.963V91H342.563ZM340.659 96.952C339.555 96.952 338.755 96.2 338.755 95C338.755 93.8 339.555 93.048 340.659 93.048C341.763 93.048 342.563 93.8 342.563 95C342.563 96.2 341.763 96.952 340.659 96.952Z" fill="#3CC3DD"/>
<path d="M293.088 107.8L290.16 108.856L290.784 111.048L292.768 110.504V119H295.328V107.8H293.088ZM296.613 107.8V110.264H301.125L297.605 119H300.325L303.973 109.944V107.8H296.613ZM305.811 116.52H303.251L302.611 121.24H304.531L305.811 116.52ZM314.046 111.528C314.046 109.208 312.366 107.576 309.886 107.576C307.422 107.576 305.726 109.208 305.726 111.528C305.726 113.704 307.23 115.288 309.454 115.464L307.022 119H309.966L313.39 113.8C313.806 113.176 314.046 112.392 314.046 111.528ZM308.286 111.528C308.286 110.552 309.038 109.976 309.886 109.976C310.75 109.976 311.486 110.536 311.486 111.528C311.486 112.52 310.75 113.08 309.886 113.08C309.038 113.08 308.286 112.504 308.286 111.528ZM317.783 113.016C319.367 113.016 320.551 111.8 320.551 110.296C320.551 108.744 319.367 107.576 317.783 107.576C316.183 107.576 314.999 108.792 314.999 110.296C314.999 111.8 316.183 113.016 317.783 113.016ZM316.327 117.24L317.383 117.864L324.615 109.848L323.559 109.24L316.327 117.24ZM317.767 111.176C317.271 111.176 316.919 110.792 316.919 110.296C316.919 109.8 317.271 109.416 317.767 109.416C318.279 109.416 318.631 109.8 318.631 110.296C318.631 110.76 318.279 111.176 317.767 111.176ZM323.495 119.192C325.079 119.192 326.263 117.976 326.263 116.472C326.263 114.968 325.079 113.752 323.495 113.752C321.895 113.752 320.711 114.968 320.711 116.472C320.711 117.976 321.895 119.192 323.495 119.192ZM323.479 117.352C322.983 117.352 322.631 116.968 322.631 116.472C322.631 115.976 322.983 115.592 323.479 115.592C323.991 115.592 324.343 115.976 324.343 116.472C324.343 116.936 323.991 117.352 323.479 117.352Z" fill="#FA0067"/>
<path d="M152.04 170.8V175.088H148.52V170.8H145.96V182H148.52V177.552H152.04V182H154.6V170.8H152.04ZM160.283 182.224C162.635 182.224 164.523 180.384 164.523 178C164.523 175.616 162.635 173.776 160.283 173.776C157.931 173.776 156.043 175.616 156.043 178C156.043 180.384 157.931 182.224 160.283 182.224ZM160.283 179.888C159.243 179.888 158.443 179.136 158.443 178C158.443 176.864 159.243 176.112 160.283 176.112C161.323 176.112 162.123 176.864 162.123 178C162.123 179.136 161.323 179.888 160.283 179.888ZM165.88 182H168.28V170.32H165.88V182ZM175.844 174V174.752C175.316 174.144 174.532 173.776 173.46 173.776C171.364 173.776 169.636 175.616 169.636 178C169.636 180.384 171.364 182.224 173.46 182.224C174.532 182.224 175.316 181.856 175.844 181.248V182H178.244V174H175.844ZM173.94 179.952C172.836 179.952 172.036 179.2 172.036 178C172.036 176.8 172.836 176.048 173.94 176.048C175.044 176.048 175.844 176.8 175.844 178C175.844 179.2 175.044 179.952 173.94 179.952ZM184.693 173.776C183.637 173.776 182.837 174.16 182.405 174.752V174H180.005V182H182.405V177.632C182.405 176.496 183.013 175.984 183.893 175.984C184.661 175.984 185.285 176.448 185.285 177.44V182H187.685V177.088C187.685 174.928 186.309 173.776 184.693 173.776ZM195.141 170.8V174.752C194.613 174.144 193.829 173.776 192.757 173.776C190.661 173.776 188.933 175.616 188.933 178C188.933 180.384 190.661 182.224 192.757 182.224C193.829 182.224 194.613 181.856 195.141 181.248V182H197.541V170.8H195.141ZM193.237 179.952C192.133 179.952 191.333 179.2 191.333 178C191.333 176.8 192.133 176.048 193.237 176.048C194.341 176.048 195.141 176.8 195.141 178C195.141 179.2 194.341 179.952 193.237 179.952ZM205.11 174V174.752C204.582 174.144 203.798 173.776 202.726 173.776C200.63 173.776 198.902 175.616 198.902 178C198.902 180.384 200.63 182.224 202.726 182.224C203.798 182.224 204.582 181.856 205.11 181.248V182H207.51V174H205.11ZM203.206 179.952C202.102 179.952 201.302 179.2 201.302 178C201.302 176.8 202.102 176.048 203.206 176.048C204.31 176.048 205.11 176.8 205.11 178C205.11 179.2 204.31 179.952 203.206 179.952Z" fill="#3CC3DD"/>
<path d="M148.088 190.8L145.16 191.856L145.784 194.048L147.768 193.504V202H150.328V190.8H148.088ZM154.541 190.8L151.613 191.856L152.237 194.048L154.221 193.504V202H156.781V190.8H154.541ZM161.826 199.52H159.266L158.626 204.24H160.546L161.826 199.52ZM167.459 194.336L169.891 190.8H166.947L163.523 196C163.107 196.624 162.867 197.408 162.867 198.272C162.867 200.592 164.547 202.224 167.027 202.224C169.491 202.224 171.187 200.592 171.187 198.272C171.187 196.096 169.683 194.512 167.459 194.336ZM167.027 199.824C166.163 199.824 165.427 199.264 165.427 198.272C165.427 197.28 166.163 196.72 167.027 196.72C167.875 196.72 168.627 197.296 168.627 198.272C168.627 199.248 167.875 199.824 167.027 199.824ZM174.44 196.016C176.024 196.016 177.208 194.8 177.208 193.296C177.208 191.744 176.024 190.576 174.44 190.576C172.84 190.576 171.656 191.792 171.656 193.296C171.656 194.8 172.84 196.016 174.44 196.016ZM172.984 200.24L174.04 200.864L181.272 192.848L180.216 192.24L172.984 200.24ZM174.424 194.176C173.928 194.176 173.576 193.792 173.576 193.296C173.576 192.8 173.928 192.416 174.424 192.416C174.936 192.416 175.288 192.8 175.288 193.296C175.288 193.76 174.936 194.176 174.424 194.176ZM180.152 202.192C181.736 202.192 182.92 200.976 182.92 199.472C182.92 197.968 181.736 196.752 180.152 196.752C178.552 196.752 177.368 197.968 177.368 199.472C177.368 200.976 178.552 202.192 180.152 202.192ZM180.136 200.352C179.64 200.352 179.288 199.968 179.288 199.472C179.288 198.976 179.64 198.592 180.136 198.592C180.648 198.592 181 198.976 181 199.472C181 199.936 180.648 200.352 180.136 200.352Z" fill="#FA0067"/>
<path d="M4.52 179.536V177.552H8.52V175.12H4.52V173.264H8.92V170.8H1.96V182H9V179.536H4.52ZM12.6364 176.336C12.6364 176.048 12.8924 175.888 13.3084 175.888C13.8364 175.888 14.1564 176.176 14.3804 176.592L16.4284 175.488C15.7564 174.352 14.6044 173.776 13.3084 173.776C11.6444 173.776 10.1724 174.656 10.1724 176.4C10.1724 179.168 14.1084 178.704 14.1084 179.584C14.1084 179.904 13.8204 180.08 13.2444 180.08C12.5404 180.08 12.0924 179.744 11.8844 179.136L9.80438 180.32C10.4284 181.616 11.6444 182.224 13.2444 182.224C14.9724 182.224 16.5724 181.44 16.5724 179.6C16.5724 176.64 12.6364 177.248 12.6364 176.336ZM22.6328 173.776C21.5608 173.776 20.7768 174.144 20.2488 174.752V174H17.8488V185.2H20.2488V181.248C20.7768 181.856 21.5608 182.224 22.6328 182.224C24.7288 182.224 26.4568 180.384 26.4568 178C26.4568 175.616 24.7288 173.776 22.6328 173.776ZM22.1528 179.952C21.0488 179.952 20.2488 179.2 20.2488 178C20.2488 176.8 21.0488 176.048 22.1528 176.048C23.2568 176.048 24.0568 176.8 24.0568 178C24.0568 179.2 23.2568 179.952 22.1528 179.952ZM33.6255 174V174.752C33.0975 174.144 32.3135 173.776 31.2415 173.776C29.1455 173.776 27.4175 175.616 27.4175 178C27.4175 180.384 29.1455 182.224 31.2415 182.224C32.3135 182.224 33.0975 181.856 33.6255 181.248V182H36.0255V174H33.6255ZM31.7215 179.952C30.6175 179.952 29.8175 179.2 29.8175 178C29.8175 176.8 30.6175 176.048 31.7215 176.048C32.8255 176.048 33.6255 176.8 33.6255 178C33.6255 179.2 32.8255 179.952 31.7215 179.952ZM41.4503 172.608C42.9063 173.504 44.5863 173.216 44.5863 170.48H42.6663C42.6663 171.12 42.5223 171.2 41.9783 170.864C40.5223 169.968 38.8423 170.256 38.8423 172.992H40.7623C40.7623 172.352 40.9062 172.272 41.4503 172.608ZM42.4743 173.776C41.4183 173.776 40.6183 174.16 40.1863 174.752V174H37.7863V182H40.1863V177.632C40.1863 176.496 40.7943 175.984 41.6743 175.984C42.4423 175.984 43.0663 176.448 43.0663 177.44V182H45.4663V177.088C45.4663 174.928 44.0903 173.776 42.4743 173.776ZM52.9224 174V174.752C52.3944 174.144 51.6104 173.776 50.5384 173.776C48.4424 173.776 46.7144 175.616 46.7144 178C46.7144 180.384 48.4424 182.224 50.5384 182.224C51.6104 182.224 52.3944 181.856 52.9224 181.248V182H55.3224V174H52.9224ZM51.0184 179.952C49.9144 179.952 49.1144 179.2 49.1144 178C49.1144 176.8 49.9144 176.048 51.0184 176.048C52.1224 176.048 52.9224 176.8 52.9224 178C52.9224 179.2 52.1224 179.952 51.0184 179.952Z" fill="#3CC3DD"/>
<path d="M4.088 190.8L1.16 191.856L1.784 194.048L3.768 193.504V202H6.328V190.8H4.088ZM12.4931 202.224C15.3891 202.224 17.0531 199.856 17.0531 196.4C17.0531 192.944 15.3891 190.576 12.4931 190.576C9.59713 190.576 7.93313 192.944 7.93313 196.4C7.93313 199.856 9.59713 202.224 12.4931 202.224ZM12.4931 199.728C11.1491 199.728 10.4931 198.56 10.4931 196.4C10.4931 194.24 11.1491 193.072 12.4931 193.072C13.8371 193.072 14.4931 194.24 14.4931 196.4C14.4931 198.56 13.8371 199.728 12.4931 199.728ZM20.9669 199.52H18.4069L17.7669 204.24H19.6869L20.9669 199.52ZM30.8075 197.84H29.6875V195.44H27.0955V197.84H24.7595L28.3275 190.8H25.5755L22.0075 197.84V200.208H27.0955V202H29.6875V200.208H30.8075V197.84ZM33.5959 196.016C35.1799 196.016 36.3639 194.8 36.3639 193.296C36.3639 191.744 35.1799 190.576 33.5959 190.576C31.9959 190.576 30.8119 191.792 30.8119 193.296C30.8119 194.8 31.9959 196.016 33.5959 196.016ZM32.1399 200.24L33.1959 200.864L40.4279 192.848L39.3719 192.24L32.1399 200.24ZM33.5799 194.176C33.0839 194.176 32.7319 193.792 32.7319 193.296C32.7319 192.8 33.0839 192.416 33.5799 192.416C34.0919 192.416 34.4439 192.8 34.4439 193.296C34.4439 193.76 34.0919 194.176 33.5799 194.176ZM39.3079 202.192C40.8919 202.192 42.0759 200.976 42.0759 199.472C42.0759 197.968 40.8919 196.752 39.3079 196.752C37.7079 196.752 36.5239 197.968 36.5239 199.472C36.5239 200.976 37.7079 202.192 39.3079 202.192ZM39.2919 200.352C38.7959 200.352 38.4439 199.968 38.4439 199.472C38.4439 198.976 38.7959 198.592 39.2919 198.592C39.8039 198.592 40.1559 198.976 40.1559 199.472C40.1559 199.936 39.8039 200.352 39.2919 200.352Z" fill="#FA0067"/>
<path d="M0.96 88.8V100H3.52V88.8H0.96ZM10.0524 94.304V92H8.40438V89.76L6.00438 90.48V92H4.72438V94.304H6.00438V97.136C6.00438 99.376 6.91638 100.32 10.0524 100V97.824C8.99638 97.888 8.40438 97.824 8.40438 97.136V94.304H10.0524ZM17.063 92V92.752C16.535 92.144 15.751 91.776 14.679 91.776C12.583 91.776 10.855 93.616 10.855 96C10.855 98.384 12.583 100.224 14.679 100.224C15.751 100.224 16.535 99.856 17.063 99.248V100H19.463V92H17.063ZM15.159 97.952C14.055 97.952 13.255 97.2 13.255 96C13.255 94.8 14.055 94.048 15.159 94.048C16.263 94.048 17.063 94.8 17.063 96C17.063 97.2 16.263 97.952 15.159 97.952ZM21.2238 100H23.6238V88.32H21.2238V100ZM26.58 91.296C27.364 91.296 28.02 90.64 28.02 89.856C28.02 89.072 27.364 88.416 26.58 88.416C25.796 88.416 25.14 89.072 25.14 89.856C25.14 90.64 25.796 91.296 26.58 91.296ZM25.38 100H27.78V92H25.38V100ZM35.3443 92V92.752C34.8163 92.144 34.0323 91.776 32.9603 91.776C30.8643 91.776 29.1363 93.616 29.1363 96C29.1363 98.384 30.8643 100.224 32.9603 100.224C34.0323 100.224 34.8163 99.856 35.3443 99.248V100H37.7443V92H35.3443ZM33.4403 97.952C32.3363 97.952 31.5363 97.2 31.5363 96C31.5363 94.8 32.3363 94.048 33.4403 94.048C34.5443 94.048 35.3443 94.8 35.3443 96C35.3443 97.2 34.5443 97.952 33.4403 97.952Z" fill="#3CC3DD"/>
<path d="M3.088 108.8L0.16 109.856L0.784 112.048L2.768 111.504V120H5.328V108.8H3.088ZM12.3891 113.344L14.3251 110.88V108.8H7.12513V111.2H11.2211L9.18913 113.776L10.1651 115.232H10.6931C11.7491 115.232 12.2131 115.792 12.2131 116.48C12.2131 117.168 11.7491 117.728 10.6931 117.728C9.71713 117.728 9.23713 117.28 8.98113 116.544L6.77313 117.824C7.46113 119.472 8.99713 120.224 10.6931 120.224C12.8531 120.224 14.7731 118.944 14.7731 116.48C14.7731 114.928 13.7651 113.824 12.3891 113.344ZM18.8575 117.52H16.2975L15.6575 122.24H17.5775L18.8575 117.52ZM28.6981 115.84H27.5781V113.44H24.9861V115.84H22.6501L26.2181 108.8H23.4661L19.8981 115.84V118.208H24.9861V120H27.5781V118.208H28.6981V115.84ZM31.4865 114.016C33.0705 114.016 34.2545 112.8 34.2545 111.296C34.2545 109.744 33.0705 108.576 31.4865 108.576C29.8865 108.576 28.7025 109.792 28.7025 111.296C28.7025 112.8 29.8865 114.016 31.4865 114.016ZM30.0305 118.24L31.0865 118.864L38.3185 110.848L37.2625 110.24L30.0305 118.24ZM31.4705 112.176C30.9745 112.176 30.6225 111.792 30.6225 111.296C30.6225 110.8 30.9745 110.416 31.4705 110.416C31.9825 110.416 32.3345 110.8 32.3345 111.296C32.3345 111.76 31.9825 112.176 31.4705 112.176ZM37.1985 120.192C38.7825 120.192 39.9665 118.976 39.9665 117.472C39.9665 115.968 38.7825 114.752 37.1985 114.752C35.5985 114.752 34.4145 115.968 34.4145 117.472C34.4145 118.976 35.5985 120.192 37.1985 120.192ZM37.1825 118.352C36.6865 118.352 36.3345 117.968 36.3345 117.472C36.3345 116.976 36.6865 116.592 37.1825 116.592C37.6945 116.592 38.0465 116.976 38.0465 117.472C38.0465 117.936 37.6945 118.352 37.1825 118.352Z" fill="#FA0067"/>
<path d="M426.848 99H429.6L427.216 94.888C428.448 94.264 429.28 93.016 429.28 91.64C429.28 89.512 427.568 87.8 425.44 87.8H420.96V99H423.52V95.32H424.736L426.848 99ZM423.52 90.2H425.44C426.144 90.2 426.72 90.824 426.72 91.64C426.72 92.456 426.144 93.08 425.44 93.08H423.52V90.2ZM432.462 95.96H438.142C438.206 95.656 438.238 95.336 438.238 95C438.238 92.584 436.51 90.776 434.174 90.776C431.646 90.776 429.918 92.616 429.918 95C429.918 97.384 431.614 99.224 434.35 99.224C435.87 99.224 437.054 98.664 437.838 97.576L435.918 96.472C435.598 96.824 435.038 97.08 434.382 97.08C433.502 97.08 432.766 96.792 432.462 95.96ZM432.414 94.168C432.638 93.352 433.246 92.904 434.158 92.904C434.878 92.904 435.598 93.24 435.854 94.168H432.414ZM440.799 90.296C441.583 90.296 442.239 89.64 442.239 88.856C442.239 88.072 441.583 87.416 440.799 87.416C440.015 87.416 439.359 88.072 439.359 88.856C439.359 89.64 440.015 90.296 440.799 90.296ZM439.599 99H441.999V91H439.599V99ZM448.443 90.776C447.387 90.776 446.587 91.16 446.155 91.752V91H443.755V99H446.155V94.632C446.155 93.496 446.763 92.984 447.643 92.984C448.411 92.984 449.035 93.448 449.035 94.44V99H451.435V94.088C451.435 91.928 450.059 90.776 448.443 90.776ZM456.923 99.224C459.275 99.224 461.163 97.384 461.163 95C461.163 92.616 459.275 90.776 456.923 90.776C454.571 90.776 452.683 92.616 452.683 95C452.683 97.384 454.571 99.224 456.923 99.224ZM456.923 96.888C455.883 96.888 455.083 96.136 455.083 95C455.083 93.864 455.883 93.112 456.923 93.112C457.963 93.112 458.763 93.864 458.763 95C458.763 96.136 457.963 96.888 456.923 96.888ZM470.841 99.224C473.305 99.224 475.161 97.784 475.161 95.384V87.8H472.601V95.16C472.601 96.008 472.201 96.728 470.841 96.728C469.481 96.728 469.081 96.008 469.081 95.16V87.8H466.521V95.384C466.521 97.784 468.377 99.224 470.841 99.224ZM481.615 90.776C480.559 90.776 479.759 91.16 479.327 91.752V91H476.927V99H479.327V94.632C479.327 93.496 479.935 92.984 480.815 92.984C481.583 92.984 482.207 93.448 482.207 94.44V99H484.607V94.088C484.607 91.928 483.231 90.776 481.615 90.776ZM487.455 90.296C488.239 90.296 488.895 89.64 488.895 88.856C488.895 88.072 488.239 87.416 487.455 87.416C486.671 87.416 486.015 88.072 486.015 88.856C486.015 89.64 486.671 90.296 487.455 90.296ZM486.255 99H488.655V91H486.255V99ZM496.219 87.8V91.752C495.691 91.144 494.907 90.776 493.835 90.776C491.739 90.776 490.011 92.616 490.011 95C490.011 97.384 491.739 99.224 493.835 99.224C494.907 99.224 495.691 98.856 496.219 98.248V99H498.619V87.8H496.219ZM494.315 96.952C493.211 96.952 492.411 96.2 492.411 95C492.411 93.8 493.211 93.048 494.315 93.048C495.419 93.048 496.219 93.8 496.219 95C496.219 96.2 495.419 96.952 494.315 96.952ZM504.22 99.224C506.572 99.224 508.46 97.384 508.46 95C508.46 92.616 506.572 90.776 504.22 90.776C501.868 90.776 499.98 92.616 499.98 95C499.98 97.384 501.868 99.224 504.22 99.224ZM504.22 96.888C503.18 96.888 502.38 96.136 502.38 95C502.38 93.864 503.18 93.112 504.22 93.112C505.26 93.112 506.06 93.864 506.06 95C506.06 96.136 505.26 96.888 504.22 96.888Z" fill="#3CC3DD"/>
<path d="M423.088 107.8L420.16 108.856L420.784 111.048L422.768 110.504V119H425.328V107.8H423.088ZM432.389 112.344L434.325 109.88V107.8H427.125V110.2H431.221L429.189 112.776L430.165 114.232H430.693C431.749 114.232 432.213 114.792 432.213 115.48C432.213 116.168 431.749 116.728 430.693 116.728C429.717 116.728 429.237 116.28 428.981 115.544L426.773 116.824C427.461 118.472 428.997 119.224 430.693 119.224C432.853 119.224 434.773 117.944 434.773 115.48C434.773 113.928 433.765 112.824 432.389 112.344ZM438.858 116.52H436.298L435.658 121.24H437.578L438.858 116.52ZM444.49 111.336L446.922 107.8H443.978L440.554 113C440.138 113.624 439.898 114.408 439.898 115.272C439.898 117.592 441.578 119.224 444.058 119.224C446.522 119.224 448.218 117.592 448.218 115.272C448.218 113.096 446.714 111.512 444.49 111.336ZM444.058 116.824C443.194 116.824 442.458 116.264 442.458 115.272C442.458 114.28 443.194 113.72 444.058 113.72C444.906 113.72 445.658 114.296 445.658 115.272C445.658 116.248 444.906 116.824 444.058 116.824ZM451.471 113.016C453.055 113.016 454.239 111.8 454.239 110.296C454.239 108.744 453.055 107.576 451.471 107.576C449.871 107.576 448.687 108.792 448.687 110.296C448.687 111.8 449.871 113.016 451.471 113.016ZM450.015 117.24L451.071 117.864L458.303 109.848L457.247 109.24L450.015 117.24ZM451.455 111.176C450.959 111.176 450.607 110.792 450.607 110.296C450.607 109.8 450.959 109.416 451.455 109.416C451.967 109.416 452.319 109.8 452.319 110.296C452.319 110.76 451.967 111.176 451.455 111.176ZM457.183 119.192C458.767 119.192 459.951 117.976 459.951 116.472C459.951 114.968 458.767 113.752 457.183 113.752C455.583 113.752 454.399 114.968 454.399 116.472C454.399 117.976 455.583 119.192 457.183 119.192ZM457.167 117.352C456.671 117.352 456.319 116.968 456.319 116.472C456.319 115.976 456.671 115.592 457.167 115.592C457.679 115.592 458.031 115.976 458.031 116.472C458.031 116.936 457.679 117.352 457.167 117.352Z" fill="#FA0067"/>
<g clip-path="url(#clip0)">
<path d="M443.586 73.862H420.414C420.185 73.862 420 73.6767 420 73.4482V58.5517C420 58.3232 420.185 58.1379 420.414 58.1379H443.586C443.815 58.1379 444 58.3232 444 58.5517V73.4482C444 73.6767 443.815 73.862 443.586 73.862Z" fill="#41479B"/>
<path d="M444 58.5517C444 58.3232 443.815 58.1379 443.586 58.1379H441.735L434.069 63.1604V58.1379H429.931V63.1604L422.265 58.1379H420.414C420.185 58.1379 420 58.3232 420 58.5517V59.6219L426.577 63.931H420V68.0689H426.577L420 72.378V73.4482C420 73.6767 420.185 73.862 420.414 73.862H422.265L429.931 68.8395V73.862H434.069V68.8395L441.735 73.862H443.586C443.815 73.862 444 73.6767 444 73.4482V72.378L437.423 68.069H444V63.931H437.423L444 59.6219V58.5517Z" fill="#F5F5F5"/>
<path d="M444 64.7586H433.241V58.1379H430.759V64.7586H420V67.2413H430.759V73.862H433.241V67.2413H444V64.7586Z" fill="#FF4B55"/>
<path d="M428.388 68.0689L420.012 73.5063C420.041 73.7061 420.206 73.862 420.414 73.862H420.984L429.908 68.069H428.388V68.0689V68.0689Z" fill="#FF4B55"/>
<path d="M436.239 68.0689H434.719L443.63 73.8535C443.838 73.8313 444.002 73.6617 444.002 73.4482V73.108L436.239 68.0689Z" fill="#FF4B55"/>
<path d="M420 59.0085L427.583 63.931H429.103L420.241 58.1783C420.1 58.244 420 58.3854 420 58.5517V59.0085Z" fill="#FF4B55"/>
<path d="M435.59 63.9311L443.987 58.4806C443.952 58.2874 443.791 58.138 443.587 58.138H442.995L434.07 63.9311H435.59Z" fill="#FF4B55"/>
</g>
<path d="M296 73.8619H288.414C288.185 73.8619 288 73.6766 288 73.4481V58.5516C288 58.323 288.185 58.1378 288.414 58.1378H296V73.8619Z" fill="#41479B"/>
<path d="M304 58.138H296V73.8622H304V58.138Z" fill="#F5F5F5"/>
<path d="M311.586 73.8619H304V58.1378H311.586C311.815 58.1378 312 58.3231 312 58.5516V73.4481C312 73.6767 311.815 73.8619 311.586 73.8619Z" fill="#FF4B55"/>
<g clip-path="url(#clip1)">
<path d="M155 73.8619H147.414C147.185 73.8619 147 73.6766 147 73.4481V58.5516C147 58.323 147.185 58.1378 147.414 58.1378H155V73.8619Z" fill="#464655"/>
<path d="M163 58.138H155V73.8622H163V58.138Z" fill="#FFE15A"/>
<path d="M170.586 73.8619H163V58.1378H170.586C170.815 58.1378 171 58.3231 171 58.5516V73.4481C171 73.6767 170.815 73.8619 170.586 73.8619Z" fill="#FF4B55"/>
</g>
<path d="M156.904 94.192C157.512 93.664 157.88 92.928 157.88 92C157.88 90.064 156.296 88.8 154.344 88.8H149.96V100H154.664C156.664 100 158.28 98.704 158.28 96.72C158.28 95.584 157.736 94.72 156.904 94.192ZM154.344 91.2C154.936 91.2 155.32 91.616 155.32 92.192C155.32 92.768 154.92 93.184 154.344 93.184H152.52V91.2H154.344ZM154.664 97.6H152.52V95.456H154.664C155.304 95.456 155.72 95.904 155.72 96.528C155.72 97.152 155.304 97.6 154.664 97.6ZM166.11 88.72H163.23L161.95 90.96H164.254L166.11 88.72ZM161.774 96.96H167.454C167.518 96.656 167.55 96.336 167.55 96C167.55 93.584 165.822 91.776 163.486 91.776C160.958 91.776 159.23 93.616 159.23 96C159.23 98.384 160.926 100.224 163.662 100.224C165.182 100.224 166.366 99.664 167.15 98.576L165.23 97.472C164.91 97.824 164.35 98.08 163.694 98.08C162.814 98.08 162.078 97.792 161.774 96.96ZM161.726 95.168C161.95 94.352 162.558 93.904 163.47 93.904C164.19 93.904 164.91 94.24 165.166 95.168H161.726ZM168.911 100H171.311V88.32H168.911V100ZM178.94 92V92.816C178.412 92.16 177.644 91.776 176.604 91.776C174.332 91.776 172.668 93.632 172.668 95.84C172.668 98.048 174.332 99.904 176.604 99.904C177.644 99.904 178.412 99.52 178.94 98.864V99.6C178.94 100.736 178.252 101.312 177.132 101.312C176.076 101.312 175.612 100.864 175.308 100.304L173.26 101.488C173.996 102.8 175.388 103.424 177.052 103.424C179.18 103.424 181.276 102.288 181.276 99.6V92H178.94ZM177.004 97.696C175.868 97.696 175.068 96.944 175.068 95.84C175.068 94.736 175.868 93.984 177.004 93.984C178.14 93.984 178.94 94.736 178.94 95.84C178.94 96.944 178.14 97.696 177.004 97.696ZM184.236 91.296C185.02 91.296 185.676 90.64 185.676 89.856C185.676 89.072 185.02 88.416 184.236 88.416C183.452 88.416 182.796 89.072 182.796 89.856C182.796 90.64 183.452 91.296 184.236 91.296ZM183.036 100H185.436V92H183.036V100ZM191.033 100.224C192.601 100.224 193.961 99.408 194.649 98.16L192.553 96.96C192.297 97.52 191.705 97.856 191.001 97.856C189.961 97.856 189.193 97.104 189.193 96C189.193 94.896 189.961 94.144 191.001 94.144C191.705 94.144 192.281 94.48 192.553 95.04L194.649 93.824C193.961 92.592 192.585 91.776 191.033 91.776C188.601 91.776 186.793 93.616 186.793 96C186.793 98.384 188.601 100.224 191.033 100.224ZM201.266 92V92.752C200.738 92.144 199.954 91.776 198.882 91.776C196.786 91.776 195.058 93.616 195.058 96C195.058 98.384 196.786 100.224 198.882 100.224C199.954 100.224 200.738 99.856 201.266 99.248V100H203.666V92H201.266ZM199.362 97.952C198.258 97.952 197.458 97.2 197.458 96C197.458 94.8 198.258 94.048 199.362 94.048C200.466 94.048 201.266 94.8 201.266 96C201.266 97.2 200.466 97.952 199.362 97.952Z" fill="#3CC3DD"/>
<path d="M152.088 108.8L149.16 109.856L149.784 112.048L151.768 111.504V120H154.328V108.8H152.088ZM164.573 115.84H163.453V113.44H160.861V115.84H158.525L162.093 108.8H159.341L155.773 115.84V118.208H160.861V120H163.453V118.208H164.573V115.84ZM168.654 117.52H166.094L165.454 122.24H167.374L168.654 117.52ZM176.89 112.528C176.89 110.208 175.21 108.576 172.73 108.576C170.266 108.576 168.57 110.208 168.57 112.528C168.57 114.704 170.074 116.288 172.298 116.464L169.866 120H172.81L176.234 114.8C176.65 114.176 176.89 113.392 176.89 112.528ZM171.13 112.528C171.13 111.552 171.882 110.976 172.73 110.976C173.594 110.976 174.33 111.536 174.33 112.528C174.33 113.52 173.594 114.08 172.73 114.08C171.882 114.08 171.13 113.504 171.13 112.528ZM180.627 114.016C182.211 114.016 183.395 112.8 183.395 111.296C183.395 109.744 182.211 108.576 180.627 108.576C179.027 108.576 177.843 109.792 177.843 111.296C177.843 112.8 179.027 114.016 180.627 114.016ZM179.171 118.24L180.227 118.864L187.459 110.848L186.403 110.24L179.171 118.24ZM180.611 112.176C180.115 112.176 179.763 111.792 179.763 111.296C179.763 110.8 180.115 110.416 180.611 110.416C181.123 110.416 181.475 110.8 181.475 111.296C181.475 111.76 181.123 112.176 180.611 112.176ZM186.339 120.192C187.923 120.192 189.107 118.976 189.107 117.472C189.107 115.968 187.923 114.752 186.339 114.752C184.739 114.752 183.555 115.968 183.555 117.472C183.555 118.976 184.739 120.192 186.339 120.192ZM186.323 118.352C185.827 118.352 185.475 117.968 185.475 117.472C185.475 116.976 185.827 116.592 186.323 116.592C186.835 116.592 187.187 116.976 187.187 117.472C187.187 117.936 186.835 118.352 186.323 118.352Z" fill="#FA0067"/>
<path d="M172 144.379H148V139.552C148 139.323 148.185 139.138 148.414 139.138H171.586C171.815 139.138 172 139.323 172 139.552L172 144.379Z" fill="#FF4B55"/>
<path d="M171.586 154.862H148.414C148.185 154.862 148 154.677 148 154.448V149.621H172V154.448C172 154.677 171.815 154.862 171.586 154.862Z" fill="#41479B"/>
<path d="M172 144.379H148V149.62H172V144.379Z" fill="#F5F5F5"/>
<path d="M8.00002 73.8619H0.413813C0.185297 73.8619 0 73.6766 0 73.4481V58.5516C0 58.323 0.185297 58.1378 0.413813 58.1378H8.00002V73.8619Z" fill="#73AF00"/>
<path d="M16.0002 58.138H8V73.8622H16.0002V58.138Z" fill="#F5F5F5"/>
<path d="M23.5862 73.8619H16V58.1378H23.5862C23.8147 58.1378 24 58.3231 24 58.5516V73.4481C24 73.6767 23.8147 73.8619 23.5862 73.8619Z" fill="#FF4B55"/>
<path d="M294.88 180.224C297.312 180.224 299.04 178.944 299.04 176.784C299.04 174.416 297.136 173.824 295.44 173.312C293.696 172.784 293.424 172.432 293.424 171.92C293.424 171.472 293.824 171.072 294.624 171.072C295.648 171.072 296.176 171.568 296.56 172.368L298.72 171.104C297.904 169.456 296.464 168.576 294.624 168.576C292.688 168.576 290.864 169.824 290.864 171.984C290.864 174.128 292.496 174.928 294.16 175.392C295.84 175.856 296.48 176.128 296.48 176.816C296.48 177.248 296.176 177.728 294.96 177.728C293.696 177.728 293.008 177.104 292.608 176.176L290.4 177.456C291.024 179.104 292.528 180.224 294.88 180.224ZM305.407 172V176.368C305.407 177.504 304.799 178.016 303.919 178.016C303.151 178.016 302.527 177.552 302.527 176.56V172H300.127V176.912C300.127 179.072 301.503 180.224 303.119 180.224C304.175 180.224 304.975 179.84 305.407 179.248V180H307.807V172H305.407ZM311.712 176.96H317.392C317.456 176.656 317.488 176.336 317.488 176C317.488 173.584 315.76 171.776 313.424 171.776C310.896 171.776 309.168 173.616 309.168 176C309.168 178.384 310.864 180.224 313.6 180.224C315.12 180.224 316.304 179.664 317.088 178.576L315.168 177.472C314.848 177.824 314.288 178.08 313.632 178.08C312.752 178.08 312.016 177.792 311.712 176.96ZM311.664 175.168C311.888 174.352 312.496 173.904 313.408 173.904C314.128 173.904 314.848 174.24 315.104 175.168H311.664ZM322.611 180.224C324.179 180.224 325.539 179.408 326.227 178.16L324.131 176.96C323.875 177.52 323.283 177.856 322.579 177.856C321.539 177.856 320.771 177.104 320.771 176C320.771 174.896 321.539 174.144 322.579 174.144C323.283 174.144 323.859 174.48 324.131 175.04L326.227 173.824C325.539 172.592 324.163 171.776 322.611 171.776C320.179 171.776 318.371 173.616 318.371 176C318.371 178.384 320.179 180.224 322.611 180.224ZM328.393 171.296C329.177 171.296 329.833 170.64 329.833 169.856C329.833 169.072 329.177 168.416 328.393 168.416C327.609 168.416 326.953 169.072 326.953 169.856C326.953 170.64 327.609 171.296 328.393 171.296ZM327.193 180H329.593V172H327.193V180ZM337.157 172V172.752C336.629 172.144 335.845 171.776 334.773 171.776C332.677 171.776 330.949 173.616 330.949 176C330.949 178.384 332.677 180.224 334.773 180.224C335.845 180.224 336.629 179.856 337.157 179.248V180H339.557V172H337.157ZM335.253 177.952C334.149 177.952 333.349 177.2 333.349 176C333.349 174.8 334.149 174.048 335.253 174.048C336.357 174.048 337.157 174.8 337.157 176C337.157 177.2 336.357 177.952 335.253 177.952Z" fill="#3CC3DD"/>
<path d="M293.088 188.8L290.16 189.856L290.784 192.048L292.768 191.504V200H295.328V188.8H293.088ZM296.805 200H304.421V197.536H300.661L302.517 195.664C303.541 194.64 304.261 193.488 304.261 192.144C304.261 189.888 302.469 188.576 300.469 188.576C298.917 188.576 297.413 189.36 296.693 191.024L298.853 192.288C299.157 191.584 299.717 191.072 300.501 191.072C301.253 191.072 301.701 191.552 301.701 192.256C301.701 192.912 301.221 193.568 300.565 194.24L296.805 198.144V200ZM308.904 197.52H306.344L305.704 202.24H307.624L308.904 197.52ZM312.713 188.8L309.785 189.856L310.409 192.048L312.393 191.504V200H314.953V188.8H312.713ZM319.502 194.016C321.086 194.016 322.27 192.8 322.27 191.296C322.27 189.744 321.086 188.576 319.502 188.576C317.902 188.576 316.718 189.792 316.718 191.296C316.718 192.8 317.902 194.016 319.502 194.016ZM318.046 198.24L319.102 198.864L326.334 190.848L325.278 190.24L318.046 198.24ZM319.486 192.176C318.99 192.176 318.638 191.792 318.638 191.296C318.638 190.8 318.99 190.416 319.486 190.416C319.998 190.416 320.35 190.8 320.35 191.296C320.35 191.76 319.998 192.176 319.486 192.176ZM325.214 200.192C326.798 200.192 327.982 198.976 327.982 197.472C327.982 195.968 326.798 194.752 325.214 194.752C323.614 194.752 322.43 195.968 322.43 197.472C322.43 198.976 323.614 200.192 325.214 200.192ZM325.198 198.352C324.702 198.352 324.35 197.968 324.35 197.472C324.35 196.976 324.702 196.592 325.198 196.592C325.71 196.592 326.062 196.976 326.062 197.472C326.062 197.936 325.71 198.352 325.198 198.352Z" fill="#FA0067"/>
<path d="M311.586 154.862H288.414C288.185 154.862 288 154.677 288 154.448V139.552C288 139.323 288.185 139.138 288.414 139.138H311.586C311.815 139.138 312 139.323 312 139.552V154.448C312 154.677 311.815 154.862 311.586 154.862Z" fill="#4173CD"/>
<path d="M312 145.759H297.931V139.138H295.448V145.759H288V148.241H295.448V154.862H297.931V148.241H312V145.759Z" fill="#FFE15A"/>
<defs>
<clipPath id="clip0">
<path d="M420 54H444V78H420V54Z" fill="white"/>
</clipPath>
<clipPath id="clip1">
<path d="M147 54H171V78H147V54Z" fill="white"/>
</clipPath>
</defs>
</svg>
