<svg width="532" height="233" viewBox="0 0 532 233" fill="none" xmlns="http://www.w3.org/2000/svg">
<path d="M261.287 29.032C263.431 29.768 265.159 30.968 266.471 32.632C267.783 34.264 268.439 36.2 268.439 38.44C268.439 41.96 267.255 44.712 264.887 46.696C262.519 48.68 259.623 49.672 256.199 49.672C253.543 49.672 251.159 49.064 249.047 47.848C246.967 46.632 245.431 44.84 244.439 42.472L251.063 38.632C251.895 41 253.607 42.184 256.199 42.184C257.703 42.184 258.839 41.832 259.607 41.128C260.375 40.424 260.759 39.528 260.759 38.44C260.759 37.352 260.375 36.456 259.607 35.752C258.839 35.048 257.703 34.696 256.199 34.696H254.615L251.687 30.328L257.783 22.6H245.495V15.4H267.095V21.64L261.287 29.032ZM286.249 29.032C288.393 29.768 290.121 30.968 291.433 32.632C292.745 34.264 293.401 36.2 293.401 38.44C293.401 41.96 292.217 44.712 289.849 46.696C287.481 48.68 284.585 49.672 281.161 49.672C278.505 49.672 276.121 49.064 274.009 47.848C271.929 46.632 270.393 44.84 269.401 42.472L276.025 38.632C276.857 41 278.569 42.184 281.161 42.184C282.665 42.184 283.801 41.832 284.569 41.128C285.337 40.424 285.721 39.528 285.721 38.44C285.721 37.352 285.337 36.456 284.569 35.752C283.801 35.048 282.665 34.696 281.161 34.696H279.577L276.649 30.328L282.745 22.6H270.457V15.4H292.057V21.64L286.249 29.032ZM311.21 29.032C313.354 29.768 315.082 30.968 316.394 32.632C317.706 34.264 318.362 36.2 318.362 38.44C318.362 41.96 317.178 44.712 314.81 46.696C312.442 48.68 309.546 49.672 306.122 49.672C303.466 49.672 301.082 49.064 298.97 47.848C296.89 46.632 295.354 44.84 294.362 42.472L300.986 38.632C301.818 41 303.53 42.184 306.122 42.184C307.626 42.184 308.762 41.832 309.53 41.128C310.298 40.424 310.682 39.528 310.682 38.44C310.682 37.352 310.298 36.456 309.53 35.752C308.762 35.048 307.626 34.696 306.122 34.696H304.538L301.61 30.328L307.706 22.6H295.418V15.4H317.018V21.64L311.21 29.032ZM327.832 48.328C326.936 49.224 325.864 49.672 324.616 49.672C323.368 49.672 322.296 49.224 321.4 48.328C320.504 47.432 320.056 46.36 320.056 45.112C320.056 43.864 320.504 42.792 321.4 41.896C322.296 41 323.368 40.552 324.616 40.552C325.864 40.552 326.936 41 327.832 41.896C328.728 42.792 329.176 43.864 329.176 45.112C329.176 46.36 328.728 47.432 327.832 48.328ZM339.653 15.4H346.373V49H338.693V23.512L332.741 25.144L330.869 18.568L339.653 15.4ZM373.94 44.92C371.54 48.088 368.196 49.672 363.908 49.672C359.62 49.672 356.26 48.088 353.828 44.92C351.428 41.72 350.228 37.48 350.228 32.2C350.228 26.92 351.428 22.696 353.828 19.528C356.26 16.328 359.62 14.728 363.908 14.728C368.196 14.728 371.54 16.328 373.94 19.528C376.372 22.696 377.588 26.92 377.588 32.2C377.588 37.48 376.372 41.72 373.94 44.92ZM357.908 32.2C357.908 38.856 359.908 42.184 363.908 42.184C367.908 42.184 369.908 38.856 369.908 32.2C369.908 25.544 367.908 22.216 363.908 22.216C359.908 22.216 357.908 25.544 357.908 32.2ZM394.417 29.032C396.561 29.768 398.289 30.968 399.601 32.632C400.913 34.264 401.569 36.2 401.569 38.44C401.569 41.96 400.385 44.712 398.017 46.696C395.649 48.68 392.753 49.672 389.329 49.672C386.673 49.672 384.289 49.064 382.177 47.848C380.097 46.632 378.561 44.84 377.569 42.472L384.193 38.632C385.025 41 386.737 42.184 389.329 42.184C390.833 42.184 391.969 41.832 392.737 41.128C393.505 40.424 393.889 39.528 393.889 38.44C393.889 37.352 393.505 36.456 392.737 35.752C391.969 35.048 390.833 34.696 389.329 34.696H387.745L384.817 30.328L390.913 22.6H378.625V15.4H400.225V21.64L394.417 29.032Z" fill="#101010"/>
<path d="M74.96 34.228H80V37H72.08V24.4H79.91V27.172H74.96V29.26H79.46V31.996H74.96V34.228ZM87.3489 28H90.0489V37H87.3489V36.154C86.8089 36.886 85.9509 37.252 84.7749 37.252C83.8149 37.252 83.0109 36.922 82.3629 36.262C81.7269 35.602 81.4089 34.69 81.4089 33.526V28H84.1089V33.13C84.1089 33.658 84.2529 34.066 84.5409 34.354C84.8409 34.63 85.2189 34.768 85.6749 34.768C86.1909 34.768 86.5989 34.612 86.8989 34.3C87.1989 33.988 87.3489 33.526 87.3489 32.914V28ZM94.7291 29.602C94.8971 29.026 95.2331 28.588 95.7371 28.288C96.2531 27.976 96.8171 27.82 97.4291 27.82V30.88C96.7691 30.772 96.1511 30.886 95.5751 31.222C95.0111 31.546 94.7291 32.116 94.7291 32.932V37H92.0291V28H94.7291V29.602ZM106.132 35.884C105.208 36.796 104.08 37.252 102.748 37.252C101.416 37.252 100.288 36.796 99.3635 35.884C98.4395 34.96 97.9775 33.832 97.9775 32.5C97.9775 31.168 98.4395 30.046 99.3635 29.134C100.288 28.21 101.416 27.748 102.748 27.748C104.08 27.748 105.208 28.21 106.132 29.134C107.056 30.046 107.518 31.168 107.518 32.5C107.518 33.832 107.056 34.96 106.132 35.884ZM101.272 34.03C101.668 34.426 102.16 34.624 102.748 34.624C103.336 34.624 103.828 34.426 104.224 34.03C104.62 33.634 104.818 33.124 104.818 32.5C104.818 31.876 104.62 31.366 104.224 30.97C103.828 30.574 103.336 30.376 102.748 30.376C102.16 30.376 101.668 30.574 101.272 30.97C100.876 31.366 100.678 31.876 100.678 32.5C100.678 33.124 100.876 33.634 101.272 34.03ZM114.427 27.748C115.615 27.748 116.629 28.21 117.469 29.134C118.309 30.046 118.729 31.168 118.729 32.5C118.729 33.832 118.309 34.96 117.469 35.884C116.629 36.796 115.615 37.252 114.427 37.252C113.275 37.252 112.381 36.886 111.745 36.154V40.6H109.045V28H111.745V28.846C112.381 28.114 113.275 27.748 114.427 27.748ZM112.339 34.102C112.747 34.498 113.263 34.696 113.887 34.696C114.511 34.696 115.021 34.498 115.417 34.102C115.825 33.706 116.029 33.172 116.029 32.5C116.029 31.828 115.825 31.294 115.417 30.898C115.021 30.502 114.511 30.304 113.887 30.304C113.263 30.304 112.747 30.502 112.339 30.898C111.943 31.294 111.745 31.828 111.745 32.5C111.745 33.172 111.943 33.706 112.339 34.102ZM126.794 28H129.494V37H126.794V36.154C126.158 36.886 125.264 37.252 124.112 37.252C122.924 37.252 121.91 36.796 121.07 35.884C120.23 34.96 119.81 33.832 119.81 32.5C119.81 31.168 120.23 30.046 121.07 29.134C121.91 28.21 122.924 27.748 124.112 27.748C125.264 27.748 126.158 28.114 126.794 28.846V28ZM123.104 34.102C123.5 34.498 124.016 34.696 124.652 34.696C125.288 34.696 125.804 34.498 126.2 34.102C126.596 33.706 126.794 33.172 126.794 32.5C126.794 31.828 126.596 31.294 126.2 30.898C125.804 30.502 125.288 30.304 124.652 30.304C124.016 30.304 123.5 30.502 123.104 30.898C122.708 31.294 122.51 31.828 122.51 32.5C122.51 33.172 122.708 33.706 123.104 34.102Z" fill="#3CC3DD"/>
<g clip-path="url(#clip0)">
<path fill-rule="evenodd" clip-rule="evenodd" d="M62.5329 39.4178C61.93 38.6313 60.9501 38.4804 60.2344 38.3702L60.2343 38.3702L60.2239 38.3685L60.2238 38.3685C60.0479 38.3413 59.8674 38.3134 59.7642 38.2847C58.8826 38.0399 58.2433 37.5959 57.9156 37.0002C57.6199 36.4632 57.5854 35.81 57.8126 35.0592C57.8855 34.8181 58.0116 34.5412 58.1452 34.248L58.1478 34.2423C58.5475 33.3658 59.0446 32.275 58.5462 31.1125C58.1231 30.1262 57.2598 29.2396 56.4981 28.4573L56.4968 28.4559L56.4727 28.4312L56.5431 28.3724L56.5478 28.3685L56.5479 28.3684C57.2255 27.802 57.926 27.2164 58.6281 26.6908C58.694 26.6413 58.81 26.5693 58.924 26.4985L58.9241 26.4984L58.9366 26.4907C59.2022 26.3261 59.5032 26.1395 59.7431 25.9045C60.5194 25.1439 60.8479 24.0128 60.5607 23.0897C60.3042 22.2651 59.6168 21.6985 58.6744 21.535C58.4137 21.4897 58.11 21.4638 57.7586 21.4339L57.7485 21.4331C57.3527 21.3995 56.5126 21.3283 56.0887 21.1948C56.2007 20.7589 56.3994 19.8997 55.6895 19.0865C55.3291 18.6735 54.8988 18.5469 54.5881 18.4996C54.5745 18.3476 54.5525 18.1553 54.4986 17.9299C54.1573 16.5018 53.2971 15.3988 52.538 14.4254L52.538 14.4253L52.5373 14.4245L52.524 14.4073C52.3792 14.2217 52.2346 14.0363 52.094 13.8486C51.871 13.5513 51.6063 13.2517 51.3258 12.9346C50.8552 12.4022 50.2695 11.7396 50.1218 11.2973C50.0067 10.9525 50.0699 10.4145 50.137 9.84473C50.2236 9.11077 50.3216 8.27898 50.087 7.45021C49.6816 6.01803 48.437 5.05908 46.9866 5.05908H46.9691C44.9851 5.06962 44.2134 6.61078 43.7032 7.63028C43.0276 8.97927 42.3629 10.3572 41.7201 11.6897C41.3955 12.3629 41.0707 13.036 40.7435 13.7079C40.604 13.9946 40.4592 14.3567 40.2917 14.7759L40.2917 14.7759L40.287 14.7878C40.0036 15.4975 39.651 16.3807 39.2456 17.0697C38.7691 17.8797 38.4827 17.9777 38.4645 17.984L38.4637 17.9842C38.4636 17.9843 38.4635 17.9843 38.4635 17.9843C38.2777 17.9803 38.1896 17.9462 38.175 17.936C38.0028 17.7563 38.0309 16.755 38.0429 16.3274V16.3273C38.0674 15.4548 38.0927 14.5527 37.6873 13.8229C36.9168 12.4353 34.936 11.9933 33.4898 11.6706L33.4897 11.6706C33.2447 11.616 33.0133 11.5643 32.8377 11.5179L32.8365 11.5176C32.2775 11.37 31.8737 11.2634 31.4081 11.3835C30.8143 11.5367 30.5233 11.9544 30.2667 12.3229C30.2108 12.4032 30.1463 12.496 30.0684 12.6024L27.3392 16.3372C26.9902 16.8147 26.6608 17.3299 26.3122 17.8755L26.3118 17.8761C25.4189 19.273 24.4957 20.717 23.3522 21.3161C23.2503 21.3695 23.1543 21.4191 23.0642 21.4657L23.064 21.4658L23.0051 21.4962C21.4248 22.3121 21.0256 22.7091 20.7323 24.7397L20.7085 24.9028L20.7084 24.9029C20.5461 26.0023 20.3006 27.6639 21.3096 28.6865C21.6928 29.075 22.4027 29.5043 23.6054 29.3432C23.9419 29.2982 24.2176 29.1792 24.439 29.0644C24.519 29.2446 24.6375 29.4437 24.8237 29.6297C25.364 30.1691 26.0832 30.4522 26.8513 30.4272C27.7335 30.3983 28.596 29.9754 29.2182 29.2673C29.9752 28.4054 30.6353 26.8603 30.4318 25.5749C30.3285 24.9219 30.1067 24.5205 29.9598 24.2549L29.9212 24.1847C29.9264 24.1671 29.9335 24.1455 29.9429 24.1194C30.3013 23.1211 31.2904 21.9028 31.6994 21.8096C31.969 21.966 32.2965 22.8419 32.4758 23.3215L32.4768 23.3241L32.4776 23.3264C32.6643 23.8259 32.8573 24.3422 33.1256 24.7731C33.1376 24.7925 33.167 24.8496 33.1884 24.8913C33.2835 25.0764 33.4686 25.4365 33.796 25.7136C33.5704 25.8162 33.3357 25.9368 33.1136 26.0959C32.0629 26.8488 31.2364 27.8867 30.8466 28.9435C30.7007 29.3388 30.6365 29.7127 30.5798 30.0426L30.5797 30.0434C30.524 30.3686 30.4758 30.6496 30.3621 30.865C30.1132 31.3368 29.777 31.6751 29.3037 31.9298C29.1143 32.0317 28.8985 32.1212 28.6626 32.1957C28.0234 32.3974 27.6688 33.0792 27.8706 33.7185C28.0723 34.3576 28.7543 34.7119 29.3933 34.5105C29.7742 34.3904 30.1312 34.2412 30.4542 34.0673C31.3469 33.5871 32.0384 32.8904 32.5093 31.9972C32.8029 31.4404 32.8968 30.8935 32.9722 30.4539L32.9723 30.4538C33.0168 30.1941 33.0555 29.9699 33.124 29.7839C33.3434 29.1893 33.8812 28.5322 34.5275 28.0692C34.6381 27.9898 34.8524 27.899 35.0604 27.8108L35.0641 27.8093C35.7343 27.5256 36.9817 26.9972 37.0178 25.5305C37.0304 25.0263 36.4132 23.5289 35.8874 23.1389C35.6062 22.9304 35.2541 22.85 34.918 22.9129C34.8642 22.7768 34.8104 22.633 34.7572 22.4906L34.7511 22.4745L34.751 22.4742C34.3498 21.4002 33.8503 20.0635 32.5917 19.5493C31.9828 19.3006 31.317 19.3222 30.6666 19.6118C29.0302 20.3409 27.919 22.5743 27.6587 23.299C27.2951 24.3116 27.5596 24.9297 27.8359 25.4296L27.836 25.4297C27.9371 25.6125 27.9981 25.7228 28.0348 25.9541C28.1023 26.3822 27.7915 27.2138 27.395 27.6652C27.2218 27.8625 26.9771 27.9942 26.7722 28.001C26.7102 28.0027 26.6647 27.9928 26.6277 27.9758C26.5397 27.6739 26.3336 27.0014 25.5651 26.6386C24.6152 26.1903 23.8315 26.6268 23.4549 26.8367C23.3891 26.8734 23.3011 26.9223 23.2575 26.9403C23.1481 26.9534 23.0755 26.9522 23.0314 26.9481C22.9116 26.6031 23.0597 25.6001 23.1105 25.2572L23.1354 25.0865C23.1663 24.8728 23.2603 24.2224 23.3389 24.0997C23.4087 24.0199 23.7823 23.8269 24.1137 23.6557L24.1138 23.6557L24.1194 23.6527L24.1264 23.6491C24.2354 23.5929 24.3527 23.5323 24.4791 23.466C26.1944 22.5676 27.3439 20.7691 28.3581 19.1824C28.6858 18.6696 28.9953 18.1853 29.2997 17.7689L32.0289 14.0341C32.0773 13.9681 32.1212 13.9066 32.1615 13.8493C32.1808 13.8544 32.2001 13.8594 32.2185 13.8643C32.4372 13.9221 32.6881 13.9781 32.9537 14.0374L32.9619 14.0392C33.5463 14.1695 35.3246 14.5663 35.5626 14.9944C35.6474 15.1817 35.6284 15.8556 35.617 16.2582C35.5863 17.3442 35.5486 18.6956 36.4168 19.6084C36.9059 20.1225 37.577 20.3923 38.4115 20.4103C38.43 20.4108 38.4483 20.4109 38.4667 20.4109C40.6557 20.4106 41.7896 17.5713 42.542 15.687C42.6873 15.3229 42.8245 14.9791 42.9266 14.7696C43.2549 14.0951 43.581 13.4192 43.907 12.7434L43.9204 12.7154C44.5553 11.3996 45.2114 10.0396 45.8743 8.71601C46.3855 7.69458 46.5719 7.48775 46.9825 7.48557H46.9866C47.3442 7.48557 47.6443 7.73042 47.7518 8.11017C47.8547 8.47374 47.7927 9.00095 47.7269 9.5593L47.7269 9.55967C47.6359 10.3314 47.533 11.2061 47.82 12.0652C48.1243 12.976 48.8591 13.8075 49.5076 14.5411C49.7547 14.8207 49.9881 15.0847 50.1525 15.3043C50.3068 15.5098 50.4652 15.7132 50.6238 15.9165C51.2902 16.7707 51.9195 17.5776 52.1385 18.4935C52.1601 18.5847 52.1678 18.6737 52.1772 18.7864C52.2094 19.1716 52.2634 19.8165 52.9591 20.4387C53.1982 20.6525 53.4566 20.7617 53.6813 20.82C53.5819 21.2628 53.5021 21.9747 54.0432 22.6656C54.7882 23.6173 56.3162 23.747 57.5439 23.8511C57.8019 23.8729 58.0471 23.8938 58.2093 23.9178C58.1792 23.9958 58.1258 24.0901 58.047 24.1675C57.9867 24.223 57.7812 24.3504 57.6583 24.4265C57.4958 24.5273 57.3278 24.6315 57.174 24.7466C56.4181 25.3127 55.6905 25.9208 54.9868 26.5091C54.6451 26.7948 54.2916 27.0902 53.9447 27.3725C53.6932 27.577 53.5341 27.8736 53.5027 28.1961C53.4711 28.5185 53.5699 28.8402 53.7769 29.0895C54.0677 29.4397 54.4032 29.7842 54.7586 30.149L54.7587 30.1491C55.3735 30.7803 56.0703 31.4958 56.316 32.0685C56.3913 32.2441 56.1087 32.8641 55.9399 33.2344L55.9398 33.2344L55.939 33.2363C55.7774 33.5909 55.6103 33.9575 55.4899 34.355C55.0722 35.7353 55.1757 37.0545 55.7896 38.1698C56.4304 39.3342 57.6117 40.2055 59.1157 40.6229C59.2339 40.6558 59.3556 40.682 59.4779 40.7047C59.0918 40.7436 58.6775 40.761 58.2702 40.778L58.27 40.778L58.267 40.7781L58.2668 40.7781H58.2668C57.836 40.7962 57.3906 40.8148 56.9729 40.8596C56.5523 40.9047 56.1204 40.9739 55.7027 41.041L55.6974 41.0419L55.6973 41.0419C54.9224 41.1662 54.1215 41.2947 53.4589 41.2533C52.9155 41.2196 52.1768 40.9142 51.4626 40.6188L51.4625 40.6188L51.4619 40.6185C50.1915 40.0931 48.7516 39.4976 47.3534 39.9381C46.7367 40.1325 46.2723 40.3852 45.8991 40.5882L45.8982 40.5886L45.8977 40.5889C45.1935 40.9723 45.1028 41.0217 44.3476 40.5625C43.7954 40.2267 42.9594 39.816 42.0769 40.1241C41.1058 40.4633 40.764 41.3933 40.4334 42.2927C40.3966 42.393 40.3585 42.4966 40.3185 42.6027C40.2435 42.8012 40.144 43.0281 40.0386 43.2686L40.0386 43.2687L40.0339 43.2794L40.0338 43.2797C39.539 44.4077 38.8614 45.9525 39.5236 47.4107C39.639 47.665 39.7651 47.873 39.871 48.0434C39.5243 48.2925 38.875 48.4177 38.2458 48.5389C37.7835 48.6281 37.3055 48.7202 36.8604 48.8752C36.5211 48.9933 35.4886 49.3529 35.209 50.3454C34.9346 51.3195 35.5695 52.094 36.0331 52.6596L36.0333 52.6598C36.2124 52.8782 36.4152 53.1259 36.4884 53.2879C36.5964 53.5462 36.4052 54.2415 36.1832 54.4788C35.7794 54.1984 35.3192 53.4267 34.948 52.8042L34.9468 52.8023C34.7338 52.445 34.5326 52.1076 34.3184 51.8061C34.2063 51.6483 34.0756 51.4918 33.9492 51.3405L33.949 51.3403C33.8122 51.1765 33.5845 50.9039 33.534 50.7917C33.5207 50.7157 33.5334 50.5122 33.542 50.3747L33.5421 50.3722C33.5607 50.0789 33.5837 49.7138 33.5088 49.3331C33.1999 47.7591 29.4877 43.8427 27.2024 43.4848C26.2773 43.3398 25.4741 43.7103 25.0521 44.4749C24.7086 45.0972 24.8105 45.8877 25.4997 47.8494C25.4698 47.821 25.4442 47.797 25.4214 47.7765C25.1427 47.5232 24.9481 47.0999 24.7423 46.6518L24.7422 46.6514C24.4729 46.0653 24.1676 45.4008 23.5603 44.9664C22.8119 44.4307 21.8705 44.4111 20.7631 44.9086C20.6381 44.9647 20.521 45.0191 20.4102 45.0707L20.4094 45.0711C19.7017 45.3999 19.574 45.4592 19.0305 45.3097C17.4194 44.866 16.2753 44.7138 15.0972 46.5678C14.8615 46.9384 14.8537 46.9415 14.4432 47.0968C14.2182 47.182 13.9101 47.2986 13.526 47.4921C12.6414 47.9376 12.0265 48.5986 11.4841 49.1818L11.3671 49.3073C11.1391 49.5516 10.9177 49.8217 10.6834 50.1076C10.1015 50.8182 9.30586 51.7891 8.69954 51.7891L8.6861 51.789C8.37816 51.7815 8.0793 51.7346 7.76312 51.6848L7.76296 51.6848L7.76292 51.6848C7.28307 51.6095 6.7393 51.5242 6.0936 51.5657C5.87429 51.58 5.75381 51.5731 5.69568 51.5664C5.65284 51.5158 5.58978 51.4322 5.5359 51.3607L5.53588 51.3607L5.53305 51.3569L5.53225 51.3559C5.39168 51.1694 5.217 50.9378 4.96463 50.6652C4.60959 50.2816 4.22451 50.0037 3.91499 49.7806C3.75163 49.6628 3.51187 49.4898 3.43061 49.3953C3.43497 49.3579 3.4495 49.281 3.4977 49.1541C3.8918 48.1188 4.50103 47.0456 5.09019 46.0077L5.09045 46.0072L5.09852 45.993L5.09854 45.993C5.32065 45.6017 5.54994 45.1977 5.7641 44.8015C6.10571 44.1699 6.34511 44.0014 6.45748 43.9572C6.63852 43.8862 6.98219 43.955 7.42478 44.1521C8.28964 44.5365 9.16636 44.9595 10.0141 45.3687C10.4518 45.5799 10.8897 45.7911 11.3284 45.9986C11.6212 46.137 11.9569 46.1529 12.2612 46.0425C12.5656 45.9321 12.8132 45.7047 12.949 45.4109C13.0778 45.1325 13.2438 44.827 13.4194 44.5036L13.4205 44.5015L13.4219 44.499C13.8217 43.7628 14.2746 42.9286 14.4654 42.0651C14.5541 41.6636 14.5329 41.3077 14.5158 41.0216L14.5157 41.0204C14.5046 40.8336 14.4951 40.6724 14.5224 40.5811C14.6561 40.133 15.123 39.7723 15.6635 39.3546L15.6638 39.3544L15.8396 39.2181C16.7408 38.5148 18.1118 37.4812 19.6055 36.6302C20.1879 36.2984 20.3909 35.557 20.0591 34.9747C19.7274 34.3922 18.9864 34.1891 18.4035 34.5209C16.773 35.4501 15.3069 36.5544 14.346 37.3042L14.1794 37.4333L14.1793 37.4333C13.4549 37.993 12.5535 38.6895 12.196 39.8864C12.0461 40.3887 12.0728 40.8374 12.0923 41.1653L12.0924 41.1662C12.1014 41.3158 12.1105 41.4703 12.0949 41.5411C11.9806 42.0591 11.6427 42.6877 11.3108 43.2991L11.0689 43.1823L11.0621 43.1791L11.062 43.179C10.1994 42.7629 9.30783 42.3328 8.41098 41.9338C6.31907 41.0034 4.75442 41.5638 3.62848 43.647C3.42359 44.0257 3.2078 44.406 2.9793 44.8086C2.34488 45.926 1.68892 47.0814 1.22876 48.2906C0.468882 50.2877 1.78661 51.2383 2.49473 51.7492L2.49504 51.7494L2.49511 51.7494L2.49514 51.7495C2.75098 51.934 2.99288 52.1085 3.18322 52.3142C3.35275 52.4971 3.47566 52.6603 3.59445 52.8179C4.14071 53.5429 4.68309 54.0888 6.24993 53.9882C6.62559 53.9635 6.97528 54.0184 7.37934 54.0819L7.38628 54.083L7.38695 54.0831L7.38703 54.0831C7.74928 54.14 8.15979 54.2045 8.62725 54.2158C10.4208 54.2589 11.6572 52.7497 12.5605 51.6471L12.5612 51.6462C12.7696 51.3916 12.9667 51.1512 13.141 50.9645L13.2614 50.8351L13.2633 50.8331C13.7243 50.3375 14.1227 49.9093 14.6179 49.66C14.8877 49.5241 15.0977 49.4446 15.3007 49.3677L15.3021 49.3672C16.0116 49.0988 16.5231 48.8495 17.1459 47.8696C17.3176 47.5995 17.4178 47.4872 17.4628 47.4441C17.6555 47.4492 18.1565 47.5871 18.3828 47.6493L18.3829 47.6493L18.3856 47.6501C19.7885 48.0364 20.5872 47.6652 21.433 47.2722L21.4332 47.272C21.5352 47.2246 21.6426 47.1747 21.7576 47.123C21.9786 47.0237 22.1136 46.9912 22.1819 46.9809C22.2838 47.1157 22.4322 47.4385 22.5352 47.6626L22.5352 47.6626L22.5363 47.6649C22.8067 48.2538 23.1434 48.9866 23.7888 49.5731C23.844 49.6231 24.0048 49.7819 24.1796 49.9543L24.2038 49.9783C24.6648 50.4335 25.3615 51.1213 25.9991 51.6925C26.9828 52.5736 27.6883 53.1313 28.5136 52.8668C28.8344 52.764 29.1022 52.5302 29.2484 52.2254C29.5273 51.644 29.4013 51.3151 28.5815 49.1754C28.2921 48.4205 27.7856 47.098 27.4997 46.1774C27.9052 46.4162 28.4748 46.8274 29.1975 47.5084C30.3414 48.5862 31.0161 49.542 31.1299 49.8239C31.1387 49.9104 31.1275 50.0871 31.1192 50.2195L31.1191 50.2199C31.0952 50.6007 31.0653 51.0744 31.2332 51.5679C31.4097 52.087 31.7687 52.5169 32.0855 52.8961C32.1865 53.017 32.2818 53.1312 32.3391 53.2117C32.4968 53.4337 32.6737 53.7304 32.861 54.0446L32.8614 54.0451C33.3903 54.9322 33.9898 55.9375 34.8586 56.5135C35.2884 56.7984 35.7528 56.9398 36.2098 56.9398C36.7396 56.9397 37.2593 56.7496 37.7029 56.3731C38.7961 55.4441 39.2626 53.5366 38.7012 52.2913C38.4957 51.8357 38.1847 51.4561 37.91 51.1212L37.8908 51.0975C38.1304 51.0336 38.4116 50.9794 38.705 50.9228L38.7057 50.9227C39.6279 50.7448 40.6731 50.5432 41.4854 49.8609C43.0467 48.5496 42.2847 47.3275 41.9593 46.8055L41.9593 46.8055L41.9588 46.8048C41.8737 46.6683 41.7934 46.5394 41.7334 46.4071C41.5194 45.9355 41.9281 45.0037 42.2564 44.255L42.2565 44.255L42.2566 44.2547C42.3716 43.9925 42.4904 43.7213 42.5891 43.4602C42.6317 43.3475 42.6723 43.2374 42.7114 43.1306C42.7787 42.9474 42.8612 42.7235 42.9352 42.5503C42.979 42.5737 43.0291 42.6023 43.0862 42.637C45.0352 43.8221 46.1567 43.2119 47.058 42.7215L47.0584 42.7212L47.0591 42.7208C47.3835 42.5443 47.6901 42.3774 48.0829 42.2537C48.6389 42.0783 49.6435 42.4938 50.5308 42.8608L50.5338 42.862L50.5347 42.8624C51.4327 43.2338 52.3612 43.6178 53.3084 43.6766C54.2419 43.7344 55.18 43.5839 56.0873 43.4382L56.0921 43.4374C56.4949 43.3728 56.8755 43.3118 57.2313 43.2736C57.5706 43.2373 57.9581 43.2211 58.3683 43.204C59.295 43.1653 60.3453 43.1213 61.26 42.8132C62.0994 42.5304 62.7032 41.9667 62.9166 41.2666C63.1061 40.6446 62.97 39.9879 62.5329 39.4178ZM25.2104 33.7424C25.1596 33.0742 24.5732 32.5733 23.903 32.6246L23.8854 32.6259C23.2168 32.6767 22.7213 33.2594 22.7721 33.9278C22.8205 34.5649 23.357 35.0493 23.9861 35.0493C24.017 35.0493 24.0481 35.0482 24.0795 35.0456L24.0972 35.0443C24.7656 34.9936 25.2612 34.4109 25.2104 33.7424ZM18.1541 29.1172C18.3481 29.717 18.5486 30.3373 18.6616 30.9643C18.9349 32.4797 18.6876 33.7 17.9266 34.5914C16.7696 35.9459 14.7724 36.1356 12.9289 36.1356C12.5564 36.1356 12.1905 36.128 11.8387 36.1205L11.8365 36.1204C11.5139 36.1137 11.2091 36.1073 10.9257 36.1073C9.91376 36.1073 9.42345 35.5648 9.2211 35.2414C8.54491 34.1606 9.13779 32.7347 9.80332 31.3668L9.80878 31.3556C9.8636 31.2428 9.91921 31.1283 9.94112 31.0765C10.1196 30.6543 10.3152 30.2319 10.5046 29.8232L10.5055 29.8213C10.8806 29.0114 11.235 28.2466 11.4662 27.484C11.5919 27.0697 11.4983 26.5608 11.3898 25.9716L11.3898 25.9715C11.2527 25.2268 11.0973 24.3828 11.3591 23.4819C11.6025 22.644 12.3003 22.0309 13.3241 21.7556C14.5549 21.4244 16.3935 21.5795 17.3766 22.5189C18.5145 23.6061 18.1049 25.1063 17.8337 26.0992L17.8337 26.0993L17.8328 26.1026C17.7491 26.409 17.6454 26.7891 17.6489 26.9605C17.6616 27.5934 17.9008 28.3335 18.1541 29.1172ZM11.89 33.6931C13.387 33.7249 15.4371 33.7681 16.0805 33.0146C16.3457 32.7042 16.4102 32.1591 16.2727 31.3949C16.1889 30.9299 16.0223 30.4146 15.8461 29.8691L15.8443 29.8638L15.8439 29.8624C15.5477 28.9461 15.2415 27.9989 15.2219 27.0087C15.2115 26.4866 15.354 25.9645 15.4921 25.4596L15.4921 25.4595C15.5875 25.11 15.7639 24.4639 15.6967 24.2713C15.344 23.9699 14.0181 23.936 13.6771 24.2098C13.5973 24.5537 13.6809 25.0089 13.7771 25.532L13.7772 25.5322C13.9147 26.2796 14.0859 27.2098 13.7893 28.1882C13.5086 29.1136 13.1012 29.9931 12.7073 30.8434C12.5181 31.2515 12.3396 31.637 12.1775 32.0209C12.1298 32.1337 12.0666 32.2637 11.9865 32.4284C11.7269 32.9616 11.5465 33.3814 11.446 33.6844C11.5908 33.687 11.7385 33.69 11.89 33.6931Z" fill="black"/>
</g>
<path d="M425.092 27.252C427.396 27.252 429.412 26.118 430.492 24.336L428.008 22.896C427.468 23.868 426.37 24.444 425.092 24.444C422.86 24.444 421.42 22.95 421.42 20.7C421.42 18.45 422.86 16.956 425.092 16.956C426.37 16.956 427.45 17.532 428.008 18.504L430.492 17.064C429.394 15.282 427.378 14.148 425.092 14.148C421.294 14.148 418.54 16.992 418.54 20.7C418.54 24.408 421.294 27.252 425.092 27.252ZM438.374 18V18.846C437.78 18.162 436.898 17.748 435.692 17.748C433.334 17.748 431.39 19.818 431.39 22.5C431.39 25.182 433.334 27.252 435.692 27.252C436.898 27.252 437.78 26.838 438.374 26.154V27H441.074V18H438.374ZM436.232 24.696C434.99 24.696 434.09 23.85 434.09 22.5C434.09 21.15 434.99 20.304 436.232 20.304C437.474 20.304 438.374 21.15 438.374 22.5C438.374 23.85 437.474 24.696 436.232 24.696ZM445.523 20.628C445.523 20.304 445.811 20.124 446.279 20.124C446.873 20.124 447.233 20.448 447.485 20.916L449.789 19.674C449.033 18.396 447.737 17.748 446.279 17.748C444.407 17.748 442.751 18.738 442.751 20.7C442.751 23.814 447.179 23.292 447.179 24.282C447.179 24.642 446.855 24.84 446.207 24.84C445.415 24.84 444.911 24.462 444.677 23.778L442.337 25.11C443.039 26.568 444.407 27.252 446.207 27.252C448.151 27.252 449.951 26.37 449.951 24.3C449.951 20.97 445.523 21.654 445.523 20.628ZM455.531 27.252C458.177 27.252 460.301 25.182 460.301 22.5C460.301 19.818 458.177 17.748 455.531 17.748C452.885 17.748 450.761 19.818 450.761 22.5C450.761 25.182 452.885 27.252 455.531 27.252ZM455.531 24.624C454.361 24.624 453.461 23.778 453.461 22.5C453.461 21.222 454.361 20.376 455.531 20.376C456.701 20.376 457.601 21.222 457.601 22.5C457.601 23.778 456.701 24.624 455.531 24.624ZM464.208 20.628C464.208 20.304 464.496 20.124 464.964 20.124C465.558 20.124 465.918 20.448 466.17 20.916L468.474 19.674C467.718 18.396 466.422 17.748 464.964 17.748C463.092 17.748 461.436 18.738 461.436 20.7C461.436 23.814 465.864 23.292 465.864 24.282C465.864 24.642 465.54 24.84 464.892 24.84C464.1 24.84 463.596 24.462 463.362 23.778L461.022 25.11C461.724 26.568 463.092 27.252 464.892 27.252C466.836 27.252 468.636 26.37 468.636 24.3C468.636 20.97 464.208 21.654 464.208 20.628ZM423.31 49.252C425.074 49.252 426.604 48.334 427.378 46.93L425.02 45.58C424.732 46.21 424.066 46.588 423.274 46.588C422.104 46.588 421.24 45.742 421.24 44.5C421.24 43.258 422.104 42.412 423.274 42.412C424.066 42.412 424.714 42.79 425.02 43.42L427.378 42.052C426.604 40.666 425.056 39.748 423.31 39.748C420.574 39.748 418.54 41.818 418.54 44.5C418.54 47.182 420.574 49.252 423.31 49.252ZM432.609 49.252C435.255 49.252 437.379 47.182 437.379 44.5C437.379 41.818 435.255 39.748 432.609 39.748C429.963 39.748 427.839 41.818 427.839 44.5C427.839 47.182 429.963 49.252 432.609 49.252ZM432.609 46.624C431.439 46.624 430.539 45.778 430.539 44.5C430.539 43.222 431.439 42.376 432.609 42.376C433.779 42.376 434.679 43.222 434.679 44.5C434.679 45.778 433.779 46.624 432.609 46.624ZM444.18 39.748C442.992 39.748 442.092 40.18 441.606 40.846V40H438.906V49H441.606V44.086C441.606 42.808 442.29 42.232 443.28 42.232C444.144 42.232 444.846 42.754 444.846 43.87V49H447.546V43.474C447.546 41.044 445.998 39.748 444.18 39.748ZM457.68 40H452.676C452.676 38.956 453.342 38.74 454.35 38.74C455.034 38.74 455.79 38.794 456.6 38.884V36.4C455.826 36.238 455.088 36.148 454.35 36.148C451.362 36.148 449.976 37.48 449.976 40H448.77V42.592H449.976V49H452.676V42.592H454.98V49H457.68V40ZM462.366 41.602V40H459.666V49H462.366V44.932C462.366 43.15 463.95 42.7 465.066 42.88V39.82C463.932 39.82 462.726 40.396 462.366 41.602ZM476.408 39.748C475.13 39.748 474.302 40.216 473.798 40.936C473.294 40.18 472.502 39.748 471.44 39.748C470.234 39.748 469.442 40.216 469.028 40.828V40H466.328V49H469.028V43.924C469.028 42.862 469.532 42.232 470.432 42.232C471.296 42.232 471.728 42.808 471.728 43.708V49H474.428V43.924C474.428 42.862 474.932 42.232 475.832 42.232C476.696 42.232 477.128 42.808 477.128 43.708V49H479.828V43.474C479.828 41.224 478.478 39.748 476.408 39.748ZM488.208 40V40.846C487.614 40.162 486.732 39.748 485.526 39.748C483.168 39.748 481.224 41.818 481.224 44.5C481.224 47.182 483.168 49.252 485.526 49.252C486.732 49.252 487.614 48.838 488.208 48.154V49H490.908V40H488.208ZM486.066 46.696C484.824 46.696 483.924 45.85 483.924 44.5C483.924 43.15 484.824 42.304 486.066 42.304C487.308 42.304 488.208 43.15 488.208 44.5C488.208 45.85 487.308 46.696 486.066 46.696ZM499.422 36.4V40.846C498.828 40.162 497.946 39.748 496.74 39.748C494.382 39.748 492.438 41.818 492.438 44.5C492.438 47.182 494.382 49.252 496.74 49.252C497.946 49.252 498.828 48.838 499.422 48.154V49H502.122V36.4H499.422ZM497.28 46.696C496.038 46.696 495.138 45.85 495.138 44.5C495.138 43.15 496.038 42.304 497.28 42.304C498.522 42.304 499.422 43.15 499.422 44.5C499.422 45.85 498.522 46.696 497.28 46.696ZM508.423 49.252C511.069 49.252 513.193 47.182 513.193 44.5C513.193 41.818 511.069 39.748 508.423 39.748C505.777 39.748 503.653 41.818 503.653 44.5C503.653 47.182 505.777 49.252 508.423 49.252ZM508.423 46.624C507.253 46.624 506.353 45.778 506.353 44.5C506.353 43.222 507.253 42.376 508.423 42.376C509.593 42.376 510.493 43.222 510.493 44.5C510.493 45.778 509.593 46.624 508.423 46.624ZM517.101 42.628C517.101 42.304 517.389 42.124 517.857 42.124C518.451 42.124 518.811 42.448 519.063 42.916L521.367 41.674C520.611 40.396 519.315 39.748 517.857 39.748C515.985 39.748 514.329 40.738 514.329 42.7C514.329 45.814 518.757 45.292 518.757 46.282C518.757 46.642 518.433 46.84 517.785 46.84C516.993 46.84 516.489 46.462 516.255 45.778L513.915 47.11C514.617 48.568 515.985 49.252 517.785 49.252C519.729 49.252 521.529 48.37 521.529 46.3C521.529 42.97 517.101 43.654 517.101 42.628Z" fill="#3CC3DD"/>
<line x1="2" y1="66.5" x2="532" y2="66.5" stroke="#A0A6AF" stroke-dasharray="2 4"/>
<path d="M0.413812 181.862H23.5862C23.8147 181.862 24 181.677 24 181.449V166.552C24 166.323 23.8147 166.138 23.5862 166.138H0.413812C0.185297 166.138 0 166.323 0 166.552V181.449C0 181.677 0.185297 181.862 0.413812 181.862Z" fill="#C8414B"/>
<path d="M24 169.449H0V178.552H24V169.449Z" fill="#FFD250"/>
<path d="M10.1377 174L10.4886 172.421C10.5209 172.276 10.4103 172.138 10.2613 172.138H10.0142C9.86524 172.138 9.75462 172.276 9.78687 172.421L10.1377 174Z" fill="#C8414B"/>
<path d="M10.5522 173.172H9.72461V176.689H10.5522V173.172Z" fill="#F5F5F5"/>
<path d="M10.757 172.759H9.51562V173.173H10.757V172.759Z" fill="#FAB446"/>
<path d="M10.7605 174H8.69141V174.414H10.7605V174Z" fill="#C8414B"/>
<path d="M10.757 175.656L9.51562 175.242V174.828L10.757 175.242V175.656Z" fill="#C8414B"/>
<path d="M3.9307 174L4.28156 172.421C4.3139 172.276 4.20323 172.138 4.05426 172.138H3.80714C3.65821 172.138 3.54759 172.276 3.57984 172.421L3.9307 174Z" fill="#C8414B"/>
<path d="M5.38061 172.759C5.15209 172.759 4.9668 172.944 4.9668 173.173V175.862C4.9668 176.365 5.43601 177.311 7.03576 177.311C8.63551 177.311 9.10473 176.365 9.10473 175.862V173.173C9.10473 172.944 8.91943 172.759 8.69091 172.759H5.38061Z" fill="#F5F5F5"/>
<path d="M7.03576 174.828H4.9668V173.173C4.9668 172.944 5.15209 172.759 5.38061 172.759H7.03576V174.828Z" fill="#C8414B"/>
<path d="M7.03711 174.828H9.10607V175.862C9.10607 176.433 8.64295 176.897 8.07159 176.897C7.50023 176.897 7.03711 176.433 7.03711 175.862V174.828Z" fill="#C8414B"/>
<path d="M4.9668 174.828H7.03576V175.862C7.03576 176.433 6.57264 176.897 6.00128 176.897C5.42992 176.897 4.9668 176.433 4.9668 175.862V174.828Z" fill="#FAB446"/>
<path d="M6.61889 176.685V174.828H6.20508V176.876C6.35902 176.845 6.49809 176.776 6.61889 176.685Z" fill="#C8414B"/>
<path d="M5.79272 176.876V174.828H5.37891V176.685C5.49975 176.776 5.63883 176.845 5.79272 176.876Z" fill="#C8414B"/>
<path d="M6.61833 174H5.37695V174.414H6.61833V174Z" fill="#FFB441"/>
<path d="M6.61833 173.172H5.37695V173.586H6.61833V173.172Z" fill="#FAB446"/>
<path d="M6.41156 173.418H5.58398V174.168H6.41156V173.418Z" fill="#FAB446"/>
<path d="M4.3432 173.172H3.51562V176.689H4.3432V173.172Z" fill="#F5F5F5"/>
<path d="M4.54998 176.483H3.30859V176.897H4.54998V176.483Z" fill="#FAB446"/>
<path d="M4.54998 172.759H3.30859V173.173H4.54998V172.759Z" fill="#FAB446"/>
<path d="M4.75867 176.896H3.10352V177.31H4.75867V176.896Z" fill="#5064AA"/>
<path d="M10.966 176.483H9.72461V176.897H10.966V176.483Z" fill="#FAB446"/>
<path d="M10.9637 176.896H9.30859V177.31H10.9637V176.896Z" fill="#5064AA"/>
<path d="M8.27574 172.345H5.79297V172.759H8.27574V172.345Z" fill="#FAB446"/>
<path d="M7.24194 171.104H6.82812V172.345H7.24194V171.104Z" fill="#FFB441"/>
<path d="M6.62067 171.724C6.27839 171.724 6 171.446 6 171.104C6 170.761 6.27844 170.483 6.62067 170.483C6.96295 170.483 7.24134 170.761 7.24134 171.104C7.24139 171.446 6.96295 171.724 6.62067 171.724ZM6.62067 170.897C6.50653 170.897 6.41376 170.989 6.41376 171.104C6.41376 171.218 6.50648 171.31 6.62067 171.31C6.73486 171.31 6.82758 171.218 6.82758 171.104C6.82758 170.989 6.73486 170.897 6.62067 170.897Z" fill="#F5F5F5"/>
<path d="M7.4488 171.724C7.10651 171.724 6.82812 171.446 6.82812 171.104C6.82812 170.761 7.10656 170.483 7.4488 170.483C7.79108 170.483 8.06947 170.761 8.06947 171.104C8.06947 171.446 7.79103 171.724 7.4488 171.724ZM7.4488 170.897C7.33465 170.897 7.24189 170.989 7.24189 171.104C7.24189 171.218 7.33461 171.31 7.4488 171.31C7.56294 171.31 7.6557 171.218 7.6557 171.104C7.65565 170.989 7.56294 170.897 7.4488 170.897Z" fill="#F5F5F5"/>
<path d="M8.27887 172.138C7.93659 172.138 7.6582 171.86 7.6582 171.518C7.6582 171.175 7.93664 170.897 8.27887 170.897C8.62115 170.897 8.89954 171.175 8.89954 171.518C8.89954 171.86 8.62111 172.138 8.27887 172.138ZM8.27887 171.311C8.16473 171.311 8.07197 171.403 8.07197 171.518C8.07197 171.632 8.16469 171.725 8.27887 171.725C8.39301 171.725 8.48578 171.632 8.48578 171.518C8.48578 171.403 8.39301 171.311 8.27887 171.311Z" fill="#F5F5F5"/>
<path d="M5.7945 172.138C5.45222 172.138 5.17383 171.86 5.17383 171.518C5.17383 171.175 5.45226 170.897 5.7945 170.897C6.13678 170.897 6.41517 171.175 6.41517 171.518C6.41522 171.86 6.13678 172.138 5.7945 172.138ZM5.7945 171.311C5.68036 171.311 5.58759 171.403 5.58759 171.518C5.58759 171.632 5.68031 171.725 5.7945 171.725C5.90869 171.725 6.0014 171.632 6.0014 171.518C6.0014 171.403 5.90869 171.311 5.7945 171.311Z" fill="#F5F5F5"/>
<path d="M8.27684 175.655V175.862C8.27684 175.976 8.18403 176.069 8.06994 176.069C7.95584 176.069 7.86303 175.976 7.86303 175.862V175.655H8.27684ZM8.69061 175.242H7.44922V175.862C7.44922 176.205 7.72766 176.483 8.06989 176.483C8.41217 176.483 8.69056 176.205 8.69056 175.862V175.242H8.69061Z" fill="#FAB446"/>
<path d="M8.07006 174.414C7.84155 174.414 7.65625 174.229 7.65625 174V173.586C7.65625 173.358 7.84155 173.172 8.07006 173.172C8.29858 173.172 8.48387 173.358 8.48387 173.586V174C8.48387 174.229 8.29858 174.414 8.07006 174.414Z" fill="#FFA0D2"/>
<path d="M7.03473 175.448C7.37752 175.448 7.65541 175.17 7.65541 174.827C7.65541 174.484 7.37752 174.207 7.03473 174.207C6.69195 174.207 6.41406 174.484 6.41406 174.827C6.41406 175.17 6.69195 175.448 7.03473 175.448Z" fill="#5064AA"/>
<path d="M7.24194 170.276H6.82812V171.517H7.24194V170.276Z" fill="#FAB446"/>
<path d="M5.79272 172.345L5.37891 171.931L5.6213 171.689C5.99597 171.314 6.50419 171.104 7.03411 171.104C7.56403 171.104 8.0722 171.314 8.44692 171.689L8.68931 171.931L8.2755 172.345H5.79272Z" fill="#C8414B"/>
<path d="M7.03503 172.138C7.1493 172.138 7.24194 172.045 7.24194 171.931C7.24194 171.817 7.1493 171.724 7.03503 171.724C6.92076 171.724 6.82812 171.817 6.82812 171.931C6.82812 172.045 6.92076 172.138 7.03503 172.138Z" fill="#FFD250"/>
<path d="M6.20691 172.138C6.32118 172.138 6.41381 172.045 6.41381 171.931C6.41381 171.817 6.32118 171.724 6.20691 171.724C6.09263 171.724 6 171.817 6 171.931C6 172.045 6.09263 172.138 6.20691 172.138Z" fill="#FFD250"/>
<path d="M7.86316 172.138C7.97743 172.138 8.07006 172.045 8.07006 171.931C8.07006 171.817 7.97743 171.724 7.86316 171.724C7.74888 171.724 7.65625 171.817 7.65625 171.931C7.65625 172.045 7.74888 172.138 7.86316 172.138Z" fill="#FFD250"/>
<path d="M5.37765 174H3.30859V174.414H5.37765V174Z" fill="#C8414B"/>
<path d="M3.31055 175.655L4.55189 175.241V174.828L3.31055 175.241V175.655Z" fill="#C8414B"/>
<path d="M297.76 116.264H293.52V118.424H297.68V120.888H293.52V125H290.96V113.8H297.76V116.264ZM301.593 118.424C301.742 117.912 302.041 117.523 302.489 117.256C302.947 116.979 303.449 116.84 303.993 116.84V119.56C303.406 119.464 302.857 119.565 302.345 119.864C301.843 120.152 301.593 120.659 301.593 121.384V125H299.193V117H301.593V118.424ZM310.688 117H313.088V125H310.688V124.248C310.123 124.899 309.328 125.224 308.304 125.224C307.248 125.224 306.347 124.819 305.6 124.008C304.853 123.187 304.48 122.184 304.48 121C304.48 119.816 304.853 118.819 305.6 118.008C306.347 117.187 307.248 116.776 308.304 116.776C309.328 116.776 310.123 117.101 310.688 117.752V117ZM307.408 122.424C307.76 122.776 308.219 122.952 308.784 122.952C309.349 122.952 309.808 122.776 310.16 122.424C310.512 122.072 310.688 121.597 310.688 121C310.688 120.403 310.512 119.928 310.16 119.576C309.808 119.224 309.349 119.048 308.784 119.048C308.219 119.048 307.76 119.224 307.408 119.576C307.056 119.928 306.88 120.403 306.88 121C306.88 121.597 307.056 122.072 307.408 122.424ZM319.537 116.776C320.39 116.776 321.099 117.069 321.665 117.656C322.241 118.243 322.529 119.053 322.529 120.088V125H320.129V120.44C320.129 119.971 319.995 119.613 319.729 119.368C319.473 119.112 319.142 118.984 318.737 118.984C318.278 118.984 317.915 119.123 317.649 119.4C317.382 119.677 317.249 120.088 317.249 120.632V125H314.849V117H317.249V117.752C317.729 117.101 318.491 116.776 319.537 116.776ZM328.017 125.224C326.801 125.224 325.788 124.819 324.977 124.008C324.177 123.197 323.777 122.195 323.777 121C323.777 119.805 324.177 118.803 324.977 117.992C325.788 117.181 326.801 116.776 328.017 116.776C328.785 116.776 329.489 116.963 330.129 117.336C330.78 117.709 331.281 118.205 331.633 118.824L329.537 120.04C329.249 119.443 328.732 119.144 327.985 119.144C327.462 119.144 327.03 119.32 326.689 119.672C326.348 120.013 326.177 120.456 326.177 121C326.177 121.544 326.348 121.992 326.689 122.344C327.03 122.685 327.462 122.856 327.985 122.856C328.742 122.856 329.26 122.557 329.537 121.96L331.633 123.16C331.281 123.789 330.785 124.291 330.145 124.664C329.505 125.037 328.796 125.224 328.017 125.224ZM334.807 115.88C334.529 116.157 334.193 116.296 333.799 116.296C333.404 116.296 333.063 116.157 332.775 115.88C332.497 115.592 332.359 115.251 332.359 114.856C332.359 114.461 332.497 114.125 332.775 113.848C333.063 113.56 333.404 113.416 333.799 113.416C334.193 113.416 334.529 113.56 334.807 113.848C335.095 114.125 335.239 114.461 335.239 114.856C335.239 115.251 335.095 115.592 334.807 115.88ZM332.599 125V117H334.999V125H332.599ZM342.563 117H344.963V125H342.563V124.248C341.998 124.899 341.203 125.224 340.179 125.224C339.123 125.224 338.222 124.819 337.475 124.008C336.728 123.187 336.355 122.184 336.355 121C336.355 119.816 336.728 118.819 337.475 118.008C338.222 117.187 339.123 116.776 340.179 116.776C341.203 116.776 341.998 117.101 342.563 117.752V117ZM339.283 122.424C339.635 122.776 340.094 122.952 340.659 122.952C341.224 122.952 341.683 122.776 342.035 122.424C342.387 122.072 342.563 121.597 342.563 121C342.563 120.403 342.387 119.928 342.035 119.576C341.683 119.224 341.224 119.048 340.659 119.048C340.094 119.048 339.635 119.224 339.283 119.576C338.931 119.928 338.755 120.403 338.755 121C338.755 121.597 338.931 122.072 339.283 122.424Z" fill="#3CC3DD"/>
<path d="M295.936 138.344C296.651 138.589 297.227 138.989 297.664 139.544C298.101 140.088 298.32 140.733 298.32 141.48C298.32 142.653 297.925 143.571 297.136 144.232C296.347 144.893 295.381 145.224 294.24 145.224C293.355 145.224 292.56 145.021 291.856 144.616C291.163 144.211 290.651 143.613 290.32 142.824L292.528 141.544C292.805 142.333 293.376 142.728 294.24 142.728C294.741 142.728 295.12 142.611 295.376 142.376C295.632 142.141 295.76 141.843 295.76 141.48C295.76 141.117 295.632 140.819 295.376 140.584C295.12 140.349 294.741 140.232 294.24 140.232H293.712L292.736 138.776L294.768 136.2H290.672V133.8H297.872V135.88L295.936 138.344ZM298.993 145V143.144L302.753 139.24C303.51 138.461 303.889 137.8 303.889 137.256C303.889 136.904 303.782 136.621 303.569 136.408C303.355 136.184 303.062 136.072 302.689 136.072C301.942 136.072 301.393 136.477 301.041 137.288L298.881 136.024C299.222 135.224 299.734 134.616 300.417 134.2C301.099 133.784 301.846 133.576 302.657 133.576C303.702 133.576 304.593 133.901 305.329 134.552C306.075 135.192 306.449 136.056 306.449 137.144C306.449 138.328 305.867 139.501 304.705 140.664L302.849 142.536H306.609V145H298.993ZM310.484 144.776C310.185 145.075 309.828 145.224 309.412 145.224C308.996 145.224 308.639 145.075 308.34 144.776C308.041 144.477 307.892 144.12 307.892 143.704C307.892 143.288 308.041 142.931 308.34 142.632C308.639 142.333 308.996 142.184 309.412 142.184C309.828 142.184 310.185 142.333 310.484 142.632C310.783 142.931 310.932 143.288 310.932 143.704C310.932 144.12 310.783 144.477 310.484 144.776ZM319.171 137.528C319.171 138.392 318.953 139.149 318.515 139.8L315.091 145H312.147L314.579 141.464C313.47 141.379 312.569 140.973 311.875 140.248C311.193 139.523 310.851 138.616 310.851 137.528C310.851 136.365 311.235 135.416 312.003 134.68C312.782 133.944 313.785 133.576 315.011 133.576C316.249 133.576 317.251 133.944 318.019 134.68C318.787 135.416 319.171 136.365 319.171 137.528ZM313.875 136.408C313.566 136.685 313.411 137.059 313.411 137.528C313.411 137.997 313.566 138.376 313.875 138.664C314.185 138.941 314.563 139.08 315.011 139.08C315.459 139.08 315.838 138.941 316.147 138.664C316.457 138.387 316.611 138.008 316.611 137.528C316.611 137.048 316.457 136.669 316.147 136.392C315.838 136.115 315.459 135.976 315.011 135.976C314.563 135.976 314.185 136.12 313.875 136.408ZM324.084 137.336C325.193 137.421 326.089 137.827 326.772 138.552C327.465 139.277 327.812 140.184 327.812 141.272C327.812 142.435 327.423 143.384 326.644 144.12C325.876 144.856 324.879 145.224 323.652 145.224C322.415 145.224 321.412 144.856 320.644 144.12C319.876 143.384 319.492 142.435 319.492 141.272C319.492 140.408 319.711 139.651 320.148 139L323.572 133.8H326.516L324.084 137.336ZM322.516 142.408C322.825 142.685 323.204 142.824 323.652 142.824C324.1 142.824 324.479 142.685 324.788 142.408C325.097 142.12 325.252 141.741 325.252 141.272C325.252 140.803 325.097 140.429 324.788 140.152C324.479 139.864 324.1 139.72 323.652 139.72C323.204 139.72 322.825 139.859 322.516 140.136C322.207 140.413 322.052 140.792 322.052 141.272C322.052 141.752 322.207 142.131 322.516 142.408ZM337.401 140.84V143.208H336.281V145H333.689V143.208H328.601V140.84L332.169 133.8H334.921L331.353 140.84H333.689V138.44H336.281V140.84H337.401Z" fill="#101010"/>
<path d="M149.88 208.224C148.739 208.224 147.784 207.979 147.016 207.488C146.259 206.987 145.72 206.309 145.4 205.456L147.608 204.176C148.056 205.211 148.84 205.728 149.96 205.728C150.973 205.728 151.48 205.424 151.48 204.816C151.48 204.485 151.315 204.229 150.984 204.048C150.664 203.856 150.056 203.637 149.16 203.392C148.691 203.264 148.28 203.12 147.928 202.96C147.576 202.8 147.229 202.592 146.888 202.336C146.557 202.069 146.301 201.739 146.12 201.344C145.949 200.949 145.864 200.496 145.864 199.984C145.864 198.949 146.232 198.123 146.968 197.504C147.715 196.885 148.6 196.576 149.624 196.576C150.541 196.576 151.352 196.795 152.056 197.232C152.76 197.659 153.315 198.283 153.72 199.104L151.56 200.368C151.357 199.941 151.107 199.621 150.808 199.408C150.509 199.184 150.115 199.072 149.624 199.072C149.24 199.072 148.941 199.157 148.728 199.328C148.525 199.488 148.424 199.685 148.424 199.92C148.424 200.197 148.552 200.437 148.808 200.64C149.075 200.843 149.619 201.067 150.44 201.312C150.888 201.451 151.235 201.563 151.48 201.648C151.725 201.733 152.035 201.877 152.408 202.08C152.792 202.272 153.08 202.48 153.272 202.704C153.475 202.917 153.651 203.205 153.8 203.568C153.96 203.92 154.04 204.325 154.04 204.784C154.04 205.851 153.656 206.693 152.888 207.312C152.12 207.92 151.117 208.224 149.88 208.224ZM160.407 200H162.807V208H160.407V207.248C159.927 207.899 159.165 208.224 158.119 208.224C157.266 208.224 156.551 207.931 155.975 207.344C155.41 206.757 155.127 205.947 155.127 204.912V200H157.527V204.56C157.527 205.029 157.655 205.392 157.911 205.648C158.178 205.893 158.514 206.016 158.919 206.016C159.378 206.016 159.741 205.877 160.007 205.6C160.274 205.323 160.407 204.912 160.407 204.368V200ZM166.776 198.88C166.498 199.157 166.162 199.296 165.768 199.296C165.373 199.296 165.032 199.157 164.743 198.88C164.466 198.592 164.328 198.251 164.328 197.856C164.328 197.461 164.466 197.125 164.743 196.848C165.032 196.56 165.373 196.416 165.768 196.416C166.162 196.416 166.498 196.56 166.776 196.848C167.064 197.125 167.208 197.461 167.208 197.856C167.208 198.251 167.064 198.592 166.776 198.88ZM164.568 208V200H166.968V208H164.568ZM171.7 205.76H174.884V208H168.484V206.4L171.508 202.24H168.644V200H174.724V201.6L171.7 205.76ZM181.641 200H184.041V208H181.641V207.248C181.076 207.899 180.281 208.224 179.257 208.224C178.201 208.224 177.3 207.819 176.553 207.008C175.806 206.187 175.433 205.184 175.433 204C175.433 202.816 175.806 201.819 176.553 201.008C177.3 200.187 178.201 199.776 179.257 199.776C180.281 199.776 181.076 200.101 181.641 200.752V200ZM178.361 205.424C178.713 205.776 179.172 205.952 179.737 205.952C180.302 205.952 180.761 205.776 181.113 205.424C181.465 205.072 181.641 204.597 181.641 204C181.641 203.403 181.465 202.928 181.113 202.576C180.761 202.224 180.302 202.048 179.737 202.048C179.172 202.048 178.713 202.224 178.361 202.576C178.009 202.928 177.833 203.403 177.833 204C177.833 204.597 178.009 205.072 178.361 205.424Z" fill="#3CC3DD"/>
<path d="M148.088 216.8H150.328V228H147.768V219.504L145.784 220.048L145.16 217.856L148.088 216.8ZM151.805 228V226.144L155.565 222.24C156.322 221.461 156.701 220.8 156.701 220.256C156.701 219.904 156.594 219.621 156.381 219.408C156.168 219.184 155.874 219.072 155.501 219.072C154.754 219.072 154.205 219.477 153.853 220.288L151.693 219.024C152.034 218.224 152.546 217.616 153.229 217.2C153.912 216.784 154.658 216.576 155.469 216.576C156.514 216.576 157.405 216.901 158.141 217.552C158.888 218.192 159.261 219.056 159.261 220.144C159.261 221.328 158.68 222.501 157.517 223.664L155.661 225.536H159.421V228H151.805ZM163.296 227.776C162.998 228.075 162.64 228.224 162.224 228.224C161.808 228.224 161.451 228.075 161.152 227.776C160.854 227.477 160.704 227.12 160.704 226.704C160.704 226.288 160.854 225.931 161.152 225.632C161.451 225.333 161.808 225.184 162.224 225.184C162.64 225.184 162.998 225.333 163.296 225.632C163.595 225.931 163.744 226.288 163.744 226.704C163.744 227.12 163.595 227.477 163.296 227.776ZM167.557 216.8H169.797V228H167.237V219.504L165.253 220.048L164.629 217.856L167.557 216.8ZM179.306 226.64C178.506 227.696 177.391 228.224 175.962 228.224C174.533 228.224 173.413 227.696 172.602 226.64C171.802 225.573 171.402 224.16 171.402 222.4C171.402 220.64 171.802 219.232 172.602 218.176C173.413 217.109 174.533 216.576 175.962 216.576C177.391 216.576 178.506 217.109 179.306 218.176C180.117 219.232 180.522 220.64 180.522 222.4C180.522 224.16 180.117 225.573 179.306 226.64ZM173.962 222.4C173.962 224.619 174.629 225.728 175.962 225.728C177.295 225.728 177.962 224.619 177.962 222.4C177.962 220.181 177.295 219.072 175.962 219.072C174.629 219.072 173.962 220.181 173.962 222.4ZM190.12 223.84V226.208H189V228H186.408V226.208H181.32V223.84L184.888 216.8H187.64L184.072 223.84H186.408V221.44H189V223.84H190.12Z" fill="#101010"/>
<path d="M4.52 205.536H9V208H1.96V196.8H8.92V199.264H4.52V201.12H8.52V203.552H4.52V205.536ZM12.6364 202.336C12.6364 202.496 12.7697 202.629 13.0364 202.736C13.3137 202.832 13.6444 202.933 14.0284 203.04C14.4124 203.136 14.7964 203.264 15.1804 203.424C15.5644 203.584 15.8897 203.851 16.1564 204.224C16.4337 204.587 16.5724 205.045 16.5724 205.6C16.5724 206.464 16.2524 207.12 15.6124 207.568C14.9724 208.005 14.183 208.224 13.2444 208.224C11.559 208.224 10.4124 207.589 9.80438 206.32L11.8844 205.136C12.0977 205.765 12.551 206.08 13.2444 206.08C13.8204 206.08 14.1084 205.915 14.1084 205.584C14.1084 205.424 13.9697 205.291 13.6924 205.184C13.4257 205.077 13.1004 204.976 12.7164 204.88C12.3324 204.773 11.9484 204.64 11.5644 204.48C11.1804 204.309 10.8497 204.048 10.5724 203.696C10.3057 203.344 10.1724 202.912 10.1724 202.4C10.1724 201.568 10.471 200.923 11.0684 200.464C11.6764 200.005 12.423 199.776 13.3084 199.776C13.9697 199.776 14.5724 199.925 15.1164 200.224C15.6604 200.512 16.0977 200.933 16.4284 201.488L14.3804 202.592C14.1244 202.123 13.767 201.888 13.3084 201.888C12.8604 201.888 12.6364 202.037 12.6364 202.336ZM22.6328 199.776C23.6888 199.776 24.5901 200.187 25.3368 201.008C26.0834 201.819 26.4568 202.816 26.4568 204C26.4568 205.184 26.0834 206.187 25.3368 207.008C24.5901 207.819 23.6888 208.224 22.6328 208.224C21.6088 208.224 20.8141 207.899 20.2488 207.248V211.2H17.8488V200H20.2488V200.752C20.8141 200.101 21.6088 199.776 22.6328 199.776ZM20.7768 205.424C21.1394 205.776 21.5981 205.952 22.1528 205.952C22.7074 205.952 23.1608 205.776 23.5128 205.424C23.8754 205.072 24.0568 204.597 24.0568 204C24.0568 203.403 23.8754 202.928 23.5128 202.576C23.1608 202.224 22.7074 202.048 22.1528 202.048C21.5981 202.048 21.1394 202.224 20.7768 202.576C20.4248 202.928 20.2488 203.403 20.2488 204C20.2488 204.597 20.4248 205.072 20.7768 205.424ZM33.6255 200H36.0255V208H33.6255V207.248C33.0602 207.899 32.2655 208.224 31.2415 208.224C30.1855 208.224 29.2842 207.819 28.5375 207.008C27.7908 206.187 27.4175 205.184 27.4175 204C27.4175 202.816 27.7908 201.819 28.5375 201.008C29.2842 200.187 30.1855 199.776 31.2415 199.776C32.2655 199.776 33.0602 200.101 33.6255 200.752V200ZM30.3455 205.424C30.6975 205.776 31.1562 205.952 31.7215 205.952C32.2868 205.952 32.7455 205.776 33.0975 205.424C33.4495 205.072 33.6255 204.597 33.6255 204C33.6255 203.403 33.4495 202.928 33.0975 202.576C32.7455 202.224 32.2868 202.048 31.7215 202.048C31.1562 202.048 30.6975 202.224 30.3455 202.576C29.9935 202.928 29.8175 203.403 29.8175 204C29.8175 204.597 29.9935 205.072 30.3455 205.424ZM41.4503 198.608C41.1729 198.437 40.9863 198.379 40.8903 198.432C40.8049 198.485 40.7623 198.672 40.7623 198.992H38.8423C38.8423 198.341 38.9329 197.808 39.1143 197.392C39.3063 196.976 39.5569 196.704 39.8663 196.576C40.1756 196.437 40.5116 196.395 40.8743 196.448C41.2369 196.491 41.6049 196.629 41.9783 196.864C42.2449 197.035 42.4263 197.093 42.5223 197.04C42.6183 196.987 42.6663 196.8 42.6663 196.48H44.5863C44.5863 197.131 44.4903 197.664 44.2983 198.08C44.1169 198.496 43.8716 198.773 43.5623 198.912C43.2529 199.04 42.9169 199.083 42.5543 199.04C42.1916 198.987 41.8236 198.843 41.4503 198.608ZM42.4743 199.776C43.3276 199.776 44.0369 200.069 44.6023 200.656C45.1783 201.243 45.4663 202.053 45.4663 203.088V208H43.0663V203.44C43.0663 202.971 42.9329 202.613 42.6663 202.368C42.4103 202.112 42.0796 201.984 41.6743 201.984C41.2156 201.984 40.8529 202.123 40.5863 202.4C40.3196 202.677 40.1863 203.088 40.1863 203.632V208H37.7863V200H40.1863V200.752C40.6663 200.101 41.4289 199.776 42.4743 199.776ZM52.9224 200H55.3224V208H52.9224V207.248C52.357 207.899 51.5624 208.224 50.5384 208.224C49.4824 208.224 48.581 207.819 47.8344 207.008C47.0877 206.187 46.7144 205.184 46.7144 204C46.7144 202.816 47.0877 201.819 47.8344 201.008C48.581 200.187 49.4824 199.776 50.5384 199.776C51.5624 199.776 52.357 200.101 52.9224 200.752V200ZM49.6424 205.424C49.9944 205.776 50.453 205.952 51.0184 205.952C51.5837 205.952 52.0424 205.776 52.3944 205.424C52.7464 205.072 52.9224 204.597 52.9224 204C52.9224 203.403 52.7464 202.928 52.3944 202.576C52.0424 202.224 51.5837 202.048 51.0184 202.048C50.453 202.048 49.9944 202.224 49.6424 202.576C49.2904 202.928 49.1144 203.403 49.1144 204C49.1144 204.597 49.2904 205.072 49.6424 205.424Z" fill="#3CC3DD"/>
<path d="M1.16 216.8H8.52V218.944L4.872 228H2.152L5.672 219.264H1.16V216.8ZM9.19575 228V226.144L12.9557 222.24C13.7131 221.461 14.0918 220.8 14.0918 220.256C14.0918 219.904 13.9851 219.621 13.7718 219.408C13.5584 219.184 13.2651 219.072 12.8918 219.072C12.1451 219.072 11.5958 219.477 11.2438 220.288L9.08375 219.024C9.42508 218.224 9.93708 217.616 10.6198 217.2C11.3024 216.784 12.0491 216.576 12.8598 216.576C13.9051 216.576 14.7958 216.901 15.5318 217.552C16.2784 218.192 16.6518 219.056 16.6518 220.144C16.6518 221.328 16.0704 222.501 14.9078 223.664L13.0518 225.536H16.8118V228H9.19575ZM20.687 227.776C20.3883 228.075 20.031 228.224 19.615 228.224C19.199 228.224 18.8417 228.075 18.543 227.776C18.2443 227.477 18.095 227.12 18.095 226.704C18.095 226.288 18.2443 225.931 18.543 225.632C18.8417 225.333 19.199 225.184 19.615 225.184C20.031 225.184 20.3883 225.333 20.687 225.632C20.9857 225.931 21.135 226.288 21.135 226.704C21.135 227.12 20.9857 227.477 20.687 227.776ZM22.2114 228V226.144L25.9714 222.24C26.7287 221.461 27.1074 220.8 27.1074 220.256C27.1074 219.904 27.0007 219.621 26.7874 219.408C26.574 219.184 26.2807 219.072 25.9074 219.072C25.1607 219.072 24.6114 219.477 24.2594 220.288L22.0994 219.024C22.4407 218.224 22.9527 217.616 23.6354 217.2C24.318 216.784 25.0647 216.576 25.8754 216.576C26.9207 216.576 27.8114 216.901 28.5474 217.552C29.294 218.192 29.6674 219.056 29.6674 220.144C29.6674 221.328 29.086 222.501 27.9234 223.664L26.0674 225.536H29.8274V228H22.2114ZM39.3544 223.84V226.208H38.2344V228H35.6424V226.208H30.5544V223.84L34.1224 216.8H36.8744L33.3064 223.84H35.6424V221.44H38.2344V223.84H39.3544ZM46.9199 222.16C47.8905 222.789 48.3759 223.685 48.3759 224.848C48.3759 225.883 48.0132 226.704 47.2879 227.312C46.5732 227.92 45.5652 228.224 44.2639 228.224C42.9625 228.224 41.9492 227.92 41.2239 227.312C40.5092 226.704 40.1519 225.883 40.1519 224.848C40.1519 223.685 40.6372 222.789 41.6079 222.16C40.8932 221.605 40.5359 220.853 40.5359 219.904C40.5359 218.859 40.8879 218.043 41.5919 217.456C42.2959 216.869 43.1865 216.576 44.2639 216.576C45.3412 216.576 46.2319 216.869 46.9359 217.456C47.6399 218.043 47.9919 218.859 47.9919 219.904C47.9919 220.853 47.6345 221.605 46.9199 222.16ZM45.1119 219.28C44.8985 219.077 44.6159 218.976 44.2639 218.976C43.9119 218.976 43.6292 219.077 43.4159 219.28C43.2025 219.483 43.0959 219.744 43.0959 220.064C43.0959 220.384 43.2025 220.645 43.4159 220.848C43.6292 221.051 43.9119 221.152 44.2639 221.152C44.6159 221.152 44.8985 221.051 45.1119 220.848C45.3252 220.645 45.4319 220.384 45.4319 220.064C45.4319 219.744 45.3252 219.483 45.1119 219.28ZM43.1439 225.472C43.4319 225.707 43.8052 225.824 44.2639 225.824C44.7225 225.824 45.0959 225.707 45.3839 225.472C45.6719 225.227 45.8159 224.896 45.8159 224.48C45.8159 224.064 45.6719 223.739 45.3839 223.504C45.0959 223.259 44.7225 223.136 44.2639 223.136C43.8052 223.136 43.4319 223.259 43.1439 223.504C42.8559 223.739 42.7119 224.064 42.7119 224.48C42.7119 224.896 42.8559 225.227 43.1439 225.472Z" fill="#101010"/>
<path d="M0.96 114.8H3.52V126H0.96V114.8ZM10.0524 120.304H8.40438V123.136C8.40438 123.456 8.53238 123.659 8.78838 123.744C9.04438 123.829 9.46571 123.856 10.0524 123.824V126C8.52704 126.16 7.47104 126.016 6.88438 125.568C6.29771 125.109 6.00438 124.299 6.00438 123.136V120.304H4.72438V118H6.00438V116.48L8.40438 115.76V118H10.0524V120.304ZM17.063 118H19.463V126H17.063V125.248C16.4977 125.899 15.703 126.224 14.679 126.224C13.623 126.224 12.7217 125.819 11.975 125.008C11.2283 124.187 10.855 123.184 10.855 122C10.855 120.816 11.2283 119.819 11.975 119.008C12.7217 118.187 13.623 117.776 14.679 117.776C15.703 117.776 16.4977 118.101 17.063 118.752V118ZM13.783 123.424C14.135 123.776 14.5937 123.952 15.159 123.952C15.7243 123.952 16.183 123.776 16.535 123.424C16.887 123.072 17.063 122.597 17.063 122C17.063 121.403 16.887 120.928 16.535 120.576C16.183 120.224 15.7243 120.048 15.159 120.048C14.5937 120.048 14.135 120.224 13.783 120.576C13.431 120.928 13.255 121.403 13.255 122C13.255 122.597 13.431 123.072 13.783 123.424ZM21.2238 126V114.32H23.6238V126H21.2238ZM27.588 116.88C27.3107 117.157 26.9747 117.296 26.58 117.296C26.1853 117.296 25.844 117.157 25.556 116.88C25.2787 116.592 25.14 116.251 25.14 115.856C25.14 115.461 25.2787 115.125 25.556 114.848C25.844 114.56 26.1853 114.416 26.58 114.416C26.9747 114.416 27.3107 114.56 27.588 114.848C27.876 115.125 28.02 115.461 28.02 115.856C28.02 116.251 27.876 116.592 27.588 116.88ZM25.38 126V118H27.78V126H25.38ZM35.3443 118H37.7443V126H35.3443V125.248C34.7789 125.899 33.9843 126.224 32.9603 126.224C31.9043 126.224 31.0029 125.819 30.2563 125.008C29.5096 124.187 29.1363 123.184 29.1363 122C29.1363 120.816 29.5096 119.819 30.2563 119.008C31.0029 118.187 31.9043 117.776 32.9603 117.776C33.9843 117.776 34.7789 118.101 35.3443 118.752V118ZM32.0643 123.424C32.4163 123.776 32.8749 123.952 33.4403 123.952C34.0056 123.952 34.4643 123.776 34.8163 123.424C35.1683 123.072 35.3443 122.597 35.3443 122C35.3443 121.403 35.1683 120.928 34.8163 120.576C34.4643 120.224 34.0056 120.048 33.4403 120.048C32.8749 120.048 32.4163 120.224 32.0643 120.576C31.7123 120.928 31.5363 121.403 31.5363 122C31.5363 122.597 31.7123 123.072 32.0643 123.424Z" fill="#3CC3DD"/>
<path d="M8.64 138.528C8.64 139.392 8.42133 140.149 7.984 140.8L4.56 146H1.616L4.048 142.464C2.93867 142.379 2.03733 141.973 1.344 141.248C0.661333 140.523 0.32 139.616 0.32 138.528C0.32 137.365 0.704 136.416 1.472 135.68C2.25067 134.944 3.25333 134.576 4.48 134.576C5.71733 134.576 6.72 134.944 7.488 135.68C8.256 136.416 8.64 137.365 8.64 138.528ZM3.344 137.408C3.03467 137.685 2.88 138.059 2.88 138.528C2.88 138.997 3.03467 139.376 3.344 139.664C3.65333 139.941 4.032 140.08 4.48 140.08C4.928 140.08 5.30667 139.941 5.616 139.664C5.92533 139.387 6.08 139.008 6.08 138.528C6.08 138.048 5.92533 137.669 5.616 137.392C5.30667 137.115 4.928 136.976 4.48 136.976C4.032 136.976 3.65333 137.12 3.344 137.408ZM9.14888 146V144.144L12.9089 140.24C13.6662 139.461 14.0449 138.8 14.0449 138.256C14.0449 137.904 13.9382 137.621 13.7249 137.408C13.5115 137.184 13.2182 137.072 12.8449 137.072C12.0982 137.072 11.5489 137.477 11.1969 138.288L9.03688 137.024C9.37821 136.224 9.89021 135.616 10.5729 135.2C11.2555 134.784 12.0022 134.576 12.8129 134.576C13.8582 134.576 14.7489 134.901 15.4849 135.552C16.2315 136.192 16.6049 137.056 16.6049 138.144C16.6049 139.328 16.0235 140.501 14.8609 141.664L13.0049 143.536H16.7649V146H9.14888ZM20.6401 145.776C20.3415 146.075 19.9841 146.224 19.5681 146.224C19.1521 146.224 18.7948 146.075 18.4961 145.776C18.1975 145.477 18.0481 145.12 18.0481 144.704C18.0481 144.288 18.1975 143.931 18.4961 143.632C18.7948 143.333 19.1521 143.184 19.5681 143.184C19.9841 143.184 20.3415 143.333 20.6401 143.632C20.9388 143.931 21.0881 144.288 21.0881 144.704C21.0881 145.12 20.9388 145.477 20.6401 145.776ZM30.9325 141.84V144.208H29.8125V146H27.2205V144.208H22.1325V141.84L25.7005 134.8H28.4525L24.8845 141.84H27.2205V139.44H29.8125V141.84H30.9325ZM30.9413 134.8H38.3013V136.944L34.6533 146H31.9333L35.4533 137.264H30.9413V134.8ZM38.977 146V144.144L42.737 140.24C43.4943 139.461 43.873 138.8 43.873 138.256C43.873 137.904 43.7663 137.621 43.553 137.408C43.3397 137.184 43.0463 137.072 42.673 137.072C41.9263 137.072 41.377 137.477 41.025 138.288L38.865 137.024C39.2063 136.224 39.7183 135.616 40.401 135.2C41.0837 134.784 41.8303 134.576 42.641 134.576C43.6863 134.576 44.577 134.901 45.313 135.552C46.0597 136.192 46.433 137.056 46.433 138.144C46.433 139.328 45.8517 140.501 44.689 141.664L42.833 143.536H46.593V146H38.977Z" fill="#101010"/>
<path d="M426.848 125L424.736 121.32H423.52V125H420.96V113.8H425.44C426.507 113.8 427.413 114.173 428.16 114.92C428.907 115.667 429.28 116.573 429.28 117.64C429.28 118.323 429.088 118.957 428.704 119.544C428.331 120.12 427.835 120.568 427.216 120.888L429.6 125H426.848ZM423.52 116.2V119.08H425.44C425.792 119.08 426.091 118.941 426.336 118.664C426.592 118.387 426.72 118.045 426.72 117.64C426.72 117.235 426.592 116.893 426.336 116.616C426.091 116.339 425.792 116.2 425.44 116.2H423.52ZM432.462 121.96C432.739 122.707 433.379 123.08 434.382 123.08C435.032 123.08 435.544 122.877 435.918 122.472L437.838 123.576C437.048 124.675 435.886 125.224 434.35 125.224C433.006 125.224 431.928 124.824 431.118 124.024C430.318 123.224 429.918 122.216 429.918 121C429.918 119.795 430.312 118.792 431.102 117.992C431.902 117.181 432.926 116.776 434.174 116.776C435.336 116.776 436.302 117.181 437.07 117.992C437.848 118.792 438.238 119.795 438.238 121C438.238 121.341 438.206 121.661 438.142 121.96H432.462ZM432.414 120.168H435.854C435.619 119.325 435.054 118.904 434.158 118.904C433.23 118.904 432.648 119.325 432.414 120.168ZM441.807 115.88C441.529 116.157 441.193 116.296 440.799 116.296C440.404 116.296 440.063 116.157 439.775 115.88C439.497 115.592 439.359 115.251 439.359 114.856C439.359 114.461 439.497 114.125 439.775 113.848C440.063 113.56 440.404 113.416 440.799 113.416C441.193 113.416 441.529 113.56 441.807 113.848C442.095 114.125 442.239 114.461 442.239 114.856C442.239 115.251 442.095 115.592 441.807 115.88ZM439.599 125V117H441.999V125H439.599ZM448.443 116.776C449.296 116.776 450.006 117.069 450.571 117.656C451.147 118.243 451.435 119.053 451.435 120.088V125H449.035V120.44C449.035 119.971 448.902 119.613 448.635 119.368C448.379 119.112 448.048 118.984 447.643 118.984C447.184 118.984 446.822 119.123 446.555 119.4C446.288 119.677 446.155 120.088 446.155 120.632V125H443.755V117H446.155V117.752C446.635 117.101 447.398 116.776 448.443 116.776ZM459.931 124.008C459.11 124.819 458.107 125.224 456.923 125.224C455.739 125.224 454.736 124.819 453.915 124.008C453.094 123.187 452.683 122.184 452.683 121C452.683 119.816 453.094 118.819 453.915 118.008C454.736 117.187 455.739 116.776 456.923 116.776C458.107 116.776 459.11 117.187 459.931 118.008C460.752 118.819 461.163 119.816 461.163 121C461.163 122.184 460.752 123.187 459.931 124.008ZM455.611 122.36C455.963 122.712 456.4 122.888 456.923 122.888C457.446 122.888 457.883 122.712 458.235 122.36C458.587 122.008 458.763 121.555 458.763 121C458.763 120.445 458.587 119.992 458.235 119.64C457.883 119.288 457.446 119.112 456.923 119.112C456.4 119.112 455.963 119.288 455.611 119.64C455.259 119.992 455.083 120.445 455.083 121C455.083 121.555 455.259 122.008 455.611 122.36ZM473.945 124.184C473.134 124.877 472.099 125.224 470.841 125.224C469.582 125.224 468.547 124.877 467.737 124.184C466.926 123.491 466.521 122.557 466.521 121.384V113.8H469.081V121.16C469.081 122.205 469.667 122.728 470.841 122.728C472.014 122.728 472.601 122.205 472.601 121.16V113.8H475.161V121.384C475.161 122.557 474.755 123.491 473.945 124.184ZM481.615 116.776C482.468 116.776 483.178 117.069 483.743 117.656C484.319 118.243 484.607 119.053 484.607 120.088V125H482.207V120.44C482.207 119.971 482.074 119.613 481.807 119.368C481.551 119.112 481.22 118.984 480.815 118.984C480.356 118.984 479.994 119.123 479.727 119.4C479.46 119.677 479.327 120.088 479.327 120.632V125H476.927V117H479.327V117.752C479.807 117.101 480.57 116.776 481.615 116.776ZM488.463 115.88C488.186 116.157 487.85 116.296 487.455 116.296C487.06 116.296 486.719 116.157 486.431 115.88C486.154 115.592 486.015 115.251 486.015 114.856C486.015 114.461 486.154 114.125 486.431 113.848C486.719 113.56 487.06 113.416 487.455 113.416C487.85 113.416 488.186 113.56 488.463 113.848C488.751 114.125 488.895 114.461 488.895 114.856C488.895 115.251 488.751 115.592 488.463 115.88ZM486.255 125V117H488.655V125H486.255ZM496.219 113.8H498.619V125H496.219V124.248C495.654 124.899 494.859 125.224 493.835 125.224C492.779 125.224 491.878 124.819 491.131 124.008C490.385 123.187 490.011 122.184 490.011 121C490.011 119.816 490.385 118.819 491.131 118.008C491.878 117.187 492.779 116.776 493.835 116.776C494.859 116.776 495.654 117.101 496.219 117.752V113.8ZM492.939 122.424C493.291 122.776 493.75 122.952 494.315 122.952C494.881 122.952 495.339 122.776 495.691 122.424C496.043 122.072 496.219 121.597 496.219 121C496.219 120.403 496.043 119.928 495.691 119.576C495.339 119.224 494.881 119.048 494.315 119.048C493.75 119.048 493.291 119.224 492.939 119.576C492.587 119.928 492.411 120.403 492.411 121C492.411 121.597 492.587 122.072 492.939 122.424ZM507.228 124.008C506.407 124.819 505.404 125.224 504.22 125.224C503.036 125.224 502.033 124.819 501.212 124.008C500.391 123.187 499.98 122.184 499.98 121C499.98 119.816 500.391 118.819 501.212 118.008C502.033 117.187 503.036 116.776 504.22 116.776C505.404 116.776 506.407 117.187 507.228 118.008C508.049 118.819 508.46 119.816 508.46 121C508.46 122.184 508.049 123.187 507.228 124.008ZM502.908 122.36C503.26 122.712 503.697 122.888 504.22 122.888C504.743 122.888 505.18 122.712 505.532 122.36C505.884 122.008 506.06 121.555 506.06 121C506.06 120.445 505.884 119.992 505.532 119.64C505.18 119.288 504.743 119.112 504.22 119.112C503.697 119.112 503.26 119.288 502.908 119.64C502.556 119.992 502.38 120.445 502.38 121C502.38 121.555 502.556 122.008 502.908 122.36Z" fill="#3CC3DD"/>
<path d="M423.088 133.8H425.328V145H422.768V136.504L420.784 137.048L420.16 134.856L423.088 133.8ZM435.573 140.84V143.208H434.453V145H431.861V143.208H426.773V140.84L430.341 133.8H433.093L429.525 140.84H431.861V138.44H434.453V140.84H435.573ZM439.046 144.776C438.748 145.075 438.39 145.224 437.974 145.224C437.558 145.224 437.201 145.075 436.902 144.776C436.604 144.477 436.454 144.12 436.454 143.704C436.454 143.288 436.604 142.931 436.902 142.632C437.201 142.333 437.558 142.184 437.974 142.184C438.39 142.184 438.748 142.333 439.046 142.632C439.345 142.931 439.494 143.288 439.494 143.704C439.494 144.12 439.345 144.477 439.046 144.776ZM444.779 137.736C445.877 137.736 446.789 138.067 447.515 138.728C448.251 139.379 448.619 140.296 448.619 141.48C448.619 142.653 448.224 143.571 447.435 144.232C446.645 144.893 445.68 145.224 444.539 145.224C443.611 145.224 442.795 145.027 442.091 144.632C441.387 144.227 440.869 143.624 440.539 142.824L442.747 141.544C443.024 142.333 443.621 142.728 444.539 142.728C445.04 142.728 445.419 142.611 445.675 142.376C445.931 142.141 446.059 141.843 446.059 141.48C446.059 141.117 445.936 140.819 445.691 140.584C445.445 140.349 445.088 140.232 444.619 140.232H441.115L441.579 133.8H448.059V136.2H443.979L443.867 137.736H444.779ZM458.136 140.84V143.208H457.016V145H454.424V143.208H449.336V140.84L452.904 133.8H455.656L452.088 140.84H454.424V138.44H457.016V140.84H458.136ZM464.233 138.344C464.948 138.589 465.524 138.989 465.961 139.544C466.398 140.088 466.617 140.733 466.617 141.48C466.617 142.653 466.222 143.571 465.433 144.232C464.644 144.893 463.678 145.224 462.537 145.224C461.652 145.224 460.857 145.021 460.153 144.616C459.46 144.211 458.948 143.613 458.617 142.824L460.825 141.544C461.102 142.333 461.673 142.728 462.537 142.728C463.038 142.728 463.417 142.611 463.673 142.376C463.929 142.141 464.057 141.843 464.057 141.48C464.057 141.117 463.929 140.819 463.673 140.584C463.417 140.349 463.038 140.232 462.537 140.232H462.009L461.033 138.776L463.065 136.2H458.969V133.8H466.169V135.88L464.233 138.344Z" fill="#101010"/>
<path d="M443.586 99.8623H420.414C420.185 99.8623 420 99.677 420 99.4485V84.552C420 84.3235 420.185 84.1382 420.414 84.1382H443.586C443.815 84.1382 444 84.3235 444 84.552V99.4485C444 99.677 443.815 99.8623 443.586 99.8623Z" fill="#41479B"/>
<path d="M444 84.552C444 84.3235 443.815 84.1382 443.586 84.1382H441.735L434.069 89.1607V84.1382H429.931V89.1607L422.265 84.1382H420.414C420.185 84.1382 420 84.3235 420 84.552V85.6222L426.577 89.9313H420V94.0692H426.577L420 98.3783V99.4485C420 99.677 420.185 99.8623 420.414 99.8623H422.265L429.931 94.8398V99.8623H434.069V94.8398L441.735 99.8623H443.586C443.815 99.8623 444 99.677 444 99.4485V98.3783L437.423 94.0692H444V89.9313H437.423L444 85.6222V84.552Z" fill="#F5F5F5"/>
<path d="M444 90.7589H433.241V84.1382H430.759V90.7589H420V93.2416H430.759V99.8623H433.241V93.2416H444V90.7589Z" fill="#FF4B55"/>
<path d="M428.388 94.0693L420.012 99.5067C420.041 99.7065 420.206 99.8625 420.414 99.8625H420.984L429.908 94.0694H428.388V94.0693Z" fill="#FF4B55"/>
<path d="M436.237 94.0693H434.717L443.628 99.8539C443.836 99.8317 444 99.6622 444 99.4486V99.1084L436.237 94.0693Z" fill="#FF4B55"/>
<path d="M420 85.0085L427.583 89.931H429.103L420.241 84.1782C420.1 84.244 420 84.3853 420 84.5517V85.0085Z" fill="#FF4B55"/>
<path d="M435.588 89.9312L443.985 84.4808C443.95 84.2876 443.789 84.1382 443.586 84.1382H442.993L434.068 89.9312H435.588Z" fill="#FF4B55"/>
<path d="M296 99.8619H288.414C288.185 99.8619 288 99.6766 288 99.4481V84.5515C288 84.323 288.185 84.1377 288.414 84.1377H296V99.8619Z" fill="#41479B"/>
<path d="M304 84.1377H296V99.8619H304V84.1377Z" fill="#F5F5F5"/>
<path d="M311.586 99.8618H304V84.1377H311.586C311.815 84.1377 312 84.323 312 84.5515V99.4481C312 99.6766 311.815 99.8618 311.586 99.8618Z" fill="#FF4B55"/>
<path d="M171 89.3796H147V84.552C147 84.3235 147.185 84.1382 147.414 84.1382H170.586C170.815 84.1382 171 84.3235 171 84.552L171 89.3796Z" fill="#464655"/>
<path d="M170.586 99.862H147.414C147.185 99.862 147 99.6767 147 99.4482V94.6206H171V99.4482C171 99.6767 170.815 99.862 170.586 99.862Z" fill="#FFE15A"/>
<path d="M171 89.3794H147V94.6205H171V89.3794Z" fill="#FF4B55"/>
<path d="M157.08 126L156.52 124.24H152.36L151.8 126H149L152.808 114.8H156.072L159.88 126H157.08ZM153.128 121.84H155.752L154.44 117.728L153.128 121.84ZM160.755 126V114.32H163.155V126H160.755ZM167.055 122.96C167.333 123.707 167.973 124.08 168.975 124.08C169.626 124.08 170.138 123.877 170.511 123.472L172.431 124.576C171.642 125.675 170.479 126.224 168.943 126.224C167.599 126.224 166.522 125.824 165.711 125.024C164.911 124.224 164.511 123.216 164.511 122C164.511 120.795 164.906 119.792 165.695 118.992C166.495 118.181 167.519 117.776 168.767 117.776C169.93 117.776 170.895 118.181 171.663 118.992C172.442 119.792 172.831 120.795 172.831 122C172.831 122.341 172.799 122.661 172.735 122.96H167.055ZM167.007 121.168H170.447C170.213 120.325 169.647 119.904 168.751 119.904C167.823 119.904 167.242 120.325 167.007 121.168ZM183.153 117.776C184.07 117.776 184.806 118.08 185.361 118.688C185.915 119.285 186.193 120.085 186.193 121.088V126H183.793V121.296C183.793 120.891 183.691 120.571 183.489 120.336C183.297 120.101 183.014 119.984 182.641 119.984C182.246 119.984 181.937 120.117 181.713 120.384C181.499 120.651 181.392 121.019 181.392 121.488V126H178.993V121.296C178.993 120.891 178.891 120.571 178.689 120.336C178.497 120.101 178.214 119.984 177.841 119.984C177.446 119.984 177.137 120.117 176.913 120.384C176.699 120.651 176.593 121.019 176.593 121.488V126H174.193V118H176.593V118.736C177.03 118.096 177.745 117.776 178.737 117.776C179.665 117.776 180.363 118.128 180.833 118.832C181.323 118.128 182.097 117.776 183.153 117.776ZM193.641 118H196.041V126H193.641V125.248C193.076 125.899 192.281 126.224 191.257 126.224C190.201 126.224 189.3 125.819 188.553 125.008C187.806 124.187 187.433 123.184 187.433 122C187.433 120.816 187.806 119.819 188.553 119.008C189.3 118.187 190.201 117.776 191.257 117.776C192.281 117.776 193.076 118.101 193.641 118.752V118ZM190.361 123.424C190.713 123.776 191.172 123.952 191.737 123.952C192.302 123.952 192.761 123.776 193.113 123.424C193.465 123.072 193.641 122.597 193.641 122C193.641 121.403 193.465 120.928 193.113 120.576C192.761 120.224 192.302 120.048 191.737 120.048C191.172 120.048 190.713 120.224 190.361 120.576C190.009 120.928 189.833 121.403 189.833 122C189.833 122.597 190.009 123.072 190.361 123.424ZM202.49 117.776C203.343 117.776 204.053 118.069 204.618 118.656C205.194 119.243 205.482 120.053 205.482 121.088V126H203.082V121.44C203.082 120.971 202.949 120.613 202.682 120.368C202.426 120.112 202.095 119.984 201.69 119.984C201.231 119.984 200.869 120.123 200.602 120.4C200.335 120.677 200.202 121.088 200.202 121.632V126H197.802V118H200.202V118.752C200.682 118.101 201.445 117.776 202.49 117.776ZM209.338 116.88C209.061 117.157 208.725 117.296 208.33 117.296C207.935 117.296 207.594 117.157 207.306 116.88C207.029 116.592 206.89 116.251 206.89 115.856C206.89 115.461 207.029 115.125 207.306 114.848C207.594 114.56 207.935 114.416 208.33 114.416C208.725 114.416 209.061 114.56 209.338 114.848C209.626 115.125 209.77 115.461 209.77 115.856C209.77 116.251 209.626 116.592 209.338 116.88ZM207.13 126V118H209.53V126H207.13ZM217.094 118H219.494V126H217.094V125.248C216.529 125.899 215.734 126.224 214.71 126.224C213.654 126.224 212.753 125.819 212.006 125.008C211.26 124.187 210.886 123.184 210.886 122C210.886 120.816 211.26 119.819 212.006 119.008C212.753 118.187 213.654 117.776 214.71 117.776C215.734 117.776 216.529 118.101 217.094 118.752V118ZM213.814 123.424C214.166 123.776 214.625 123.952 215.19 123.952C215.756 123.952 216.214 123.776 216.566 123.424C216.918 123.072 217.094 122.597 217.094 122C217.094 121.403 216.918 120.928 216.566 120.576C216.214 120.224 215.756 120.048 215.19 120.048C214.625 120.048 214.166 120.224 213.814 120.576C213.462 120.928 213.286 121.403 213.286 122C213.286 122.597 213.462 123.072 213.814 123.424Z" fill="#3CC3DD"/>
<path d="M158.12 141.84V144.208H157V146H154.408V144.208H149.32V141.84L152.888 134.8H155.64L152.072 141.84H154.408V139.44H157V141.84H158.12ZM165.686 140.16C166.656 140.789 167.142 141.685 167.142 142.848C167.142 143.883 166.779 144.704 166.054 145.312C165.339 145.92 164.331 146.224 163.03 146.224C161.728 146.224 160.715 145.92 159.99 145.312C159.275 144.704 158.918 143.883 158.918 142.848C158.918 141.685 159.403 140.789 160.374 140.16C159.659 139.605 159.302 138.853 159.302 137.904C159.302 136.859 159.654 136.043 160.358 135.456C161.062 134.869 161.952 134.576 163.03 134.576C164.107 134.576 164.998 134.869 165.702 135.456C166.406 136.043 166.758 136.859 166.758 137.904C166.758 138.853 166.4 139.605 165.686 140.16ZM163.878 137.28C163.664 137.077 163.382 136.976 163.03 136.976C162.678 136.976 162.395 137.077 162.182 137.28C161.968 137.483 161.862 137.744 161.862 138.064C161.862 138.384 161.968 138.645 162.182 138.848C162.395 139.051 162.678 139.152 163.03 139.152C163.382 139.152 163.664 139.051 163.878 138.848C164.091 138.645 164.198 138.384 164.198 138.064C164.198 137.744 164.091 137.483 163.878 137.28ZM161.91 143.472C162.198 143.707 162.571 143.824 163.03 143.824C163.488 143.824 163.862 143.707 164.15 143.472C164.438 143.227 164.582 142.896 164.582 142.48C164.582 142.064 164.438 141.739 164.15 141.504C163.862 141.259 163.488 141.136 163.03 141.136C162.571 141.136 162.198 141.259 161.91 141.504C161.622 141.739 161.478 142.064 161.478 142.48C161.478 142.896 161.622 143.227 161.91 143.472ZM170.937 145.776C170.638 146.075 170.281 146.224 169.865 146.224C169.449 146.224 169.092 146.075 168.793 145.776C168.494 145.477 168.345 145.12 168.345 144.704C168.345 144.288 168.494 143.931 168.793 143.632C169.092 143.333 169.449 143.184 169.865 143.184C170.281 143.184 170.638 143.333 170.937 143.632C171.236 143.931 171.385 144.288 171.385 144.704C171.385 145.12 171.236 145.477 170.937 145.776ZM176.669 138.736C177.768 138.736 178.68 139.067 179.405 139.728C180.141 140.379 180.509 141.296 180.509 142.48C180.509 143.653 180.115 144.571 179.325 145.232C178.536 145.893 177.571 146.224 176.429 146.224C175.501 146.224 174.685 146.027 173.981 145.632C173.277 145.227 172.76 144.624 172.429 143.824L174.637 142.544C174.915 143.333 175.512 143.728 176.429 143.728C176.931 143.728 177.309 143.611 177.565 143.376C177.821 143.141 177.949 142.843 177.949 142.48C177.949 142.117 177.827 141.819 177.581 141.584C177.336 141.349 176.979 141.232 176.509 141.232H173.005L173.469 134.8H179.949V137.2H175.869L175.757 138.736H176.669ZM188.154 140.16C189.125 140.789 189.61 141.685 189.61 142.848C189.61 143.883 189.248 144.704 188.522 145.312C187.808 145.92 186.8 146.224 185.498 146.224C184.197 146.224 183.184 145.92 182.458 145.312C181.744 144.704 181.386 143.883 181.386 142.848C181.386 141.685 181.872 140.789 182.842 140.16C182.128 139.605 181.77 138.853 181.77 137.904C181.77 136.859 182.122 136.043 182.826 135.456C183.53 134.869 184.421 134.576 185.498 134.576C186.576 134.576 187.466 134.869 188.17 135.456C188.874 136.043 189.226 136.859 189.226 137.904C189.226 138.853 188.869 139.605 188.154 140.16ZM186.346 137.28C186.133 137.077 185.85 136.976 185.498 136.976C185.146 136.976 184.864 137.077 184.65 137.28C184.437 137.483 184.33 137.744 184.33 138.064C184.33 138.384 184.437 138.645 184.65 138.848C184.864 139.051 185.146 139.152 185.498 139.152C185.85 139.152 186.133 139.051 186.346 138.848C186.56 138.645 186.666 138.384 186.666 138.064C186.666 137.744 186.56 137.483 186.346 137.28ZM184.378 143.472C184.666 143.707 185.04 143.824 185.498 143.824C185.957 143.824 186.33 143.707 186.618 143.472C186.906 143.227 187.05 142.896 187.05 142.48C187.05 142.064 186.906 141.739 186.618 141.504C186.33 141.259 185.957 141.136 185.498 141.136C185.04 141.136 184.666 141.259 184.378 141.504C184.09 141.739 183.946 142.064 183.946 142.48C183.946 142.896 184.09 143.227 184.378 143.472ZM190.29 146V144.144L194.049 140.24C194.807 139.461 195.186 138.8 195.186 138.256C195.186 137.904 195.079 137.621 194.866 137.408C194.652 137.184 194.359 137.072 193.986 137.072C193.239 137.072 192.69 137.477 192.338 138.288L190.178 137.024C190.519 136.224 191.031 135.616 191.714 135.2C192.396 134.784 193.143 134.576 193.954 134.576C194.999 134.576 195.89 134.901 196.626 135.552C197.372 136.192 197.746 137.056 197.746 138.144C197.746 139.328 197.164 140.501 196.002 141.664L194.146 143.536H197.906V146H190.29Z" fill="#101010"/>
<path d="M171.586 180.862H148.414C148.185 180.862 148 180.677 148 180.449V165.552C148 165.323 148.185 165.138 148.414 165.138H171.586C171.815 165.138 172 165.323 172 165.552V180.449C172 180.677 171.815 180.862 171.586 180.862Z" fill="#FF4B55"/>
<path d="M164.552 171.345H161.656V168.448C161.656 168.22 161.471 168.035 161.242 168.035H158.759C158.531 168.035 158.346 168.22 158.346 168.448V171.345H155.449C155.22 171.345 155.035 171.53 155.035 171.759V174.242C155.035 174.47 155.22 174.655 155.449 174.655H158.346V177.552C158.346 177.78 158.531 177.966 158.759 177.966H161.242C161.471 177.966 161.656 177.78 161.656 177.552V174.655H164.552C164.781 174.655 164.966 174.47 164.966 174.242V171.759C164.966 171.53 164.781 171.345 164.552 171.345Z" fill="#F5F5F5"/>
<path d="M8.00002 99.8619H0.413813C0.185297 99.8619 0 99.6766 0 99.4481V84.5515C0 84.323 0.185297 84.1377 0.413813 84.1377H8.00002V99.8619Z" fill="#73AF00"/>
<path d="M16.0002 84.1377H8V99.8619H16.0002V84.1377Z" fill="#F5F5F5"/>
<path d="M23.5862 99.8618H16V84.1377H23.5862C23.8147 84.1377 24 84.323 24 84.5515V99.4481C24 99.6766 23.8147 99.8618 23.5862 99.8618Z" fill="#FF4B55"/>
<defs>
<clipPath id="clip0">
<path d="M1 0H63V62H1V0Z" fill="white"/>
</clipPath>
</defs>
</svg>
