<svg width="532" height="233" viewBox="0 0 532 233" fill="none" xmlns="http://www.w3.org/2000/svg">
<path d="M266.568 29.032C268.712 29.768 270.44 30.968 271.752 32.632C273.064 34.264 273.72 36.2 273.72 38.44C273.72 41.96 272.536 44.712 270.168 46.696C267.8 48.68 264.904 49.672 261.48 49.672C258.824 49.672 256.44 49.064 254.328 47.848C252.248 46.632 250.712 44.84 249.72 42.472L256.344 38.632C257.176 41 258.888 42.184 261.48 42.184C262.984 42.184 264.12 41.832 264.888 41.128C265.656 40.424 266.04 39.528 266.04 38.44C266.04 37.352 265.656 36.456 264.888 35.752C264.12 35.048 262.984 34.696 261.48 34.696H259.896L256.968 30.328L263.064 22.6H250.776V15.4H272.376V21.64L266.568 29.032ZM288.927 26.008C292.255 26.264 294.943 27.48 296.991 29.656C299.071 31.832 300.111 34.552 300.111 37.816C300.111 41.304 298.943 44.152 296.607 46.36C294.303 48.568 291.311 49.672 287.631 49.672C283.919 49.672 280.911 48.568 278.607 46.36C276.303 44.152 275.151 41.304 275.151 37.816C275.151 35.224 275.807 32.952 277.119 31L287.391 15.4H296.223L288.927 26.008ZM284.223 41.224C285.151 42.056 286.287 42.472 287.631 42.472C288.975 42.472 290.111 42.056 291.039 41.224C291.967 40.36 292.431 39.224 292.431 37.816C292.431 36.408 291.967 35.288 291.039 34.456C290.111 33.592 288.975 33.16 287.631 33.16C286.287 33.16 285.151 33.576 284.223 34.408C283.295 35.24 282.831 36.376 282.831 37.816C282.831 39.256 283.295 40.392 284.223 41.224ZM314.826 26.008C318.154 26.264 320.842 27.48 322.89 29.656C324.97 31.832 326.01 34.552 326.01 37.816C326.01 41.304 324.842 44.152 322.506 46.36C320.202 48.568 317.21 49.672 313.53 49.672C309.818 49.672 306.81 48.568 304.506 46.36C302.202 44.152 301.05 41.304 301.05 37.816C301.05 35.224 301.706 32.952 303.018 31L313.29 15.4H322.122L314.826 26.008ZM310.122 41.224C311.05 42.056 312.186 42.472 313.53 42.472C314.874 42.472 316.01 42.056 316.938 41.224C317.866 40.36 318.33 39.224 318.33 37.816C318.33 36.408 317.866 35.288 316.938 34.456C316.01 33.592 314.874 33.16 313.53 33.16C312.186 33.16 311.05 33.576 310.122 34.408C309.194 35.24 308.73 36.376 308.73 37.816C308.73 39.256 309.194 40.392 310.122 41.224ZM334.988 48.328C334.092 49.224 333.02 49.672 331.772 49.672C330.524 49.672 329.452 49.224 328.556 48.328C327.66 47.432 327.212 46.36 327.212 45.112C327.212 43.864 327.66 42.792 328.556 41.896C329.452 41 330.524 40.552 331.772 40.552C333.02 40.552 334.092 41 334.988 41.896C335.884 42.792 336.332 43.864 336.332 45.112C336.332 46.36 335.884 47.432 334.988 48.328ZM351.225 27.208C354.521 27.208 357.257 28.2 359.433 30.184C361.641 32.136 362.745 34.888 362.745 38.44C362.745 41.96 361.561 44.712 359.193 46.696C356.825 48.68 353.929 49.672 350.505 49.672C347.721 49.672 345.273 49.08 343.161 47.896C341.049 46.68 339.497 44.872 338.505 42.472L345.129 38.632C345.961 41 347.753 42.184 350.505 42.184C352.009 42.184 353.145 41.832 353.913 41.128C354.681 40.424 355.065 39.528 355.065 38.44C355.065 37.352 354.697 36.456 353.961 35.752C353.225 35.048 352.153 34.696 350.745 34.696H340.233L341.625 15.4H361.065V22.6H348.825L348.489 27.208H351.225ZM384.72 31.48C387.632 33.368 389.088 36.056 389.088 39.544C389.088 42.648 388 45.112 385.824 46.936C383.68 48.76 380.656 49.672 376.752 49.672C372.848 49.672 369.808 48.76 367.632 46.936C365.488 45.112 364.416 42.648 364.416 39.544C364.416 36.056 365.872 33.368 368.784 31.48C366.64 29.816 365.568 27.56 365.568 24.712C365.568 21.576 366.624 19.128 368.736 17.368C370.848 15.608 373.52 14.728 376.752 14.728C379.984 14.728 382.656 15.608 384.768 17.368C386.88 19.128 387.936 21.576 387.936 24.712C387.936 27.56 386.864 29.816 384.72 31.48ZM379.296 22.84C378.656 22.232 377.808 21.928 376.752 21.928C375.696 21.928 374.848 22.232 374.208 22.84C373.568 23.448 373.248 24.232 373.248 25.192C373.248 26.152 373.568 26.936 374.208 27.544C374.848 28.152 375.696 28.456 376.752 28.456C377.808 28.456 378.656 28.152 379.296 27.544C379.936 26.936 380.256 26.152 380.256 25.192C380.256 24.232 379.936 23.448 379.296 22.84ZM373.392 41.416C374.256 42.12 375.376 42.472 376.752 42.472C378.128 42.472 379.248 42.12 380.112 41.416C380.976 40.68 381.408 39.688 381.408 38.44C381.408 37.192 380.976 36.216 380.112 35.512C379.248 34.776 378.128 34.408 376.752 34.408C375.376 34.408 374.256 34.776 373.392 35.512C372.528 36.216 372.096 37.192 372.096 38.44C372.096 39.688 372.528 40.68 373.392 41.416ZM397.905 15.4H404.625V49H396.945V23.512L390.993 25.144L389.121 18.568L397.905 15.4Z" fill="#101010"/>
<path d="M74.96 34.228H80V37H72.08V24.4H79.91V27.172H74.96V29.26H79.46V31.996H74.96V34.228ZM87.3489 28H90.0489V37H87.3489V36.154C86.8089 36.886 85.9509 37.252 84.7749 37.252C83.8149 37.252 83.0109 36.922 82.3629 36.262C81.7269 35.602 81.4089 34.69 81.4089 33.526V28H84.1089V33.13C84.1089 33.658 84.2529 34.066 84.5409 34.354C84.8409 34.63 85.2189 34.768 85.6749 34.768C86.1909 34.768 86.5989 34.612 86.8989 34.3C87.1989 33.988 87.3489 33.526 87.3489 32.914V28ZM94.7291 29.602C94.8971 29.026 95.2331 28.588 95.7371 28.288C96.2531 27.976 96.8171 27.82 97.4291 27.82V30.88C96.7691 30.772 96.1511 30.886 95.5751 31.222C95.0111 31.546 94.7291 32.116 94.7291 32.932V37H92.0291V28H94.7291V29.602ZM106.132 35.884C105.208 36.796 104.08 37.252 102.748 37.252C101.416 37.252 100.288 36.796 99.3635 35.884C98.4395 34.96 97.9775 33.832 97.9775 32.5C97.9775 31.168 98.4395 30.046 99.3635 29.134C100.288 28.21 101.416 27.748 102.748 27.748C104.08 27.748 105.208 28.21 106.132 29.134C107.056 30.046 107.518 31.168 107.518 32.5C107.518 33.832 107.056 34.96 106.132 35.884ZM101.272 34.03C101.668 34.426 102.16 34.624 102.748 34.624C103.336 34.624 103.828 34.426 104.224 34.03C104.62 33.634 104.818 33.124 104.818 32.5C104.818 31.876 104.62 31.366 104.224 30.97C103.828 30.574 103.336 30.376 102.748 30.376C102.16 30.376 101.668 30.574 101.272 30.97C100.876 31.366 100.678 31.876 100.678 32.5C100.678 33.124 100.876 33.634 101.272 34.03ZM114.427 27.748C115.615 27.748 116.629 28.21 117.469 29.134C118.309 30.046 118.729 31.168 118.729 32.5C118.729 33.832 118.309 34.96 117.469 35.884C116.629 36.796 115.615 37.252 114.427 37.252C113.275 37.252 112.381 36.886 111.745 36.154V40.6H109.045V28H111.745V28.846C112.381 28.114 113.275 27.748 114.427 27.748ZM112.339 34.102C112.747 34.498 113.263 34.696 113.887 34.696C114.511 34.696 115.021 34.498 115.417 34.102C115.825 33.706 116.029 33.172 116.029 32.5C116.029 31.828 115.825 31.294 115.417 30.898C115.021 30.502 114.511 30.304 113.887 30.304C113.263 30.304 112.747 30.502 112.339 30.898C111.943 31.294 111.745 31.828 111.745 32.5C111.745 33.172 111.943 33.706 112.339 34.102ZM126.794 28H129.494V37H126.794V36.154C126.158 36.886 125.264 37.252 124.112 37.252C122.924 37.252 121.91 36.796 121.07 35.884C120.23 34.96 119.81 33.832 119.81 32.5C119.81 31.168 120.23 30.046 121.07 29.134C121.91 28.21 122.924 27.748 124.112 27.748C125.264 27.748 126.158 28.114 126.794 28.846V28ZM123.104 34.102C123.5 34.498 124.016 34.696 124.652 34.696C125.288 34.696 125.804 34.498 126.2 34.102C126.596 33.706 126.794 33.172 126.794 32.5C126.794 31.828 126.596 31.294 126.2 30.898C125.804 30.502 125.288 30.304 124.652 30.304C124.016 30.304 123.5 30.502 123.104 30.898C122.708 31.294 122.51 31.828 122.51 32.5C122.51 33.172 122.708 33.706 123.104 34.102Z" fill="#3CC3DD"/>
<g clip-path="url(#clip0)">
<path fill-rule="evenodd" clip-rule="evenodd" d="M62.5329 39.4178C61.93 38.6313 60.9501 38.4804 60.2344 38.3702L60.2343 38.3702L60.2239 38.3685L60.2238 38.3685C60.0479 38.3413 59.8674 38.3134 59.7642 38.2847C58.8826 38.0399 58.2433 37.5959 57.9156 37.0002C57.6199 36.4632 57.5854 35.81 57.8126 35.0592C57.8855 34.8181 58.0116 34.5412 58.1452 34.248L58.1478 34.2423C58.5475 33.3658 59.0446 32.275 58.5462 31.1125C58.1231 30.1262 57.2598 29.2396 56.4981 28.4573L56.4968 28.4559L56.4727 28.4312L56.5431 28.3724L56.5478 28.3685L56.5479 28.3684C57.2255 27.802 57.926 27.2164 58.6281 26.6908C58.694 26.6413 58.81 26.5693 58.924 26.4985L58.9241 26.4984L58.9366 26.4907C59.2022 26.3261 59.5032 26.1395 59.7431 25.9045C60.5194 25.1439 60.8479 24.0128 60.5607 23.0897C60.3042 22.2651 59.6168 21.6985 58.6744 21.535C58.4137 21.4897 58.11 21.4638 57.7586 21.4339L57.7485 21.4331C57.3527 21.3995 56.5126 21.3283 56.0887 21.1948C56.2007 20.7589 56.3994 19.8997 55.6895 19.0865C55.3291 18.6735 54.8988 18.5469 54.5881 18.4996C54.5745 18.3476 54.5525 18.1553 54.4986 17.9299C54.1573 16.5018 53.2971 15.3988 52.538 14.4254L52.538 14.4253L52.5373 14.4245L52.524 14.4073C52.3792 14.2217 52.2346 14.0363 52.094 13.8486C51.871 13.5513 51.6063 13.2517 51.3258 12.9346C50.8552 12.4022 50.2695 11.7396 50.1218 11.2973C50.0067 10.9525 50.0699 10.4145 50.137 9.84473C50.2236 9.11077 50.3216 8.27898 50.087 7.45021C49.6816 6.01803 48.437 5.05908 46.9866 5.05908H46.9691C44.9851 5.06962 44.2134 6.61078 43.7032 7.63028C43.0276 8.97927 42.3629 10.3572 41.7201 11.6897C41.3955 12.3629 41.0707 13.036 40.7435 13.7079C40.604 13.9946 40.4592 14.3567 40.2917 14.7759L40.2917 14.7759L40.287 14.7878C40.0036 15.4975 39.651 16.3807 39.2456 17.0697C38.7691 17.8797 38.4827 17.9777 38.4645 17.984L38.4637 17.9842C38.4636 17.9843 38.4635 17.9843 38.4635 17.9843C38.2777 17.9803 38.1896 17.9462 38.175 17.936C38.0028 17.7563 38.0309 16.755 38.0429 16.3274V16.3273C38.0674 15.4548 38.0927 14.5527 37.6873 13.8229C36.9168 12.4353 34.936 11.9933 33.4898 11.6706L33.4897 11.6706C33.2447 11.616 33.0133 11.5643 32.8377 11.5179L32.8365 11.5176C32.2775 11.37 31.8737 11.2634 31.4081 11.3835C30.8143 11.5367 30.5233 11.9544 30.2667 12.3229C30.2108 12.4032 30.1463 12.496 30.0684 12.6024L27.3392 16.3372C26.9902 16.8147 26.6608 17.3299 26.3122 17.8755L26.3118 17.8761C25.4189 19.273 24.4957 20.717 23.3522 21.3161C23.2503 21.3695 23.1543 21.4191 23.0642 21.4657L23.064 21.4658L23.0051 21.4962C21.4248 22.3121 21.0256 22.7091 20.7323 24.7397L20.7085 24.9028L20.7084 24.9029C20.5461 26.0023 20.3006 27.6639 21.3096 28.6865C21.6928 29.075 22.4027 29.5043 23.6054 29.3432C23.9419 29.2982 24.2176 29.1792 24.439 29.0644C24.519 29.2446 24.6375 29.4437 24.8237 29.6297C25.364 30.1691 26.0832 30.4522 26.8513 30.4272C27.7335 30.3983 28.596 29.9754 29.2182 29.2673C29.9752 28.4054 30.6353 26.8603 30.4318 25.5749C30.3285 24.9219 30.1067 24.5205 29.9598 24.2549L29.9212 24.1847C29.9264 24.1671 29.9335 24.1455 29.9429 24.1194C30.3013 23.1211 31.2904 21.9028 31.6994 21.8096C31.969 21.966 32.2965 22.8419 32.4758 23.3215L32.4768 23.3241L32.4776 23.3264C32.6643 23.8259 32.8573 24.3422 33.1256 24.7731C33.1376 24.7925 33.167 24.8496 33.1884 24.8913C33.2835 25.0764 33.4686 25.4365 33.796 25.7136C33.5704 25.8162 33.3357 25.9368 33.1136 26.0959C32.0629 26.8488 31.2364 27.8867 30.8466 28.9435C30.7007 29.3388 30.6365 29.7127 30.5798 30.0426L30.5797 30.0434C30.524 30.3686 30.4758 30.6496 30.3621 30.865C30.1132 31.3368 29.777 31.6751 29.3037 31.9298C29.1143 32.0317 28.8985 32.1212 28.6626 32.1957C28.0234 32.3974 27.6688 33.0792 27.8706 33.7185C28.0723 34.3576 28.7543 34.7119 29.3933 34.5105C29.7742 34.3904 30.1312 34.2412 30.4542 34.0673C31.3469 33.5871 32.0384 32.8904 32.5093 31.9972C32.8029 31.4404 32.8968 30.8935 32.9722 30.4539L32.9723 30.4538C33.0168 30.1941 33.0555 29.9699 33.124 29.7839C33.3434 29.1893 33.8812 28.5322 34.5275 28.0692C34.6381 27.9898 34.8524 27.899 35.0604 27.8108L35.0641 27.8093C35.7343 27.5256 36.9817 26.9972 37.0178 25.5305C37.0304 25.0263 36.4132 23.5289 35.8874 23.1389C35.6062 22.9304 35.2541 22.85 34.918 22.9129C34.8642 22.7768 34.8104 22.633 34.7572 22.4906L34.7511 22.4745L34.751 22.4742C34.3498 21.4002 33.8503 20.0635 32.5917 19.5493C31.9828 19.3006 31.317 19.3222 30.6666 19.6118C29.0302 20.3409 27.919 22.5743 27.6587 23.299C27.2951 24.3116 27.5596 24.9297 27.8359 25.4296L27.836 25.4297C27.9371 25.6125 27.9981 25.7228 28.0348 25.9541C28.1023 26.3822 27.7915 27.2138 27.395 27.6652C27.2218 27.8625 26.9771 27.9942 26.7722 28.001C26.7102 28.0027 26.6647 27.9928 26.6277 27.9758C26.5397 27.6739 26.3336 27.0014 25.5651 26.6386C24.6152 26.1903 23.8315 26.6268 23.4549 26.8367C23.3891 26.8734 23.3011 26.9223 23.2575 26.9403C23.1481 26.9534 23.0755 26.9522 23.0314 26.9481C22.9116 26.6031 23.0597 25.6001 23.1105 25.2572L23.1354 25.0865C23.1663 24.8728 23.2603 24.2224 23.3389 24.0997C23.4087 24.0199 23.7823 23.8269 24.1137 23.6557L24.1138 23.6557L24.1194 23.6527L24.1264 23.6491C24.2354 23.5929 24.3527 23.5323 24.4791 23.466C26.1944 22.5676 27.3439 20.7691 28.3581 19.1824C28.6858 18.6696 28.9953 18.1853 29.2997 17.7689L32.0289 14.0341C32.0773 13.9681 32.1212 13.9066 32.1615 13.8493C32.1808 13.8544 32.2001 13.8594 32.2185 13.8643C32.4372 13.9221 32.6881 13.9781 32.9537 14.0374L32.9619 14.0392C33.5463 14.1695 35.3246 14.5663 35.5626 14.9944C35.6474 15.1817 35.6284 15.8556 35.617 16.2582C35.5863 17.3442 35.5486 18.6956 36.4168 19.6084C36.9059 20.1225 37.577 20.3923 38.4115 20.4103C38.43 20.4108 38.4483 20.4109 38.4667 20.4109C40.6557 20.4106 41.7896 17.5713 42.542 15.687C42.6873 15.3229 42.8245 14.9791 42.9266 14.7696C43.2549 14.0951 43.581 13.4192 43.907 12.7434L43.9204 12.7154C44.5553 11.3996 45.2114 10.0396 45.8743 8.71601C46.3855 7.69458 46.5719 7.48775 46.9825 7.48557H46.9866C47.3442 7.48557 47.6443 7.73042 47.7518 8.11017C47.8547 8.47374 47.7927 9.00095 47.7269 9.5593L47.7269 9.55967C47.6359 10.3314 47.533 11.2061 47.82 12.0652C48.1243 12.976 48.8591 13.8075 49.5076 14.5411C49.7547 14.8207 49.9881 15.0847 50.1525 15.3043C50.3068 15.5098 50.4652 15.7132 50.6238 15.9165C51.2902 16.7707 51.9195 17.5776 52.1385 18.4935C52.1601 18.5847 52.1678 18.6737 52.1772 18.7864C52.2094 19.1716 52.2634 19.8165 52.9591 20.4387C53.1982 20.6525 53.4566 20.7617 53.6813 20.82C53.5819 21.2628 53.5021 21.9747 54.0432 22.6656C54.7882 23.6173 56.3162 23.747 57.5439 23.8511C57.8019 23.8729 58.0471 23.8938 58.2093 23.9178C58.1792 23.9958 58.1258 24.0901 58.047 24.1675C57.9867 24.223 57.7812 24.3504 57.6583 24.4265C57.4958 24.5273 57.3278 24.6315 57.174 24.7466C56.4181 25.3127 55.6905 25.9208 54.9868 26.5091C54.6451 26.7948 54.2916 27.0902 53.9447 27.3725C53.6932 27.577 53.5341 27.8736 53.5027 28.1961C53.4711 28.5185 53.5699 28.8402 53.7769 29.0895C54.0677 29.4397 54.4032 29.7842 54.7586 30.149L54.7587 30.1491C55.3735 30.7803 56.0703 31.4958 56.316 32.0685C56.3913 32.2441 56.1087 32.8641 55.9399 33.2344L55.9398 33.2344L55.939 33.2363C55.7774 33.5909 55.6103 33.9575 55.4899 34.355C55.0722 35.7353 55.1757 37.0545 55.7896 38.1698C56.4304 39.3342 57.6117 40.2055 59.1157 40.6229C59.2339 40.6558 59.3556 40.682 59.4779 40.7047C59.0918 40.7436 58.6775 40.761 58.2702 40.778L58.27 40.778L58.267 40.7781L58.2668 40.7781H58.2668C57.836 40.7962 57.3906 40.8148 56.9729 40.8596C56.5523 40.9047 56.1204 40.9739 55.7027 41.041L55.6974 41.0419L55.6973 41.0419C54.9224 41.1662 54.1215 41.2947 53.4589 41.2533C52.9155 41.2196 52.1768 40.9142 51.4626 40.6188L51.4625 40.6188L51.4619 40.6185C50.1915 40.0931 48.7516 39.4976 47.3534 39.9381C46.7367 40.1325 46.2723 40.3852 45.8991 40.5882L45.8982 40.5886L45.8977 40.5889C45.1935 40.9723 45.1028 41.0217 44.3476 40.5625C43.7954 40.2267 42.9594 39.816 42.0769 40.1241C41.1058 40.4633 40.764 41.3933 40.4334 42.2927C40.3966 42.393 40.3585 42.4966 40.3185 42.6027C40.2435 42.8012 40.144 43.0281 40.0386 43.2686L40.0386 43.2687L40.0339 43.2794L40.0338 43.2797C39.539 44.4077 38.8614 45.9525 39.5236 47.4107C39.639 47.665 39.7651 47.873 39.871 48.0434C39.5243 48.2925 38.875 48.4177 38.2458 48.5389C37.7835 48.6281 37.3055 48.7202 36.8604 48.8752C36.5211 48.9933 35.4886 49.3529 35.209 50.3454C34.9346 51.3195 35.5695 52.094 36.0331 52.6596L36.0333 52.6598C36.2124 52.8782 36.4152 53.1259 36.4884 53.2879C36.5964 53.5462 36.4052 54.2415 36.1832 54.4788C35.7794 54.1984 35.3192 53.4267 34.948 52.8042L34.9468 52.8023C34.7338 52.445 34.5326 52.1076 34.3184 51.8061C34.2063 51.6483 34.0756 51.4918 33.9492 51.3405L33.949 51.3403C33.8122 51.1765 33.5845 50.9039 33.534 50.7917C33.5207 50.7157 33.5334 50.5122 33.542 50.3747L33.5421 50.3722C33.5607 50.0789 33.5837 49.7138 33.5088 49.3331C33.1999 47.7591 29.4877 43.8427 27.2024 43.4848C26.2773 43.3398 25.4741 43.7103 25.0521 44.4749C24.7086 45.0972 24.8105 45.8877 25.4997 47.8494C25.4698 47.821 25.4442 47.797 25.4214 47.7765C25.1427 47.5232 24.9481 47.0999 24.7423 46.6518L24.7422 46.6514C24.4729 46.0653 24.1676 45.4008 23.5603 44.9664C22.8119 44.4307 21.8705 44.4111 20.7631 44.9086C20.6381 44.9647 20.521 45.0191 20.4102 45.0707L20.4094 45.0711C19.7017 45.3999 19.574 45.4592 19.0305 45.3097C17.4194 44.866 16.2753 44.7138 15.0972 46.5678C14.8615 46.9384 14.8537 46.9415 14.4432 47.0968C14.2182 47.182 13.9101 47.2986 13.526 47.4921C12.6414 47.9376 12.0265 48.5986 11.4841 49.1818L11.3671 49.3073C11.1391 49.5516 10.9177 49.8217 10.6834 50.1076C10.1015 50.8182 9.30586 51.7891 8.69954 51.7891L8.6861 51.789C8.37816 51.7815 8.0793 51.7346 7.76312 51.6848L7.76296 51.6848L7.76292 51.6848C7.28307 51.6095 6.7393 51.5242 6.0936 51.5657C5.87429 51.58 5.75381 51.5731 5.69568 51.5664C5.65284 51.5158 5.58978 51.4322 5.5359 51.3607L5.53588 51.3607L5.53305 51.3569L5.53225 51.3559C5.39168 51.1694 5.217 50.9378 4.96463 50.6652C4.60959 50.2816 4.22451 50.0037 3.91499 49.7806C3.75163 49.6628 3.51187 49.4898 3.43061 49.3953C3.43497 49.3579 3.4495 49.281 3.4977 49.1541C3.8918 48.1188 4.50103 47.0456 5.09019 46.0077L5.09045 46.0072L5.09852 45.993L5.09854 45.993C5.32065 45.6017 5.54994 45.1977 5.7641 44.8015C6.10571 44.1699 6.34511 44.0014 6.45748 43.9572C6.63852 43.8862 6.98219 43.955 7.42478 44.1521C8.28964 44.5365 9.16636 44.9595 10.0141 45.3687C10.4518 45.5799 10.8897 45.7911 11.3284 45.9986C11.6212 46.137 11.9569 46.1529 12.2612 46.0425C12.5656 45.9321 12.8132 45.7047 12.949 45.4109C13.0778 45.1325 13.2438 44.827 13.4194 44.5036L13.4205 44.5015L13.4219 44.499C13.8217 43.7628 14.2746 42.9286 14.4654 42.0651C14.5541 41.6636 14.5329 41.3077 14.5158 41.0216L14.5157 41.0204C14.5046 40.8336 14.4951 40.6724 14.5224 40.5811C14.6561 40.133 15.123 39.7723 15.6635 39.3546L15.6638 39.3544L15.8396 39.2181C16.7408 38.5148 18.1118 37.4812 19.6055 36.6302C20.1879 36.2984 20.3909 35.557 20.0591 34.9747C19.7274 34.3922 18.9864 34.1891 18.4035 34.5209C16.773 35.4501 15.3069 36.5544 14.346 37.3042L14.1794 37.4333L14.1793 37.4333C13.4549 37.993 12.5535 38.6895 12.196 39.8864C12.0461 40.3887 12.0728 40.8374 12.0923 41.1653L12.0924 41.1662C12.1014 41.3158 12.1105 41.4703 12.0949 41.5411C11.9806 42.0591 11.6427 42.6877 11.3108 43.2991L11.0689 43.1823L11.0621 43.1791L11.062 43.179C10.1994 42.7629 9.30783 42.3328 8.41098 41.9338C6.31907 41.0034 4.75442 41.5638 3.62848 43.647C3.42359 44.0257 3.2078 44.406 2.9793 44.8086C2.34488 45.926 1.68892 47.0814 1.22876 48.2906C0.468882 50.2877 1.78661 51.2383 2.49473 51.7492L2.49504 51.7494L2.49511 51.7494L2.49514 51.7495C2.75098 51.934 2.99288 52.1085 3.18322 52.3142C3.35275 52.4971 3.47566 52.6603 3.59445 52.8179C4.14071 53.5429 4.68309 54.0888 6.24993 53.9882C6.62559 53.9635 6.97528 54.0184 7.37934 54.0819L7.38628 54.083L7.38695 54.0831L7.38703 54.0831C7.74928 54.14 8.15979 54.2045 8.62725 54.2158C10.4208 54.2589 11.6572 52.7497 12.5605 51.6471L12.5612 51.6462C12.7696 51.3916 12.9667 51.1512 13.141 50.9645L13.2614 50.8351L13.2633 50.8331C13.7243 50.3375 14.1227 49.9093 14.6179 49.66C14.8877 49.5241 15.0977 49.4446 15.3007 49.3677L15.3021 49.3672C16.0116 49.0988 16.5231 48.8495 17.1459 47.8696C17.3176 47.5995 17.4178 47.4872 17.4628 47.4441C17.6555 47.4492 18.1565 47.5871 18.3828 47.6493L18.3829 47.6493L18.3856 47.6501C19.7885 48.0364 20.5872 47.6652 21.433 47.2722L21.4332 47.272C21.5352 47.2246 21.6426 47.1747 21.7576 47.123C21.9786 47.0237 22.1136 46.9912 22.1819 46.9809C22.2838 47.1157 22.4322 47.4385 22.5352 47.6626L22.5352 47.6626L22.5363 47.6649C22.8067 48.2538 23.1434 48.9866 23.7888 49.5731C23.844 49.6231 24.0048 49.7819 24.1796 49.9543L24.2038 49.9783C24.6648 50.4335 25.3615 51.1213 25.9991 51.6925C26.9828 52.5736 27.6883 53.1313 28.5136 52.8668C28.8344 52.764 29.1022 52.5302 29.2484 52.2254C29.5273 51.644 29.4013 51.3151 28.5815 49.1754C28.2921 48.4205 27.7856 47.098 27.4997 46.1774C27.9052 46.4162 28.4748 46.8274 29.1975 47.5084C30.3414 48.5862 31.0161 49.542 31.1299 49.8239C31.1387 49.9104 31.1275 50.0871 31.1192 50.2195L31.1191 50.2199C31.0952 50.6007 31.0653 51.0744 31.2332 51.5679C31.4097 52.087 31.7687 52.5169 32.0855 52.8961C32.1865 53.017 32.2818 53.1312 32.3391 53.2117C32.4968 53.4337 32.6737 53.7304 32.861 54.0446L32.8614 54.0451C33.3903 54.9322 33.9898 55.9375 34.8586 56.5135C35.2884 56.7984 35.7528 56.9398 36.2098 56.9398C36.7396 56.9397 37.2593 56.7496 37.7029 56.3731C38.7961 55.4441 39.2626 53.5366 38.7012 52.2913C38.4957 51.8357 38.1847 51.4561 37.91 51.1212L37.8908 51.0975C38.1304 51.0336 38.4116 50.9794 38.705 50.9228L38.7057 50.9227C39.6279 50.7448 40.6731 50.5432 41.4854 49.8609C43.0467 48.5496 42.2847 47.3275 41.9593 46.8055L41.9593 46.8055L41.9588 46.8048C41.8737 46.6683 41.7934 46.5394 41.7334 46.4071C41.5194 45.9355 41.9281 45.0037 42.2564 44.255L42.2565 44.255L42.2566 44.2547C42.3716 43.9925 42.4904 43.7213 42.5891 43.4602C42.6317 43.3475 42.6723 43.2374 42.7114 43.1306C42.7787 42.9474 42.8612 42.7235 42.9352 42.5503C42.979 42.5737 43.0291 42.6023 43.0862 42.637C45.0352 43.8221 46.1567 43.2119 47.058 42.7215L47.0584 42.7212L47.0591 42.7208C47.3835 42.5443 47.6901 42.3774 48.0829 42.2537C48.6389 42.0783 49.6435 42.4938 50.5308 42.8608L50.5338 42.862L50.5347 42.8624C51.4327 43.2338 52.3612 43.6178 53.3084 43.6766C54.2419 43.7344 55.18 43.5839 56.0873 43.4382L56.0921 43.4374C56.4949 43.3728 56.8755 43.3118 57.2313 43.2736C57.5706 43.2373 57.9581 43.2211 58.3683 43.204C59.295 43.1653 60.3453 43.1213 61.26 42.8132C62.0994 42.5304 62.7032 41.9667 62.9166 41.2666C63.1061 40.6446 62.97 39.9879 62.5329 39.4178ZM25.2104 33.7424C25.1596 33.0742 24.5732 32.5733 23.903 32.6246L23.8854 32.6259C23.2168 32.6767 22.7213 33.2594 22.7721 33.9278C22.8205 34.5649 23.357 35.0493 23.9861 35.0493C24.017 35.0493 24.0481 35.0482 24.0795 35.0456L24.0972 35.0443C24.7656 34.9936 25.2612 34.4109 25.2104 33.7424ZM18.1541 29.1172C18.3481 29.717 18.5486 30.3373 18.6616 30.9643C18.9349 32.4797 18.6876 33.7 17.9266 34.5914C16.7696 35.9459 14.7724 36.1356 12.9289 36.1356C12.5564 36.1356 12.1905 36.128 11.8387 36.1205L11.8365 36.1204C11.5139 36.1137 11.2091 36.1073 10.9257 36.1073C9.91376 36.1073 9.42345 35.5648 9.2211 35.2414C8.54491 34.1606 9.13779 32.7347 9.80332 31.3668L9.80878 31.3556C9.8636 31.2428 9.91921 31.1283 9.94112 31.0765C10.1196 30.6543 10.3152 30.2319 10.5046 29.8232L10.5055 29.8213C10.8806 29.0114 11.235 28.2466 11.4662 27.484C11.5919 27.0697 11.4983 26.5608 11.3898 25.9716L11.3898 25.9715C11.2527 25.2268 11.0973 24.3828 11.3591 23.4819C11.6025 22.644 12.3003 22.0309 13.3241 21.7556C14.5549 21.4244 16.3935 21.5795 17.3766 22.5189C18.5145 23.6061 18.1049 25.1063 17.8337 26.0992L17.8337 26.0993L17.8328 26.1026C17.7491 26.409 17.6454 26.7891 17.6489 26.9605C17.6616 27.5934 17.9008 28.3335 18.1541 29.1172ZM11.89 33.6931C13.387 33.7249 15.4371 33.7681 16.0805 33.0146C16.3457 32.7042 16.4102 32.1591 16.2727 31.3949C16.1889 30.9299 16.0223 30.4146 15.8461 29.8691L15.8443 29.8638L15.8439 29.8624C15.5477 28.9461 15.2415 27.9989 15.2219 27.0087C15.2115 26.4866 15.354 25.9645 15.4921 25.4596L15.4921 25.4595C15.5875 25.11 15.7639 24.4639 15.6967 24.2713C15.344 23.9699 14.0181 23.936 13.6771 24.2098C13.5973 24.5537 13.6809 25.0089 13.7771 25.532L13.7772 25.5322C13.9147 26.2796 14.0859 27.2098 13.7893 28.1882C13.5086 29.1136 13.1012 29.9931 12.7073 30.8434C12.5181 31.2515 12.3396 31.637 12.1775 32.0209C12.1298 32.1337 12.0666 32.2637 11.9865 32.4284C11.7269 32.9616 11.5465 33.3814 11.446 33.6844C11.5908 33.687 11.7385 33.69 11.89 33.6931Z" fill="black"/>
</g>
<path d="M425.092 27.252C427.396 27.252 429.412 26.118 430.492 24.336L428.008 22.896C427.468 23.868 426.37 24.444 425.092 24.444C422.86 24.444 421.42 22.95 421.42 20.7C421.42 18.45 422.86 16.956 425.092 16.956C426.37 16.956 427.45 17.532 428.008 18.504L430.492 17.064C429.394 15.282 427.378 14.148 425.092 14.148C421.294 14.148 418.54 16.992 418.54 20.7C418.54 24.408 421.294 27.252 425.092 27.252ZM438.374 18V18.846C437.78 18.162 436.898 17.748 435.692 17.748C433.334 17.748 431.39 19.818 431.39 22.5C431.39 25.182 433.334 27.252 435.692 27.252C436.898 27.252 437.78 26.838 438.374 26.154V27H441.074V18H438.374ZM436.232 24.696C434.99 24.696 434.09 23.85 434.09 22.5C434.09 21.15 434.99 20.304 436.232 20.304C437.474 20.304 438.374 21.15 438.374 22.5C438.374 23.85 437.474 24.696 436.232 24.696ZM445.523 20.628C445.523 20.304 445.811 20.124 446.279 20.124C446.873 20.124 447.233 20.448 447.485 20.916L449.789 19.674C449.033 18.396 447.737 17.748 446.279 17.748C444.407 17.748 442.751 18.738 442.751 20.7C442.751 23.814 447.179 23.292 447.179 24.282C447.179 24.642 446.855 24.84 446.207 24.84C445.415 24.84 444.911 24.462 444.677 23.778L442.337 25.11C443.039 26.568 444.407 27.252 446.207 27.252C448.151 27.252 449.951 26.37 449.951 24.3C449.951 20.97 445.523 21.654 445.523 20.628ZM455.531 27.252C458.177 27.252 460.301 25.182 460.301 22.5C460.301 19.818 458.177 17.748 455.531 17.748C452.885 17.748 450.761 19.818 450.761 22.5C450.761 25.182 452.885 27.252 455.531 27.252ZM455.531 24.624C454.361 24.624 453.461 23.778 453.461 22.5C453.461 21.222 454.361 20.376 455.531 20.376C456.701 20.376 457.601 21.222 457.601 22.5C457.601 23.778 456.701 24.624 455.531 24.624ZM464.208 20.628C464.208 20.304 464.496 20.124 464.964 20.124C465.558 20.124 465.918 20.448 466.17 20.916L468.474 19.674C467.718 18.396 466.422 17.748 464.964 17.748C463.092 17.748 461.436 18.738 461.436 20.7C461.436 23.814 465.864 23.292 465.864 24.282C465.864 24.642 465.54 24.84 464.892 24.84C464.1 24.84 463.596 24.462 463.362 23.778L461.022 25.11C461.724 26.568 463.092 27.252 464.892 27.252C466.836 27.252 468.636 26.37 468.636 24.3C468.636 20.97 464.208 21.654 464.208 20.628ZM423.31 49.252C425.074 49.252 426.604 48.334 427.378 46.93L425.02 45.58C424.732 46.21 424.066 46.588 423.274 46.588C422.104 46.588 421.24 45.742 421.24 44.5C421.24 43.258 422.104 42.412 423.274 42.412C424.066 42.412 424.714 42.79 425.02 43.42L427.378 42.052C426.604 40.666 425.056 39.748 423.31 39.748C420.574 39.748 418.54 41.818 418.54 44.5C418.54 47.182 420.574 49.252 423.31 49.252ZM432.609 49.252C435.255 49.252 437.379 47.182 437.379 44.5C437.379 41.818 435.255 39.748 432.609 39.748C429.963 39.748 427.839 41.818 427.839 44.5C427.839 47.182 429.963 49.252 432.609 49.252ZM432.609 46.624C431.439 46.624 430.539 45.778 430.539 44.5C430.539 43.222 431.439 42.376 432.609 42.376C433.779 42.376 434.679 43.222 434.679 44.5C434.679 45.778 433.779 46.624 432.609 46.624ZM444.18 39.748C442.992 39.748 442.092 40.18 441.606 40.846V40H438.906V49H441.606V44.086C441.606 42.808 442.29 42.232 443.28 42.232C444.144 42.232 444.846 42.754 444.846 43.87V49H447.546V43.474C447.546 41.044 445.998 39.748 444.18 39.748ZM457.68 40H452.676C452.676 38.956 453.342 38.74 454.35 38.74C455.034 38.74 455.79 38.794 456.6 38.884V36.4C455.826 36.238 455.088 36.148 454.35 36.148C451.362 36.148 449.976 37.48 449.976 40H448.77V42.592H449.976V49H452.676V42.592H454.98V49H457.68V40ZM462.366 41.602V40H459.666V49H462.366V44.932C462.366 43.15 463.95 42.7 465.066 42.88V39.82C463.932 39.82 462.726 40.396 462.366 41.602ZM476.408 39.748C475.13 39.748 474.302 40.216 473.798 40.936C473.294 40.18 472.502 39.748 471.44 39.748C470.234 39.748 469.442 40.216 469.028 40.828V40H466.328V49H469.028V43.924C469.028 42.862 469.532 42.232 470.432 42.232C471.296 42.232 471.728 42.808 471.728 43.708V49H474.428V43.924C474.428 42.862 474.932 42.232 475.832 42.232C476.696 42.232 477.128 42.808 477.128 43.708V49H479.828V43.474C479.828 41.224 478.478 39.748 476.408 39.748ZM488.208 40V40.846C487.614 40.162 486.732 39.748 485.526 39.748C483.168 39.748 481.224 41.818 481.224 44.5C481.224 47.182 483.168 49.252 485.526 49.252C486.732 49.252 487.614 48.838 488.208 48.154V49H490.908V40H488.208ZM486.066 46.696C484.824 46.696 483.924 45.85 483.924 44.5C483.924 43.15 484.824 42.304 486.066 42.304C487.308 42.304 488.208 43.15 488.208 44.5C488.208 45.85 487.308 46.696 486.066 46.696ZM499.422 36.4V40.846C498.828 40.162 497.946 39.748 496.74 39.748C494.382 39.748 492.438 41.818 492.438 44.5C492.438 47.182 494.382 49.252 496.74 49.252C497.946 49.252 498.828 48.838 499.422 48.154V49H502.122V36.4H499.422ZM497.28 46.696C496.038 46.696 495.138 45.85 495.138 44.5C495.138 43.15 496.038 42.304 497.28 42.304C498.522 42.304 499.422 43.15 499.422 44.5C499.422 45.85 498.522 46.696 497.28 46.696ZM508.423 49.252C511.069 49.252 513.193 47.182 513.193 44.5C513.193 41.818 511.069 39.748 508.423 39.748C505.777 39.748 503.653 41.818 503.653 44.5C503.653 47.182 505.777 49.252 508.423 49.252ZM508.423 46.624C507.253 46.624 506.353 45.778 506.353 44.5C506.353 43.222 507.253 42.376 508.423 42.376C509.593 42.376 510.493 43.222 510.493 44.5C510.493 45.778 509.593 46.624 508.423 46.624ZM517.101 42.628C517.101 42.304 517.389 42.124 517.857 42.124C518.451 42.124 518.811 42.448 519.063 42.916L521.367 41.674C520.611 40.396 519.315 39.748 517.857 39.748C515.985 39.748 514.329 40.738 514.329 42.7C514.329 45.814 518.757 45.292 518.757 46.282C518.757 46.642 518.433 46.84 517.785 46.84C516.993 46.84 516.489 46.462 516.255 45.778L513.915 47.11C514.617 48.568 515.985 49.252 517.785 49.252C519.729 49.252 521.529 48.37 521.529 46.3C521.529 42.97 517.101 43.654 517.101 42.628Z" fill="#3CC3DD"/>
<line x1="2" y1="66.5" x2="532" y2="66.5" stroke="#A0A6AF" stroke-dasharray="2 4"/>
<path d="M0.413812 181.862H23.5862C23.8147 181.862 24 181.677 24 181.449V166.552C24 166.323 23.8147 166.138 23.5862 166.138H0.413812C0.185297 166.138 0 166.323 0 166.552V181.449C0 181.677 0.185297 181.862 0.413812 181.862Z" fill="#C8414B"/>
<path d="M24 169.449H0V178.552H24V169.449Z" fill="#FFD250"/>
<path d="M10.1377 174L10.4886 172.421C10.5209 172.276 10.4103 172.138 10.2613 172.138H10.0142C9.86524 172.138 9.75462 172.276 9.78687 172.421L10.1377 174Z" fill="#C8414B"/>
<path d="M10.5522 173.172H9.72461V176.689H10.5522V173.172Z" fill="#F5F5F5"/>
<path d="M10.757 172.759H9.51562V173.173H10.757V172.759Z" fill="#FAB446"/>
<path d="M10.7605 174H8.69141V174.414H10.7605V174Z" fill="#C8414B"/>
<path d="M10.757 175.656L9.51562 175.242V174.828L10.757 175.242V175.656Z" fill="#C8414B"/>
<path d="M3.9307 174L4.28156 172.421C4.3139 172.276 4.20323 172.138 4.05426 172.138H3.80714C3.65821 172.138 3.54759 172.276 3.57984 172.421L3.9307 174Z" fill="#C8414B"/>
<path d="M5.38061 172.759C5.15209 172.759 4.9668 172.944 4.9668 173.173V175.862C4.9668 176.365 5.43601 177.311 7.03576 177.311C8.63551 177.311 9.10473 176.365 9.10473 175.862V173.173C9.10473 172.944 8.91943 172.759 8.69091 172.759H5.38061Z" fill="#F5F5F5"/>
<path d="M7.03576 174.828H4.9668V173.173C4.9668 172.944 5.15209 172.759 5.38061 172.759H7.03576V174.828Z" fill="#C8414B"/>
<path d="M7.03711 174.828H9.10607V175.862C9.10607 176.433 8.64295 176.897 8.07159 176.897C7.50023 176.897 7.03711 176.433 7.03711 175.862V174.828Z" fill="#C8414B"/>
<path d="M4.9668 174.828H7.03576V175.862C7.03576 176.433 6.57264 176.897 6.00128 176.897C5.42992 176.897 4.9668 176.433 4.9668 175.862V174.828Z" fill="#FAB446"/>
<path d="M6.61889 176.685V174.828H6.20508V176.876C6.35902 176.845 6.49809 176.776 6.61889 176.685Z" fill="#C8414B"/>
<path d="M5.79272 176.876V174.828H5.37891V176.685C5.49975 176.776 5.63883 176.845 5.79272 176.876Z" fill="#C8414B"/>
<path d="M6.61833 174H5.37695V174.414H6.61833V174Z" fill="#FFB441"/>
<path d="M6.61833 173.172H5.37695V173.586H6.61833V173.172Z" fill="#FAB446"/>
<path d="M6.41156 173.418H5.58398V174.168H6.41156V173.418Z" fill="#FAB446"/>
<path d="M4.3432 173.172H3.51562V176.689H4.3432V173.172Z" fill="#F5F5F5"/>
<path d="M4.54998 176.483H3.30859V176.897H4.54998V176.483Z" fill="#FAB446"/>
<path d="M4.54998 172.759H3.30859V173.173H4.54998V172.759Z" fill="#FAB446"/>
<path d="M4.75867 176.896H3.10352V177.31H4.75867V176.896Z" fill="#5064AA"/>
<path d="M10.966 176.483H9.72461V176.897H10.966V176.483Z" fill="#FAB446"/>
<path d="M10.9637 176.896H9.30859V177.31H10.9637V176.896Z" fill="#5064AA"/>
<path d="M8.27574 172.345H5.79297V172.759H8.27574V172.345Z" fill="#FAB446"/>
<path d="M7.24194 171.104H6.82812V172.345H7.24194V171.104Z" fill="#FFB441"/>
<path d="M6.62067 171.724C6.27839 171.724 6 171.446 6 171.104C6 170.761 6.27844 170.483 6.62067 170.483C6.96295 170.483 7.24134 170.761 7.24134 171.104C7.24139 171.446 6.96295 171.724 6.62067 171.724ZM6.62067 170.897C6.50653 170.897 6.41376 170.989 6.41376 171.104C6.41376 171.218 6.50648 171.31 6.62067 171.31C6.73486 171.31 6.82758 171.218 6.82758 171.104C6.82758 170.989 6.73486 170.897 6.62067 170.897Z" fill="#F5F5F5"/>
<path d="M7.4488 171.724C7.10651 171.724 6.82812 171.446 6.82812 171.104C6.82812 170.761 7.10656 170.483 7.4488 170.483C7.79108 170.483 8.06947 170.761 8.06947 171.104C8.06947 171.446 7.79103 171.724 7.4488 171.724ZM7.4488 170.897C7.33465 170.897 7.24189 170.989 7.24189 171.104C7.24189 171.218 7.33461 171.31 7.4488 171.31C7.56294 171.31 7.6557 171.218 7.6557 171.104C7.65565 170.989 7.56294 170.897 7.4488 170.897Z" fill="#F5F5F5"/>
<path d="M8.27887 172.138C7.93659 172.138 7.6582 171.86 7.6582 171.518C7.6582 171.175 7.93664 170.897 8.27887 170.897C8.62115 170.897 8.89954 171.175 8.89954 171.518C8.89954 171.86 8.62111 172.138 8.27887 172.138ZM8.27887 171.311C8.16473 171.311 8.07197 171.403 8.07197 171.518C8.07197 171.632 8.16469 171.725 8.27887 171.725C8.39301 171.725 8.48578 171.632 8.48578 171.518C8.48578 171.403 8.39301 171.311 8.27887 171.311Z" fill="#F5F5F5"/>
<path d="M5.7945 172.138C5.45222 172.138 5.17383 171.86 5.17383 171.518C5.17383 171.175 5.45226 170.897 5.7945 170.897C6.13678 170.897 6.41517 171.175 6.41517 171.518C6.41522 171.86 6.13678 172.138 5.7945 172.138ZM5.7945 171.311C5.68036 171.311 5.58759 171.403 5.58759 171.518C5.58759 171.632 5.68031 171.725 5.7945 171.725C5.90869 171.725 6.0014 171.632 6.0014 171.518C6.0014 171.403 5.90869 171.311 5.7945 171.311Z" fill="#F5F5F5"/>
<path d="M8.27684 175.655V175.862C8.27684 175.976 8.18403 176.069 8.06994 176.069C7.95584 176.069 7.86303 175.976 7.86303 175.862V175.655H8.27684ZM8.69061 175.242H7.44922V175.862C7.44922 176.205 7.72766 176.483 8.06989 176.483C8.41217 176.483 8.69056 176.205 8.69056 175.862V175.242H8.69061Z" fill="#FAB446"/>
<path d="M8.07006 174.414C7.84155 174.414 7.65625 174.229 7.65625 174V173.586C7.65625 173.358 7.84155 173.172 8.07006 173.172C8.29858 173.172 8.48387 173.358 8.48387 173.586V174C8.48387 174.229 8.29858 174.414 8.07006 174.414Z" fill="#FFA0D2"/>
<path d="M7.03473 175.448C7.37752 175.448 7.65541 175.17 7.65541 174.827C7.65541 174.484 7.37752 174.207 7.03473 174.207C6.69195 174.207 6.41406 174.484 6.41406 174.827C6.41406 175.17 6.69195 175.448 7.03473 175.448Z" fill="#5064AA"/>
<path d="M7.24194 170.276H6.82812V171.517H7.24194V170.276Z" fill="#FAB446"/>
<path d="M5.79272 172.345L5.37891 171.931L5.6213 171.689C5.99597 171.314 6.50419 171.104 7.03411 171.104C7.56403 171.104 8.0722 171.314 8.44692 171.689L8.68931 171.931L8.2755 172.345H5.79272Z" fill="#C8414B"/>
<path d="M7.03503 172.138C7.1493 172.138 7.24194 172.045 7.24194 171.931C7.24194 171.817 7.1493 171.724 7.03503 171.724C6.92076 171.724 6.82812 171.817 6.82812 171.931C6.82812 172.045 6.92076 172.138 7.03503 172.138Z" fill="#FFD250"/>
<path d="M6.20691 172.138C6.32118 172.138 6.41381 172.045 6.41381 171.931C6.41381 171.817 6.32118 171.724 6.20691 171.724C6.09263 171.724 6 171.817 6 171.931C6 172.045 6.09263 172.138 6.20691 172.138Z" fill="#FFD250"/>
<path d="M7.86316 172.138C7.97743 172.138 8.07006 172.045 8.07006 171.931C8.07006 171.817 7.97743 171.724 7.86316 171.724C7.74888 171.724 7.65625 171.817 7.65625 171.931C7.65625 172.045 7.74888 172.138 7.86316 172.138Z" fill="#FFD250"/>
<path d="M5.37765 174H3.30859V174.414H5.37765V174Z" fill="#C8414B"/>
<path d="M3.31055 175.655L4.55189 175.241V174.828L3.31055 175.241V175.655Z" fill="#C8414B"/>
<path d="M297.76 116.264H293.52V118.424H297.68V120.888H293.52V125H290.96V113.8H297.76V116.264ZM301.593 118.424C301.742 117.912 302.041 117.523 302.489 117.256C302.947 116.979 303.449 116.84 303.993 116.84V119.56C303.406 119.464 302.857 119.565 302.345 119.864C301.843 120.152 301.593 120.659 301.593 121.384V125H299.193V117H301.593V118.424ZM310.688 117H313.088V125H310.688V124.248C310.123 124.899 309.328 125.224 308.304 125.224C307.248 125.224 306.347 124.819 305.6 124.008C304.853 123.187 304.48 122.184 304.48 121C304.48 119.816 304.853 118.819 305.6 118.008C306.347 117.187 307.248 116.776 308.304 116.776C309.328 116.776 310.123 117.101 310.688 117.752V117ZM307.408 122.424C307.76 122.776 308.219 122.952 308.784 122.952C309.349 122.952 309.808 122.776 310.16 122.424C310.512 122.072 310.688 121.597 310.688 121C310.688 120.403 310.512 119.928 310.16 119.576C309.808 119.224 309.349 119.048 308.784 119.048C308.219 119.048 307.76 119.224 307.408 119.576C307.056 119.928 306.88 120.403 306.88 121C306.88 121.597 307.056 122.072 307.408 122.424ZM319.537 116.776C320.39 116.776 321.099 117.069 321.665 117.656C322.241 118.243 322.529 119.053 322.529 120.088V125H320.129V120.44C320.129 119.971 319.995 119.613 319.729 119.368C319.473 119.112 319.142 118.984 318.737 118.984C318.278 118.984 317.915 119.123 317.649 119.4C317.382 119.677 317.249 120.088 317.249 120.632V125H314.849V117H317.249V117.752C317.729 117.101 318.491 116.776 319.537 116.776ZM328.017 125.224C326.801 125.224 325.788 124.819 324.977 124.008C324.177 123.197 323.777 122.195 323.777 121C323.777 119.805 324.177 118.803 324.977 117.992C325.788 117.181 326.801 116.776 328.017 116.776C328.785 116.776 329.489 116.963 330.129 117.336C330.78 117.709 331.281 118.205 331.633 118.824L329.537 120.04C329.249 119.443 328.732 119.144 327.985 119.144C327.462 119.144 327.03 119.32 326.689 119.672C326.348 120.013 326.177 120.456 326.177 121C326.177 121.544 326.348 121.992 326.689 122.344C327.03 122.685 327.462 122.856 327.985 122.856C328.742 122.856 329.26 122.557 329.537 121.96L331.633 123.16C331.281 123.789 330.785 124.291 330.145 124.664C329.505 125.037 328.796 125.224 328.017 125.224ZM334.807 115.88C334.529 116.157 334.193 116.296 333.799 116.296C333.404 116.296 333.063 116.157 332.775 115.88C332.497 115.592 332.359 115.251 332.359 114.856C332.359 114.461 332.497 114.125 332.775 113.848C333.063 113.56 333.404 113.416 333.799 113.416C334.193 113.416 334.529 113.56 334.807 113.848C335.095 114.125 335.239 114.461 335.239 114.856C335.239 115.251 335.095 115.592 334.807 115.88ZM332.599 125V117H334.999V125H332.599ZM342.563 117H344.963V125H342.563V124.248C341.998 124.899 341.203 125.224 340.179 125.224C339.123 125.224 338.222 124.819 337.475 124.008C336.728 123.187 336.355 122.184 336.355 121C336.355 119.816 336.728 118.819 337.475 118.008C338.222 117.187 339.123 116.776 340.179 116.776C341.203 116.776 341.998 117.101 342.563 117.752V117ZM339.283 122.424C339.635 122.776 340.094 122.952 340.659 122.952C341.224 122.952 341.683 122.776 342.035 122.424C342.387 122.072 342.563 121.597 342.563 121C342.563 120.403 342.387 119.928 342.035 119.576C341.683 119.224 341.224 119.048 340.659 119.048C340.094 119.048 339.635 119.224 339.283 119.576C338.931 119.928 338.755 120.403 338.755 121C338.755 121.597 338.931 122.072 339.283 122.424Z" fill="#3CC3DD"/>
<path d="M295.936 138.344C296.651 138.589 297.227 138.989 297.664 139.544C298.101 140.088 298.32 140.733 298.32 141.48C298.32 142.653 297.925 143.571 297.136 144.232C296.347 144.893 295.381 145.224 294.24 145.224C293.355 145.224 292.56 145.021 291.856 144.616C291.163 144.211 290.651 143.613 290.32 142.824L292.528 141.544C292.805 142.333 293.376 142.728 294.24 142.728C294.741 142.728 295.12 142.611 295.376 142.376C295.632 142.141 295.76 141.843 295.76 141.48C295.76 141.117 295.632 140.819 295.376 140.584C295.12 140.349 294.741 140.232 294.24 140.232H293.712L292.736 138.776L294.768 136.2H290.672V133.8H297.872V135.88L295.936 138.344ZM298.957 133.8H306.317V135.944L302.669 145H299.949L303.469 136.264H298.957V133.8ZM309.953 144.776C309.654 145.075 309.297 145.224 308.881 145.224C308.465 145.224 308.107 145.075 307.809 144.776C307.51 144.477 307.361 144.12 307.361 143.704C307.361 143.288 307.51 142.931 307.809 142.632C308.107 142.333 308.465 142.184 308.881 142.184C309.297 142.184 309.654 142.333 309.953 142.632C310.251 142.931 310.401 143.288 310.401 143.704C310.401 144.12 310.251 144.477 309.953 144.776ZM315.685 137.736C316.784 137.736 317.696 138.067 318.421 138.728C319.157 139.379 319.525 140.296 319.525 141.48C319.525 142.653 319.13 143.571 318.341 144.232C317.552 144.893 316.586 145.224 315.445 145.224C314.517 145.224 313.701 145.027 312.997 144.632C312.293 144.227 311.776 143.624 311.445 142.824L313.653 141.544C313.93 142.333 314.528 142.728 315.445 142.728C315.946 142.728 316.325 142.611 316.581 142.376C316.837 142.141 316.965 141.843 316.965 141.48C316.965 141.117 316.842 140.819 316.597 140.584C316.352 140.349 315.994 140.232 315.525 140.232H312.021L312.485 133.8H318.965V136.2H314.885L314.773 137.736H315.685ZM319.926 133.8H327.286V135.944L323.638 145H320.918L324.438 136.264H319.926V133.8ZM331.685 137.736C332.784 137.736 333.696 138.067 334.421 138.728C335.157 139.379 335.525 140.296 335.525 141.48C335.525 142.653 335.13 143.571 334.341 144.232C333.552 144.893 332.586 145.224 331.445 145.224C330.517 145.224 329.701 145.027 328.997 144.632C328.293 144.227 327.776 143.624 327.445 142.824L329.653 141.544C329.93 142.333 330.528 142.728 331.445 142.728C331.946 142.728 332.325 142.611 332.581 142.376C332.837 142.141 332.965 141.843 332.965 141.48C332.965 141.117 332.842 140.819 332.597 140.584C332.352 140.349 331.994 140.232 331.525 140.232H328.021L328.485 133.8H334.965V136.2H330.885L330.773 137.736H331.685Z" fill="#101010"/>
<path d="M149.88 208.224C148.739 208.224 147.784 207.979 147.016 207.488C146.259 206.987 145.72 206.309 145.4 205.456L147.608 204.176C148.056 205.211 148.84 205.728 149.96 205.728C150.973 205.728 151.48 205.424 151.48 204.816C151.48 204.485 151.315 204.229 150.984 204.048C150.664 203.856 150.056 203.637 149.16 203.392C148.691 203.264 148.28 203.12 147.928 202.96C147.576 202.8 147.229 202.592 146.888 202.336C146.557 202.069 146.301 201.739 146.12 201.344C145.949 200.949 145.864 200.496 145.864 199.984C145.864 198.949 146.232 198.123 146.968 197.504C147.715 196.885 148.6 196.576 149.624 196.576C150.541 196.576 151.352 196.795 152.056 197.232C152.76 197.659 153.315 198.283 153.72 199.104L151.56 200.368C151.357 199.941 151.107 199.621 150.808 199.408C150.509 199.184 150.115 199.072 149.624 199.072C149.24 199.072 148.941 199.157 148.728 199.328C148.525 199.488 148.424 199.685 148.424 199.92C148.424 200.197 148.552 200.437 148.808 200.64C149.075 200.843 149.619 201.067 150.44 201.312C150.888 201.451 151.235 201.563 151.48 201.648C151.725 201.733 152.035 201.877 152.408 202.08C152.792 202.272 153.08 202.48 153.272 202.704C153.475 202.917 153.651 203.205 153.8 203.568C153.96 203.92 154.04 204.325 154.04 204.784C154.04 205.851 153.656 206.693 152.888 207.312C152.12 207.92 151.117 208.224 149.88 208.224ZM160.407 200H162.807V208H160.407V207.248C159.927 207.899 159.165 208.224 158.119 208.224C157.266 208.224 156.551 207.931 155.975 207.344C155.41 206.757 155.127 205.947 155.127 204.912V200H157.527V204.56C157.527 205.029 157.655 205.392 157.911 205.648C158.178 205.893 158.514 206.016 158.919 206.016C159.378 206.016 159.741 205.877 160.007 205.6C160.274 205.323 160.407 204.912 160.407 204.368V200ZM166.776 198.88C166.498 199.157 166.162 199.296 165.768 199.296C165.373 199.296 165.032 199.157 164.743 198.88C164.466 198.592 164.328 198.251 164.328 197.856C164.328 197.461 164.466 197.125 164.743 196.848C165.032 196.56 165.373 196.416 165.768 196.416C166.162 196.416 166.498 196.56 166.776 196.848C167.064 197.125 167.208 197.461 167.208 197.856C167.208 198.251 167.064 198.592 166.776 198.88ZM164.568 208V200H166.968V208H164.568ZM171.7 205.76H174.884V208H168.484V206.4L171.508 202.24H168.644V200H174.724V201.6L171.7 205.76ZM181.641 200H184.041V208H181.641V207.248C181.076 207.899 180.281 208.224 179.257 208.224C178.201 208.224 177.3 207.819 176.553 207.008C175.806 206.187 175.433 205.184 175.433 204C175.433 202.816 175.806 201.819 176.553 201.008C177.3 200.187 178.201 199.776 179.257 199.776C180.281 199.776 181.076 200.101 181.641 200.752V200ZM178.361 205.424C178.713 205.776 179.172 205.952 179.737 205.952C180.302 205.952 180.761 205.776 181.113 205.424C181.465 205.072 181.641 204.597 181.641 204C181.641 203.403 181.465 202.928 181.113 202.576C180.761 202.224 180.302 202.048 179.737 202.048C179.172 202.048 178.713 202.224 178.361 202.576C178.009 202.928 177.833 203.403 177.833 204C177.833 204.597 178.009 205.072 178.361 205.424Z" fill="#3CC3DD"/>
<path d="M148.088 216.8H150.328V228H147.768V219.504L145.784 220.048L145.16 217.856L148.088 216.8ZM157.389 221.344C158.104 221.589 158.68 221.989 159.117 222.544C159.554 223.088 159.773 223.733 159.773 224.48C159.773 225.653 159.378 226.571 158.589 227.232C157.8 227.893 156.834 228.224 155.693 228.224C154.808 228.224 154.013 228.021 153.309 227.616C152.616 227.211 152.104 226.613 151.773 225.824L153.981 224.544C154.258 225.333 154.829 225.728 155.693 225.728C156.194 225.728 156.573 225.611 156.829 225.376C157.085 225.141 157.213 224.843 157.213 224.48C157.213 224.117 157.085 223.819 156.829 223.584C156.573 223.349 156.194 223.232 155.693 223.232H155.165L154.189 221.776L156.221 219.2H152.125V216.8H159.325V218.88L157.389 221.344ZM163.562 227.776C163.263 228.075 162.906 228.224 162.49 228.224C162.074 228.224 161.717 228.075 161.418 227.776C161.119 227.477 160.97 227.12 160.97 226.704C160.97 226.288 161.119 225.931 161.418 225.632C161.717 225.333 162.074 225.184 162.49 225.184C162.906 225.184 163.263 225.333 163.562 225.632C163.861 225.931 164.01 226.288 164.01 226.704C164.01 227.12 163.861 227.477 163.562 227.776ZM167.822 216.8H170.062V228H167.502V219.504L165.518 220.048L164.894 217.856L167.822 216.8ZM175.748 220.736C176.846 220.736 177.758 221.067 178.484 221.728C179.22 222.379 179.588 223.296 179.588 224.48C179.588 225.653 179.193 226.571 178.404 227.232C177.614 227.893 176.649 228.224 175.508 228.224C174.58 228.224 173.764 228.027 173.06 227.632C172.356 227.227 171.838 226.624 171.508 225.824L173.716 224.544C173.993 225.333 174.59 225.728 175.508 225.728C176.009 225.728 176.388 225.611 176.644 225.376C176.9 225.141 177.028 224.843 177.028 224.48C177.028 224.117 176.905 223.819 176.66 223.584C176.414 223.349 176.057 223.232 175.588 223.232H172.084L172.548 216.8H179.028V219.2H174.948L174.836 220.736H175.748ZM180.18 228V226.144L183.94 222.24C184.697 221.461 185.076 220.8 185.076 220.256C185.076 219.904 184.969 219.621 184.756 219.408C184.543 219.184 184.249 219.072 183.876 219.072C183.129 219.072 182.58 219.477 182.228 220.288L180.068 219.024C180.409 218.224 180.921 217.616 181.604 217.2C182.287 216.784 183.033 216.576 183.844 216.576C184.889 216.576 185.78 216.901 186.516 217.552C187.263 218.192 187.636 219.056 187.636 220.144C187.636 221.328 187.055 222.501 185.892 223.664L184.036 225.536H187.796V228H180.18Z" fill="#101010"/>
<path d="M4.52 205.536H9V208H1.96V196.8H8.92V199.264H4.52V201.12H8.52V203.552H4.52V205.536ZM12.6364 202.336C12.6364 202.496 12.7697 202.629 13.0364 202.736C13.3137 202.832 13.6444 202.933 14.0284 203.04C14.4124 203.136 14.7964 203.264 15.1804 203.424C15.5644 203.584 15.8897 203.851 16.1564 204.224C16.4337 204.587 16.5724 205.045 16.5724 205.6C16.5724 206.464 16.2524 207.12 15.6124 207.568C14.9724 208.005 14.183 208.224 13.2444 208.224C11.559 208.224 10.4124 207.589 9.80438 206.32L11.8844 205.136C12.0977 205.765 12.551 206.08 13.2444 206.08C13.8204 206.08 14.1084 205.915 14.1084 205.584C14.1084 205.424 13.9697 205.291 13.6924 205.184C13.4257 205.077 13.1004 204.976 12.7164 204.88C12.3324 204.773 11.9484 204.64 11.5644 204.48C11.1804 204.309 10.8497 204.048 10.5724 203.696C10.3057 203.344 10.1724 202.912 10.1724 202.4C10.1724 201.568 10.471 200.923 11.0684 200.464C11.6764 200.005 12.423 199.776 13.3084 199.776C13.9697 199.776 14.5724 199.925 15.1164 200.224C15.6604 200.512 16.0977 200.933 16.4284 201.488L14.3804 202.592C14.1244 202.123 13.767 201.888 13.3084 201.888C12.8604 201.888 12.6364 202.037 12.6364 202.336ZM22.6328 199.776C23.6888 199.776 24.5901 200.187 25.3368 201.008C26.0834 201.819 26.4568 202.816 26.4568 204C26.4568 205.184 26.0834 206.187 25.3368 207.008C24.5901 207.819 23.6888 208.224 22.6328 208.224C21.6088 208.224 20.8141 207.899 20.2488 207.248V211.2H17.8488V200H20.2488V200.752C20.8141 200.101 21.6088 199.776 22.6328 199.776ZM20.7768 205.424C21.1394 205.776 21.5981 205.952 22.1528 205.952C22.7074 205.952 23.1608 205.776 23.5128 205.424C23.8754 205.072 24.0568 204.597 24.0568 204C24.0568 203.403 23.8754 202.928 23.5128 202.576C23.1608 202.224 22.7074 202.048 22.1528 202.048C21.5981 202.048 21.1394 202.224 20.7768 202.576C20.4248 202.928 20.2488 203.403 20.2488 204C20.2488 204.597 20.4248 205.072 20.7768 205.424ZM33.6255 200H36.0255V208H33.6255V207.248C33.0602 207.899 32.2655 208.224 31.2415 208.224C30.1855 208.224 29.2842 207.819 28.5375 207.008C27.7908 206.187 27.4175 205.184 27.4175 204C27.4175 202.816 27.7908 201.819 28.5375 201.008C29.2842 200.187 30.1855 199.776 31.2415 199.776C32.2655 199.776 33.0602 200.101 33.6255 200.752V200ZM30.3455 205.424C30.6975 205.776 31.1562 205.952 31.7215 205.952C32.2868 205.952 32.7455 205.776 33.0975 205.424C33.4495 205.072 33.6255 204.597 33.6255 204C33.6255 203.403 33.4495 202.928 33.0975 202.576C32.7455 202.224 32.2868 202.048 31.7215 202.048C31.1562 202.048 30.6975 202.224 30.3455 202.576C29.9935 202.928 29.8175 203.403 29.8175 204C29.8175 204.597 29.9935 205.072 30.3455 205.424ZM41.4503 198.608C41.1729 198.437 40.9863 198.379 40.8903 198.432C40.8049 198.485 40.7623 198.672 40.7623 198.992H38.8423C38.8423 198.341 38.9329 197.808 39.1143 197.392C39.3063 196.976 39.5569 196.704 39.8663 196.576C40.1756 196.437 40.5116 196.395 40.8743 196.448C41.2369 196.491 41.6049 196.629 41.9783 196.864C42.2449 197.035 42.4263 197.093 42.5223 197.04C42.6183 196.987 42.6663 196.8 42.6663 196.48H44.5863C44.5863 197.131 44.4903 197.664 44.2983 198.08C44.1169 198.496 43.8716 198.773 43.5623 198.912C43.2529 199.04 42.9169 199.083 42.5543 199.04C42.1916 198.987 41.8236 198.843 41.4503 198.608ZM42.4743 199.776C43.3276 199.776 44.0369 200.069 44.6023 200.656C45.1783 201.243 45.4663 202.053 45.4663 203.088V208H43.0663V203.44C43.0663 202.971 42.9329 202.613 42.6663 202.368C42.4103 202.112 42.0796 201.984 41.6743 201.984C41.2156 201.984 40.8529 202.123 40.5863 202.4C40.3196 202.677 40.1863 203.088 40.1863 203.632V208H37.7863V200H40.1863V200.752C40.6663 200.101 41.4289 199.776 42.4743 199.776ZM52.9224 200H55.3224V208H52.9224V207.248C52.357 207.899 51.5624 208.224 50.5384 208.224C49.4824 208.224 48.581 207.819 47.8344 207.008C47.0877 206.187 46.7144 205.184 46.7144 204C46.7144 202.816 47.0877 201.819 47.8344 201.008C48.581 200.187 49.4824 199.776 50.5384 199.776C51.5624 199.776 52.357 200.101 52.9224 200.752V200ZM49.6424 205.424C49.9944 205.776 50.453 205.952 51.0184 205.952C51.5837 205.952 52.0424 205.776 52.3944 205.424C52.7464 205.072 52.9224 204.597 52.9224 204C52.9224 203.403 52.7464 202.928 52.3944 202.576C52.0424 202.224 51.5837 202.048 51.0184 202.048C50.453 202.048 49.9944 202.224 49.6424 202.576C49.2904 202.928 49.1144 203.403 49.1144 204C49.1144 204.597 49.2904 205.072 49.6424 205.424Z" fill="#3CC3DD"/>
<path d="M1.16 216.8H8.52V218.944L4.872 228H2.152L5.672 219.264H1.16V216.8ZM15.7793 222.16C16.7499 222.789 17.2353 223.685 17.2353 224.848C17.2353 225.883 16.8726 226.704 16.1473 227.312C15.4326 227.92 14.4246 228.224 13.1233 228.224C11.8219 228.224 10.8086 227.92 10.0833 227.312C9.36858 226.704 9.01125 225.883 9.01125 224.848C9.01125 223.685 9.49658 222.789 10.4673 222.16C9.75258 221.605 9.39525 220.853 9.39525 219.904C9.39525 218.859 9.74725 218.043 10.4513 217.456C11.1553 216.869 12.0459 216.576 13.1233 216.576C14.2006 216.576 15.0913 216.869 15.7953 217.456C16.4993 218.043 16.8513 218.859 16.8513 219.904C16.8513 220.853 16.4939 221.605 15.7793 222.16ZM13.9713 219.28C13.7579 219.077 13.4753 218.976 13.1233 218.976C12.7713 218.976 12.4886 219.077 12.2753 219.28C12.0619 219.483 11.9553 219.744 11.9553 220.064C11.9553 220.384 12.0619 220.645 12.2753 220.848C12.4886 221.051 12.7713 221.152 13.1233 221.152C13.4753 221.152 13.7579 221.051 13.9713 220.848C14.1846 220.645 14.2913 220.384 14.2913 220.064C14.2913 219.744 14.1846 219.483 13.9713 219.28ZM12.0033 225.472C12.2913 225.707 12.6646 225.824 13.1233 225.824C13.5819 225.824 13.9553 225.707 14.2433 225.472C14.5313 225.227 14.6753 224.896 14.6753 224.48C14.6753 224.064 14.5313 223.739 14.2433 223.504C13.9553 223.259 13.5819 223.136 13.1233 223.136C12.6646 223.136 12.2913 223.259 12.0033 223.504C11.7153 223.739 11.5713 224.064 11.5713 224.48C11.5713 224.896 11.7153 225.227 12.0033 225.472ZM21.0308 227.776C20.7321 228.075 20.3748 228.224 19.9588 228.224C19.5428 228.224 19.1854 228.075 18.8868 227.776C18.5881 227.477 18.4388 227.12 18.4388 226.704C18.4388 226.288 18.5881 225.931 18.8868 225.632C19.1854 225.333 19.5428 225.184 19.9588 225.184C20.3748 225.184 20.7321 225.333 21.0308 225.632C21.3294 225.931 21.4788 226.288 21.4788 226.704C21.4788 227.12 21.3294 227.477 21.0308 227.776ZM22.3631 216.8H29.7231V218.944L26.0751 228H23.3551L26.8751 219.264H22.3631V216.8ZM38.6869 220.528C38.6869 221.392 38.4682 222.149 38.0309 222.8L34.6069 228H31.6629L34.0949 224.464C32.9855 224.379 32.0842 223.973 31.3909 223.248C30.7082 222.523 30.3669 221.616 30.3669 220.528C30.3669 219.365 30.7509 218.416 31.5189 217.68C32.2975 216.944 33.3002 216.576 34.5269 216.576C35.7642 216.576 36.7669 216.944 37.5349 217.68C38.3029 218.416 38.6869 219.365 38.6869 220.528ZM33.3909 219.408C33.0815 219.685 32.9269 220.059 32.9269 220.528C32.9269 220.997 33.0815 221.376 33.3909 221.664C33.7002 221.941 34.0789 222.08 34.5269 222.08C34.9749 222.08 35.3535 221.941 35.6629 221.664C35.9722 221.387 36.1269 221.008 36.1269 220.528C36.1269 220.048 35.9722 219.669 35.6629 219.392C35.3535 219.115 34.9749 218.976 34.5269 218.976C34.0789 218.976 33.7002 219.12 33.3909 219.408ZM39.0038 216.8H46.3638V218.944L42.7158 228H39.9958L43.5158 219.264H39.0038V216.8Z" fill="#101010"/>
<path d="M0.96 114.8H3.52V126H0.96V114.8ZM10.0524 120.304H8.40438V123.136C8.40438 123.456 8.53238 123.659 8.78838 123.744C9.04438 123.829 9.46571 123.856 10.0524 123.824V126C8.52704 126.16 7.47104 126.016 6.88438 125.568C6.29771 125.109 6.00438 124.299 6.00438 123.136V120.304H4.72438V118H6.00438V116.48L8.40438 115.76V118H10.0524V120.304ZM17.063 118H19.463V126H17.063V125.248C16.4977 125.899 15.703 126.224 14.679 126.224C13.623 126.224 12.7217 125.819 11.975 125.008C11.2283 124.187 10.855 123.184 10.855 122C10.855 120.816 11.2283 119.819 11.975 119.008C12.7217 118.187 13.623 117.776 14.679 117.776C15.703 117.776 16.4977 118.101 17.063 118.752V118ZM13.783 123.424C14.135 123.776 14.5937 123.952 15.159 123.952C15.7243 123.952 16.183 123.776 16.535 123.424C16.887 123.072 17.063 122.597 17.063 122C17.063 121.403 16.887 120.928 16.535 120.576C16.183 120.224 15.7243 120.048 15.159 120.048C14.5937 120.048 14.135 120.224 13.783 120.576C13.431 120.928 13.255 121.403 13.255 122C13.255 122.597 13.431 123.072 13.783 123.424ZM21.2238 126V114.32H23.6238V126H21.2238ZM27.588 116.88C27.3107 117.157 26.9747 117.296 26.58 117.296C26.1853 117.296 25.844 117.157 25.556 116.88C25.2787 116.592 25.14 116.251 25.14 115.856C25.14 115.461 25.2787 115.125 25.556 114.848C25.844 114.56 26.1853 114.416 26.58 114.416C26.9747 114.416 27.3107 114.56 27.588 114.848C27.876 115.125 28.02 115.461 28.02 115.856C28.02 116.251 27.876 116.592 27.588 116.88ZM25.38 126V118H27.78V126H25.38ZM35.3443 118H37.7443V126H35.3443V125.248C34.7789 125.899 33.9843 126.224 32.9603 126.224C31.9043 126.224 31.0029 125.819 30.2563 125.008C29.5096 124.187 29.1363 123.184 29.1363 122C29.1363 120.816 29.5096 119.819 30.2563 119.008C31.0029 118.187 31.9043 117.776 32.9603 117.776C33.9843 117.776 34.7789 118.101 35.3443 118.752V118ZM32.0643 123.424C32.4163 123.776 32.8749 123.952 33.4403 123.952C34.0056 123.952 34.4643 123.776 34.8163 123.424C35.1683 123.072 35.3443 122.597 35.3443 122C35.3443 121.403 35.1683 120.928 34.8163 120.576C34.4643 120.224 34.0056 120.048 33.4403 120.048C32.8749 120.048 32.4163 120.224 32.0643 120.576C31.7123 120.928 31.5363 121.403 31.5363 122C31.5363 122.597 31.7123 123.072 32.0643 123.424Z" fill="#3CC3DD"/>
<path d="M8.64 138.528C8.64 139.392 8.42133 140.149 7.984 140.8L4.56 146H1.616L4.048 142.464C2.93867 142.379 2.03733 141.973 1.344 141.248C0.661333 140.523 0.32 139.616 0.32 138.528C0.32 137.365 0.704 136.416 1.472 135.68C2.25067 134.944 3.25333 134.576 4.48 134.576C5.71733 134.576 6.72 134.944 7.488 135.68C8.256 136.416 8.64 137.365 8.64 138.528ZM3.344 137.408C3.03467 137.685 2.88 138.059 2.88 138.528C2.88 138.997 3.03467 139.376 3.344 139.664C3.65333 139.941 4.032 140.08 4.48 140.08C4.928 140.08 5.30667 139.941 5.616 139.664C5.92533 139.387 6.08 139.008 6.08 138.528C6.08 138.048 5.92533 137.669 5.616 137.392C5.30667 137.115 4.928 136.976 4.48 136.976C4.032 136.976 3.65333 137.12 3.344 137.408ZM8.95688 134.8H16.3169V136.944L12.6689 146H9.94888L13.4689 137.264H8.95688V134.8ZM17.5464 145.776C17.2477 146.075 16.8904 146.224 16.4744 146.224C16.0584 146.224 15.701 146.075 15.4024 145.776C15.1037 145.477 14.9544 145.12 14.9544 144.704C14.9544 144.288 15.1037 143.931 15.4024 143.632C15.701 143.333 16.0584 143.184 16.4744 143.184C16.8904 143.184 17.2477 143.333 17.5464 143.632C17.845 143.931 17.9944 144.288 17.9944 144.704C17.9944 145.12 17.845 145.477 17.5464 145.776ZM23.6308 138.336C24.7401 138.421 25.6361 138.827 26.3188 139.552C27.0121 140.277 27.3588 141.184 27.3588 142.272C27.3588 143.435 26.9694 144.384 26.1908 145.12C25.4228 145.856 24.4254 146.224 23.1988 146.224C21.9614 146.224 20.9588 145.856 20.1908 145.12C19.4228 144.384 19.0388 143.435 19.0388 142.272C19.0388 141.408 19.2574 140.651 19.6948 140L23.1188 134.8H26.0628L23.6308 138.336ZM22.0628 143.408C22.3721 143.685 22.7508 143.824 23.1988 143.824C23.6468 143.824 24.0254 143.685 24.3348 143.408C24.6441 143.12 24.7988 142.741 24.7988 142.272C24.7988 141.803 24.6441 141.429 24.3348 141.152C24.0254 140.864 23.6468 140.72 23.1988 140.72C22.7508 140.72 22.3721 140.859 22.0628 141.136C21.7534 141.413 21.5988 141.792 21.5988 142.272C21.5988 142.752 21.7534 143.131 22.0628 143.408ZM34.9199 140.16C35.8905 140.789 36.3759 141.685 36.3759 142.848C36.3759 143.883 36.0132 144.704 35.2879 145.312C34.5732 145.92 33.5652 146.224 32.2639 146.224C30.9625 146.224 29.9492 145.92 29.2239 145.312C28.5092 144.704 28.1519 143.883 28.1519 142.848C28.1519 141.685 28.6372 140.789 29.6079 140.16C28.8932 139.605 28.5359 138.853 28.5359 137.904C28.5359 136.859 28.8879 136.043 29.5919 135.456C30.2959 134.869 31.1865 134.576 32.2639 134.576C33.3412 134.576 34.2319 134.869 34.9359 135.456C35.6399 136.043 35.9919 136.859 35.9919 137.904C35.9919 138.853 35.6345 139.605 34.9199 140.16ZM33.1119 137.28C32.8985 137.077 32.6159 136.976 32.2639 136.976C31.9119 136.976 31.6292 137.077 31.4159 137.28C31.2025 137.483 31.0959 137.744 31.0959 138.064C31.0959 138.384 31.2025 138.645 31.4159 138.848C31.6292 139.051 31.9119 139.152 32.2639 139.152C32.6159 139.152 32.8985 139.051 33.1119 138.848C33.3252 138.645 33.4319 138.384 33.4319 138.064C33.4319 137.744 33.3252 137.483 33.1119 137.28ZM31.1439 143.472C31.4319 143.707 31.8052 143.824 32.2639 143.824C32.7225 143.824 33.0959 143.707 33.3839 143.472C33.6719 143.227 33.8159 142.896 33.8159 142.48C33.8159 142.064 33.6719 141.739 33.3839 141.504C33.0959 141.259 32.7225 141.136 32.2639 141.136C31.8052 141.136 31.4319 141.259 31.1439 141.504C30.8559 141.739 30.7119 142.064 30.7119 142.48C30.7119 142.896 30.8559 143.227 31.1439 143.472ZM45.4994 138.528C45.4994 139.392 45.2807 140.149 44.8434 140.8L41.4194 146H38.4754L40.9074 142.464C39.798 142.379 38.8967 141.973 38.2034 141.248C37.5207 140.523 37.1794 139.616 37.1794 138.528C37.1794 137.365 37.5634 136.416 38.3314 135.68C39.11 134.944 40.1127 134.576 41.3394 134.576C42.5767 134.576 43.5794 134.944 44.3474 135.68C45.1154 136.416 45.4994 137.365 45.4994 138.528ZM40.2034 137.408C39.894 137.685 39.7394 138.059 39.7394 138.528C39.7394 138.997 39.894 139.376 40.2034 139.664C40.5127 139.941 40.8914 140.08 41.3394 140.08C41.7874 140.08 42.166 139.941 42.4754 139.664C42.7847 139.387 42.9394 139.008 42.9394 138.528C42.9394 138.048 42.7847 137.669 42.4754 137.392C42.166 137.115 41.7874 136.976 41.3394 136.976C40.8914 136.976 40.5127 137.12 40.2034 137.408Z" fill="#101010"/>
<path d="M426.848 125L424.736 121.32H423.52V125H420.96V113.8H425.44C426.507 113.8 427.413 114.173 428.16 114.92C428.907 115.667 429.28 116.573 429.28 117.64C429.28 118.323 429.088 118.957 428.704 119.544C428.331 120.12 427.835 120.568 427.216 120.888L429.6 125H426.848ZM423.52 116.2V119.08H425.44C425.792 119.08 426.091 118.941 426.336 118.664C426.592 118.387 426.72 118.045 426.72 117.64C426.72 117.235 426.592 116.893 426.336 116.616C426.091 116.339 425.792 116.2 425.44 116.2H423.52ZM432.462 121.96C432.739 122.707 433.379 123.08 434.382 123.08C435.032 123.08 435.544 122.877 435.918 122.472L437.838 123.576C437.048 124.675 435.886 125.224 434.35 125.224C433.006 125.224 431.928 124.824 431.118 124.024C430.318 123.224 429.918 122.216 429.918 121C429.918 119.795 430.312 118.792 431.102 117.992C431.902 117.181 432.926 116.776 434.174 116.776C435.336 116.776 436.302 117.181 437.07 117.992C437.848 118.792 438.238 119.795 438.238 121C438.238 121.341 438.206 121.661 438.142 121.96H432.462ZM432.414 120.168H435.854C435.619 119.325 435.054 118.904 434.158 118.904C433.23 118.904 432.648 119.325 432.414 120.168ZM441.807 115.88C441.529 116.157 441.193 116.296 440.799 116.296C440.404 116.296 440.063 116.157 439.775 115.88C439.497 115.592 439.359 115.251 439.359 114.856C439.359 114.461 439.497 114.125 439.775 113.848C440.063 113.56 440.404 113.416 440.799 113.416C441.193 113.416 441.529 113.56 441.807 113.848C442.095 114.125 442.239 114.461 442.239 114.856C442.239 115.251 442.095 115.592 441.807 115.88ZM439.599 125V117H441.999V125H439.599ZM448.443 116.776C449.296 116.776 450.006 117.069 450.571 117.656C451.147 118.243 451.435 119.053 451.435 120.088V125H449.035V120.44C449.035 119.971 448.902 119.613 448.635 119.368C448.379 119.112 448.048 118.984 447.643 118.984C447.184 118.984 446.822 119.123 446.555 119.4C446.288 119.677 446.155 120.088 446.155 120.632V125H443.755V117H446.155V117.752C446.635 117.101 447.398 116.776 448.443 116.776ZM459.931 124.008C459.11 124.819 458.107 125.224 456.923 125.224C455.739 125.224 454.736 124.819 453.915 124.008C453.094 123.187 452.683 122.184 452.683 121C452.683 119.816 453.094 118.819 453.915 118.008C454.736 117.187 455.739 116.776 456.923 116.776C458.107 116.776 459.11 117.187 459.931 118.008C460.752 118.819 461.163 119.816 461.163 121C461.163 122.184 460.752 123.187 459.931 124.008ZM455.611 122.36C455.963 122.712 456.4 122.888 456.923 122.888C457.446 122.888 457.883 122.712 458.235 122.36C458.587 122.008 458.763 121.555 458.763 121C458.763 120.445 458.587 119.992 458.235 119.64C457.883 119.288 457.446 119.112 456.923 119.112C456.4 119.112 455.963 119.288 455.611 119.64C455.259 119.992 455.083 120.445 455.083 121C455.083 121.555 455.259 122.008 455.611 122.36ZM473.945 124.184C473.134 124.877 472.099 125.224 470.841 125.224C469.582 125.224 468.547 124.877 467.737 124.184C466.926 123.491 466.521 122.557 466.521 121.384V113.8H469.081V121.16C469.081 122.205 469.667 122.728 470.841 122.728C472.014 122.728 472.601 122.205 472.601 121.16V113.8H475.161V121.384C475.161 122.557 474.755 123.491 473.945 124.184ZM481.615 116.776C482.468 116.776 483.178 117.069 483.743 117.656C484.319 118.243 484.607 119.053 484.607 120.088V125H482.207V120.44C482.207 119.971 482.074 119.613 481.807 119.368C481.551 119.112 481.22 118.984 480.815 118.984C480.356 118.984 479.994 119.123 479.727 119.4C479.46 119.677 479.327 120.088 479.327 120.632V125H476.927V117H479.327V117.752C479.807 117.101 480.57 116.776 481.615 116.776ZM488.463 115.88C488.186 116.157 487.85 116.296 487.455 116.296C487.06 116.296 486.719 116.157 486.431 115.88C486.154 115.592 486.015 115.251 486.015 114.856C486.015 114.461 486.154 114.125 486.431 113.848C486.719 113.56 487.06 113.416 487.455 113.416C487.85 113.416 488.186 113.56 488.463 113.848C488.751 114.125 488.895 114.461 488.895 114.856C488.895 115.251 488.751 115.592 488.463 115.88ZM486.255 125V117H488.655V125H486.255ZM496.219 113.8H498.619V125H496.219V124.248C495.654 124.899 494.859 125.224 493.835 125.224C492.779 125.224 491.878 124.819 491.131 124.008C490.385 123.187 490.011 122.184 490.011 121C490.011 119.816 490.385 118.819 491.131 118.008C491.878 117.187 492.779 116.776 493.835 116.776C494.859 116.776 495.654 117.101 496.219 117.752V113.8ZM492.939 122.424C493.291 122.776 493.75 122.952 494.315 122.952C494.881 122.952 495.339 122.776 495.691 122.424C496.043 122.072 496.219 121.597 496.219 121C496.219 120.403 496.043 119.928 495.691 119.576C495.339 119.224 494.881 119.048 494.315 119.048C493.75 119.048 493.291 119.224 492.939 119.576C492.587 119.928 492.411 120.403 492.411 121C492.411 121.597 492.587 122.072 492.939 122.424ZM507.228 124.008C506.407 124.819 505.404 125.224 504.22 125.224C503.036 125.224 502.033 124.819 501.212 124.008C500.391 123.187 499.98 122.184 499.98 121C499.98 119.816 500.391 118.819 501.212 118.008C502.033 117.187 503.036 116.776 504.22 116.776C505.404 116.776 506.407 117.187 507.228 118.008C508.049 118.819 508.46 119.816 508.46 121C508.46 122.184 508.049 123.187 507.228 124.008ZM502.908 122.36C503.26 122.712 503.697 122.888 504.22 122.888C504.743 122.888 505.18 122.712 505.532 122.36C505.884 122.008 506.06 121.555 506.06 121C506.06 120.445 505.884 119.992 505.532 119.64C505.18 119.288 504.743 119.112 504.22 119.112C503.697 119.112 503.26 119.288 502.908 119.64C502.556 119.992 502.38 120.445 502.38 121C502.38 121.555 502.556 122.008 502.908 122.36Z" fill="#3CC3DD"/>
<path d="M423.088 133.8H425.328V145H422.768V136.504L420.784 137.048L420.16 134.856L423.088 133.8ZM426.613 133.8H433.973V135.944L430.325 145H427.605L431.125 136.264H426.613V133.8ZM437.609 144.776C437.31 145.075 436.953 145.224 436.537 145.224C436.121 145.224 435.764 145.075 435.465 144.776C435.166 144.477 435.017 144.12 435.017 143.704C435.017 143.288 435.166 142.931 435.465 142.632C435.764 142.333 436.121 142.184 436.537 142.184C436.953 142.184 437.31 142.333 437.609 142.632C437.908 142.931 438.057 143.288 438.057 143.704C438.057 144.12 437.908 144.477 437.609 144.776ZM446.681 143.64C445.881 144.696 444.766 145.224 443.337 145.224C441.908 145.224 440.788 144.696 439.977 143.64C439.177 142.573 438.777 141.16 438.777 139.4C438.777 137.64 439.177 136.232 439.977 135.176C440.788 134.109 441.908 133.576 443.337 133.576C444.766 133.576 445.881 134.109 446.681 135.176C447.492 136.232 447.897 137.64 447.897 139.4C447.897 141.16 447.492 142.573 446.681 143.64ZM441.337 139.4C441.337 141.619 442.004 142.728 443.337 142.728C444.67 142.728 445.337 141.619 445.337 139.4C445.337 137.181 444.67 136.072 443.337 136.072C442.004 136.072 441.337 137.181 441.337 139.4ZM455.623 139.16C456.594 139.789 457.079 140.685 457.079 141.848C457.079 142.883 456.716 143.704 455.991 144.312C455.276 144.92 454.268 145.224 452.967 145.224C451.666 145.224 450.652 144.92 449.927 144.312C449.212 143.704 448.855 142.883 448.855 141.848C448.855 140.685 449.34 139.789 450.311 139.16C449.596 138.605 449.239 137.853 449.239 136.904C449.239 135.859 449.591 135.043 450.295 134.456C450.999 133.869 451.89 133.576 452.967 133.576C454.044 133.576 454.935 133.869 455.639 134.456C456.343 135.043 456.695 135.859 456.695 136.904C456.695 137.853 456.338 138.605 455.623 139.16ZM453.815 136.28C453.602 136.077 453.319 135.976 452.967 135.976C452.615 135.976 452.332 136.077 452.119 136.28C451.906 136.483 451.799 136.744 451.799 137.064C451.799 137.384 451.906 137.645 452.119 137.848C452.332 138.051 452.615 138.152 452.967 138.152C453.319 138.152 453.602 138.051 453.815 137.848C454.028 137.645 454.135 137.384 454.135 137.064C454.135 136.744 454.028 136.483 453.815 136.28ZM451.847 142.472C452.135 142.707 452.508 142.824 452.967 142.824C453.426 142.824 453.799 142.707 454.087 142.472C454.375 142.227 454.519 141.896 454.519 141.48C454.519 141.064 454.375 140.739 454.087 140.504C453.799 140.259 453.426 140.136 452.967 140.136C452.508 140.136 452.135 140.259 451.847 140.504C451.559 140.739 451.415 141.064 451.415 141.48C451.415 141.896 451.559 142.227 451.847 142.472ZM466.203 137.528C466.203 138.392 465.984 139.149 465.547 139.8L462.123 145H459.179L461.611 141.464C460.501 141.379 459.6 140.973 458.907 140.248C458.224 139.523 457.883 138.616 457.883 137.528C457.883 136.365 458.267 135.416 459.035 134.68C459.813 133.944 460.816 133.576 462.043 133.576C463.28 133.576 464.283 133.944 465.051 134.68C465.819 135.416 466.203 136.365 466.203 137.528ZM460.907 136.408C460.597 136.685 460.443 137.059 460.443 137.528C460.443 137.997 460.597 138.376 460.907 138.664C461.216 138.941 461.595 139.08 462.043 139.08C462.491 139.08 462.869 138.941 463.179 138.664C463.488 138.387 463.643 138.008 463.643 137.528C463.643 137.048 463.488 136.669 463.179 136.392C462.869 136.115 462.491 135.976 462.043 135.976C461.595 135.976 461.216 136.12 460.907 136.408Z" fill="#101010"/>
<path d="M443.586 99.8623H420.414C420.185 99.8623 420 99.677 420 99.4485V84.552C420 84.3235 420.185 84.1382 420.414 84.1382H443.586C443.815 84.1382 444 84.3235 444 84.552V99.4485C444 99.677 443.815 99.8623 443.586 99.8623Z" fill="#41479B"/>
<path d="M444 84.552C444 84.3235 443.815 84.1382 443.586 84.1382H441.735L434.069 89.1607V84.1382H429.931V89.1607L422.265 84.1382H420.414C420.185 84.1382 420 84.3235 420 84.552V85.6222L426.577 89.9313H420V94.0692H426.577L420 98.3783V99.4485C420 99.677 420.185 99.8623 420.414 99.8623H422.265L429.931 94.8398V99.8623H434.069V94.8398L441.735 99.8623H443.586C443.815 99.8623 444 99.677 444 99.4485V98.3783L437.423 94.0692H444V89.9313H437.423L444 85.6222V84.552Z" fill="#F5F5F5"/>
<path d="M444 90.7589H433.241V84.1382H430.759V90.7589H420V93.2416H430.759V99.8623H433.241V93.2416H444V90.7589Z" fill="#FF4B55"/>
<path d="M428.388 94.0693L420.012 99.5067C420.041 99.7065 420.206 99.8625 420.414 99.8625H420.984L429.908 94.0694H428.388V94.0693Z" fill="#FF4B55"/>
<path d="M436.237 94.0693H434.717L443.628 99.8539C443.836 99.8317 444 99.6622 444 99.4486V99.1084L436.237 94.0693Z" fill="#FF4B55"/>
<path d="M420 85.0085L427.583 89.931H429.103L420.241 84.1782C420.1 84.244 420 84.3853 420 84.5517V85.0085Z" fill="#FF4B55"/>
<path d="M435.588 89.9312L443.985 84.4808C443.95 84.2876 443.789 84.1382 443.586 84.1382H442.993L434.068 89.9312H435.588Z" fill="#FF4B55"/>
<path d="M296 99.8619H288.414C288.185 99.8619 288 99.6766 288 99.4481V84.5515C288 84.323 288.185 84.1377 288.414 84.1377H296V99.8619Z" fill="#41479B"/>
<path d="M304 84.1377H296V99.8619H304V84.1377Z" fill="#F5F5F5"/>
<path d="M311.586 99.8618H304V84.1377H311.586C311.815 84.1377 312 84.323 312 84.5515V99.4481C312 99.6766 311.815 99.8618 311.586 99.8618Z" fill="#FF4B55"/>
<path d="M171 89.3796H147V84.552C147 84.3235 147.185 84.1382 147.414 84.1382H170.586C170.815 84.1382 171 84.3235 171 84.552L171 89.3796Z" fill="#464655"/>
<path d="M170.586 99.862H147.414C147.185 99.862 147 99.6767 147 99.4482V94.6206H171V99.4482C171 99.6767 170.815 99.862 170.586 99.862Z" fill="#FFE15A"/>
<path d="M171 89.3794H147V94.6205H171V89.3794Z" fill="#FF4B55"/>
<path d="M157.08 126L156.52 124.24H152.36L151.8 126H149L152.808 114.8H156.072L159.88 126H157.08ZM153.128 121.84H155.752L154.44 117.728L153.128 121.84ZM160.755 126V114.32H163.155V126H160.755ZM167.055 122.96C167.333 123.707 167.973 124.08 168.975 124.08C169.626 124.08 170.138 123.877 170.511 123.472L172.431 124.576C171.642 125.675 170.479 126.224 168.943 126.224C167.599 126.224 166.522 125.824 165.711 125.024C164.911 124.224 164.511 123.216 164.511 122C164.511 120.795 164.906 119.792 165.695 118.992C166.495 118.181 167.519 117.776 168.767 117.776C169.93 117.776 170.895 118.181 171.663 118.992C172.442 119.792 172.831 120.795 172.831 122C172.831 122.341 172.799 122.661 172.735 122.96H167.055ZM167.007 121.168H170.447C170.213 120.325 169.647 119.904 168.751 119.904C167.823 119.904 167.242 120.325 167.007 121.168ZM183.153 117.776C184.07 117.776 184.806 118.08 185.361 118.688C185.915 119.285 186.193 120.085 186.193 121.088V126H183.793V121.296C183.793 120.891 183.691 120.571 183.489 120.336C183.297 120.101 183.014 119.984 182.641 119.984C182.246 119.984 181.937 120.117 181.713 120.384C181.499 120.651 181.392 121.019 181.392 121.488V126H178.993V121.296C178.993 120.891 178.891 120.571 178.689 120.336C178.497 120.101 178.214 119.984 177.841 119.984C177.446 119.984 177.137 120.117 176.913 120.384C176.699 120.651 176.593 121.019 176.593 121.488V126H174.193V118H176.593V118.736C177.03 118.096 177.745 117.776 178.737 117.776C179.665 117.776 180.363 118.128 180.833 118.832C181.323 118.128 182.097 117.776 183.153 117.776ZM193.641 118H196.041V126H193.641V125.248C193.076 125.899 192.281 126.224 191.257 126.224C190.201 126.224 189.3 125.819 188.553 125.008C187.806 124.187 187.433 123.184 187.433 122C187.433 120.816 187.806 119.819 188.553 119.008C189.3 118.187 190.201 117.776 191.257 117.776C192.281 117.776 193.076 118.101 193.641 118.752V118ZM190.361 123.424C190.713 123.776 191.172 123.952 191.737 123.952C192.302 123.952 192.761 123.776 193.113 123.424C193.465 123.072 193.641 122.597 193.641 122C193.641 121.403 193.465 120.928 193.113 120.576C192.761 120.224 192.302 120.048 191.737 120.048C191.172 120.048 190.713 120.224 190.361 120.576C190.009 120.928 189.833 121.403 189.833 122C189.833 122.597 190.009 123.072 190.361 123.424ZM202.49 117.776C203.343 117.776 204.053 118.069 204.618 118.656C205.194 119.243 205.482 120.053 205.482 121.088V126H203.082V121.44C203.082 120.971 202.949 120.613 202.682 120.368C202.426 120.112 202.095 119.984 201.69 119.984C201.231 119.984 200.869 120.123 200.602 120.4C200.335 120.677 200.202 121.088 200.202 121.632V126H197.802V118H200.202V118.752C200.682 118.101 201.445 117.776 202.49 117.776ZM209.338 116.88C209.061 117.157 208.725 117.296 208.33 117.296C207.935 117.296 207.594 117.157 207.306 116.88C207.029 116.592 206.89 116.251 206.89 115.856C206.89 115.461 207.029 115.125 207.306 114.848C207.594 114.56 207.935 114.416 208.33 114.416C208.725 114.416 209.061 114.56 209.338 114.848C209.626 115.125 209.77 115.461 209.77 115.856C209.77 116.251 209.626 116.592 209.338 116.88ZM207.13 126V118H209.53V126H207.13ZM217.094 118H219.494V126H217.094V125.248C216.529 125.899 215.734 126.224 214.71 126.224C213.654 126.224 212.753 125.819 212.006 125.008C211.26 124.187 210.886 123.184 210.886 122C210.886 120.816 211.26 119.819 212.006 119.008C212.753 118.187 213.654 117.776 214.71 117.776C215.734 117.776 216.529 118.101 217.094 118.752V118ZM213.814 123.424C214.166 123.776 214.625 123.952 215.19 123.952C215.756 123.952 216.214 123.776 216.566 123.424C216.918 123.072 217.094 122.597 217.094 122C217.094 121.403 216.918 120.928 216.566 120.576C216.214 120.224 215.756 120.048 215.19 120.048C214.625 120.048 214.166 120.224 213.814 120.576C213.462 120.928 213.286 121.403 213.286 122C213.286 122.597 213.462 123.072 213.814 123.424Z" fill="#3CC3DD"/>
<path d="M153.56 138.736C154.659 138.736 155.571 139.067 156.296 139.728C157.032 140.379 157.4 141.296 157.4 142.48C157.4 143.653 157.005 144.571 156.216 145.232C155.427 145.893 154.461 146.224 153.32 146.224C152.392 146.224 151.576 146.027 150.872 145.632C150.168 145.227 149.651 144.624 149.32 143.824L151.528 142.544C151.805 143.333 152.403 143.728 153.32 143.728C153.821 143.728 154.2 143.611 154.456 143.376C154.712 143.141 154.84 142.843 154.84 142.48C154.84 142.117 154.717 141.819 154.472 141.584C154.227 141.349 153.869 141.232 153.4 141.232H149.896L150.36 134.8H156.84V137.2H152.76L152.648 138.736H153.56ZM157.993 146V144.144L161.753 140.24C162.51 139.461 162.889 138.8 162.889 138.256C162.889 137.904 162.782 137.621 162.569 137.408C162.355 137.184 162.062 137.072 161.689 137.072C160.942 137.072 160.393 137.477 160.041 138.288L157.881 137.024C158.222 136.224 158.734 135.616 159.417 135.2C160.099 134.784 160.846 134.576 161.657 134.576C162.702 134.576 163.593 134.901 164.329 135.552C165.075 136.192 165.449 137.056 165.449 138.144C165.449 139.328 164.867 140.501 163.705 141.664L161.849 143.536H165.609V146H157.993ZM169.484 145.776C169.185 146.075 168.828 146.224 168.412 146.224C167.996 146.224 167.639 146.075 167.34 145.776C167.041 145.477 166.892 145.12 166.892 144.704C166.892 144.288 167.041 143.931 167.34 143.632C167.639 143.333 167.996 143.184 168.412 143.184C168.828 143.184 169.185 143.333 169.484 143.632C169.783 143.931 169.932 144.288 169.932 144.704C169.932 145.12 169.783 145.477 169.484 145.776ZM175.216 138.736C176.315 138.736 177.227 139.067 177.952 139.728C178.688 140.379 179.056 141.296 179.056 142.48C179.056 143.653 178.662 144.571 177.872 145.232C177.083 145.893 176.118 146.224 174.976 146.224C174.048 146.224 173.232 146.027 172.528 145.632C171.824 145.227 171.307 144.624 170.976 143.824L173.184 142.544C173.462 143.333 174.059 143.728 174.976 143.728C175.478 143.728 175.856 143.611 176.112 143.376C176.368 143.141 176.496 142.843 176.496 142.48C176.496 142.117 176.374 141.819 176.128 141.584C175.883 141.349 175.526 141.232 175.056 141.232H171.552L172.016 134.8H178.496V137.2H174.416L174.304 138.736H175.216ZM188.573 141.84V144.208H187.453V146H184.861V144.208H179.773V141.84L183.341 134.8H186.093L182.525 141.84H184.861V139.44H187.453V141.84H188.573ZM188.582 134.8H195.942V136.944L192.294 146H189.574L193.094 137.264H188.582V134.8Z" fill="#101010"/>
<path d="M171.586 180.862H148.414C148.185 180.862 148 180.677 148 180.449V165.552C148 165.323 148.185 165.138 148.414 165.138H171.586C171.815 165.138 172 165.323 172 165.552V180.449C172 180.677 171.815 180.862 171.586 180.862Z" fill="#FF4B55"/>
<path d="M164.552 171.345H161.656V168.448C161.656 168.22 161.471 168.035 161.242 168.035H158.759C158.531 168.035 158.346 168.22 158.346 168.448V171.345H155.449C155.22 171.345 155.035 171.53 155.035 171.759V174.242C155.035 174.47 155.22 174.655 155.449 174.655H158.346V177.552C158.346 177.78 158.531 177.966 158.759 177.966H161.242C161.471 177.966 161.656 177.78 161.656 177.552V174.655H164.552C164.781 174.655 164.966 174.47 164.966 174.242V171.759C164.966 171.53 164.781 171.345 164.552 171.345Z" fill="#F5F5F5"/>
<path d="M8.00002 99.8619H0.413813C0.185297 99.8619 0 99.6766 0 99.4481V84.5515C0 84.323 0.185297 84.1377 0.413813 84.1377H8.00002V99.8619Z" fill="#73AF00"/>
<path d="M16.0002 84.1377H8V99.8619H16.0002V84.1377Z" fill="#F5F5F5"/>
<path d="M23.5862 99.8618H16V84.1377H23.5862C23.8147 84.1377 24 84.323 24 84.5515V99.4481C24 99.6766 23.8147 99.8618 23.5862 99.8618Z" fill="#FF4B55"/>
<defs>
<clipPath id="clip0">
<path d="M1 0H63V62H1V0Z" fill="white"/>
</clipPath>
</defs>
</svg>
