<svg width="536" height="88" viewBox="0 0 536 88" fill="none" xmlns="http://www.w3.org/2000/svg">
<path d="M272.45 65H295.298V57.608H284.018L289.586 51.992C292.658 48.92 294.818 45.464 294.818 41.432C294.818 34.664 289.442 30.728 283.442 30.728C278.786 30.728 274.274 33.08 272.114 38.072L278.594 41.864C279.506 39.752 281.186 38.216 283.538 38.216C285.794 38.216 287.138 39.656 287.138 41.768C287.138 43.736 285.698 45.704 283.73 47.72L272.45 59.432V65ZM321.479 42.584C321.479 35.624 316.439 30.728 308.999 30.728C301.607 30.728 296.519 35.624 296.519 42.584C296.519 49.112 301.031 53.864 307.703 54.392L300.407 65H309.239L319.511 49.4C320.759 47.528 321.479 45.176 321.479 42.584ZM304.199 42.584C304.199 39.656 306.455 37.928 308.999 37.928C311.591 37.928 313.799 39.608 313.799 42.584C313.799 45.56 311.591 47.24 308.999 47.24C306.455 47.24 304.199 45.512 304.199 42.584ZM321.475 65.672C323.971 65.672 326.035 63.608 326.035 61.112C326.035 58.616 323.971 56.552 321.475 56.552C318.979 56.552 316.915 58.616 316.915 61.112C316.915 63.608 318.979 65.672 321.475 65.672ZM340.915 65.672C349.603 65.672 354.595 58.568 354.595 48.2C354.595 37.832 349.603 30.728 340.915 30.728C332.227 30.728 327.235 37.832 327.235 48.2C327.235 58.568 332.227 65.672 340.915 65.672ZM340.915 58.184C336.883 58.184 334.915 54.68 334.915 48.2C334.915 41.72 336.883 38.216 340.915 38.216C344.947 38.216 346.915 41.72 346.915 48.2C346.915 54.68 344.947 58.184 340.915 58.184ZM370.189 65.672C378.877 65.672 383.869 58.568 383.869 48.2C383.869 37.832 378.877 30.728 370.189 30.728C361.501 30.728 356.509 37.832 356.509 48.2C356.509 58.568 361.501 65.672 370.189 65.672ZM370.189 58.184C366.157 58.184 364.189 54.68 364.189 48.2C364.189 41.72 366.157 38.216 370.189 38.216C374.221 38.216 376.189 41.72 376.189 48.2C376.189 54.68 374.221 58.184 370.189 58.184ZM384.462 65H407.31V57.608H396.03L401.598 51.992C404.67 48.92 406.83 45.464 406.83 41.432C406.83 34.664 401.454 30.728 395.454 30.728C390.798 30.728 386.286 33.08 384.126 38.072L390.606 41.864C391.518 39.752 393.198 38.216 395.55 38.216C397.806 38.216 399.15 39.656 399.15 41.768C399.15 43.736 397.71 45.704 395.742 47.72L384.462 59.432V65Z" fill="#101010"/>
<path d="M100.96 62.228V59.996H105.46V57.26H100.96V55.172H105.91V52.4H98.08V65H106V62.228H100.96ZM110.505 62.228V59.996H115.005V57.26H110.505V55.172H115.455V52.4H107.625V65H115.545V62.228H110.505ZM118.61 65.252C119.546 65.252 120.32 64.478 120.32 63.542C120.32 62.606 119.546 61.832 118.61 61.832C117.674 61.832 116.9 62.606 116.9 63.542C116.9 64.478 117.674 65.252 118.61 65.252ZM126.985 65.252C129.757 65.252 131.845 63.632 131.845 60.932V52.4H128.965V60.68C128.965 61.634 128.515 62.444 126.985 62.444C125.455 62.444 125.005 61.634 125.005 60.68V52.4H122.125V60.932C122.125 63.632 124.213 65.252 126.985 65.252ZM138.692 65.252C141.464 65.252 143.552 63.632 143.552 60.932V52.4H140.672V60.68C140.672 61.634 140.222 62.444 138.692 62.444C137.162 62.444 136.712 61.634 136.712 60.68V52.4H133.832V60.932C133.832 63.632 135.92 65.252 138.692 65.252ZM146.524 65.252C147.46 65.252 148.234 64.478 148.234 63.542C148.234 62.606 147.46 61.832 146.524 61.832C145.588 61.832 144.814 62.606 144.814 63.542C144.814 64.478 145.588 65.252 146.524 65.252Z" fill="#101010"/>
<path d="M426.092 42.252C428.396 42.252 430.412 41.118 431.492 39.336L429.008 37.896C428.468 38.868 427.37 39.444 426.092 39.444C423.86 39.444 422.42 37.95 422.42 35.7C422.42 33.45 423.86 31.956 426.092 31.956C427.37 31.956 428.45 32.532 429.008 33.504L431.492 32.064C430.394 30.282 428.378 29.148 426.092 29.148C422.294 29.148 419.54 31.992 419.54 35.7C419.54 39.408 422.294 42.252 426.092 42.252ZM439.374 33V33.846C438.78 33.162 437.898 32.748 436.692 32.748C434.334 32.748 432.39 34.818 432.39 37.5C432.39 40.182 434.334 42.252 436.692 42.252C437.898 42.252 438.78 41.838 439.374 41.154V42H442.074V33H439.374ZM437.232 39.696C435.99 39.696 435.09 38.85 435.09 37.5C435.09 36.15 435.99 35.304 437.232 35.304C438.474 35.304 439.374 36.15 439.374 37.5C439.374 38.85 438.474 39.696 437.232 39.696ZM446.523 35.628C446.523 35.304 446.811 35.124 447.279 35.124C447.873 35.124 448.233 35.448 448.485 35.916L450.789 34.674C450.033 33.396 448.737 32.748 447.279 32.748C445.407 32.748 443.751 33.738 443.751 35.7C443.751 38.814 448.179 38.292 448.179 39.282C448.179 39.642 447.855 39.84 447.207 39.84C446.415 39.84 445.911 39.462 445.677 38.778L443.337 40.11C444.039 41.568 445.407 42.252 447.207 42.252C449.151 42.252 450.951 41.37 450.951 39.3C450.951 35.97 446.523 36.654 446.523 35.628ZM456.531 42.252C459.177 42.252 461.301 40.182 461.301 37.5C461.301 34.818 459.177 32.748 456.531 32.748C453.885 32.748 451.761 34.818 451.761 37.5C451.761 40.182 453.885 42.252 456.531 42.252ZM456.531 39.624C455.361 39.624 454.461 38.778 454.461 37.5C454.461 36.222 455.361 35.376 456.531 35.376C457.701 35.376 458.601 36.222 458.601 37.5C458.601 38.778 457.701 39.624 456.531 39.624ZM465.208 35.628C465.208 35.304 465.496 35.124 465.964 35.124C466.558 35.124 466.918 35.448 467.17 35.916L469.474 34.674C468.718 33.396 467.422 32.748 465.964 32.748C464.092 32.748 462.436 33.738 462.436 35.7C462.436 38.814 466.864 38.292 466.864 39.282C466.864 39.642 466.54 39.84 465.892 39.84C465.1 39.84 464.596 39.462 464.362 38.778L462.022 40.11C462.724 41.568 464.092 42.252 465.892 42.252C467.836 42.252 469.636 41.37 469.636 39.3C469.636 35.97 465.208 36.654 465.208 35.628ZM426.092 62.252C428.396 62.252 430.412 61.118 431.492 59.336L429.008 57.896C428.468 58.868 427.37 59.444 426.092 59.444C423.86 59.444 422.42 57.95 422.42 55.7C422.42 53.45 423.86 51.956 426.092 51.956C427.37 51.956 428.45 52.532 429.008 53.504L431.492 52.064C430.394 50.282 428.378 49.148 426.092 49.148C422.294 49.148 419.54 51.992 419.54 55.7C419.54 59.408 422.294 62.252 426.092 62.252ZM437.16 62.252C439.806 62.252 441.93 60.182 441.93 57.5C441.93 54.818 439.806 52.748 437.16 52.748C434.514 52.748 432.39 54.818 432.39 57.5C432.39 60.182 434.514 62.252 437.16 62.252ZM437.16 59.624C435.99 59.624 435.09 58.778 435.09 57.5C435.09 56.222 435.99 55.376 437.16 55.376C438.33 55.376 439.23 56.222 439.23 57.5C439.23 58.778 438.33 59.624 437.16 59.624ZM448.731 52.748C447.543 52.748 446.643 53.18 446.157 53.846V53H443.457V62H446.157V57.086C446.157 55.808 446.841 55.232 447.831 55.232C448.695 55.232 449.397 55.754 449.397 56.87V62H452.097V56.474C452.097 54.044 450.549 52.748 448.731 52.748ZM462.231 53H457.227C457.227 51.956 457.893 51.74 458.901 51.74C459.585 51.74 460.341 51.794 461.151 51.884V49.4C460.377 49.238 459.639 49.148 458.901 49.148C455.913 49.148 454.527 50.48 454.527 53H453.321V55.592H454.527V62H457.227V55.592H459.531V62H462.231V53ZM466.917 54.602V53H464.217V62H466.917V57.932C466.917 56.15 468.501 55.7 469.617 55.88V52.82C468.483 52.82 467.277 53.396 466.917 54.602ZM480.959 52.748C479.681 52.748 478.853 53.216 478.349 53.936C477.845 53.18 477.053 52.748 475.991 52.748C474.785 52.748 473.993 53.216 473.579 53.828V53H470.879V62H473.579V56.924C473.579 55.862 474.083 55.232 474.983 55.232C475.847 55.232 476.279 55.808 476.279 56.708V62H478.979V56.924C478.979 55.862 479.483 55.232 480.383 55.232C481.247 55.232 481.679 55.808 481.679 56.708V62H484.379V56.474C484.379 54.224 483.029 52.748 480.959 52.748ZM492.758 53V53.846C492.164 53.162 491.282 52.748 490.076 52.748C487.718 52.748 485.774 54.818 485.774 57.5C485.774 60.182 487.718 62.252 490.076 62.252C491.282 62.252 492.164 61.838 492.758 61.154V62H495.458V53H492.758ZM490.616 59.696C489.374 59.696 488.474 58.85 488.474 57.5C488.474 56.15 489.374 55.304 490.616 55.304C491.858 55.304 492.758 56.15 492.758 57.5C492.758 58.85 491.858 59.696 490.616 59.696ZM503.973 49.4V53.846C503.379 53.162 502.497 52.748 501.291 52.748C498.933 52.748 496.989 54.818 496.989 57.5C496.989 60.182 498.933 62.252 501.291 62.252C502.497 62.252 503.379 61.838 503.973 61.154V62H506.673V49.4H503.973ZM501.831 59.696C500.589 59.696 499.689 58.85 499.689 57.5C499.689 56.15 500.589 55.304 501.831 55.304C503.073 55.304 503.973 56.15 503.973 57.5C503.973 58.85 503.073 59.696 501.831 59.696ZM512.974 62.252C515.62 62.252 517.744 60.182 517.744 57.5C517.744 54.818 515.62 52.748 512.974 52.748C510.328 52.748 508.204 54.818 508.204 57.5C508.204 60.182 510.328 62.252 512.974 62.252ZM512.974 59.624C511.804 59.624 510.904 58.778 510.904 57.5C510.904 56.222 511.804 55.376 512.974 55.376C514.144 55.376 515.044 56.222 515.044 57.5C515.044 58.778 514.144 59.624 512.974 59.624ZM521.651 55.628C521.651 55.304 521.939 55.124 522.407 55.124C523.001 55.124 523.361 55.448 523.613 55.916L525.917 54.674C525.161 53.396 523.865 52.748 522.407 52.748C520.535 52.748 518.879 53.738 518.879 55.7C518.879 58.814 523.307 58.292 523.307 59.282C523.307 59.642 522.983 59.84 522.335 59.84C521.543 59.84 521.039 59.462 520.805 58.778L518.465 60.11C519.167 61.568 520.535 62.252 522.335 62.252C524.279 62.252 526.079 61.37 526.079 59.3C526.079 55.97 521.651 56.654 521.651 55.628Z" fill="#3CC3DD"/>
<path d="M76.8839 24.1213C75.7123 22.9497 73.8128 22.9497 72.6413 24.1213L63.2397 33.5229C63.0521 33.7104 62.7978 33.8158 62.5326 33.8158H58.7776C58.51 33.8158 58.2536 33.7085 58.0657 33.518L49.3693 24.7006C48.8055 24.129 48.0362 23.8073 47.2334 23.8073H39.9929C39.4406 23.8073 38.9929 24.255 38.9929 24.8073V25.151C38.9929 25.7033 39.4406 26.151 39.9929 26.151H47.0897C47.3573 26.151 47.6137 26.2583 47.8016 26.4488L56.498 35.2662C57.0618 35.8378 57.8311 36.1595 58.6339 36.1595H62.6752C63.4709 36.1595 64.2339 35.8435 64.7965 35.2809L74.0555 26.0219C74.446 25.6314 75.0791 25.6313 75.4697 26.0218L77.3633 27.915C77.5509 28.1025 77.6562 28.3569 77.6562 28.6222V31.2953C77.6562 31.5605 77.5509 31.8148 77.3634 32.0024L75.742 33.6238C75.1794 34.1864 74.8633 34.9494 74.8633 35.7451V53.0079C74.8633 53.2731 74.7579 53.5275 74.5704 53.715L72.0795 56.2059C71.5167 56.7687 71.2007 57.532 71.2008 58.3279L71.2015 61.1655C71.2017 61.9609 71.5177 62.7237 72.0802 63.2861L73.6073 64.8132C73.7948 65.0007 73.9001 65.2551 73.9001 65.5203V66.8751C73.9001 67.1403 73.7948 67.3947 73.6073 67.5822L72.9117 68.2777C72.5212 68.6683 71.888 68.6682 71.4975 68.2777L67.1171 63.8969C66.5545 63.3342 65.7914 63.0181 64.9957 63.0181H49.5144C48.301 63.0181 47.207 63.7491 46.7427 64.8701L45.8733 66.9692C45.7186 67.3429 45.8041 67.773 46.0901 68.059L46.8619 68.8307C47.2524 69.2213 47.2524 69.8544 46.8619 70.2449L45.6377 71.4691C45.4502 71.6566 45.1959 71.762 44.9306 71.762H42.9942C42.729 71.762 42.4746 71.6566 42.2871 71.4691L34.7147 63.8967C34.1521 63.3341 33.3891 63.0181 32.5934 63.0181H19.2466C18.9814 63.0181 18.727 62.9127 18.5395 62.7252L2.63664 46.8223C2.44911 46.6348 2.34375 46.3804 2.34375 46.1152V27.151C2.34375 26.5987 2.79147 26.151 3.34375 26.151H38.4189C38.9712 26.151 39.4189 25.7033 39.4189 25.151V24.8073C39.4189 24.255 38.9712 23.8073 38.4189 23.8073H3C1.34315 23.8073 0 25.1504 0 26.8073V46.2578C0 47.0535 0.316071 47.8166 0.87868 48.3792L16.9826 64.4831C17.5453 65.0457 18.3083 65.3618 19.104 65.3618H32.4514C32.7166 65.3618 32.971 65.4672 33.1585 65.6547L40.7302 73.227C41.2928 73.7896 42.0559 74.1057 42.8516 74.1057H45.0727C45.8683 74.1057 46.6314 73.7896 47.194 73.227L48.8374 71.5836C49.9673 70.4537 49.9674 68.6219 48.8377 67.4918V67.4918C48.5618 67.2159 48.4794 66.801 48.6288 66.4406L48.8201 65.9789C48.975 65.6053 49.3396 65.3618 49.7439 65.3618H64.8531C65.1183 65.3618 65.3727 65.4672 65.5602 65.6547L70.0834 70.1779C71.2549 71.3494 73.1543 71.3495 74.3259 70.1781L75.3651 69.1391C75.9278 68.5765 76.2439 67.8133 76.2439 67.0176V65.3783C76.2439 64.5826 75.9278 63.8195 75.3652 63.2569L73.8378 61.7295C73.6503 61.542 73.5449 61.2876 73.5449 61.0224V58.4695C73.5449 58.2043 73.6503 57.9499 73.8378 57.7624L76.3284 55.2719C76.891 54.7093 77.207 53.9462 77.207 53.1505V35.4729L79.1211 33.5593C79.6838 32.9966 80 32.2335 80 31.4377V28.4801C80 27.6844 79.6839 26.9214 79.1213 26.3587L76.8839 24.1213Z" fill="black"/>
<path d="M120.586 41.8622H97.4138C97.1853 41.8622 97 41.6769 97 41.4484V26.5519C97 26.3233 97.1853 26.138 97.4138 26.138H120.586C120.815 26.138 121 26.3233 121 26.5519V41.4484C121 41.6769 120.815 41.8622 120.586 41.8622Z" fill="#F5F5F5"/>
<path d="M121 27.3477H97V26.5519C97 26.3233 97.1853 26.138 97.4138 26.138H120.586C120.815 26.138 121 26.3233 121 26.5519L121 27.3477Z" fill="#FF4B55"/>
<path d="M121 30.9762H97V32.1857H121V30.9762Z" fill="#FF4B55"/>
<path d="M121 28.557H97V29.7666H121V28.557Z" fill="#FF4B55"/>
<path d="M121 34.6049H97.4138C97.1853 34.6049 97 34.4196 97 34.1911V33.3953H121V34.6049Z" fill="#FF4B55"/>
<path d="M121 38.234H97V39.4435H121V38.234Z" fill="#FF4B55"/>
<path d="M120.586 41.8622H97.4138C97.1853 41.8622 97 41.6769 97 41.4484V40.6526H121V41.4484C121 41.6769 120.815 41.8622 120.586 41.8622Z" fill="#FF4B55"/>
<path d="M121 35.8146H97V37.0242H121V35.8146Z" fill="#FF4B55"/>
<path d="M107.759 26.1379H97.4138C97.1853 26.1379 97 26.3231 97 26.5516V34.1908C97 34.4194 97.1853 34.6047 97.4138 34.6047H107.759C107.987 34.6047 108.172 34.4194 108.172 34.1908V26.5516C108.172 26.3231 107.987 26.1379 107.759 26.1379Z" fill="#41479B"/>
<path d="M98.1619 27.0876L98.2535 27.3623L98.543 27.3645C98.5805 27.3648 98.596 27.4126 98.5659 27.4349L98.333 27.6069L98.4203 27.883C98.4317 27.9187 98.3909 27.9483 98.3604 27.9265L98.1249 27.7581L97.8893 27.9265C97.8588 27.9483 97.8182 27.9187 97.8294 27.883L97.9168 27.607L97.6839 27.4349C97.6537 27.4126 97.6693 27.3649 97.7068 27.3645L97.9963 27.3623L98.0879 27.0877C98.0997 27.052 98.15 27.052 98.1619 27.0876Z" fill="#F5F5F5"/>
<path d="M98.1619 28.5247L98.2535 28.7994L98.543 28.8016C98.5805 28.8019 98.596 28.8497 98.5659 28.872L98.333 29.044L98.4203 29.3201C98.4317 29.3558 98.3909 29.3854 98.3604 29.3636L98.1249 29.1952L97.8893 29.3636C97.8588 29.3854 97.8182 29.3558 97.8294 29.3201L97.9168 29.0441L97.6839 28.872C97.6537 28.8497 97.6693 28.802 97.7068 28.8016L97.9963 28.7994L98.0879 28.5248C98.0997 28.4892 98.15 28.4892 98.1619 28.5247Z" fill="#F5F5F5"/>
<path d="M98.1619 29.9615L98.2535 30.2362L98.543 30.2384C98.5805 30.2388 98.596 30.2866 98.5659 30.3088L98.333 30.4809L98.4203 30.7569C98.4317 30.7926 98.3909 30.8223 98.3604 30.8004L98.1249 30.6321L97.8893 30.8005C97.8588 30.8223 97.8182 30.7927 97.8294 30.757L97.9168 30.4809L97.6839 30.3089C97.6537 30.2866 97.6693 30.2388 97.7068 30.2385L97.9963 30.2363L98.0879 29.9616C98.0997 29.926 98.15 29.926 98.1619 29.9615Z" fill="#F5F5F5"/>
<path d="M98.1619 31.3985L98.2535 31.6732L98.543 31.6754C98.5805 31.6757 98.596 31.7235 98.5659 31.7458L98.333 31.9178L98.4203 32.1938C98.4317 32.2296 98.3909 32.2592 98.3604 32.2373L98.1249 32.069L97.8893 32.2374C97.8588 32.2592 97.8182 32.2296 97.8294 32.1939L97.9168 31.9178L97.6839 31.7458C97.6537 31.7235 97.6693 31.6757 97.7068 31.6754L97.9963 31.6732L98.0879 31.3985C98.0997 31.3629 98.15 31.3629 98.1619 31.3985Z" fill="#F5F5F5"/>
<path d="M98.1619 32.8353L98.2535 33.11L98.543 33.1122C98.5805 33.1125 98.596 33.1603 98.5659 33.1826L98.333 33.3546L98.4203 33.6307C98.4317 33.6664 98.3909 33.696 98.3604 33.6742L98.1249 33.5059L97.8893 33.6742C97.8588 33.696 97.8182 33.6665 97.8294 33.6307L97.9168 33.3547L97.6839 33.1827C97.6537 33.1603 97.6693 33.1126 97.7068 33.1122L97.9963 33.11L98.0879 32.8354C98.0997 32.7997 98.15 32.7997 98.1619 32.8353Z" fill="#F5F5F5"/>
<path d="M99.279 27.7922L99.3706 28.0669L99.6602 28.0691C99.6977 28.0694 99.7132 28.1172 99.6831 28.1395L99.4501 28.3115L99.5375 28.5875C99.5489 28.6233 99.5081 28.6529 99.4776 28.631L99.2421 28.4627L99.0065 28.631C98.976 28.6528 98.9354 28.6233 98.9466 28.5875L99.034 28.3115L98.8011 28.1395C98.7709 28.1172 98.7864 28.0694 98.8239 28.0691L99.1135 28.0669L99.2051 27.7922C99.2168 27.7566 99.2672 27.7566 99.279 27.7922Z" fill="#F5F5F5"/>
<path d="M99.279 29.2291L99.3706 29.5038L99.6602 29.506C99.6977 29.5063 99.7132 29.5541 99.6831 29.5764L99.4501 29.7484L99.5375 30.0244C99.5489 30.0602 99.5081 30.0898 99.4776 30.0679L99.2421 29.8996L99.0065 30.0679C98.976 30.0897 98.9354 30.0602 98.9466 30.0244L99.034 29.7484L98.8011 29.5764C98.7709 29.5541 98.7864 29.5063 98.8239 29.506L99.1135 29.5038L99.2051 29.2291C99.2168 29.1935 99.2672 29.1935 99.279 29.2291Z" fill="#F5F5F5"/>
<path d="M99.279 30.6662L99.3706 30.9409L99.6602 30.9431C99.6977 30.9434 99.7132 30.9912 99.6831 31.0135L99.4501 31.1855L99.5375 31.4615C99.5489 31.4973 99.5081 31.5269 99.4776 31.505L99.2421 31.3367L99.0065 31.505C98.976 31.5268 98.9354 31.4973 98.9466 31.4615L99.034 31.1855L98.8011 31.0135C98.7709 30.9911 98.7864 30.9434 98.8239 30.9431L99.1135 30.9409L99.2051 30.6662C99.2168 30.6306 99.2672 30.6306 99.279 30.6662Z" fill="#F5F5F5"/>
<path d="M99.279 32.103L99.3706 32.3777L99.6602 32.3799C99.6977 32.3803 99.7132 32.4281 99.6831 32.4503L99.4501 32.6224L99.5375 32.8984C99.5489 32.9341 99.5081 32.9638 99.4776 32.9419L99.2421 32.7735L99.0065 32.9419C98.976 32.9637 98.9354 32.9341 98.9466 32.8984L99.034 32.6224L98.8011 32.4503C98.7709 32.428 98.7864 32.3803 98.8239 32.3799L99.1135 32.3777L99.2051 32.103C99.2168 32.0675 99.2672 32.0675 99.279 32.103Z" fill="#F5F5F5"/>
<path d="M100.392 27.0877L100.484 27.3624L100.773 27.3646C100.811 27.3649 100.826 27.4127 100.796 27.435L100.563 27.607L100.651 27.8831C100.662 27.9188 100.621 27.9484 100.591 27.9266L100.355 27.7582L100.12 27.9266C100.089 27.9484 100.049 27.9188 100.06 27.8831L100.147 27.607L99.9143 27.435C99.8842 27.4127 99.8997 27.3649 99.9372 27.3646L100.227 27.3624L100.318 27.0877C100.33 27.0521 100.38 27.0521 100.392 27.0877Z" fill="#F5F5F5"/>
<path d="M100.392 28.5246L100.484 28.7993L100.773 28.8015C100.811 28.8018 100.826 28.8496 100.796 28.8719L100.563 29.0439L100.651 29.32C100.662 29.3557 100.621 29.3853 100.591 29.3635L100.355 29.1951L100.12 29.3635C100.089 29.3853 100.049 29.3557 100.06 29.32L100.147 29.0439L99.9143 28.8719C99.8842 28.8496 99.8997 28.8018 99.9372 28.8015L100.227 28.7993L100.318 28.5246C100.33 28.4891 100.38 28.4891 100.392 28.5246Z" fill="#F5F5F5"/>
<path d="M100.392 29.9614L100.484 30.2361L100.773 30.2383C100.811 30.2387 100.826 30.2865 100.796 30.3087L100.563 30.4808L100.651 30.7568C100.662 30.7925 100.621 30.8222 100.591 30.8003L100.355 30.6319L100.12 30.8003C100.089 30.8221 100.049 30.7925 100.06 30.7568L100.147 30.4808L99.9143 30.3087C99.8842 30.2864 99.8997 30.2387 99.9372 30.2383L100.227 30.2361L100.318 29.9614C100.33 29.9259 100.38 29.9259 100.392 29.9614Z" fill="#F5F5F5"/>
<path d="M100.392 31.3986L100.484 31.6733L100.773 31.6755C100.811 31.6758 100.826 31.7236 100.796 31.7459L100.563 31.9179L100.651 32.194C100.662 32.2297 100.621 32.2593 100.591 32.2375L100.355 32.0691L100.12 32.2375C100.089 32.2593 100.049 32.2297 100.06 32.194L100.147 31.9179L99.9143 31.7459C99.8842 31.7236 99.8997 31.6758 99.9372 31.6755L100.227 31.6733L100.318 31.3986C100.33 31.363 100.38 31.363 100.392 31.3986Z" fill="#F5F5F5"/>
<path d="M100.392 32.8354L100.484 33.1101L100.773 33.1123C100.811 33.1126 100.826 33.1604 100.796 33.1827L100.563 33.3547L100.651 33.6308C100.662 33.6665 100.621 33.6961 100.591 33.6743L100.355 33.5059L100.12 33.6743C100.089 33.6961 100.049 33.6665 100.06 33.6308L100.147 33.3547L99.9143 33.1827C99.8842 33.1604 99.8997 33.1126 99.9372 33.1123L100.227 33.1101L100.318 32.8354C100.33 32.7998 100.38 32.7998 100.392 32.8354Z" fill="#F5F5F5"/>
<path d="M101.506 27.7922L101.597 28.0669L101.887 28.0691C101.924 28.0694 101.94 28.1172 101.91 28.1395L101.677 28.3115L101.764 28.5875C101.775 28.6233 101.735 28.6529 101.704 28.631L101.469 28.4627L101.233 28.631C101.203 28.6528 101.162 28.6233 101.173 28.5875L101.261 28.3115L101.028 28.1395C100.997 28.1172 101.013 28.0694 101.051 28.0691L101.34 28.0669L101.432 27.7922C101.443 27.7566 101.494 27.7566 101.506 27.7922Z" fill="#F5F5F5"/>
<path d="M101.506 29.2291L101.597 29.5038L101.887 29.506C101.924 29.5063 101.94 29.5541 101.91 29.5764L101.677 29.7484L101.764 30.0244C101.775 30.0602 101.735 30.0898 101.704 30.0679L101.469 29.8996L101.233 30.0679C101.203 30.0897 101.162 30.0602 101.173 30.0244L101.261 29.7484L101.028 29.5764C100.997 29.5541 101.013 29.5063 101.051 29.506L101.34 29.5038L101.432 29.2291C101.443 29.1935 101.494 29.1935 101.506 29.2291Z" fill="#F5F5F5"/>
<path d="M101.506 30.6662L101.597 30.9409L101.887 30.9431C101.924 30.9434 101.94 30.9912 101.91 31.0135L101.677 31.1855L101.764 31.4615C101.775 31.4973 101.735 31.5269 101.704 31.505L101.469 31.3367L101.233 31.505C101.203 31.5268 101.162 31.4973 101.173 31.4615L101.261 31.1855L101.028 31.0135C100.997 30.9911 101.013 30.9434 101.051 30.9431L101.34 30.9409L101.432 30.6662C101.443 30.6306 101.494 30.6306 101.506 30.6662Z" fill="#F5F5F5"/>
<path d="M101.506 32.103L101.597 32.3777L101.887 32.3799C101.924 32.3803 101.94 32.4281 101.91 32.4503L101.677 32.6224L101.764 32.8984C101.775 32.9341 101.735 32.9638 101.704 32.9419L101.469 32.7735L101.233 32.9419C101.203 32.9637 101.162 32.9341 101.173 32.8984L101.261 32.6224L101.028 32.4503C100.997 32.428 101.013 32.3803 101.051 32.3799L101.34 32.3777L101.432 32.103C101.443 32.0675 101.494 32.0675 101.506 32.103Z" fill="#F5F5F5"/>
<path d="M102.623 27.0877L102.714 27.3624L103.004 27.3646C103.041 27.3649 103.057 27.4127 103.027 27.435L102.794 27.607L102.881 27.8831C102.893 27.9188 102.852 27.9484 102.821 27.9266L102.586 27.7582L102.35 27.9266C102.32 27.9484 102.279 27.9188 102.29 27.8831L102.378 27.607L102.145 27.435C102.115 27.4127 102.13 27.3649 102.168 27.3646L102.457 27.3624L102.549 27.0877C102.561 27.0521 102.611 27.0521 102.623 27.0877Z" fill="#F5F5F5"/>
<path d="M102.623 28.5246L102.714 28.7993L103.004 28.8015C103.041 28.8018 103.057 28.8496 103.027 28.8719L102.794 29.0439L102.881 29.32C102.893 29.3557 102.852 29.3853 102.821 29.3635L102.586 29.1951L102.35 29.3635C102.32 29.3853 102.279 29.3557 102.29 29.32L102.378 29.0439L102.145 28.8719C102.115 28.8496 102.13 28.8018 102.168 28.8015L102.457 28.7993L102.549 28.5246C102.561 28.4891 102.611 28.4891 102.623 28.5246Z" fill="#F5F5F5"/>
<path d="M102.623 29.9614L102.714 30.2361L103.004 30.2383C103.041 30.2387 103.057 30.2865 103.027 30.3087L102.794 30.4808L102.881 30.7568C102.893 30.7925 102.852 30.8222 102.821 30.8003L102.586 30.6319L102.35 30.8003C102.32 30.8221 102.279 30.7925 102.29 30.7568L102.378 30.4808L102.145 30.3087C102.115 30.2864 102.13 30.2387 102.168 30.2383L102.457 30.2361L102.549 29.9614C102.561 29.9259 102.611 29.9259 102.623 29.9614Z" fill="#F5F5F5"/>
<path d="M102.623 31.3986L102.714 31.6733L103.004 31.6755C103.041 31.6758 103.057 31.7236 103.027 31.7459L102.794 31.9179L102.881 32.194C102.893 32.2297 102.852 32.2593 102.821 32.2375L102.586 32.0691L102.35 32.2375C102.32 32.2593 102.279 32.2297 102.29 32.194L102.378 31.9179L102.145 31.7459C102.115 31.7236 102.13 31.6758 102.168 31.6755L102.457 31.6733L102.549 31.3986C102.561 31.363 102.611 31.363 102.623 31.3986Z" fill="#F5F5F5"/>
<path d="M102.623 32.8354L102.714 33.1101L103.004 33.1123C103.041 33.1126 103.057 33.1604 103.027 33.1827L102.794 33.3547L102.881 33.6308C102.893 33.6665 102.852 33.6961 102.821 33.6743L102.586 33.5059L102.35 33.6743C102.32 33.6961 102.279 33.6665 102.29 33.6308L102.378 33.3547L102.145 33.1827C102.115 33.1604 102.13 33.1126 102.168 33.1123L102.457 33.1101L102.549 32.8354C102.561 32.7998 102.611 32.7998 102.623 32.8354Z" fill="#F5F5F5"/>
<path d="M103.736 27.7922L103.828 28.0669L104.117 28.0691C104.155 28.0694 104.17 28.1172 104.14 28.1395L103.907 28.3115L103.995 28.5875C104.006 28.6233 103.965 28.6529 103.935 28.631L103.699 28.4627L103.464 28.631C103.433 28.6528 103.392 28.6233 103.404 28.5875L103.491 28.3115L103.258 28.1395C103.228 28.1172 103.243 28.0694 103.281 28.0691L103.571 28.0669L103.662 27.7922C103.674 27.7566 103.724 27.7566 103.736 27.7922Z" fill="#F5F5F5"/>
<path d="M103.736 29.2291L103.828 29.5038L104.117 29.506C104.155 29.5063 104.17 29.5541 104.14 29.5764L103.907 29.7484L103.995 30.0244C104.006 30.0602 103.965 30.0898 103.935 30.0679L103.699 29.8996L103.464 30.0679C103.433 30.0897 103.392 30.0602 103.404 30.0244L103.491 29.7484L103.258 29.5764C103.228 29.5541 103.243 29.5063 103.281 29.506L103.571 29.5038L103.662 29.2291C103.674 29.1935 103.724 29.1935 103.736 29.2291Z" fill="#F5F5F5"/>
<path d="M103.736 30.6662L103.828 30.9409L104.117 30.9431C104.155 30.9434 104.17 30.9912 104.14 31.0135L103.907 31.1855L103.995 31.4615C104.006 31.4973 103.965 31.5269 103.935 31.505L103.699 31.3367L103.464 31.505C103.433 31.5268 103.392 31.4973 103.404 31.4615L103.491 31.1855L103.258 31.0135C103.228 30.9911 103.243 30.9434 103.281 30.9431L103.571 30.9409L103.662 30.6662C103.674 30.6306 103.724 30.6306 103.736 30.6662Z" fill="#F5F5F5"/>
<path d="M103.736 32.103L103.828 32.3777L104.117 32.3799C104.155 32.3803 104.17 32.4281 104.14 32.4503L103.907 32.6224L103.995 32.8984C104.006 32.9341 103.965 32.9638 103.935 32.9419L103.699 32.7735L103.464 32.9419C103.433 32.9637 103.392 32.9341 103.404 32.8984L103.491 32.6224L103.258 32.4503C103.228 32.428 103.243 32.3803 103.281 32.3799L103.571 32.3777L103.662 32.103C103.674 32.0675 103.724 32.0675 103.736 32.103Z" fill="#F5F5F5"/>
<path d="M104.853 27.0877L104.945 27.3624L105.234 27.3646C105.272 27.3649 105.287 27.4127 105.257 27.435L105.024 27.607L105.112 27.8831C105.123 27.9188 105.082 27.9484 105.052 27.9266L104.816 27.7582L104.581 27.9266C104.55 27.9484 104.51 27.9188 104.521 27.8831L104.608 27.607L104.375 27.435C104.345 27.4127 104.361 27.3649 104.398 27.3646L104.688 27.3624L104.779 27.0877C104.791 27.0521 104.841 27.0521 104.853 27.0877Z" fill="#F5F5F5"/>
<path d="M104.853 28.5246L104.945 28.7993L105.234 28.8015C105.272 28.8018 105.287 28.8496 105.257 28.8719L105.024 29.0439L105.112 29.32C105.123 29.3557 105.082 29.3853 105.052 29.3635L104.816 29.1951L104.581 29.3635C104.55 29.3853 104.51 29.3557 104.521 29.32L104.608 29.0439L104.375 28.8719C104.345 28.8496 104.361 28.8018 104.398 28.8015L104.688 28.7993L104.779 28.5246C104.791 28.4891 104.841 28.4891 104.853 28.5246Z" fill="#F5F5F5"/>
<path d="M104.853 29.9614L104.945 30.2361L105.234 30.2383C105.272 30.2387 105.287 30.2865 105.257 30.3087L105.024 30.4808L105.112 30.7568C105.123 30.7925 105.082 30.8222 105.052 30.8003L104.816 30.6319L104.581 30.8003C104.55 30.8221 104.51 30.7925 104.521 30.7568L104.608 30.4808L104.375 30.3087C104.345 30.2864 104.361 30.2387 104.398 30.2383L104.688 30.2361L104.779 29.9614C104.791 29.9259 104.841 29.9259 104.853 29.9614Z" fill="#F5F5F5"/>
<path d="M104.853 31.3986L104.945 31.6733L105.234 31.6755C105.272 31.6758 105.287 31.7236 105.257 31.7459L105.024 31.9179L105.112 32.194C105.123 32.2297 105.082 32.2593 105.052 32.2375L104.816 32.0691L104.581 32.2375C104.55 32.2593 104.51 32.2297 104.521 32.194L104.608 31.9179L104.375 31.7459C104.345 31.7236 104.361 31.6758 104.398 31.6755L104.688 31.6733L104.779 31.3986C104.791 31.363 104.841 31.363 104.853 31.3986Z" fill="#F5F5F5"/>
<path d="M104.853 32.8354L104.945 33.1101L105.234 33.1123C105.272 33.1126 105.287 33.1604 105.257 33.1827L105.024 33.3547L105.112 33.6308C105.123 33.6665 105.082 33.6961 105.052 33.6743L104.816 33.5059L104.581 33.6743C104.55 33.6961 104.51 33.6665 104.521 33.6308L104.608 33.3547L104.375 33.1827C104.345 33.1604 104.361 33.1126 104.398 33.1123L104.688 33.1101L104.779 32.8354C104.791 32.7998 104.841 32.7998 104.853 32.8354Z" fill="#F5F5F5"/>
<path d="M105.97 27.7922L106.062 28.0669L106.352 28.0691C106.389 28.0694 106.405 28.1172 106.374 28.1395L106.142 28.3115L106.229 28.5875C106.24 28.6233 106.2 28.6529 106.169 28.631L105.933 28.4627L105.698 28.631C105.667 28.6528 105.627 28.6233 105.638 28.5875L105.725 28.3115L105.492 28.1395C105.462 28.1172 105.478 28.0694 105.515 28.0691L105.805 28.0669L105.896 27.7922C105.908 27.7566 105.959 27.7566 105.97 27.7922Z" fill="#F5F5F5"/>
<path d="M105.97 29.2291L106.062 29.5038L106.352 29.506C106.389 29.5063 106.405 29.5541 106.374 29.5764L106.142 29.7484L106.229 30.0244C106.24 30.0602 106.2 30.0898 106.169 30.0679L105.933 29.8996L105.698 30.0679C105.667 30.0897 105.627 30.0602 105.638 30.0244L105.725 29.7484L105.492 29.5764C105.462 29.5541 105.478 29.5063 105.515 29.506L105.805 29.5038L105.896 29.2291C105.908 29.1935 105.959 29.1935 105.97 29.2291Z" fill="#F5F5F5"/>
<path d="M105.97 30.6662L106.062 30.9409L106.352 30.9431C106.389 30.9434 106.405 30.9912 106.374 31.0135L106.142 31.1855L106.229 31.4615C106.24 31.4973 106.2 31.5269 106.169 31.505L105.933 31.3367L105.698 31.505C105.667 31.5268 105.627 31.4973 105.638 31.4615L105.725 31.1855L105.492 31.0135C105.462 30.9911 105.478 30.9434 105.515 30.9431L105.805 30.9409L105.896 30.6662C105.908 30.6306 105.959 30.6306 105.97 30.6662Z" fill="#F5F5F5"/>
<path d="M105.97 32.103L106.062 32.3777L106.352 32.3799C106.389 32.3803 106.405 32.4281 106.374 32.4503L106.142 32.6224L106.229 32.8984C106.24 32.9341 106.2 32.9638 106.169 32.9419L105.933 32.7735L105.698 32.9419C105.667 32.9637 105.627 32.9341 105.638 32.8984L105.725 32.6224L105.492 32.4503C105.462 32.428 105.478 32.3803 105.515 32.3799L105.805 32.3777L105.896 32.103C105.908 32.0675 105.959 32.0675 105.97 32.103Z" fill="#F5F5F5"/>
<path d="M107.084 27.0877L107.175 27.3624L107.465 27.3646C107.502 27.3649 107.518 27.4127 107.488 27.435L107.255 27.607L107.342 27.8831C107.354 27.9188 107.313 27.9484 107.282 27.9266L107.047 27.7582L106.811 27.9266C106.781 27.9484 106.74 27.9188 106.751 27.8831L106.839 27.607L106.606 27.435C106.576 27.4127 106.591 27.3649 106.629 27.3646L106.918 27.3624L107.01 27.0877C107.022 27.0521 107.072 27.0521 107.084 27.0877Z" fill="#F5F5F5"/>
<path d="M107.084 28.5246L107.175 28.7993L107.465 28.8015C107.502 28.8018 107.518 28.8496 107.488 28.8719L107.255 29.0439L107.342 29.32C107.354 29.3557 107.313 29.3853 107.282 29.3635L107.047 29.1951L106.811 29.3635C106.781 29.3853 106.74 29.3557 106.751 29.32L106.839 29.0439L106.606 28.8719C106.576 28.8496 106.591 28.8018 106.629 28.8015L106.918 28.7993L107.01 28.5246C107.022 28.4891 107.072 28.4891 107.084 28.5246Z" fill="#F5F5F5"/>
<path d="M107.084 29.9614L107.175 30.2361L107.465 30.2383C107.502 30.2387 107.518 30.2865 107.488 30.3087L107.255 30.4808L107.342 30.7568C107.354 30.7925 107.313 30.8222 107.282 30.8003L107.047 30.6319L106.811 30.8003C106.781 30.8221 106.74 30.7925 106.751 30.7568L106.839 30.4808L106.606 30.3087C106.576 30.2864 106.591 30.2387 106.629 30.2383L106.918 30.2361L107.01 29.9614C107.022 29.9259 107.072 29.9259 107.084 29.9614Z" fill="#F5F5F5"/>
<path d="M107.084 31.3986L107.175 31.6733L107.465 31.6755C107.502 31.6758 107.518 31.7236 107.488 31.7459L107.255 31.9179L107.342 32.194C107.354 32.2297 107.313 32.2593 107.282 32.2375L107.047 32.0691L106.811 32.2375C106.781 32.2593 106.74 32.2297 106.751 32.194L106.839 31.9179L106.606 31.7459C106.576 31.7236 106.591 31.6758 106.629 31.6755L106.918 31.6733L107.01 31.3986C107.022 31.363 107.072 31.363 107.084 31.3986Z" fill="#F5F5F5"/>
<path d="M107.084 32.8354L107.175 33.1101L107.465 33.1123C107.502 33.1126 107.518 33.1604 107.488 33.1827L107.255 33.3547L107.342 33.6308C107.354 33.6665 107.313 33.6961 107.282 33.6743L107.047 33.5059L106.811 33.6743C106.781 33.6961 106.74 33.6665 106.751 33.6308L106.839 33.3547L106.606 33.1827C106.576 33.1604 106.591 33.1126 106.629 33.1123L106.918 33.1101L107.01 32.8354C107.022 32.7998 107.072 32.7998 107.084 32.8354Z" fill="#F5F5F5"/>
<path d="M260.55 44.84H252.87V37.16H246.15V44.84H238.47V51.56H246.15V59.24H252.87V51.56H260.55V44.84Z" fill="black"/>
</svg>
